-0.0239065
-0.0385967
0.0269263
0.0489408
0.0413279
0.0407971
0.028939
0.0154042
0.00842456
0.00298881
-0.0222153
-0.0297631
-0.044015
-0.031401
-0.0525038
-0.0240272
-0.0293285
-0.0343811
-0.0568532
-0.0593328
-0.0230672
0.0443804
0.0276216
0.0291329
0.0285006
0.0420805
0.0589374
0.0465609
0.056282
0.0626201
0.0622196
0.0319695
0.00981618
-0.0242519
-0.0211572
-0.0270028
-0.0281936
-0.0323956
-0.0605064
-0.0602565
-0.069861
-0.0805924
-0.083972
-0.0503489
0.0103041
0.0494491
0.0371403
0.012741
0.0309945
0.0383087
0.0336577
0.0415487
0.0355519
0.0378569
0.0127244
0.00569085
-0.0018877
0.00363634
-0.00574122
0.0287312
0.0264962
0.0128686
0.0152469
-0.0150782
-0.0272697
-0.0406239
-0.0495507
-0.068515
-0.0609517
-0.0727947
0.0331956
0.0393275
0.0444316
0.0594355
0.0331809
0.0367131
0.0513882
0.0540705
0.0344762
0.0230106
0.013154
0.00115801
-0.0075716
-0.0308318
-0.000990379
0.0110836
-0.0279554
-0.045316
-0.0629647
-0.0444524
-0.0530064
-0.0631936
-0.0609507
-0.0439694
-0.0181724
-0.0156666
0.0563371
0.0956654
0.0635461
0.0283924
