-20.697565104166667
-22.738528645833334
-91.17389322916667
-234.8189453125
-250.5396875
-175.86927083333333
-66.52946614583334
-61.68904947916667
-54.94229166666667
-48.1741015625
-42.26611979166667
-49.075520833333336
-45.484791666666666
-38.706328125
-36.030338541666666
-33.830768229166665
-33.90609375
-33.718020833333334
-33.137708333333336
-33.53795572916667
-33.73001302083333
-34.02592447916667
-34.34317708333333
-34.4019921875
-34.4437890625
-34.34622395833333
-34.27477864583334
-34.219661458333334
-34.164622395833334
-34.11444010416667
-34.030611979166665
-33.9725
-33.9288671875
-33.872486979166666
-34.077161458333336
-34.133776041666664
-34.05216145833333
-34.00208333333333
-34.04390625
-34.140703125
-34.240872395833335
-34.309817708333334
-34.398502604166666
-34.34192708333333
-34.38522135416667
-34.28765625
-34.2155859375
-34.15446614583333
-34.100963541666665
-34.07671875
-34.01809895833333
-33.970950520833334
-33.930729166666666
-34.1647265625
-34.247109375
-34.3443359375
-34.445026041666665
-34.391640625
-34.352825520833335
-34.31790364583333
-34.30463541666666
-34.161106770833335
-33.9433203125
-33.8521875
-33.8224609375
-34.08717447916667
-34.3566015625
-34.46401041666667
-34.57919270833333
-34.51588541666667
-34.45747395833333
-34.39791666666667
-34.35049479166667
-34.319348958333336
-34.29553385416666
-34.277669270833336
-34.254544270833335
-34.246106770833336
-34.21634114583333
-34.171276041666665
-34.123684895833335
-34.1090234375
-34.082057291666665
-34.07075520833333
-34.057057291666666
-33.979244791666666
-34.10497395833333
-34.14498697916667
-34.26438802083333
-34.40962239583333
-34.55708333333333
-34.54154947916667
-34.536809895833336
-34.50026041666667
-34.45134114583333
-34.40213541666667
-34.372669270833335
-34.351002604166666
-34.3459765625
-34.326953125
-34.31555989583333
-34.2791015625
-34.27265625
-34.2698046875
-34.24364583333333
-34.2062109375
-34.19407552083333
-34.183268229166664
-34.1452734375
-33.99799479166666
-33.86697916666667
-33.82694010416667
-34.12819010416667
-34.570638020833336
-34.8340625
-34.895208333333336
-34.795481770833334
-34.608111979166665
-34.086627604166665
-34.05544270833333
-34.62109375
-34.693059895833336
-34.792018229166665
-34.787669270833334
-34.63321614583333
-34.5116015625
-34.485703125
-34.443372395833336
-34.3988671875
-34.258098958333335
-34.14462239583333
-34.1176953125
-34.146796875
-34.14114583333333
-34.071614583333336
-34.020260416666666
-33.979518229166665
-33.97131510416666
-34.27458333333333
-34.510677083333334
-34.4963671875
-34.4855859375
-34.47154947916667
-34.476315104166666
-34.468190104166666
-34.343203125
-34.233151041666666
-34.2061328125
-34.20959635416666
-34.22515625
-34.235950520833335
-34.24463541666667
-34.21471354166667
-34.200260416666666
-34.17529947916667
-34.1731640625
-34.16326822916667
-34.175091145833335
-34.15967447916667
-34.1500390625
-34.14639322916667
-34.138072916666665
-34.1008984375
-34.08994791666667
-34.078372395833334
-34.04899739583333
-33.99434895833333
-33.86016927083333
-33.7555078125
-33.74583333333333
-33.99157552083334
-34.24001302083333
-34.32125
-34.47794270833333
-34.45528645833333
-34.4064453125
-34.37486979166667
-34.34450520833333
-34.34131510416667
-34.332018229166664
-34.319895833333334
-34.31430989583333
-34.3128125
-34.29317708333333
-34.295299479166665
-34.282161458333334
-34.187421875
-34.0776953125
-34.049114583333335
-34.06235677083333
-34.07897135416667
-34.11338541666667
-34.0759375
-34.017591145833336
-34.00209635416667
-34.015872395833334
-34.34549479166667
-34.42984375
-34.5980078125
-34.60169270833333
-34.571171875
-34.36381510416667
-34.391263020833335
-34.411692708333334
-34.43149739583333
-34.41979166666667
-34.409778645833335
-34.38231770833333
-34.4083984375
-34.42200520833333
-34.44765625
-34.457317708333335
-34.466119791666664
-34.4801171875
-34.48575520833333
-34.4485546875
-34.337825520833334
-34.29341145833333
-34.309856770833335
-34.335559895833335
-34.36372395833333
-34.368515625
-34.38885416666667
-34.37872395833333
-34.37782552083333
-34.37552083333333
-34.4128515625
-34.455078125
-34.475703125
-34.48740885416667
-34.504192708333335
-34.49701822916666
-34.50053385416667
-34.520169270833335
-34.448658854166666
-34.35466145833333
-34.32998697916667
-34.36416666666667
-34.39766927083333
-34.40970052083333
-34.42618489583333
-34.44645833333333
-34.45420572916667
-34.45071614583333
-34.48037760416667
-34.566640625
-34.59290364583333
-34.62381510416667
-34.63046875
-34.634830729166666
-34.64734375
-34.6533984375
-34.67680989583334
-34.6822265625
-34.65563802083334
-34.5501171875
-34.5059765625
-34.53013020833333
-34.573528645833335
-34.5809375
-34.608372395833335
-34.612994791666665
-34.65994791666667
-34.69477864583333
-34.711223958333335
-34.74489583333333
-34.75630208333333
-34.78365885416667
-34.8132421875
-34.83598958333334
-34.66885416666667
-34.659596354166666
-34.692721354166665
-34.706731770833336
-34.70619791666667
-34.696536458333334
-34.68380208333333
-34.703684895833334
-34.72326822916666
-34.73376302083334
-34.73641927083333
-34.7280859375
-34.7266015625
-34.72450520833333
-34.7333984375
-34.75385416666666
-34.698971354166666
-34.612604166666664
-34.58776041666667
-34.64005208333333
-34.64684895833334
-34.65177083333333
-34.624309895833335
-34.5959375
-34.606106770833335
-34.6136328125
-34.62610677083333
-34.627994791666666
-34.637109375
-34.64901041666667
-34.65419270833333
-34.65516927083333
-34.64529947916667
-34.643216145833335
-34.65869791666667
-34.67328125
-34.6196875
-34.51717447916667
-34.492200520833336
-34.5390234375
-34.56986979166667
-34.593059895833335
-34.60587239583333
-34.57989583333333
-34.574244791666665
-34.5587109375
-34.588854166666664
-34.61641927083333
-34.617747395833334
-34.633111979166664
-34.65197916666666
-34.65317708333333
-34.656940104166665
-34.66104166666667
-34.66688802083333
-34.66915364583333
-34.68927083333333
-34.65731770833333
-34.540716145833336
-34.50475260416667
-34.53609375
-34.566119791666665
-34.57932291666667
-34.58088541666667
-34.57734375
-34.58122395833333
-34.573203125
-34.571588541666664
-34.588984375
-34.599231770833335
-34.61111979166667
-34.625703125
-34.641640625
-34.660846354166665
-34.679361979166664
-34.688046875
-34.69131510416667
-34.67639322916666
-34.69131510416667
-34.70907552083333
-34.68709635416667
-34.573528645833335
-34.52236979166667
-34.5300390625
-34.566640625
-34.57536458333333
-34.589153645833335
-34.5982421875
-34.60552083333334
-34.6026171875
-34.6000390625
-34.59557291666667
-34.62196614583333
-34.631497395833335
-34.648424479166664
-34.67236979166667
-34.688463541666664
-34.7022265625
-34.705768229166665
-34.7034375
-34.72415364583333
-34.72536458333333
-34.73765625
-34.7435546875
-34.754140625
-34.70880208333333
-34.60010416666667
-34.5601953125
-34.576497395833336
-34.604830729166665
-34.635625
-34.6414453125
-34.662395833333335
-34.6821875
-34.666966145833335
-34.653658854166665
-34.67337239583333
-34.688046875
-34.715572916666666
-34.74645833333334
-34.76833333333333
-34.778958333333335
-34.793346354166665
-34.794361979166666
-34.81821614583333
-34.824244791666665
-34.84938802083333
-34.843776041666665
-34.86309895833333
-34.87166666666667
-34.8058984375
-34.7002734375
-34.652682291666665
-34.67861979166667
-34.73787760416667
-34.74569010416667
-34.7437109375
-34.70947916666667
-34.69446614583333
-34.70204427083333
-34.741875
-34.753606770833336
-34.75305989583333
-34.75705729166667
-34.75078125
-34.74755208333333
-34.739505208333334
-34.770794270833335
-34.758372395833334
-34.649713541666664
-34.5734765625
-34.593359375
-34.619114583333335
-34.6463671875
-34.65932291666667
-34.667109375
-34.65638020833333
-34.63658854166667
-34.623776041666666
-34.62203125
-34.62397135416666
-34.634114583333336
-34.65194010416667
-34.66915364583333
-34.688138020833335
-34.69092447916667
-34.683567708333335
-34.68079427083333
-34.68735677083333
-34.68049479166667
-34.60147135416667
-34.4995703125
-34.466471354166664
-34.50673177083333
-34.55252604166667
-34.568333333333335
-34.57993489583333
-34.59385416666667
-34.58407552083333
-34.564830729166665
-34.550481770833336
-34.564453125
-34.587890625
-34.605546875
-34.627916666666664
-34.6534765625
-34.65678385416667
-34.65803385416667
-34.6474609375
-34.6573828125
-34.67684895833333
-34.653736979166666
-34.5262890625
-34.46114583333333
-34.467395833333335
-34.509427083333335
-34.530559895833335
-34.54204427083334
-34.54399739583334
-34.546197916666664
-34.53053385416667
-34.514934895833335
-34.524375
-34.542109375
-34.5823046875
-34.602604166666666
-34.62587239583333
-34.63783854166667
-34.64595052083333
-34.648151041666665
-34.66360677083333
-34.66770833333333
-34.67720052083333
-34.4730859375
-34.47110677083333
-34.50436197916667
-34.52
-34.52197916666667
-34.509466145833336
-34.506536458333336
-34.52184895833334
-34.573919270833336
-34.6235546875
-34.645390625
-34.65774739583333
-34.66486979166667
-34.678151041666666
-34.69026041666667
-34.705065104166664
-34.48859375
-34.51553385416667
-34.53115885416667
-34.5412890625
-34.55069010416667
-34.5453515625
-34.55748697916667
-34.61080729166667
-34.62938802083333
-34.652669270833336
-34.67533854166667
-34.69944010416667
-34.71236979166667
-34.72630208333333
-34.73908854166667
-34.755130208333334
-34.76135416666666
-34.78510416666666
-34.8050390625
-34.73313802083333
-34.60342447916667
-34.552434895833336
-34.5898828125
-34.631328125
-34.63826822916667
-34.644244791666665
-34.64674479166667
-34.637447916666666
-34.614270833333336
-34.61888020833333
-34.62180989583333
-34.6340625
-34.664791666666666
-34.6816015625
-34.68545572916667
-34.70388020833333
-34.72075520833334
-34.72598958333333
-34.724856770833334
-34.7359765625
-34.74578125
-34.752200520833334
-34.7659765625
-34.7498046875
-34.61985677083333
-34.53009114583333
-34.53276041666667
-34.58220052083333
-34.59684895833333
-34.612864583333334
-34.6240625
-34.61856770833333
-34.59078125
-34.589505208333335
-34.58794270833334
-34.60626302083333
-34.62739583333333
-34.636744791666665
-34.646158854166664
-34.648411458333335
-34.6504296875
-34.658763020833334
-34.65701822916667
-34.67298177083333
-34.67204427083333
-34.681927083333335
-34.594739583333336
-34.470950520833334
-34.4518359375
-34.48842447916667
-34.522578125
-34.549375
-34.57467447916667
-34.57221354166666
-34.563515625
-34.53494791666667
-34.539921875
-34.56259114583333
-34.583307291666664
-34.59694010416667
-34.620846354166666
-34.6372265625
-34.65212239583333
-34.66565104166666
-34.66979166666667
-34.6778125
-34.69450520833333
-34.70588541666667
-34.672734375
-34.546848958333335
-34.47078125
-34.4859375
-34.537109375
-34.55618489583333
-34.56752604166667
-34.5730859375
-34.582018229166664
-34.5751953125
-34.54993489583333
-34.56259114583333
-34.5928515625
-34.60240885416667
-34.6212109375
-34.63091145833334
-34.648502604166666
-34.663385416666664
-34.6765234375
-34.692890625
-34.693515625
-34.702747395833335
-34.7211328125
-34.74923177083333
-34.70106770833333
-34.5546484375
-34.4879296875
-34.51153645833333
-34.545481770833334
-34.56919270833333
-34.57276041666667
-34.584544270833334
-34.5833984375
-34.57013020833333
-34.5707421875
-34.581119791666666
-34.594401041666664
-34.627330729166665
-34.653645833333336
-34.66903645833333
-34.68127604166666
-34.70467447916667
-34.71520833333334
-34.718125
-34.73694010416666
-34.76815104166667
-34.776041666666664
-34.81135416666667
-34.813723958333334
-34.721875
-34.614296875
-34.58243489583333
-34.61998697916667
-34.655247395833335
-34.678333333333335
-34.68153645833333
-34.69346354166667
-34.69053385416667
-34.695078125
-34.6969921875
-34.7175390625
-34.728984375
-34.75380208333333
-34.76868489583333
-34.7851171875
-34.7996484375
-34.81067708333333
-34.80983072916667
-34.8089453125
-34.81428385416667
-34.8107421875
-34.823984375
-34.8401953125
-34.84641927083333
-34.76419270833333
-34.652721354166665
-34.63588541666667
-34.65860677083333
-34.69940104166667
-34.720859375
-34.72317708333333
-34.720768229166666
-34.711184895833334
-34.704401041666664
-34.685481770833334
-34.692760416666665
-34.715390625
-34.74911458333333
-34.753619791666665
-34.759752604166664
-34.76162760416667
-34.771497395833336
-34.76109375
-34.750390625
-34.75899739583333
-34.776705729166665
-34.7559375
-34.659518229166665
-34.57666666666667
-34.572200520833334
-34.612734375
-34.65046875
-34.658984375
-34.6706640625
-34.67665364583333
-34.66078125
-34.6434375
-34.64088541666667
-34.66358072916667
-34.6741796875
-34.699895833333336
-34.72377604166667
-34.73028645833333
-34.74557291666667
-34.75083333333333
-34.760442708333336
-34.7783984375
-34.7919921875
-34.78768229166667
-34.68322916666666
-34.580716145833335
-34.579791666666665
-34.616953125
-34.663763020833336
-34.6919921875
-34.68984375
-34.680690104166665
-34.6747265625
-34.67303385416667
-34.663828125
-34.68578125
-34.70938802083333
-34.71494791666667
-34.732578125
-34.74
-34.74697916666667
-34.75088541666667
-34.75528645833333
-34.74084635416666
-34.76029947916667
-34.77889322916667
-34.77744791666667
-34.6596875
-34.548815104166664
-34.53208333333333
-34.561536458333336
-34.601953125
-34.6158984375
-34.614609375
-34.612369791666666
-34.59955729166666
-34.587591145833336
-34.5826953125
-34.600924479166665
-34.62514322916667
-34.6389453125
-34.65598958333333
-34.673815104166664
-34.694635416666664
-34.6888671875
-34.69811197916667
-34.711223958333335
-34.709296875
-34.72572916666667
-34.74880208333333
-34.78140625
-34.78174479166667
-34.738932291666664
-34.60006510416667
-34.54927083333333
-34.59756510416667
-34.6362890625
-34.65588541666666
-34.66032552083333
-34.6756640625
-34.682994791666665
-34.67751302083333
-34.702213541666666
-34.72595052083334
-34.755546875
-34.77791666666667
-34.79626302083334
-34.809908854166665
-34.82502604166667
-34.841119791666664
-34.8482421875
-34.879895833333336
-34.894765625
-34.913984375
-34.940091145833335
-34.7214453125
-34.49013020833333
-34.33475260416667
-34.206380208333336
-34.17151041666666
-34.218359375
-34.27046875
-34.307330729166665
-34.29040364583334
-34.321666666666665
-34.304713541666665
-34.299114583333335
-34.30752604166667
-34.3326953125
-34.362630208333336
-34.386328125
-34.413059895833335
-34.42946614583333
-34.450924479166666
-34.453723958333335
-34.45755208333333
-34.4559375
-34.46404947916667
-34.485768229166666
-34.501041666666666
-34.517421875
-34.52266927083333
-34.515338541666665
-34.472018229166665
-34.35799479166667
-34.29697916666667
-34.326236979166666
-34.3703515625
-34.3923046875
-34.42
-34.432317708333336
-34.41809895833333
-34.4048828125
-34.389622395833335
-34.399752604166665
-34.416393229166665
-34.43399739583333
-34.45126302083333
-34.46859375
-34.4723046875
-34.47252604166667
-34.4830078125
-34.48149739583334
-34.486888020833334
-34.49954427083333
-34.52130208333333
-34.52303385416667
-34.43858072916667
-34.319609375
-34.29959635416667
-34.3359375
-34.36833333333333
-34.3968359375
-34.40864583333333
-34.42196614583333
-34.40712239583333
-34.377421875
-34.3675
-34.372408854166665
-34.39368489583333
-34.40908854166667
-34.42111979166667
-34.4386328125
-34.42432291666667
-34.42208333333333
-34.42403645833333
-34.43118489583333
-34.43895833333333
-34.435703125
-34.3406640625
-34.2494921875
-34.25868489583333
-34.294947916666665
-34.334895833333334
-34.34868489583334
-34.374036458333336
-34.37157552083333
-34.358125
-34.342447916666664
-34.37100260416667
-34.4030078125
-34.42817708333333
-34.448880208333335
-34.4862109375
-34.509205729166666
-34.52631510416666
-34.5293359375
-34.54022135416667
-34.5543359375
-34.55938802083333
-34.579765625
-34.391953125
-34.35670572916667
-34.40265625
-34.4373046875
-34.4690625
-34.464817708333335
-34.448671875
-34.464192708333336
-34.52229166666667
-34.57822916666667
-34.599856770833334
-34.62557291666667
-34.67670572916666
-34.683984375
-34.44813802083333
-34.45782552083333
-34.49015625
-34.544361979166666
-34.539479166666666
-34.525703125
-34.5358203125
-34.53201822916667
-34.55260416666667
-34.60493489583333
-34.63236979166667
-34.665989583333335
-34.66158854166667
-34.67559895833333
-34.70717447916667
-34.705729166666664
-34.7446875
-34.58118489583333
-34.483059895833335
-34.444752604166666
-34.489921875
-34.539127604166666
-34.55286458333333
-34.55483072916667
-34.51907552083333
-34.48920572916666
-34.4783203125
-34.508229166666666
-34.5105078125
-34.52486979166667
-34.546315104166666
-34.55647135416667
-34.56040364583333
-34.588828125
-34.57763020833333
-34.580729166666664
-34.614270833333336
-34.617526041666665
-34.5850390625
-34.529270833333335
-34.433294270833336
-34.391015625
-34.437734375
-34.479075520833334
-34.486575520833334
-34.49852864583333
-34.496653645833334
-34.46350260416666
-34.440104166666664
-34.45236979166667
-34.4703515625
-34.47346354166667
-34.501315104166665
-34.52890625
-34.53266927083333
-34.54154947916667
-34.547552083333336
-34.56161458333333
-34.58479166666667
-34.592044270833334
-34.5323046875
-34.425846354166666
-34.38990885416667
-34.4355859375
-34.465481770833335
-34.487604166666664
-34.507877604166666
-34.492265625
-34.47805989583333
-34.459674479166665
-34.465130208333335
-34.47208333333333
-34.50200520833334
-34.520182291666664
-34.534153645833335
-34.545611979166665
-34.546809895833334
-34.546549479166664
-34.55032552083333
-34.56618489583333
-34.565078125
-34.50385416666666
-34.391588541666664
-34.34489583333333
-34.38264322916667
-34.406627604166665
-34.408802083333335
-34.40994791666667
-34.39763020833333
-34.388658854166664
-34.369479166666665
-34.36859375
-34.388658854166664
-34.401614583333334
-34.4008203125
-34.421015625
-34.428997395833335
-34.451106770833334
-34.447421875
-34.436145833333335
-34.449895833333336
-34.462291666666665
-34.474934895833336
-34.4530859375
-34.364934895833336
-34.26696614583334
-34.26354166666667
-34.299765625
-34.320950520833335
-34.328372395833334
-34.3344140625
-34.33278645833333
-34.32928385416667
-34.32272135416667
-34.318671875
-34.327122395833335
-34.3579296875
-34.369427083333335
-34.3943359375
-34.4241015625
-34.422213541666665
-34.41938802083333
-34.4268359375
-34.4303515625
-34.4372265625
-34.459635416666664
-34.46838541666666
-34.4678515625
-34.379596354166665
-34.27752604166667
-34.26869791666667
-34.3162890625
-34.33048177083333
-34.3472265625
-34.344088541666665
-34.33932291666667
-34.330065104166664
-34.319934895833335
-34.30700520833334
-34.33216145833333
-34.3658984375
-34.38467447916667
-34.394856770833336
-34.4157421875
-34.421940104166666
-34.41486979166667
-34.409166666666664
-34.40954427083334
-34.43600260416667
-34.45205729166667
-34.46569010416667
-34.504583333333336
-34.51984375
-34.480442708333335
-34.37268229166666
-34.306953125
-34.31493489583333
-34.37606770833333
-34.39248697916667
-34.39369791666667
-34.40708333333333
-34.4120703125
-34.38951822916667
-34.3851953125
-34.39600260416667
-34.417057291666666
-34.439739583333335
-34.481028645833334
-34.49404947916667
-34.5012890625
-34.519140625
-34.531328125
-34.530234375
-34.537669270833334
-34.56032552083333
-34.56454427083333
-34.58087239583333
-34.59161458333333
-34.62145833333334
-34.55947916666667
-34.455416666666665
-34.42204427083333
-34.44356770833333
-34.480533854166666
-34.4902734375
-34.498020833333335
-34.49173177083333
-34.462291666666665
-34.444140625
-34.436510416666664
-34.43462239583334
-34.4402734375
-34.433828125
-34.4485546875
-34.443776041666666
-34.423828125
-34.42069010416667
-34.40516927083333
-34.40671875
-34.414388020833336
-34.413385416666664
-34.30938802083333
-34.224322916666665
-34.20625
-34.237291666666664
-34.26016927083333
-34.26947916666666
-34.27485677083333
-34.271497395833336
-34.253671875
-34.22157552083333
-34.202109375
-34.20791666666667
-34.20760416666667
-34.22544270833333
-34.2209375
-34.22518229166667
-34.21010416666667
-34.22619791666666
-34.19634114583334
-34.08765625
-34.00546875
-34.04162760416666
-34.05658854166666
-34.068020833333335
-34.07244791666667
-34.05580729166667
-34.03063802083334
-34.036471354166665
-34.0701171875
-34.089596354166666
-34.08766927083333
-34.09885416666667
-34.089609375
-34.096302083333335
-34.109609375
-34.06552083333333
-33.946328125
-33.879635416666666
-33.90368489583334
-33.94515625
-33.9604296875
-33.957447916666666
-33.95321614583333
-33.96338541666667
-33.95390625
-33.947291666666665
-33.966380208333334
-33.98442708333334
-34.007109375
-34.031549479166664
-34.03791666666667
-34.04194010416666
-34.0496484375
-34.04635416666667
-34.057265625
-34.0678125
-34.04384114583333
-33.93079427083333
-33.84477864583334
-33.85670572916667
-33.88111979166667
-33.935078125
-33.951901041666666
-33.9510546875
-33.97013020833333
-33.9734375
-33.95725260416667
-33.958385416666665
-33.974231770833335
-34.00203125
-34.0303125
-34.0509765625
-34.057578125
-34.06111979166667
-34.069296875
-34.08131510416667
-34.093776041666665
-34.12184895833333
-34.146236979166666
-34.1471484375
-34.056080729166666
-33.96403645833333
-33.98190104166667
-34.021184895833336
-34.05114583333334
-34.0669140625
-34.085338541666665
-34.07217447916667
-34.06235677083333
-34.06953125
-34.128255208333336
-34.15028645833333
-34.170651041666666
-34.19328125
-34.186549479166665
-34.20095052083333
-34.229153645833335
-34.2334765625
-34.14473958333333
-34.03953125
-34.0115234375
-34.04541666666667
-34.08438802083333
-34.095390625
-34.10399739583333
-34.09979166666667
-34.08002604166666
-34.047174479166664
-34.03381510416666
-34.06388020833333
-34.07442708333333
-34.090755208333334
-34.10923177083333
-34.1140234375
-34.11779947916666
-34.101184895833335
-34.0923046875
-34.1052734375
-34.101549479166664
-34.12123697916667
-34.0694921875
-33.94819010416666
-33.92860677083333
-33.960924479166664
-33.9858203125
-34.0101953125
-34.04322916666667
-34.04790364583334
-34.04359375
-34.027981770833335
-34.0316796875
-34.04927083333333
-34.059192708333335
-34.09627604166667
-34.109661458333335
-34.124361979166665
-34.1220703125
-34.13334635416667
-34.13985677083333
-34.16354166666667
-34.18186197916667
-34.164440104166665
-34.072513020833334
-34.00390625
-34.00578125
-34.064166666666665
-34.0926953125
-34.09997395833334
-34.118190104166665
-34.1083203125
-34.10736979166666
-34.0890234375
-34.1044140625
-34.12766927083333
-34.15013020833333
-34.173841145833336
-34.19029947916667
-34.20984375
-34.209453125
-34.21541666666667
-34.219661458333334
-34.26665364583334
-34.26736979166667
-34.19229166666667
-34.0394140625
-34.06359375
-34.122421875
-34.134830729166666
-34.1362109375
-34.12544270833333
-34.14861979166667
-34.18739583333333
-34.23765625
-34.2562890625
-34.276432291666666
-34.31369791666667
-34.318776041666666
-34.20240885416667
-34.104296875
-34.154453125
-34.20529947916667
-34.24036458333333
-34.2243359375
-34.22567708333333
-34.26079427083334
-34.2857421875
-34.29740885416667
-34.32407552083333
-34.3362890625
-34.355052083333334
-34.35888020833333
-34.36682291666666
-34.37087239583333
-34.39134114583333
-34.41001302083333
-34.287174479166666
-34.16877604166667
-34.168619791666664
-34.207057291666665
-34.223828125
-34.240833333333335
-34.255625
-34.2498046875
-34.2264453125
-34.20916666666667
-34.20046875
-34.22665364583333
-34.24680989583333
-34.25272135416667
-34.25596354166667
-34.2586328125
-34.26069010416666
-34.25212239583333
-34.253359375
-34.261015625
-34.26807291666667
-34.282252604166665
-34.27462239583333
-34.143932291666665
-34.062877604166665
-34.085286458333336
-34.115963541666666
-34.1423046875
-34.1748828125
-34.178671875
-34.191484375
-34.180911458333334
-34.17151041666666
-34.1914453125
-34.229296875
-34.25234375
-34.27600260416666
-34.2975
-34.306041666666665
-34.31375
-34.32919270833333
-34.334765625
-34.338203125
-34.36096354166666
-34.379596354166665
-34.327578125
-34.20548177083333
-34.12798177083334
-34.163736979166664
-34.21571614583333
-34.2405859375
-34.2476953125
-34.2565234375
-34.252578125
-34.25537760416667
-34.26677083333333
-34.27533854166666
-34.30658854166666
-34.31733072916666
-34.344739583333336
-34.37876302083333
-34.38778645833333
-34.4063671875
-34.432955729166665
-34.4203125
-34.43635416666667
-34.47151041666667
-34.485703125
-34.48059895833333
-34.25833333333333
-34.24552083333333
-34.289791666666666
-34.33614583333333
-34.35536458333333
-34.3665234375
-34.3783203125
-34.3762890625
-34.3768359375
-34.4116015625
-34.439205729166666
-34.448880208333335
-34.475520833333334
-34.497395833333336
-34.52041666666667
-34.5332421875
-34.541315104166664
-34.53889322916667
-34.557018229166665
-34.5771484375
-34.5891015625
-34.58709635416667
-34.4740625
-34.345026041666664
-34.3240234375
-34.3748046875
-34.40703125
-34.43390625
-34.4409765625
-34.433125
-34.420559895833335
-34.397434895833335
-34.377578125
-34.3874609375
-34.403606770833335
-34.42330729166667
-34.424466145833335
-34.43671875
-34.4338671875
-34.44065104166667
-34.43442708333333
-34.442005208333335
-34.450885416666665
-34.4553515625
-34.395494791666664
-34.277643229166664
-34.20975260416667
-34.21604166666667
-34.2634765625
-34.2794140625
-34.310833333333335
-34.3101171875
-34.29859375
-34.27108072916667
-34.26013020833334
-34.27826822916666
-34.312526041666665
-34.33736979166667
-34.360104166666666
-34.38240885416667
-34.4058984375
-34.408203125
-34.41920572916667
-34.419908854166664
-34.44118489583333
-34.46075520833333
-34.403359375
-34.28165364583333
-34.21078125
-34.23483072916667
-34.28994791666667
-34.31716145833333
-34.3341015625
-34.34651041666667
-34.33865885416667
-34.3305859375
-34.32186197916667
-34.327708333333334
-34.360364583333336
-34.39231770833333
-34.400104166666665
-34.421549479166664
-34.43376302083333
-34.44717447916667
-34.457265625
-34.45981770833333
-34.47665364583333
-34.50666666666667
-34.52592447916667
-34.46764322916667
-34.335911458333335
-34.266041666666666
-34.304088541666665
-34.3510546875
-34.37951822916666
-34.40830729166667
-34.403619791666664
-34.403020833333336
-34.41354166666667
-34.40217447916667
-34.42701822916667
-34.465807291666664
-34.47927083333333
-34.49635416666667
-34.52427083333333
-34.543294270833336
-34.55263020833333
-34.569049479166665
-34.57692708333333
-34.5948828125
-34.60444010416666
-34.623372395833336
-34.613346354166666
-34.491901041666665
-34.36154947916667
-34.35403645833333
-34.420546875
-34.4405859375
-34.4531640625
-34.44283854166667
-34.436458333333334
-34.439205729166666
-34.4315234375
-34.41735677083334
-34.4364453125
-34.45046875
-34.471119791666666
-34.49953125
-34.501979166666665
-34.50078125
-34.499973958333335
-34.51154947916667
-34.521067708333334
-34.5160546875
-34.27673177083334
-34.27391927083333
-34.347018229166665
-34.374583333333334
-34.381861979166665
-34.391901041666664
-34.362604166666664
-34.343763020833336
-34.35959635416667
-34.39796875
-34.444986979166664
-34.45850260416667
-34.4687890625
-34.47669270833333
-34.4841796875
-34.498033854166664
-34.5097265625
-34.52721354166667
-34.485546875
-34.35330729166667
-34.2675390625
-34.2833203125
-34.32921875
-34.36595052083333
-34.375247395833334
-34.3854296875
-34.387317708333335
-34.380533854166664
-34.370625
-34.386380208333335
-34.427434895833336
-34.45489583333333
-34.471341145833335
-34.504375
-34.52272135416667
-34.54061197916667
-34.549609375
-34.55619791666667
-34.5796875
-34.60727864583333
-34.62479166666667
-34.53436197916667
-34.402734375
-34.34557291666667
-34.37484375
-34.4253125
-34.46134114583333
-34.47106770833334
-34.48233072916667
-34.479908854166666
-34.476015625
-34.4608984375
-34.48966145833333
-34.514661458333336
-34.538684895833335
-34.585377604166666
-34.604205729166665
-34.6285546875
-34.65247395833333
-34.654049479166666
-34.65522135416666
-34.66259114583333
-34.696875
-34.7093359375
-34.698307291666666
-34.559765625
-34.451770833333335
-34.44837239583333
-34.511302083333334
-34.5460546875
-34.574869791666664
-34.584231770833334
-34.568046875
-34.55783854166667
-34.55029947916667
-34.564166666666665
-34.5848828125
-34.61048177083333
-34.622369791666664
-34.6288671875
-34.62388020833333
-34.6226953125
-34.63140625
-34.63234375
-34.64364583333333
-34.6537890625
-34.636028645833335
-34.5105859375
-34.40842447916667
-34.416484375
-34.46143229166667
-34.48975260416667
-34.4962109375
-34.509518229166666
-34.5044921875
-34.4647265625
-34.46822916666667
-34.469973958333334
-34.50411458333333
-34.537122395833336
-34.56622395833333
-34.5964453125
-34.59356770833333
-34.598203125
-34.59743489583333
-34.609375
-34.631145833333335
-34.64536458333333
-34.561822916666664
-34.42231770833333
-34.388645833333335
-34.4403125
-34.49071614583333
-34.508671875
-34.5388671875
-34.52380208333334
-34.514765625
-34.500416666666666
-34.50622395833334
-34.52294270833333
-34.560221354166664
-34.58481770833333
-34.620442708333336
-34.62708333333333
-34.64626302083333
-34.65700520833333
-34.66653645833333
-34.6871875
-34.718763020833336
-34.73778645833333
-34.682682291666666
-34.544544270833335
-34.477122395833334
-34.50364583333333
-34.578138020833336
-34.59515625
-34.61739583333333
-34.6384375
-34.633111979166664
-34.635143229166665
-34.627916666666664
-34.65158854166667
-34.6877734375
-34.7041015625
-34.732578125
-34.7735546875
-34.78404947916667
-34.806302083333335
-34.57796875
-34.57368489583333
-34.360638020833335
-34.39015625
-34.327161458333336
-34.31244791666666
-34.16334635416667
-34.073971354166666
-34.07736979166667
-34.14076822916667
-34.1789453125
-34.19811197916667
-34.23188802083333
-34.23903645833333
-34.23096354166667
-34.2130859375
-34.23352864583333
-34.269140625
-34.29481770833333
-34.308177083333334
-34.33614583333333
-34.35916666666667
-34.368515625
-34.377682291666666
-34.39447916666666
-34.406484375
-34.427447916666665
-34.44140625
-34.452473958333336
-34.3882421875
-34.2409375
-34.1968359375
-34.2393359375
-34.28515625
-34.31434895833333
-34.34126302083333
-34.340221354166665
-34.32532552083333
-34.29040364583334
-34.28666666666667
-34.305234375
-34.314166666666665
-34.3287890625
-34.3596875
-34.3754296875
-34.380794270833334
-34.37421875
-34.37352864583333
-34.38436197916667
-34.3926953125
-34.39434895833333
-34.318515625
-34.19588541666667
-34.16091145833333
-34.210625
-34.24110677083333
-34.27264322916667
-34.29803385416667
-34.3016796875
-34.2990234375
-34.28006510416667
-34.271549479166666
-34.2979296875
-34.3231640625
-34.36252604166667
-34.39723958333333
-34.4162890625
-34.435546875
-34.436276041666666
-34.4509375
-34.465234375
-34.478815104166664
-34.458736979166666
-34.317356770833335
-34.24018229166666
-34.264973958333336
-34.320234375
-34.34774739583333
-34.378919270833336
-34.3786328125
-34.3846484375
-34.37225260416667
-34.371080729166664
-34.37634114583334
-34.4119140625
-34.43272135416667
-34.455625
-34.486328125
-34.48778645833333
-34.504283854166665
-34.5128125
-34.51680989583333
-34.529713541666666
-34.53653645833333
-34.504596354166665
-34.371028645833334
-34.272447916666664
-34.307955729166665
-34.36615885416666
-34.37481770833333
-34.39859375
-34.406848958333335
-34.40109375
-34.396015625
-34.391015625
-34.40740885416667
-34.43446614583333
-34.46110677083333
-34.488671875
-34.51029947916667
-34.54286458333333
-34.55407552083334
-34.54598958333333
-34.562890625
-34.5841015625
-34.5898828125
-34.610286458333334
-34.5467578125
-34.400416666666665
-34.34290364583333
-34.37901041666667
-34.426783854166665
-34.4487109375
-34.4526171875
-34.458203125
-34.46337239583333
-34.44450520833333
-34.44747395833333
-34.47510416666667
-34.514049479166665
-34.54217447916667
-34.555989583333336
-34.5842578125
-34.59078125
-34.60884114583333
-34.6175390625
-34.63515625
-34.6339453125
-34.663385416666664
-34.71740885416666
-34.73158854166667
-34.681484375
-34.54936197916667
-34.4570703125
-34.49424479166667
-34.55782552083333
-34.5853515625
-34.60640625
-34.6236328125
-34.60990885416667
-34.5991796875
-34.58532552083334
-34.6094921875
-34.639674479166665
-34.67783854166667
-34.69765625
-34.7243359375
-34.73782552083333
-34.76119791666667
-34.7794140625
-34.6650390625
-34.3001171875
-34.100651041666666
-34.133984375
-34.28088541666666
-34.4574609375
-34.45272135416667
-34.38231770833333
-34.41975260416667
-34.4435546875
-34.47390625
-34.47114583333333
-34.4624609375
-34.494609375
-34.28048177083333
-34.223333333333336
-34.299075520833334
-34.336927083333336
-34.35502604166667
-34.35145833333333
-34.3268359375
-34.29828125
-34.31979166666667
-34.34609375
-34.36240885416667
-34.393580729166665
-34.4065234375
-34.420625
-34.412708333333335
-34.43825520833333
-34.460260416666664
-34.46716145833334
-34.345065104166665
-34.225169270833334
-34.22177083333333
-34.28674479166666
-34.34907552083333
-34.373385416666665
-34.3628125
-34.350872395833335
-34.3341015625
-34.341809895833336
-34.361263020833334
-34.390690104166666
-34.411067708333334
-34.443203125
-34.458658854166664
-34.470690104166664
-34.49075520833333
-34.492486979166664
-34.50546875
-34.5293359375
-34.543619791666664
-34.47645833333333
-34.31938802083334
-34.237369791666666
-34.2791796875
-34.323580729166665
-34.3395703125
-34.35989583333333
-34.37194010416667
-34.37807291666667
-34.377109375
-34.3673828125
-34.376966145833336
-34.40283854166667
-34.423098958333334
-34.4484375
-34.48584635416667
-34.502643229166665
-34.50106770833333
-34.511393229166664
-34.51393229166667
-34.531901041666664
-34.540455729166666
-34.5521875
-34.5235546875
-34.3719140625
-34.2730859375
-34.282643229166666
-34.34072916666667
-34.3748828125
-34.389309895833335
-34.400364583333335
-34.390872395833334
-34.3685546875
-34.36608072916667
-34.37282552083333
-34.396106770833335
-34.432200520833334
-34.44766927083333
-34.46408854166667
-34.4775
-34.48721354166667
-34.50005208333334
-34.51046875
-34.527018229166664
-34.54549479166667
-34.56625
-34.574544270833336
-34.47510416666667
-34.337291666666665
-34.290703125
-34.33548177083333
-34.37813802083333
-34.40815104166666
-34.428111979166665
-34.429140625
-34.408854166666664
-34.3808203125
-34.37717447916667
-34.40408854166667
-34.43354166666666
-34.4443359375
-34.4684375
-34.482838541666666
-34.4911328125
-34.49471354166667
-34.500286458333335
-34.49916666666667
-34.505924479166666
-34.515651041666665
-34.515559895833334
-34.391263020833335
-34.28463541666667
-34.2866796875
-34.328776041666664
-34.357890625
-34.3928125
-34.41638020833334
-34.3898046875
-34.350520833333334
-34.317708333333336
-34.33223958333333
-34.35356770833334
-34.38368489583333
-34.39735677083333
-34.403997395833336
-34.41934895833333
-34.4186328125
-34.421458333333334
-34.4215234375
-34.4527734375
-34.455390625
-34.35192708333334
-34.218736979166664
-34.16951822916667
-34.21875
-34.27947916666667
-34.31453125
-34.3275390625
-34.33515625
-34.32015625
-34.290716145833336
-34.29162760416666
-34.3339453125
-34.35506510416667
-34.383125
-34.407734375
-34.41739583333333
-34.441419270833336
-34.450520833333336
-34.45783854166667
-34.484791666666666
-34.49666666666667
-34.485703125
-34.34205729166667
-34.2111328125
-34.19061197916667
-34.24352864583334
-34.302044270833335
-34.319713541666665
-34.32838541666667
-34.34725260416667
-34.33509114583333
-34.308671875
-34.3303515625
-34.3515625
-34.375729166666666
-34.40079427083333
-34.430625
-34.44100260416667
-34.44765625
-34.4630859375
-34.49231770833333
-34.484609375
-34.5148046875
-34.54127604166667
-34.4676953125
-34.305625
-34.223033854166665
-34.2530078125
-34.310546875
-34.345950520833334
-34.358997395833335
-34.37135416666667
-34.37643229166667
-34.37126302083333
-34.36764322916667
-34.3808984375
-34.40450520833333
-34.441744791666665
-34.48299479166667
-34.51375
-34.529231770833334
-34.532877604166664
-34.547734375
-34.552356770833335
-34.55895833333334
-34.59618489583333
-34.6125
-34.49515625
-34.34548177083333
-34.298802083333335
-34.33350260416667
-34.40328125
-34.42147135416667
-34.4427734375
-34.4565625
-34.40033854166666
-34.3975390625
-34.417734375
-34.42377604166666
-34.4544921875
-34.481510416666666
-34.49893229166667
-34.51083333333333
-34.5208984375
-34.522578125
-34.512721354166665
-34.520755208333334
-34.537734375
-34.4812890625
-34.32138020833333
-34.24951822916667
-34.285143229166664
-34.3316015625
-34.37481770833333
-34.3860546875
-34.40115885416667
-34.389401041666666
-34.35147135416667
-34.32497395833333
-34.337877604166664
-34.360546875
-34.3867578125
-34.41268229166667
-34.42151041666666
-34.422864583333336
-34.430911458333334
-34.4265234375
-34.43559895833334
-34.4519921875
-34.4069140625
-34.241184895833335
-34.137317708333335
-34.155208333333334
-34.20131510416667
-34.2440234375
-34.2687109375
-34.282578125
-34.280234375
-34.24338541666667
-34.21696614583333
-34.250546875
-34.27813802083333
-34.289088541666665
-34.32345052083333
-34.35829427083333
-34.35498697916667
-34.36606770833333
-34.36950520833334
-34.383802083333336
-34.3964453125
-34.36420572916666
-34.220026041666664
-34.07572916666667
-34.07755208333333
-34.13848958333333
-34.17942708333333
-34.21274739583333
-34.21658854166667
-34.20682291666667
-34.179348958333335
-34.15619791666666
-34.169322916666665
-34.198828125
-34.22532552083333
-34.231796875
-34.2564453125
-34.27641927083334
-34.28334635416667
-34.29013020833333
-34.285
-34.30165364583333
-34.305625
-34.2558984375
-34.0707421875
-33.964192708333336
-33.993125
-34.0377734375
-34.071927083333335
-34.09259114583333
-34.11225260416666
-34.0998046875
-34.07985677083333
-34.09352864583333
-34.132161458333336
-34.175533854166666
-34.20419270833333
-34.206015625
-34.211614583333336
-34.219401041666664
-34.22029947916667
-34.23139322916666
-34.26470052083334
-34.281875
-34.298190104166665
-34.163111979166665
-33.99830729166667
-33.938854166666665
-33.98303385416666
-34.041015625
-34.071263020833335
-34.0668359375
-34.0834765625
-34.087265625
-34.065052083333335
-34.07532552083333
-34.110950520833335
-34.131536458333336
-34.170703125
-34.1783203125
-34.20924479166667
-34.244765625
-34.24587239583333
-34.24360677083333
-34.2669140625
-34.293216145833334
-34.307955729166665
-34.344440104166665
-34.361028645833336
-34.282526041666664
-34.11692708333333
-34.035846354166665
-34.08
-34.13657552083333
-34.164348958333335
-34.19921875
-34.20067708333333
-34.202877604166666
-34.19983072916666
-34.1884765625
-34.21772135416666
-34.24721354166667
-34.2801953125
-34.30993489583334
-34.32559895833333
-34.343125
-34.352200520833335
-34.36115885416667
-34.363033854166666
-34.37032552083333
-34.39889322916667
-34.40645833333333
-34.41627604166667
-34.2736328125
-34.128359375
-34.12610677083333
-34.177890625
-34.2108984375
-34.23028645833333
-34.2541015625
-34.24727864583333
-34.220364583333335
-34.2
-34.191171875
-34.2115625
-34.24192708333333
-34.266354166666666
-34.272161458333336
-34.292278645833335
-34.28104166666667
-34.274427083333336
-34.260729166666664
-34.257526041666665
-34.2858984375
-34.29704427083333
-34.21911458333334
-34.07901041666667
-34.0096875
-34.04518229166667
-34.095065104166665
-34.13063802083333
-34.1563671875
-34.165390625
-34.13666666666666
-34.10959635416667
-34.088268229166665
-34.11727864583333
-34.12967447916667
-34.150677083333335
-34.17423177083333
-34.188854166666665
-34.20455729166667
-34.196276041666664
-34.2132421875
-34.2238671875
-34.24946614583333
-34.2476953125
-34.1021484375
-33.979153645833335
-33.98610677083333
-34.03475260416667
-34.07571614583333
-34.10729166666667
-34.121640625
-34.11971354166667
-34.11416666666667
-34.0941015625
-34.094401041666664
-34.1250390625
-34.155963541666665
-34.17666666666667
-34.195325520833336
-34.20889322916667
-34.2133984375
-34.22319010416667
-34.234075520833336
-34.24959635416667
-34.24501302083333
-34.2650390625
-34.163671875
-34.014140625
-33.93348958333333
-33.977109375
-34.0323828125
-34.06337239583333
-34.0821484375
-34.07462239583333
-34.0712890625
-34.044322916666665
-34.03921875
-34.0613671875
-34.087513020833335
-34.1151953125
-34.1407421875
-34.15735677083333
-34.169908854166664
-34.18595052083333
-34.19846354166667
-34.1987890625
-34.206341145833335
-34.22625
-34.251966145833336
-34.265247395833335
-34.1616015625
-34.00080729166667
-33.934635416666666
-33.98411458333333
-34.0517578125
-34.086015625
-34.08197916666666
-34.053645833333334
-34.0807421875
-34.1126171875
-34.15579427083333
-34.218424479166664
-34.276015625
-34.27837239583334
-34.29440104166667
-34.36251302083333
-34.3403125
-34.18604166666667
-34.10915364583333
-34.20821614583333
-34.229075520833334
-34.253880208333335
-34.25373697916667
-34.24041666666667
-34.22701822916667
-34.24723958333333
-34.28265625
-34.320651041666665
-34.346953125
-34.381236979166665
-34.40328125
-34.418958333333336
-34.4334375
-34.43302083333333
-34.43936197916667
-34.461575520833335
-34.482408854166664
-34.51354166666667
-34.4608984375
-34.28359375
-34.210078125
-34.23645833333333
-34.3069921875
-34.321588541666664
-34.34411458333334
-34.366536458333336
-34.364231770833335
-34.3337109375
-34.31428385416667
-34.33486979166667
-34.3479296875
-34.38065104166667
-34.4098828125
-34.421875
-34.4324609375
-34.41673177083333
-34.43826822916667
-34.43158854166666
-34.44346354166667
-34.4571875
-34.46690104166667
-34.39470052083333
-34.24391927083333
-34.19135416666666
-34.228841145833336
-34.280546875
-34.30774739583333
-34.33829427083333
-34.349361979166666
-34.325442708333334
-34.295703125
-34.271158854166664
-34.28662760416667
-34.31130208333333
-34.3654296875
-34.36404947916667
-34.37584635416667
-34.3841015625
-34.3833984375
-34.389140625
-34.38106770833333
-34.1181640625
-34.16920572916667
-34.24329427083333
-34.25940104166666
-34.232122395833336
-34.215169270833336
-34.26279947916667
-34.321588541666664
-34.3537890625
-34.35014322916667
-34.35856770833333
-34.3686328125
-34.37881510416667
-34.273151041666665
-34.118723958333334
-34.06645833333334
-34.111653645833336
-34.16654947916667
-34.19481770833333
-34.2179296875
-34.2164453125
-34.21109375
-34.16118489583334
-34.177434895833336
-34.21587239583334
-34.25860677083333
-34.259205729166666
-34.273190104166666
-34.295221354166664
-34.3071875
-34.328854166666666
-34.301419270833335
-34.0086328125
-33.99171875
-34.035625
-34.06588541666667
-34.0858984375
-34.10299479166667
-34.1040625
-34.099947916666665
-34.082005208333335
-34.08680989583333
-34.12122395833333
-34.13462239583333
-34.168294270833336
-34.1879296875
-34.210611979166664
-34.215859375
-34.216822916666665
-34.223645833333336
-34.22567708333333
-34.247447916666665
-34.262356770833335
-34.2649609375
-34.08544270833333
-33.9519921875
-33.92977864583333
-34.02484375
-34.045299479166665
-34.05486979166667
-34.03618489583334
-34.03834635416667
-34.0583984375
-34.106328125
-34.131901041666666
-34.169283854166665
-34.1856640625
-34.20584635416667
-34.23108072916666
-34.25404947916667
-34.299453125
-34.0914453125
-33.9860546875
-34.05020833333333
-34.0843359375
-34.109713541666665
-34.10736979166666
-34.1065234375
-34.111484375
-34.17196614583333
-34.23411458333333
-34.24690104166667
-34.25475260416667
-34.2728515625
-34.280598958333336
-34.281901041666664
-34.32307291666667
-34.34522135416667
-34.36794270833333
-34.263828125
-34.09234375
-34.03880208333333
-34.07727864583333
-34.12033854166667
-34.15305989583333
-34.1687890625
-34.1815234375
-34.15118489583333
-34.13760416666667
-34.13826822916667
-34.159427083333334
-34.17627604166667
-34.20029947916667
-34.2163671875
-34.2350390625
-34.2401953125
-34.23427083333333
-34.23520833333333
-34.2437890625
-34.23940104166667
-34.26376302083333
-34.2778125
-34.2709765625
-34.135091145833336
-34.00838541666667
-33.98986979166666
-34.0330078125
-34.06658854166667
-34.096979166666664
-34.114856770833335
-34.1060546875
-34.078411458333335
-34.0449609375
-34.0547265625
-34.074153645833334
-34.1013671875
-34.125234375
-34.132265625
-34.14236979166667
-34.148020833333334
-34.138072916666665
-34.11962239583333
-33.963619791666666
-33.860950520833335
-33.960299479166665
-33.99619791666667
-33.9760546875
-33.949505208333335
-33.993815104166664
-34.02161458333333
-34.067044270833335
-34.0949609375
-34.11026041666667
-34.12776041666667
-34.14821614583333
-34.026927083333334
-33.805651041666664
-33.842708333333334
-34.151354166666664
-34.16233072916667
-34.249270833333334
-34.243138020833335
-34.22744791666667
-34.221614583333334
-34.27174479166667
-34.307018229166665
-34.325924479166666
-34.3415625
-34.36118489583333
-34.377734375
-34.38662760416667
-34.41188802083333
-34.44216145833333
-34.46986979166667
-34.4544140625
-34.279270833333335
-34.13358072916667
-34.1365234375
-34.19358072916667
-34.26765625
-34.27006510416667
-34.2817578125
-34.281315104166666
-34.266223958333335
-34.273515625
-34.30735677083333
-34.34454427083333
-34.371731770833335
-34.4114453125
-34.4490625
-34.45787760416667
-34.47408854166667
-34.4871484375
-34.4998046875
-34.5329296875
-34.54421875
-34.571328125
-34.482669270833334
-34.30194010416667
-34.2062109375
-34.24075520833333
-34.28998697916666
-34.32364583333333
-34.327213541666666
-34.3416015625
-34.3494921875
-34.323268229166665
-34.31876302083333
-34.35276041666667
-34.377252604166664
-34.39278645833333
-34.418346354166665
-34.45045572916667
-34.4624609375
-34.47380208333333
-34.482421875
-34.491328125
-34.513111979166666
-34.53578125
-34.55227864583333
-34.457044270833336
-34.28765625
-34.21858072916667
-34.246067708333335
-34.292265625
-34.33516927083333
-34.33506510416667
-34.339856770833336
-34.32442708333333
-34.27657552083333
-34.269557291666665
-34.29239583333333
-34.301783854166665
-34.3223828125
-34.345013020833335
-34.36701822916667
-34.37947916666667
-34.38138020833333
-34.37634114583334
-34.384205729166666
-34.38419270833333
-34.37229166666667
-34.212213541666664
-34.069036458333336
-34.061276041666666
-34.09490885416667
-34.13725260416667
-34.17466145833333
-34.18381510416667
-34.1758984375
-34.15536458333333
-34.13481770833334
-34.14337239583333
-34.17494791666667
-34.19813802083333
-34.2378125
-34.26869791666667
-34.27032552083333
-34.286471354166665
-34.29140625
-34.3023046875
-34.319752604166666
-34.32602864583333
-34.332630208333335
-34.1899609375
-34.0062890625
-33.98446614583333
-34.03106770833333
-34.06233072916667
-34.08766927083333
-34.1096484375
-34.125989583333336
-34.1117578125
-34.087825520833334
-34.07998697916667
-34.0967578125
-34.13559895833333
-34.15571614583333
-34.16809895833333
-34.19484375
-34.213854166666664
-34.232135416666665
-34.238671875
-34.22895833333333
-34.24830729166667
-34.2773828125
-34.24787760416667
-34.08815104166667
-33.9160546875
-33.86447916666667
-33.9081640625
-33.949375
-33.980390625
-33.983515625
-34.001354166666665
-33.9926171875
-33.97700520833333
-33.9769921875
-33.998072916666665
-34.03356770833334
-34.08212239583333
-34.10661458333333
-34.130611979166666
-34.1571484375
-34.168203125
-34.168294270833336
-34.1990625
-34.20729166666667
-34.2416015625
-34.279375
-34.246731770833335
-34.044765625
-33.876953125
-33.87059895833333
-33.907578125
-33.9599609375
-34.028294270833335
-34.083203125
-34.08966145833333
-34.0951171875
-34.076471354166664
-34.104830729166665
-34.15604166666667
-34.19932291666667
-34.28041666666667
-34.34428385416667
-34.35875
-34.380703125
-34.38080729166666
-34.351901041666665
-34.361705729166665
-34.331015625
-34.31072916666667
-34.32631510416667
-34.3529296875
-34.316119791666665
-34.09484375
-33.95848958333333
-33.967708333333334
-34.04580729166667
-34.0749609375
-34.10213541666667
-34.122083333333336
-34.126002604166665
-34.08860677083333
-34.071171875
-34.116510416666664
-34.132161458333336
-34.15709635416667
-34.197955729166665
-34.215546875
-34.243125
-34.25279947916667
-34.274609375
-34.2698828125
-34.269283854166666
-34.2544921875
-33.8996484375
-33.8569921875
-33.976315104166666
-34.026705729166665
-34.131809895833335
-34.1315234375
-34.191341145833334
-34.315716145833335
-34.362239583333334
-34.39434895833333
-34.46537760416667
-34.50427083333334
-34.522109375
-34.54795572916667
-34.21390625
-34.2419140625
-34.31588541666667
-34.38126302083333
-34.39880208333334
-34.35166666666667
-34.3654296875
-34.409166666666664
-34.43842447916666
-34.4745703125
-34.488841145833334
-34.495625
-34.499375
-34.5075
-34.5337890625
-34.57036458333334
-34.52125
-34.33053385416667
-34.193658854166664
-34.19088541666667
-34.25875
-34.31356770833333
-34.33194010416667
-34.34889322916667
-34.36256510416667
-34.3166796875
-34.3169140625
-34.305690104166665
-34.34259114583333
-34.37330729166667
-34.411861979166666
-34.45583333333333
-34.465494791666664
-34.45953125
-34.453098958333335
-34.407578125
-34.3865234375
-34.42342447916667
-34.440364583333334
-34.28375
-34.1074609375
-34.07071614583333
-34.128255208333336
-34.15975260416667
-34.187747395833334
-34.19385416666667
-34.18466145833333
-34.178033854166664
-34.241861979166664
-34.27290364583333
-34.31614583333333
-34.38720052083333
-34.429010416666664
-34.4396875
-34.46720052083333
-34.50076822916667
-34.52102864583333
-34.183255208333335
-34.071484375
-34.128307291666665
-34.1962109375
-34.25625
-34.2401171875
-34.254921875
-34.33553385416667
-34.37515625
-34.472643229166664
-34.5083203125
-34.5191015625
-34.52010416666667
-34.55334635416666
-34.5868359375
-34.43609375
-34.14759114583333
-34.192630208333334
-34.231419270833335
-34.264309895833335
-34.27889322916667
-34.275390625
-34.264361979166665
-34.24618489583333
-34.200169270833335
-34.193515625
-34.22790364583334
-34.23717447916667
-34.238658854166665
-34.24485677083333
-34.231510416666666
-34.2385546875
-34.23555989583333
-34.23149739583334
-34.231471354166665
-34.24223958333334
-34.1571875
-33.956380208333336
-33.8544140625
-33.866901041666665
-33.90794270833333
-33.923489583333335
-33.964817708333335
-33.97184895833333
-33.95055989583334
-33.91290364583333
-33.86626302083334
-33.842799479166665
-33.87220052083333
-33.88471354166666
-33.90057291666667
-33.9100390625
-33.9157421875
-33.903828125
-33.923046875
-33.903645833333336
-33.895130208333335
-33.6884765625
-33.560130208333334
-33.822018229166666
-34.0905859375
-34.45325520833333
-34.4572265625
-34.40341145833333
-34.43625
-34.482747395833336
-34.55055989583333
-34.5578515625
-34.5780859375
-34.59364583333333
-34.6094140625
-34.53563802083333
-34.34981770833333
-34.2603125
-34.318697916666665
-34.34329427083333
-34.367200520833336
-34.39294270833334
-34.39381510416667
-34.4070703125
-34.39578125
-34.39217447916667
-34.42822916666667
-34.473255208333335
-34.50735677083333
-34.5448046875
-34.565403645833335
-34.58825520833334
-34.61096354166666
-34.613567708333335
-34.6370703125
-34.64360677083334
-34.658138020833334
-34.5444921875
-34.394231770833336
-34.32018229166667
-34.365911458333336
-34.424791666666664
-34.4746484375
-34.5033984375
-34.5204296875
-34.51309895833333
-34.518580729166665
-34.497747395833336
-34.5198828125
-34.57736979166667
-34.632877604166666
-34.66565104166666
-34.72549479166667
-34.747760416666665
-34.776171875
-34.563489583333336
-34.498958333333334
-34.36096354166666
-34.30455729166667
-34.330091145833336
-34.27067708333333
-34.02061197916667
-34.02455729166667
-34.1317578125
-34.160885416666666
-34.185533854166664
-34.185625
-34.165377604166665
-34.18390625
-34.252018229166666
-34.28653645833333
-34.3100390625
-34.3448828125
-34.34720052083333
-34.372578125
-34.26588541666667
-34.1231640625
-34.122760416666665
-34.21049479166667
-34.240703125
-34.21080729166667
-34.16361979166667
-34.1976953125
-34.25447916666667
-34.26485677083333
-34.279583333333335
-34.3025390625
-34.28046875
-34.0424609375
-34.04013020833333
-34.072421875
-34.13259114583333
-34.1616796875
-34.165104166666666
-34.089869791666665
-34.10453125
-34.14828125
-34.18954427083333
-34.22256510416667
-34.238268229166664
-34.275546875
-34.285143229166664
-34.2983203125
-34.258671875
-34.0926171875
-33.98134114583333
-33.954609375
-34.004583333333336
-34.072903645833335
-34.107799479166665
-34.13111979166667
-34.1525
-34.13244791666666
-34.110768229166666
-34.12712239583333
-34.1475390625
-34.1887890625
-34.21825520833333
-34.25833333333333
-34.2872265625
-34.305963541666664
-34.32458333333334
-34.340572916666666
-34.343046875
-34.367565104166665
-34.34977864583333
-34.2016015625
-34.06680989583333
-34.03489583333333
-34.07040364583333
-34.106419270833335
-34.153515625
-34.17001302083333
-34.21828125
-34.2140625
-34.17578125
-34.18514322916667
-34.231419270833335
-34.266588541666664
-34.3096875
-34.3415625
-34.36506510416667
-34.401015625
-34.40912760416666
-34.424765625
-34.448489583333334
-34.47509114583333
-34.488697916666666
-34.407955729166666
-34.238307291666665
-34.18572916666667
-34.22803385416667
-34.2995703125
-34.33713541666667
-34.37881510416667
-34.3958203125
-34.400013020833335
-34.400403645833336
-34.403515625
-34.43009114583333
-34.4703125
-34.51313802083333
-34.5540234375
-34.571536458333334
-34.59734375
-34.62376302083333
-34.63102864583333
-34.637669270833335
-34.413776041666665
-34.351171875
-34.205989583333334
-34.098619791666664
-33.9491015625
-33.9046875
-33.9328515625
-33.9851953125
-34.02876302083333
-34.064140625
-34.083984375
-34.07421875
-34.05190104166667
-34.035494791666665
-34.065013020833334
-34.09657552083333
-34.1273828125
-34.14893229166667
-34.18328125
-34.19123697916667
-34.20397135416667
-34.21013020833333
-34.21533854166667
-34.23872395833333
-34.25203125
-34.15705729166667
-34.015078125
-33.967473958333336
-34.000651041666664
-34.09188802083333
-34.12798177083334
-34.12973958333333
-34.12704427083333
-34.08408854166667
-34.07287760416666
-34.100390625
-34.14016927083333
-34.17076822916667
-34.208294270833335
-34.232447916666665
-34.24703125
-34.25205729166667
-34.2676171875
-34.164375
-34.03403645833333
-33.992864583333336
-34.0428125
-34.1099609375
-34.139947916666664
-34.16641927083333
-34.1769140625
-34.1771875
-34.165716145833336
-34.164388020833336
-34.20680989583333
-34.23432291666666
-34.26350260416667
-34.30411458333333
-34.32967447916667
-34.3395703125
-34.3656640625
-34.37361979166667
-34.398125
-34.40833333333333
-34.35916666666667
-34.1919921875
-34.088580729166665
-34.092526041666666
-34.145885416666665
-34.20134114583333
-34.22975260416667
-34.2317578125
-34.26352864583333
-34.264895833333334
-34.254244791666665
-34.273098958333335
-34.321171875
-34.35315104166666
-34.40774739583333
-34.42609375
-34.449869791666664
-34.484075520833336
-34.48196614583333
-34.5096875
-34.535494791666665
-34.55216145833333
-34.49270833333333
-34.32537760416667
-34.22115885416667
-34.2415625
-34.315859375
-34.350390625
-34.37130208333333
-34.39756510416667
-34.407513020833335
-34.392604166666665
-34.381953125
-34.402942708333335
-34.456067708333336
-34.47661458333334
-34.5219140625
-34.5502734375
-34.570611979166664
-34.61451822916667
-34.621471354166665
-34.656315104166666
-34.676953125
-34.47764322916667
-34.3118359375
-34.018515625
-33.9325390625
-34.02102864583333
-34.06970052083334
-34.09395833333333
-34.11993489583333
-34.12065104166667
-34.12104166666666
-34.17356770833333
-34.27578125
-34.34459635416667
-34.358372395833335
-34.39204427083333
-34.4562890625
-34.48473958333334
-34.31684895833333
-34.151666666666664
-34.2099609375
-34.298541666666665
-34.33841145833333
-34.311822916666664
-34.308359375
-34.368802083333335
-34.40247395833333
-34.43515625
-34.437083333333334
-34.447864583333335
-34.457981770833335
-34.48026041666667
-34.47766927083333
-34.372486979166666
-34.239921875
-34.21010416666667
-34.264674479166665
-34.31858072916667
-34.34842447916667
-34.3733984375
-34.38364583333333
-34.35845052083334
-34.324466145833334
-34.3322265625
-34.351315104166666
-34.38916666666667
-34.42201822916667
-34.452565104166666
-34.473307291666664
-34.496328125
-34.4975
-34.493359375
-34.50859375
-34.5047265625
-34.41221354166667
-34.2573046875
-34.21798177083333
-34.253971354166666
-34.314205729166666
-34.35330729166667
-34.36930989583333
-34.389231770833334
-34.35403645833333
-34.358645833333334
-34.39072916666667
-34.465572916666666
-34.50203125
-34.5332421875
-34.55083333333334
-34.5677734375
-34.6039453125
-34.630846354166664
-34.420703125
-34.06916666666667
-33.9845703125
-34.022083333333335
-34.060078125
-34.08255208333333
-34.075833333333335
-34.0734375
-34.14569010416667
-34.229505208333336
-34.27223958333333
-34.3125390625
-34.35756510416667
-34.31662760416667
-34.027369791666665
-34.0855859375
-34.11475260416667
-34.1371484375
-34.162669270833334
-34.16776041666667
-34.14848958333334
-34.149609375
-34.2428515625
-34.258125
-34.30295572916667
-34.32893229166667
-34.343190104166666
-34.380299479166666
-34.401041666666664
-34.429622395833334
-34.45334635416667
-34.32657552083333
-34.150716145833336
-34.06946614583333
-34.12127604166667
-34.184453125
-34.1977734375
-34.22479166666667
-34.2419140625
-34.2184375
-34.232408854166664
-34.24595052083333
-34.27579427083333
-34.3303515625
-34.3543359375
-34.37643229166667
-34.37109375
-34.39041666666667
-34.4044140625
-34.40733072916667
-34.4215234375
-34.45032552083333
-34.47734375
-34.4611328125
-34.33024739583333
-34.168255208333335
-34.120234375
-34.188984375
-34.2665234375
-34.30677083333333
-34.27515625
-34.2684765625
-34.3282421875
-34.38625
-34.45046875
-34.47901041666667
-34.50932291666667
-34.51967447916667
-34.5457421875
-34.577747395833335
-34.48265625
-34.2365625
-34.280208333333334
-34.3884765625
-34.42231770833333
-34.3958203125
-34.358098958333336
-34.357434895833336
-34.4009765625
-34.44571614583333
-34.473515625
-34.471653645833335
-34.45764322916666
-34.4557421875
-34.46462239583333
-34.4921875
-34.47157552083333
-34.32171875
-34.224270833333335
-34.25569010416667
-34.30756510416666
-34.34127604166667
-34.380390625
-34.36342447916667
-34.31694010416667
-34.3012890625
-34.32173177083333
-34.36877604166666
-34.40244791666667
-34.43015625
-34.4361328125
-34.4383203125
-34.446484375
-34.45934895833334
-34.41735677083334
-34.2646875
-34.160794270833335
-34.152721354166665
-34.1974609375
-34.26634114583333
-34.29177083333333
-34.311484375
-34.318294270833334
-34.28463541666667
