-204.17152404785156
-205.23704528808594
-427.21185302734375
-627.0779418945313
-614.8551635742188
-655.348388671875
-714.25390625
-691.96435546875
-635.8549194335938
-574.3125610351563
-525.4497680664063
-584.6569213867188
-560.11865234375
-559.617919921875
-527.3617553710938
-504.693603515625
-482.94354248046875
-466.5087890625
-468.6413879394531
-467.0718078613281
-463.8280334472656
-466.2005920410156
-468.4675598144531
-469.8966064453125
-471.2082214355469
-471.25146484375
-471.3105163574219
-471.2550354003906
-471.23431396484375
-471.21209716796875
-469.85064697265625
-468.18145751953125
-467.26519775390625
-466.9565734863281
-467.05487060546875
-467.3036804199219
-467.43707275390625
-467.47332763671875
-467.5108947753906
-467.51898193359375
-467.7324523925781
-468.01324462890625
-468.5358581542969
-469.1589660644531
-469.88275146484375
-470.33319091796875
-470.6289978027344
-470.94744873046875
-471.22320556640625
-471.5632019042969
-471.7256164550781
-471.4723815917969
-469.91064453125
-468.31182861328125
-467.7191162109375
-467.7943115234375
-467.8238220214844
-467.95867919921875
-468.01605224609375
-467.9490966796875
-467.6553039550781
-467.3429870605469
-467.3338623046875
-467.3830871582031
-467.5787658691406
-467.81414794921875
-467.93646240234375
-467.9200439453125
-468.0011291503906
-467.92694091796875
-467.9680480957031
-467.9348449707031
-468.049072265625
-467.288330078125
-465.54052734375
-464.59820556640625
-464.49066162109375
-464.72735595703125
-464.9965515136719
-465.1312255859375
-465.3248291015625
-465.4216613769531
-465.12750244140625
-464.9590148925781
-465.1720275878906
-465.4845886230469
-465.7731628417969
-466.1099853515625
-466.3528747558594
-466.547607421875
-466.6741943359375
-466.66351318359375
-466.50885009765625
-466.43463134765625
-466.47161865234375
-466.4114990234375
-463.6043701171875
-462.6523742675781
-462.80181884765625
-463.86968994140625
-466.8048095703125
-469.89752197265625
-469.613037109375
-469.4551086425781
-469.76434326171875
-470.1498718261719
-470.77532958984375
-471.0444641113281
-471.3270568847656
-471.6368713378906
-471.723876953125
-471.91522216796875
-472.07977294921875
-469.62823486328125
-468.83306884765625
-467.4354553222656
-465.6994323730469
-464.84979248046875
-464.90570068359375
-465.0862121582031
-465.37225341796875
-465.7157287597656
-465.93682861328125
-465.9239807128906
-465.82049560546875
-465.76312255859375
-465.8794250488281
-466.2334899902344
-466.6515808105469
-467.0542907714844
-467.37115478515625
-467.64532470703125
-467.9133605957031
-468.0089416503906
-468.314697265625
-468.35400390625
-468.6166687011719
-468.798095703125
-469.06390380859375
-469.30255126953125
-468.8807067871094
-466.9036560058594
-465.6226501464844
-465.2783508300781
-465.4716491699219
-465.74786376953125
-465.9120788574219
-466.184814453125
-466.4247741699219
-466.36126708984375
-466.1227722167969
-466.08154296875
-466.3006591796875
-466.61566162109375
-466.8030700683594
-467.183837890625
-467.452392578125
-467.72906494140625
-467.8493347167969
-468.0260314941406
-468.2308044433594
-468.3189697265625
-468.527099609375
-468.7859802246094
-469.0924377441406
-469.3648681640625
-468.698486328125
-466.84954833984375
-465.7027282714844
-465.44085693359375
-465.7276611328125
-466.04302978515625
-466.23992919921875
-466.6037292480469
-466.6929931640625
-466.49755859375
-466.2187805175781
-466.4234313964844
-466.6795959472656
-466.9242858886719
-467.3397216796875
-467.70880126953125
-468.06170654296875
-468.26129150390625
-468.479736328125
-468.6573791503906
-468.74078369140625
-468.9062805175781
-469.2184143066406
-469.6540832519531
-469.6716613769531
-468.8432312011719
-467.0265808105469
-466.1757507324219
-466.18603515625
-466.592529296875
-466.9497985839844
-467.3671875
-467.5517578125
-467.4990539550781
-467.1984558105469
-466.9701843261719
-467.0566711425781
-467.2747497558594
-467.6605224609375
-467.9700622558594
-468.3304138183594
-468.5802001953125
-468.8160705566406
-469.0012512207031
-469.0572814941406
-469.146240234375
-469.26715087890625
-469.08331298828125
-467.6445617675781
-466.22137451171875
-465.8780822753906
-466.2051086425781
-466.6387023925781
-467.00018310546875
-467.26171875
-467.4014587402344
-467.0493469238281
-466.7565002441406
-466.7051696777344
-466.89630126953125
-467.083740234375
-467.3758239746094
-467.6918640136719
-467.9415588378906
-468.1065979003906
-468.2179870605469
-468.1994934082031
-468.3319091796875
-467.59234619140625
-465.81610107421875
-464.72882080078125
-464.66876220703125
-464.9784851074219
-465.30609130859375
-465.53271484375
-465.8807678222656
-465.890625
-465.6624755859375
-465.4454345703125
-465.38665771484375
-465.6458740234375
-465.9305419921875
-466.327392578125
-466.57232666015625
-466.73876953125
-466.8177185058594
-467.03271484375
-467.1573791503906
-467.1958923339844
-466.1415710449219
-464.31878662109375
-463.3341979980469
-463.3423767089844
-465.1051330566406
-467.2264404296875
-468.3981628417969
-469.8209228515625
-470.0032043457031
-469.9013977050781
-469.79827880859375
-469.99884033203125
-470.302734375
-470.6307373046875
-470.94329833984375
-471.1667175292969
-471.4521789550781
-471.65411376953125
-471.8256530761719
-471.9792785644531
-472.06512451171875
-472.1597900390625
-470.3626403808594
-469.6929626464844
-468.56182861328125
-466.88604736328125
-465.08349609375
-464.4903259277344
-464.3807373046875
-464.5824279785156
-464.6840515136719
-466.8074035644531
-467.9942321777344
-469.2088928222656
-468.8736267089844
-469.1253662109375
-469.33551025390625
-469.6731872558594
-470.037841796875
-470.3932800292969
-470.6316223144531
-470.8238525390625
-470.9606628417969
-471.0747375488281
-471.2223205566406
-471.3014221191406
-471.5458679199219
-471.860107421875
-471.97540283203125
-472.2704162597656
-472.55645751953125
-470.4882507324219
-467.9062805175781
-465.0760498046875
-464.45050048828125
-464.18267822265625
-464.49688720703125
-468.76171875
-468.8715515136719
-468.7745056152344
-469.0235595703125
-469.67498779296875
-470.21588134765625
-470.74981689453125
-471.1924133300781
-471.39990234375
-471.6309509277344
-472.1309814453125
-472.2796630859375
-472.62701416015625
-471.8193054199219
-469.68292236328125
-466.8156433105469
-465.47357177734375
-464.1555480957031
-464.3968200683594
-467.432861328125
-468.6121520996094
-470.04931640625
-469.922119140625
-470.09112548828125
-470.7802734375
-471.1290283203125
-471.50384521484375
-472.01983642578125
-472.2269592285156
-472.41546630859375
-470.6090393066406
-469.7253112792969
-469.0001220703125
-469.3119812011719
-469.73187255859375
-469.9425354003906
-470.305908203125
-469.9755554199219
-468.1369934082031
-466.6349182128906
-466.3299865722656
-466.722900390625
-466.9809265136719
-467.2160949707031
-467.53143310546875
-467.6373596191406
-467.4242858886719
-467.4469909667969
-467.6793518066406
-468.0710754394531
-468.30389404296875
-468.5987243652344
-468.9605712890625
-469.1871643066406
-469.29541015625
-469.4293212890625
-469.5670471191406
-469.68463134765625
-469.87396240234375
-470.1954040527344
-470.5703430175781
-470.3005065917969
-468.5904235839844
-467.2179260253906
-466.7923278808594
-467.10589599609375
-467.5206298828125
-467.7298278808594
-468.0316467285156
-468.04241943359375
-467.8322448730469
-467.6007080078125
-467.65533447265625
-468.0178527832031
-468.3330993652344
-468.6800231933594
-469.01397705078125
-469.1846618652344
-469.3232421875
-469.5666809082031
-469.661376953125
-469.72454833984375
-469.8392639160156
-470.14996337890625
-469.6293640136719
-467.9259033203125
-466.6068420410156
-466.4414978027344
-466.8062744140625
-467.25469970703125
-467.5824890136719
-467.8734436035156
-468.0616455078125
-467.93310546875
-467.7648620605469
-467.7391662597656
-468.03753662109375
-468.4359436035156
-468.74322509765625
-469.040771484375
-469.3006896972656
-469.57696533203125
-469.6905517578125
-469.7457580566406
-469.7873840332031
-469.8414611816406
-470.3177490234375
-469.1191711425781
-467.1554260253906
-466.26690673828125
-466.2958984375
-466.66510009765625
-466.8934020996094
-467.08868408203125
-467.26739501953125
-467.31768798828125
-467.2518310546875
-467.33648681640625
-467.9912109375
-468.25146484375
-468.6379699707031
-468.84442138671875
-468.941162109375
-469.0655517578125
-469.5071105957031
-469.5707702636719
-469.9604187011719
-470.204833984375
-467.3234558105469
-466.128173828125
-466.3507385253906
-466.6328125
-466.9500427246094
-467.141845703125
-466.9670715332031
-467.0281982421875
-467.6887512207031
-468.03668212890625
-468.3641052246094
-468.6851806640625
-468.9881896972656
-469.0758056640625
-469.2022705078125
-469.2387390136719
-469.4429626464844
-469.6203308105469
-469.7706298828125
-470.02099609375
-470.2787170410156
-470.4477844238281
-469.0541076660156
-467.0378112792969
-466.12030029296875
-466.2427978515625
-466.6193542480469
-466.83856201171875
-467.0329284667969
-467.26348876953125
-467.29644775390625
-467.12872314453125
-467.0866394042969
-467.12249755859375
-467.45001220703125
-467.7340087890625
-468.1014099121094
-468.4463195800781
-468.9012451171875
-469.02691650390625
-469.1682434082031
-469.392578125
-469.6292419433594
-469.69903564453125
-470.02362060546875
-470.25140380859375
-470.5699768066406
-470.42523193359375
-466.820556640625
-466.45904541015625
-466.839111328125
-467.1471252441406
-467.3694152832031
-467.6513366699219
-467.7479553222656
-467.5478210449219
-467.3548278808594
-467.3318176269531
-467.56024169921875
-467.9013671875
-468.24749755859375
-468.5499267578125
-468.8049011230469
-469.0276794433594
-469.1491394042969
-469.146240234375
-469.16064453125
-469.3084411621094
-469.7327575683594
-469.9683837890625
-469.4604797363281
-467.72943115234375
-466.40631103515625
-466.1662902832031
-466.6702880859375
-467.1675109863281
-467.45599365234375
-467.7160949707031
-467.7803955078125
-467.4665832519531
-467.1337585449219
-467.2870788574219
-467.48760986328125
-467.8207092285156
-468.16796875
-468.4833068847656
-468.76934814453125
-468.88201904296875
-468.9202880859375
-469.0027770996094
-469.30389404296875
-469.25115966796875
-467.8026123046875
-466.136962890625
-465.4803466796875
-465.8144836425781
-465.9827880859375
-466.7481689453125
-466.9611511230469
-466.8579406738281
-466.5694885253906
-466.5860595703125
-466.7469482421875
-467.452392578125
-467.8583984375
-468.3778076171875
-468.51708984375
-468.5060729980469
-468.5583801269531
-468.8859558105469
-468.5978088378906
-466.63836669921875
-464.9346923828125
-464.8909912109375
-465.3434143066406
-465.72369384765625
-465.6925354003906
-465.8598937988281
-466.50360107421875
-466.8170166015625
-467.42034912109375
-467.702880859375
-468.0158996582031
-468.03228759765625
-468.1882019042969
-468.7220153808594
-468.9908142089844
-466.3509826660156
-464.83172607421875
-464.6344909667969
-464.9933166503906
-465.0755920410156
-467.2260437011719
-469.7352294921875
-469.57916259765625
-469.7517395019531
-470.4217529296875
-470.8045959472656
-471.24505615234375
-471.42205810546875
-471.544677734375
-471.6731872558594
-471.8577575683594
-472.0250549316406
-472.2189025878906
-470.5144958496094
-468.9945373535156
-469.184326171875
-469.451416015625
-469.67913818359375
-468.99420166015625
-466.8614501953125
-465.1988830566406
-464.7982482910156
-464.9105529785156
-465.3294677734375
-465.43768310546875
-465.6099548339844
-465.80224609375
-465.8710021972656
-465.95501708984375
-466.2132263183594
-466.5877685546875
-467.0682067871094
-467.39080810546875
-467.65301513671875
-467.92974853515625
-468.08795166015625
-468.2347106933594
-468.3514099121094
-468.6462097167969
-468.8330383300781
-469.0303039550781
-469.20489501953125
-469.4930114746094
-469.7863464355469
-470.0194396972656
-469.35015869140625
-467.3133544921875
-465.7348937988281
-465.4622802734375
-465.9181823730469
-466.0597839355469
-466.5407409667969
-466.7053527832031
-466.75677490234375
-466.5924987792969
-466.3320007324219
-466.40716552734375
-466.75091552734375
-467.07733154296875
-467.3931884765625
-467.77386474609375
-467.8982238769531
-468.0865478515625
-468.1835021972656
-468.3399658203125
-468.37652587890625
-468.42755126953125
-468.49078369140625
-468.76904296875
-469.0447692871094
-468.7751770019531
-467.15350341796875
-465.4338684082031
-464.8975830078125
-465.01715087890625
-465.5122985839844
-465.84881591796875
-466.1914978027344
-466.6585388183594
-466.40863037109375
-466.0574645996094
-466.0431823730469
-466.32354736328125
-466.73065185546875
-467.2396240234375
-467.56439208984375
-467.82086181640625
-468.0351867675781
-468.2266845703125
-468.1959533691406
-468.35498046875
-468.4666442871094
-468.69708251953125
-468.9520568847656
-468.0002746582031
-466.0162353515625
-464.6109619140625
-464.56414794921875
-464.7298889160156
-465.12872314453125
-465.3746337890625
-465.5617370605469
-465.73968505859375
-465.87713623046875
-465.6517639160156
-465.5816650390625
-465.9696960449219
-465.967041015625
-466.6817932128906
-467.0686340332031
-467.227294921875
-467.4389953613281
-467.5548095703125
-467.76666259765625
-467.94366455078125
-468.12664794921875
-468.3572692871094
-468.6007995605469
-468.9684143066406
-467.87957763671875
-465.7380065917969
-464.3717956542969
-464.04180908203125
-464.36651611328125
-466.6301574707031
-468.7550964355469
-468.9593505859375
-469.0829162597656
-468.8912048339844
-469.030517578125
-468.87725830078125
-469.5412292480469
-469.7200012207031
-470.3866271972656
-470.7969970703125
-471.08050537109375
-471.3451232910156
-471.5648193359375
-471.7991027832031
-472.0948791503906
-472.26580810546875
-472.3896179199219
-471.6788635253906
-470.99334716796875
-470.2612609863281
-468.0353088378906
-465.9896240234375
-463.86981201171875
-463.8550109863281
-463.8691101074219
-467.1156921386719
-468.2460632324219
-469.62255859375
-469.7222595214844
-469.60321044921875
-469.53289794921875
-468.7201843261719
-469.0669860839844
-469.4400939941406
-469.861328125
-470.2666931152344
-470.60723876953125
-470.84112548828125
-470.87884521484375
-470.9766540527344
-471.2219543457031
-471.4895324707031
-471.701904296875
-471.91949462890625
-472.24481201171875
-472.5665283203125
-470.457275390625
-467.6452941894531
-464.74969482421875
-464.119384765625
-464.3130798339844
-464.39349365234375
-466.5592041015625
-468.9715881347656
-469.2297058105469
-470.18975830078125
-469.9574279785156
-469.9228210449219
-470.1826477050781
-470.654541015625
-471.0281677246094
-471.3424987792969
-471.6867370605469
-471.9679260253906
-472.1150817871094
-472.3028564453125
-470.4458923339844
-469.6514587402344
-468.86920166015625
-469.0891418457031
-469.3948974609375
-469.79656982421875
-469.5475769042969
-467.8065490722656
-466.18414306640625
-465.69854736328125
-465.9526672363281
-466.4230651855469
-466.6177062988281
-466.8634033203125
-467.0718994140625
-466.8077697753906
-466.4957275390625
-466.5615234375
-466.7880859375
-467.0289001464844
-467.417724609375
-467.7153625488281
-467.9898681640625
-468.1993408203125
-468.318115234375
-468.3265686035156
-468.36810302734375
-468.4881896972656
-468.80303955078125
-468.88427734375
-467.769287109375
-466.10369873046875
-465.1043395996094
-465.1341857910156
-465.2980041503906
-465.6793518066406
-465.8357238769531
-466.2332763671875
-466.119384765625
-465.85687255859375
-465.675537109375
-465.96270751953125
-466.05157470703125
-466.76220703125
-467.1158447265625
-467.34613037109375
-467.6588439941406
-467.6084899902344
-467.71807861328125
-467.77569580078125
-467.9579772949219
-468.10711669921875
-467.54632568359375
-465.7181701660156
-464.3446044921875
-464.1629638671875
-464.2493591308594
-466.4795227050781
-468.6307373046875
-468.9445495605469
-469.08367919921875
-468.91864013671875
-468.8766174316406
-469.55133056640625
-469.5806579589844
-470.61114501953125
-470.7407531738281
-470.9921569824219
-471.1951904296875
-471.3340759277344
-471.50115966796875
-471.7739562988281
-472.01727294921875
-468.8431701660156
-466.82293701171875
-466.96038818359375
-468.6329040527344
-468.33941650390625
-468.9018859863281
-469.0678405761719
-469.0424499511719
-468.9674987792969
-469.2285461425781
-469.62933349609375
-469.9538269042969
-470.3577880859375
-470.69183349609375
-471.0461120605469
-471.2041320800781
-471.4349670410156
-471.5727233886719
-471.8688049316406
-472.0608825683594
-472.2355651855469
-472.51971435546875
-471.90008544921875
-471.0006408691406
-468.45599365234375
-465.5109558105469
-463.8115234375
-463.7541198730469
-466.1693420410156
-468.3193664550781
-469.7953796386719
-470.0423889160156
-470.1315002441406
-470.0233154296875
-470.03179931640625
-470.2673645019531
-470.6143493652344
-471.0740966796875
-471.5368957519531
-471.96075439453125
-472.104736328125
-472.2646789550781
-471.5096435546875
-470.67913818359375
-469.7970886230469
-469.0629577636719
-468.3346252441406
-468.6974182128906
-468.7870178222656
-469.11627197265625
-469.2480163574219
-467.6791076660156
-465.720703125
-464.9365539550781
-465.1661071777344
-465.5534973144531
-465.9017028808594
-466.0088806152344
-466.20404052734375
-466.39312744140625
-466.27325439453125
-466.2431945800781
-466.4629821777344
-466.8334655761719
-467.2594909667969
-467.6541442871094
-468.04010009765625
-468.3713073730469
-468.6455993652344
-468.7716064453125
-468.9396667480469
-469.0442199707031
-469.2389221191406
-469.3547058105469
-469.6794128417969
-470.05364990234375
-470.3396911621094
-470.14117431640625
-468.3105163574219
-466.68084716796875
-466.1580505371094
-466.5079345703125
-467.0618896484375
-467.2966613769531
-467.57525634765625
-467.683837890625
-467.1123962402344
-467.2689208984375
-467.9735412597656
-468.2035827636719
-468.4748229980469
-468.7762756347656
-468.8981628417969
-469.0434265136719
-469.3366394042969
-468.9706726074219
-467.19769287109375
-465.7908630371094
-466.02313232421875
-466.4771728515625
-466.7411804199219
-467.13751220703125
-466.7794494628906
-466.5389099121094
-466.65960693359375
-467.30218505859375
-467.659912109375
-468.053466796875
-468.2796325683594
-468.5285339355469
-468.767333984375
-468.9071044921875
-469.10076904296875
-469.4952087402344
-469.2611389160156
-467.5347595214844
-465.8410949707031
-465.26702880859375
-465.65545654296875
-466.0455322265625
-466.30694580078125
-466.4228820800781
-466.58258056640625
-466.5302429199219
-466.4654846191406
-466.4297180175781
-466.67828369140625
-467.0608215332031
-467.4263916015625
-467.8362121582031
-468.0342712402344
-468.2026672363281
-468.3009948730469
-468.4703063964844
-468.56982421875
-468.7186584472656
-469.0226745605469
-469.38629150390625
-469.66534423828125
-469.6915588378906
-468.1022033691406
-465.82879638671875
-464.9345703125
-464.9628601074219
-465.4530334472656
-465.76934814453125
-465.8567810058594
-466.004150390625
-466.0404968261719
-465.86138916015625
-465.8339538574219
-466.04840087890625
-466.41082763671875
-466.8161926269531
-467.10101318359375
-467.4610290527344
-467.7202453613281
-467.90338134765625
-468.0920104980469
-468.1451416015625
-468.2884216308594
-468.59088134765625
-468.8309020996094
-469.0239562988281
-469.25994873046875
-469.55126953125
-469.5357360839844
-467.80389404296875
-465.4964294433594
-464.6727600097656
-464.9634094238281
-465.4341735839844
-465.8091125488281
-465.8039855957031
-465.9429016113281
-466.0791015625
-465.9230041503906
-465.87432861328125
-466.1141662597656
-466.5041809082031
-466.95501708984375
-467.3377380371094
-467.6739501953125
-467.93170166015625
-468.09161376953125
-468.215087890625
-468.2824401855469
-468.5379943847656
-468.74224853515625
-468.97564697265625
-469.2351379394531
-469.454833984375
-469.92755126953125
-470.1133117675781
-468.89105224609375
-466.5831604003906
-465.1878356933594
-465.1005554199219
-465.5658264160156
-465.97589111328125
-466.1862487792969
-466.4544982910156
-466.49090576171875
-466.34112548828125
-466.22674560546875
-466.3405456542969
-466.5935363769531
-467.0110168457031
-467.3988342285156
-467.8146057128906
-468.13104248046875
-468.4502868652344
-468.62567138671875
-468.768798828125
-468.8977355957031
-469.3053283691406
-469.55572509765625
-469.8442687988281
-468.4600830078125
-466.3774719238281
-465.4266357421875
-465.5993347167969
-466.2522888183594
-466.7012023925781
-466.97235107421875
-466.9413146972656
-466.3827819824219
-466.6553955078125
-467.0341796875
-467.4476623535156
-467.7945861816406
-468.1023864746094
-468.3215026855469
-468.4680480957031
-468.5816955566406
-468.6966857910156
-468.9777526855469
-469.3411560058594
-469.4012756347656
-467.8754577636719
-465.9245910644531
-464.98565673828125
-465.24951171875
-465.6679992675781
-466.0684814453125
-466.2798767089844
-466.5951843261719
-466.4424743652344
-466.0627746582031
-465.87078857421875
-466.1793518066406
-466.6861267089844
-467.01300048828125
-467.3182067871094
-467.6880798339844
-467.9800109863281
-468.0697326660156
-468.2174072265625
-468.2433776855469
-468.34979248046875
-468.6470947265625
-468.97265625
-468.80206298828125
-466.92828369140625
-464.9197082519531
-464.096435546875
-464.25738525390625
-464.41357421875
-467.5716857910156
-468.7414245605469
-470.25079345703125
-470.2824401855469
-470.2243957519531
-470.17645263671875
-470.36968994140625
-470.6227111816406
-471.0382080078125
-471.4327392578125
-471.70111083984375
-471.9657287597656
-472.13336181640625
-470.3831787109375
-469.5484313964844
-468.777587890625
-469.01861572265625
-469.3143005371094
-469.6529235839844
-467.3630676269531
-465.38409423828125
-464.71185302734375
-465.162841796875
-465.31866455078125
-465.66912841796875
-465.6666259765625
-465.8713684082031
-466.0856018066406
-466.9337158203125
-467.3269348144531
-467.6017150878906
-468.04498291015625
-468.2349548339844
-468.4127197265625
-468.9515686035156
-469.2192687988281
-469.6498718261719
-469.8320617675781
-467.7528991699219
-465.8262939453125
-465.591796875
-465.65057373046875
-465.8988342285156
-466.5503234863281
-466.6309509277344
-466.5083923339844
-466.54632568359375
-466.61773681640625
-467.0283203125
-467.47802734375
-467.88995361328125
-468.15240478515625
-468.41046142578125
-468.49432373046875
-468.53814697265625
-468.7166442871094
-468.8631286621094
-469.079833984375
-469.2356262207031
-469.60107421875
-469.6886901855469
-468.55523681640625
-466.5245666503906
-465.4159240722656
-465.5634460449219
-465.73614501953125
-466.1063537597656
-466.6529846191406
-466.89166259765625
-466.83221435546875
-466.48077392578125
-466.3552551269531
-466.5298767089844
-466.8727722167969
-467.2757873535156
-467.6705322265625
-467.91937255859375
-468.14825439453125
-468.3526916503906
-468.3344421386719
-468.43634033203125
-468.6809387207031
-468.89434814453125
-469.04400634765625
-468.14794921875
-466.1717529296875
-465.0734558105469
-465.0721435546875
-465.36962890625
-465.7271728515625
-466.01141357421875
-466.54071044921875
-466.64678955078125
-466.33502197265625
-466.12127685546875
-466.3468322753906
-466.6118469238281
-467.0178527832031
-467.3104248046875
-467.60784912109375
-467.7905578613281
-467.9697265625
-468.1287841796875
-468.1918029785156
-468.4142761230469
-468.68743896484375
-468.864013671875
-468.9679870605469
-467.80413818359375
-465.8001403808594
-464.7520446777344
-464.8681335449219
-464.9579162597656
-465.1897888183594
-465.347900390625
-465.5650329589844
-465.6525573730469
-465.79583740234375
-465.39178466796875
-465.8336181640625
-465.8800048828125
-466.5888977050781
-466.8711242675781
-467.1302795410156
-467.4519348144531
-467.6375427246094
-467.6733093261719
-467.81201171875
-468.1253662109375
-468.3409118652344
-468.51605224609375
-468.973876953125
-469.2808532714844
-468.7716979980469
-466.7444152832031
-465.2547912597656
-464.98486328125
-465.0660095214844
-465.5120544433594
-465.55377197265625
-465.7259521484375
-465.9299011230469
-466.2646484375
-466.2083435058594
-466.42218017578125
-466.6773681640625
-467.0514221191406
-467.3726806640625
-467.7791748046875
-468.12176513671875
-468.39886474609375
-468.5758056640625
-468.7516174316406
-469.0200500488281
-469.1758728027344
-469.36212158203125
-469.6626281738281
-469.9288024902344
-470.3423156738281
-469.97509765625
-468.0037536621094
-466.3880920410156
-465.9724426269531
-466.25982666015625
-466.68292236328125
-466.8571472167969
-467.0445861816406
-467.30889892578125
-467.2882385253906
-467.1927795410156
-467.2530212402344
-467.5067138671875
-467.9933776855469
-468.379638671875
-468.599853515625
-468.9640197753906
-469.19866943359375
-469.4609680175781
-469.6418151855469
-469.8350830078125
-469.9461669921875
-470.1274719238281
-470.3265075683594
-470.561279296875
-470.8483581542969
-471.0906677246094
-470.2550964355469
-468.2662048339844
-466.8467102050781
-466.6619873046875
-467.0819091796875
-467.3993835449219
-467.4360046386719
-467.6603088378906
-467.80096435546875
-467.6882019042969
-467.5830383300781
-467.766357421875
-468.03985595703125
-468.3066711425781
-468.81964111328125
-469.15521240234375
-469.4366760253906
-469.5887451171875
-469.7596435546875
-469.94805908203125
-470.189208984375
-470.4145202636719
-470.5652770996094
-470.7903137207031
-471.03997802734375
-471.4884338378906
-471.3916931152344
-469.7051086425781
-467.81939697265625
-467.0743713378906
-467.2386474609375
-467.7264099121094
-467.95831298828125
-468.29510498046875
-468.39996337890625
-468.3601989746094
-468.0385437011719
-467.9315490722656
-468.0269470214844
-468.455078125
-468.8692321777344
-469.2848815917969
-469.62774658203125
-469.8800048828125
-469.92303466796875
-469.9117431640625
-469.8991394042969
-470.10272216796875
-470.2585754394531
-470.4169921875
-470.46990966796875
-469.3533935546875
-467.4506530761719
-466.5686950683594
-466.6498718261719
-467.2435302734375
-467.6075744628906
-467.8923034667969
-468.2037353515625
-467.9985656738281
-467.6780700683594
-467.4818115234375
-467.5983581542969
-467.9712219238281
-468.33258056640625
-468.6443176269531
-468.9823913574219
-469.0978698730469
-469.1781311035156
-469.236328125
-469.3538513183594
-469.5406188964844
-469.3577880859375
-467.90435791015625
-466.1953125
-465.5700988769531
-465.8215637207031
-466.01275634765625
-466.5997619628906
-466.88555908203125
-467.0040588378906
-466.83746337890625
-466.6242370605469
-466.6372375488281
-466.7439880371094
-467.02349853515625
-467.4469909667969
-467.7616271972656
-468.09344482421875
-468.2951965332031
-468.32916259765625
-468.3850402832031
-468.6158447265625
-468.79302978515625
-468.0650329589844
-466.2234191894531
-464.8864440917969
-464.7972106933594
-464.888427734375
-465.2897644042969
-465.3275451660156
-465.5264892578125
-465.565185546875
-465.3480529785156
-465.5553894042969
-465.4616394042969
-465.5496520996094
-465.9685363769531
-466.31658935546875
-466.7619934082031
-467.0534362792969
-467.2047119140625
-467.2138366699219
-467.4193420410156
-467.5047302246094
-467.6098937988281
-466.7777404785156
-465.02752685546875
-463.74652099609375
-463.3468933105469
-463.7835388183594
-465.8623962402344
-467.9187927246094
-468.1588134765625
-469.39190673828125
-469.3501892089844
-469.47906494140625
-469.6685791015625
-469.75830078125
-470.2626647949219
-470.6383972167969
-470.91339111328125
-471.108642578125
-471.4660339355469
-471.5889587402344
-471.7814025878906
-471.9305419921875
-472.0873107910156
-472.2549743652344
-471.59405517578125
-470.8026428222656
-468.82318115234375
-465.8026123046875
-463.6043395996094
-464.5282897949219
-464.65130615234375
-466.8453063964844
-467.8442687988281
-469.0555725097656
-469.29949951171875
-469.24267578125
-469.2090759277344
-469.3707580566406
-469.5987243652344
-469.97802734375
-470.5660400390625
-470.94610595703125
-471.1487121582031
-471.3374328613281
-471.5781555175781
-471.7511291503906
-472.04718017578125
-472.2018127441406
-472.4535827636719
-471.6418762207031
-471.01416015625
-470.2416076660156
-469.51788330078125
-468.7942810058594
-465.7666931152344
-464.42578125
-464.12945556640625
-464.58056640625
-466.7721862792969
-468.8791198730469
-469.0997009277344
-470.1786193847656
-470.13458251953125
-470.24420166015625
-470.44256591796875
-470.7032470703125
-471.0874938964844
-471.4503173828125
-471.7308654785156
-471.96380615234375
-472.09747314453125
-472.2449035644531
-471.52691650390625
-470.57257080078125
-469.56640625
-468.7840270996094
-468.9688720703125
-469.3133544921875
-468.8424072265625
-466.9988098144531
-465.5564270019531
-465.37408447265625
-465.5165100097656
-465.9893493652344
-466.140380859375
-466.78466796875
-466.8511657714844
-466.5623474121094
-466.3824462890625
-466.54144287109375
-466.887939453125
-467.232421875
-467.6610412597656
-467.9436950683594
-468.13134765625
-468.363525390625
-468.5992126464844
-468.70013427734375
-468.9427185058594
-469.15057373046875
-467.74798583984375
-466.04168701171875
-465.41363525390625
-465.6641845703125
-465.82781982421875
-466.0551452636719
-466.6701965332031
-466.719482421875
-466.5416564941406
-466.6175537109375
-466.81463623046875
-467.1590270996094
-467.58056640625
-467.8816833496094
-468.30828857421875
-468.5176086425781
-468.6382141113281
-468.7877197265625
-468.8304443359375
-469.022216796875
-469.24627685546875
-469.4649658203125
-469.8251647949219
-468.80511474609375
-466.7796630859375
-465.5511779785156
-465.53179931640625
-465.754150390625
-466.25823974609375
-466.5995178222656
-466.8517761230469
-466.9760437011719
-466.8329772949219
-466.8115234375
-466.9478759765625
-467.25299072265625
-467.611083984375
-468.02593994140625
-468.3342590332031
-468.595458984375
-468.8768310546875
-469.0531921386719
-469.1905822753906
-469.2705383300781
-469.54449462890625
-469.76171875
-470.0673522949219
-470.3876953125
-470.0805969238281
-468.1553039550781
-466.3798828125
-466.00238037109375
-466.4299011230469
-466.85748291015625
-467.2297058105469
-467.3968505859375
-467.6792907714844
-467.60430908203125
-467.5160217285156
-467.5639343261719
-467.7433776855469
-468.1009521484375
-468.4949951171875
-469.0243835449219
-469.4320068359375
-469.65386962890625
-469.818359375
-469.93267822265625
-470.0113830566406
-470.29010009765625
-470.35638427734375
-470.68499755859375
-470.99542236328125
-471.291748046875
-471.52276611328125
-470.56195068359375
-468.3085632324219
-466.9892883300781
-467.01031494140625
-467.5545349121094
-468.06689453125
-468.21307373046875
-468.6050109863281
-468.658203125
-468.57489013671875
-468.4440612792969
-468.5186767578125
-468.8644714355469
-469.1999206542969
-469.6605529785156
-469.97137451171875
-470.2438659667969
-470.4023742675781
-470.5914001464844
-470.7596130371094
-470.8597106933594
-471.0535888671875
-471.2608337402344
-471.5067138671875
-471.7975769042969
-472.1241149902344
-472.2346496582031
-470.824951171875
-466.741455078125
-465.0122375488281
-465.2642822265625
-466.775146484375
-468.0264587402344
-469.27545166015625
-469.65478515625
-469.5712890625
-469.3152160644531
-469.2530517578125
-469.3346252441406
-469.6976013183594
-470.0994873046875
-470.6341857910156
-471.0267333984375
-471.2506408691406
-471.4222412109375
-471.6683349609375
-471.8310546875
-472.0206298828125
-472.1398010253906
-472.327880859375
-471.5997009277344
-471.0582275390625
-470.522705078125
-468.16339111328125
-466.04473876953125
-464.31573486328125
-463.965576171875
-464.39923095703125
-466.8114318847656
-469.05438232421875
-469.4058532714844
-469.42291259765625
-469.17791748046875
-468.8042907714844
-468.7244873046875
-468.91363525390625
-469.2138977050781
-469.6313781738281
-470.1061096191406
-470.443115234375
-470.6723327636719
-470.7119140625
-470.68780517578125
-470.78363037109375
-470.8975524902344
-471.0893249511719
-471.3076477050781
-470.9804992675781
-469.1346435546875
-467.361083984375
-466.9208679199219
-467.31219482421875
-467.9359130859375
-468.4020080566406
-468.7358703613281
-468.7488708496094
-468.5189208984375
-468.2098083496094
-468.0827941894531
-468.16943359375
-468.5647888183594
-469.0105285644531
-469.3005065917969
-469.5916442871094
-469.76776123046875
-469.835693359375
-470.0264587402344
-470.15716552734375
-470.4088439941406
-469.6331787109375
-467.5247802734375
-466.1886901855469
-466.4104919433594
-467.0416564941406
-467.3099670410156
-467.66473388671875
-467.4341125488281
-467.129638671875
-467.3125305175781
-467.7077331542969
-468.1534118652344
-468.4942321777344
-468.7634582519531
-468.95782470703125
-469.0570373535156
-469.2189025878906
-469.3042297363281
-469.3359375
-468.18194580078125
-466.0302734375
-464.88909912109375
-464.9715576171875
-465.264892578125
-465.6366271972656
-465.8306884765625
-466.0129089355469
-466.3039245605469
-466.1304016113281
-466.0372619628906
-466.1547546386719
-466.38482666015625
-467.0663757324219
-467.3558349609375
-467.5493469238281
-467.6964111328125
-467.6838073730469
-467.9116516113281
-468.0112609863281
-468.2609558105469
-468.3304138183594
-467.22930908203125
-465.22955322265625
-464.15252685546875
-463.8590393066406
-464.22320556640625
-467.43914794921875
-468.5576171875
-470.10101318359375
-470.29571533203125
-470.1514587402344
-469.0716552734375
-469.1453857421875
-469.2919006347656
-469.6813049316406
-470.09722900390625
-470.4315185546875
-470.57867431640625
-470.80224609375
-470.97637939453125
-470.98870849609375
-471.2611083984375
-471.4840087890625
-471.74212646484375
-472.0429382324219
-472.24169921875
-468.2323913574219
-466.1983642578125
-465.20489501953125
-466.31195068359375
-467.6141662597656
-468.7416687011719
-468.9939270019531
-469.3275146484375
-469.1087341308594
-469.1319580078125
-469.5562438964844
-469.8067626953125
-470.1119384765625
-470.43951416015625
-470.681396484375
-470.7896423339844
-470.9164123535156
-470.9394836425781
-471.0026550292969
-471.12908935546875
-471.4658203125
-471.6405944824219
-471.1527099609375
-469.2697448730469
-467.9052734375
-467.8455505371094
-468.29473876953125
-468.4558410644531
-469.0038757324219
-469.0360107421875
-468.7305603027344
-468.59588623046875
-468.70477294921875
-469.47900390625
-469.8087463378906
-470.2882995605469
-470.4061584472656
-470.5763854980469
-470.62042236328125
-470.8743591308594
-471.1331787109375
-471.0733642578125
-469.5784912109375
-467.96759033203125
-467.5486755371094
-467.61669921875
-468.0094909667969
-468.2108154296875
-468.4159851074219
-468.93817138671875
-468.7904052734375
-468.77288818359375
-468.7692565917969
-469.069580078125
-469.3291931152344
-469.6965637207031
-470.0048828125
-470.25665283203125
-470.3563232421875
-470.5844421386719
-470.74951171875
-470.8627014160156
-471.28973388671875
-471.46612548828125
-469.818603515625
-467.619384765625
-467.6018371582031
-467.9523010253906
-468.02642822265625
-468.3951721191406
-468.490234375
-468.7013854980469
-468.896484375
-469.1661682128906
-469.4770202636719
-469.8314514160156
-470.4341125488281
-470.5732727050781
-470.8108825683594
-471.0184020996094
-471.1562194824219
-471.3314514160156
-471.47735595703125
-471.8189697265625
-472.2121887207031
-472.2358093261719
-470.6620788574219
-467.7464294433594
-465.3825378417969
-465.8326721191406
-465.7066650390625
-465.92626953125
-466.20751953125
-466.82904052734375
-466.74127197265625
-466.7407531738281
-466.93695068359375
-467.3414306640625
-467.71197509765625
-467.99041748046875
-468.3247985839844
-468.5337219238281
-468.7669982910156
-468.98956298828125
-469.146484375
-469.3575134277344
-469.6324157714844
-469.79302978515625
-470.03753662109375
-470.2724304199219
-470.59027099609375
-470.8892517089844
-470.80828857421875
-468.97662353515625
-467.16961669921875
-466.6494445800781
-467.09759521484375
-467.59320068359375
-467.8468933105469
-467.975341796875
-468.23089599609375
-468.26226806640625
-468.2171325683594
-468.1221923828125
-468.4005126953125
-468.8065490722656
-469.2267761230469
-469.57794189453125
-469.8547668457031
-470.0235290527344
-470.2812194824219
-470.52581787109375
-470.6374206542969
-470.7877502441406
-471.0179138183594
-471.2217712402344
-471.44647216796875
-471.744384765625
-472.0468444824219
-472.30712890625
-471.35546875
-468.425048828125
-466.3193664550781
-465.37921142578125
-466.0242919921875
-468.3013000488281
-469.486572265625
-469.7783508300781
-469.7511291503906
-469.4523620605469
-469.27728271484375
-469.3534851074219
-469.7024841308594
-470.08477783203125
-470.46881103515625
-470.6978454589844
-470.9008483886719
-471.14093017578125
-471.1576232910156
-471.20452880859375
-471.2149658203125
-471.350830078125
-471.5309753417969
-471.8756408691406
-471.9715270996094
-471.0776672363281
-467.2808532714844
-465.24432373046875
-465.266357421875
-465.8240966796875
-468.11279296875
-469.4112854003906
-469.8555908203125
-469.7965087890625
-469.36163330078125
-469.2331848144531
-469.3634948730469
-469.77386474609375
-470.1020202636719
-470.4653015136719
-470.78057861328125
-471.1102600097656
-471.3780517578125
-471.365478515625
-471.4032287597656
-471.5633544921875
-471.8345947265625
-472.1992492675781
-472.3034973144531
-470.57470703125
-467.5990905761719
-465.82757568359375
-465.2251892089844
-465.7661437988281
-466.06488037109375
-466.343994140625
-466.602783203125
-466.61810302734375
-466.37835693359375
-466.3019714355469
-466.3777770996094
-466.64013671875
-467.04058837890625
-467.35345458984375
-467.52734375
-467.9162902832031
-468.12054443359375
-468.31256103515625
-468.4566345214844
-468.5576171875
-468.62939453125
-469.00506591796875
-469.3144836425781
-468.8017883300781
-466.55975341796875
-464.9378967285156
-464.64459228515625
-465.1065979003906
-465.6203918457031
-465.7689208984375
-465.97900390625
-466.1177062988281
-466.0509338378906
-465.80633544921875
-465.7903747558594
-466.0984802246094
-466.40655517578125
-466.8898010253906
-467.3164978027344
-467.6637878417969
-467.8927307128906
-468.0734558105469
-468.2064514160156
-468.28057861328125
-468.3584289550781
-468.5492248535156
-468.8731689453125
-469.21954345703125
-469.44146728515625
-467.6946105957031
-465.6260070800781
-464.7388916015625
-465.0479431152344
-465.5199890136719
-465.9156494140625
-466.0396423339844
-466.3535461425781
-466.3988342285156
-466.234130859375
-466.0158386230469
-466.2257995605469
-466.6121520996094
-467.0464782714844
-467.3969421386719
-467.8005065917969
-468.0229797363281
-468.2165222167969
-468.4850769042969
-468.742431640625
-468.7295227050781
-468.9403076171875
-469.1759338378906
-469.5434265136719
-469.83380126953125
-470.0059509277344
-468.85040283203125
-466.4853820800781
-465.3614807128906
-465.533447265625
-465.9436950683594
-466.4305419921875
-466.7332458496094
-466.96600341796875
-466.95159912109375
-466.7033996582031
-466.52606201171875
-466.5974426269531
-466.91290283203125
-467.1739807128906
-467.57965087890625
-467.9180908203125
-468.0188903808594
-468.2555236816406
-468.3521423339844
-468.30584716796875
-468.3882751464844
-468.5015869140625
-468.801025390625
-468.9496154785156
-467.61334228515625
-465.6595153808594
-464.7119445800781
-464.7402038574219
-465.3887023925781
-465.8241882324219
-466.095703125
-466.4801025390625
-466.3058166503906
-465.94512939453125
-465.7302551269531
-465.9000244140625
-466.2820129394531
-466.6717224121094
-466.9967041015625
-467.25909423828125
-467.5257873535156
-467.68408203125
-467.7302551269531
-467.6913757324219
-467.78680419921875
-468.1610107421875
-467.89093017578125
-465.9812316894531
-464.0382385253906
-463.5626525878906
-463.6920471191406
-467.0914001464844
-468.3135070800781
-469.70263671875
-469.8909606933594
-469.7249755859375
-469.45062255859375
-468.4028625488281
-468.9349670410156
-469.3459167480469
-470.0494384765625
-470.4447937011719
-470.4706115722656
-470.6392822265625
-471.0106201171875
-470.8177185058594
-466.9573669433594
-466.16064453125
-466.2388916015625
-466.7045593261719
-466.95050048828125
-467.1696472167969
-467.58038330078125
-467.6396789550781
-467.4462890625
-467.4426574707031
-467.6484680175781
-467.8949890136719
-468.30908203125
-468.64398193359375
-468.939697265625
-469.15789794921875
-469.25848388671875
-469.5045471191406
-469.5934143066406
-469.7030334472656
-469.89874267578125
-470.1412353515625
-470.4241638183594
-470.37640380859375
-468.4345397949219
-466.31976318359375
-465.5398864746094
-465.5731506347656
-466.07171630859375
-466.2158508300781
-466.4217224121094
-466.6444396972656
-466.5937805175781
-466.5841369628906
-466.5426940917969
-466.7250061035156
-467.073486328125
-467.56597900390625
-468.3465270996094
-468.7451477050781
-468.97412109375
-469.1923828125
-469.4009704589844
-469.51129150390625
-469.7217712402344
-469.88031005859375
-470.1413879394531
-470.4675598144531
-470.7039489746094
-470.9319763183594
-470.00604248046875
-467.6317138671875
-466.1524963378906
-466.0611267089844
-466.2961120605469
-466.7908935546875
-467.01763916015625
-467.2473449707031
-467.564453125
-467.3246765136719
-467.0688781738281
-467.2677917480469
-467.6109619140625
-467.95794677734375
-468.3713684082031
-468.6468505859375
-468.80059814453125
-468.9268798828125
-468.9570617675781
-469.010009765625
-469.1228942871094
-469.15765380859375
-469.37969970703125
-469.6895751953125
-469.794921875
-468.3629455566406
-466.44281005859375
-465.5850524902344
-465.5735168457031
-466.0829772949219
-466.393798828125
-466.809814453125
-467.097900390625
-466.9423522949219
-466.9737243652344
-466.9127502441406
-467.1860656738281
-467.5721740722656
-467.9197692871094
-468.2857971191406
-468.4996032714844
-468.7623596191406
-468.8851623535156
-469.0166931152344
-469.1116943359375
-469.2294616699219
-469.32598876953125
-469.7293395996094
-469.7751159667969
-468.3990783691406
-466.3572692871094
-465.47344970703125
-465.3303527832031
-465.90789794921875
-466.0950012207031
-466.1711730957031
-466.4308166503906
-466.5944519042969
-466.31182861328125
-466.2564392089844
-466.5934753417969
-466.8783874511719
-467.3843688964844
-467.8991394042969
-468.105224609375
-468.3719482421875
-468.55853271484375
-468.756591796875
-469.07501220703125
-469.7244873046875
-469.36602783203125
-467.2004699707031
-465.3749084472656
-465.56005859375
-465.9511413574219
-466.275146484375
-466.3578796386719
-466.3437805175781
-466.30450439453125
-467.12847900390625
-468.2705993652344
-468.61444091796875
-468.80181884765625
-468.8072814941406
-469.27117919921875
-469.4248352050781
-469.9609375
-470.2482604980469
-470.5083923339844
-467.63623046875
-465.981201171875
-465.82342529296875
-466.4580078125
-466.67205810546875
-466.8494567871094
-466.9836730957031
-467.2316589355469
-467.8526306152344
-468.2099609375
-468.5755615234375
-468.99688720703125
-469.15179443359375
-469.3562316894531
-469.51983642578125
-469.6625671386719
-469.8310241699219
-470.08746337890625
-470.3321228027344
-470.629150390625
-470.9070739746094
-471.24908447265625
-471.5010681152344
-470.00274658203125
-467.82196044921875
-466.839111328125
-466.9709167480469
-467.3128356933594
-467.98809814453125
-468.1998291015625
-468.4110412597656
-468.4562072753906
-468.1036376953125
-468.0510559082031
-468.14215087890625
-468.5620422363281
-468.9447326660156
-469.35888671875
-469.689697265625
-470.04132080078125
-470.16546630859375
-470.1944274902344
-470.1802978515625
-470.2361755371094
-470.3413391113281
-470.63372802734375
-470.8387756347656
-471.1081237792969
-470.1688537597656
-468.1511535644531
-467.0396728515625
-466.9296569824219
-467.2598571777344
-468.32318115234375
-468.668701171875
-468.6275939941406
-468.3792724609375
-468.16021728515625
-468.20941162109375
-468.55377197265625
-469.2983093261719
-469.973388671875
-470.2778015136719
-470.43408203125
-470.8952331542969
-471.02435302734375
-467.0585021972656
-466.686279296875
-467.0533447265625
-467.62200927734375
-467.7904052734375
-467.56451416015625
-467.5234069824219
-467.8744201660156
-468.71539306640625
-469.20166015625
-469.3005676269531
-469.32366943359375
-469.8023376464844
-469.9852294921875
-470.2863464355469
-470.52294921875
-469.30731201171875
-466.8700256347656
-465.6407165527344
-465.30682373046875
-465.7688903808594
-466.20806884765625
-466.3202819824219
-466.5111083984375
-466.6152038574219
-466.4369812011719
-466.2153015136719
-466.3230285644531
-466.6146545410156
-467.0266418457031
-467.4984436035156
-468.0686950683594
-468.3336181640625
-468.46954345703125
-468.67315673828125
-468.8497314453125
-468.9049377441406
-469.16131591796875
-469.3692932128906
-469.7196044921875
-470.03314208984375
-470.24627685546875
-470.14080810546875
-468.05072021484375
-466.1026306152344
-465.2994384765625
-465.26995849609375
-465.7323303222656
-466.02069091796875
-466.2685546875
-466.5404052734375
-466.4447937011719
-466.149658203125
-466.0264892578125
-466.2919616699219
-466.63623046875
-466.9787292480469
-467.4910888671875
-468.0494079589844
-468.2552490234375
-468.543212890625
-468.6809387207031
-468.75360107421875
-468.9175720214844
-469.1934509277344
-469.4015197753906
-469.72320556640625
-469.98614501953125
-470.30877685546875
-470.5397033691406
-469.6605529785156
-467.2362365722656
-465.7250061035156
-465.5669250488281
-465.8406066894531
-466.2860412597656
-466.5441589355469
-466.810546875
-466.8888244628906
-466.4833068847656
-466.44866943359375
-466.17608642578125
-466.3808288574219
-466.83831787109375
-467.2384338378906
-467.6490173339844
-468.3079528808594
-468.4344482421875
-468.57763671875
-468.63262939453125
-468.67974853515625
-468.89453125
-469.0704345703125
-469.33074951171875
-469.17169189453125
-465.3782043457031
-464.6984558105469
-465.3367004394531
-465.58502197265625
-466.1600646972656
-465.9462890625
-465.48822021484375
-465.73419189453125
-466.4729919433594
-467.22027587890625
-467.73956298828125
-467.92376708984375
-468.036865234375
-468.1424865722656
-468.63397216796875
-468.88592529296875
-467.9643859863281
-464.20916748046875
-463.5791931152344
-466.4525451660156
-467.6192626953125
-468.7276611328125
-469.7124938964844
-469.5610046386719
-469.5704650878906
-470.2538757324219
-470.7196960449219
-471.0509033203125
-471.8619079589844
-472.1371765136719
-472.331298828125
-472.7631530761719
-470.94696044921875
-470.4443664550781
-469.83697509765625
-470.3028869628906
-469.58270263671875
-467.1097717285156
-465.33740234375
-464.88934326171875
-465.0043029785156
-465.4109191894531
-465.6523132324219
-465.8587341308594
-466.0108337402344
-466.0320739746094
-465.7992858886719
-465.81549072265625
-466.1206359863281
-466.5604248046875
-467.00689697265625
-467.39739990234375
-468.0502014160156
-468.4075622558594
-468.51123046875
-468.7392272949219
-468.86572265625
-469.0611572265625
-469.239013671875
-469.44873046875
-469.7096862792969
-470.06634521484375
-470.4476318359375
-470.52264404296875
-468.9738464355469
-466.5762634277344
-465.4013366699219
-465.1271667480469
-465.6147155761719
-465.9150085449219
-466.0286865234375
-466.32330322265625
-466.4616394042969
-466.3383483886719
-466.2021789550781
-466.23077392578125
-466.65777587890625
-467.074462890625
-467.5803527832031
-468.1659851074219
-468.4818420410156
-468.5926513671875
-468.8305969238281
-468.90850830078125
-469.1854553222656
-469.3833923339844
-469.6806640625
-469.875
-470.15118408203125
-470.46697998046875
-470.8136291503906
-470.9501953125
-469.27490234375
-466.8970947265625
-465.8843688964844
-465.9280090332031
-466.3713684082031
-466.9070739746094
-467.054931640625
-467.595458984375
-467.5093994140625
-467.2120666503906
-466.990234375
-467.1037902832031
-467.5373229980469
-468.02996826171875
-468.44927978515625
-468.79669189453125
-468.9726257324219
-469.16754150390625
-469.1974182128906
-469.18408203125
-469.3511047363281
-469.36761474609375
-469.5489196777344
-469.82525634765625
-469.8492431640625
-468.1703186035156
-466.1194152832031
-465.2349548339844
-465.090087890625
-465.60943603515625
-465.9958801269531
-466.2618408203125
-466.61376953125
-466.5188293457031
-466.17626953125
-466.0341796875
-466.1880798339844
-466.55169677734375
-467.1278076171875
-467.47113037109375
-468.06182861328125
-468.3242492675781
-468.5201110839844
-468.6416015625
-468.7704162597656
-468.937744140625
-469.32196044921875
-469.5957336425781
-468.70477294921875
-466.5302734375
-465.02130126953125
-464.5528259277344
-464.8433837890625
-465.1795349121094
-466.3221740722656
-467.5028381347656
-468.6333923339844
-469.5443420410156
-469.3857116699219
-469.47027587890625
-469.7871398925781
-470.1351013183594
-470.6388854980469
-470.9716491699219
-471.4970703125
-471.8249206542969
-472.0357666015625
-472.002197265625
-472.1429443359375
-470.314697265625
-469.5113525390625
-469.96923828125
-470.1058654785156
-468.4773864746094
-466.3450622558594
-465.2787780761719
-464.9692077636719
-465.2684020996094
-465.4191589355469
-465.5516357421875
-465.73577880859375
-465.8280029296875
-465.7198791503906
-465.6560974121094
-465.8309631347656
-466.1457824707031
-466.51226806640625
-466.8856201171875
-467.1909484863281
-467.4845275878906
-467.67913818359375
-467.83526611328125
-467.9609680175781
-467.9783630371094
-468.0860290527344
-468.3128662109375
-468.8297119140625
-469.29046630859375
-469.45050048828125
-468.0250549316406
-465.7717590332031
-464.3133239746094
-464.6623229980469
-466.84283447265625
-467.90362548828125
-469.15362548828125
-469.24932861328125
-469.1604919433594
-469.2091064453125
-469.4429931640625
-469.63787841796875
-469.9859313964844
-470.4515686035156
-470.7718505859375
-470.9896240234375
-471.1507263183594
-471.3750915527344
-471.41143798828125
-471.4744567871094
-471.689697265625
-471.9224548339844
-472.2279357910156
-472.8074951171875
-473.1607971191406
-471.2065734863281
-468.0914001464844
-464.7301940917969
-464.1654357910156
-465.50384521484375
-466.7451477050781
-467.8284912109375
-469.1563415527344
-470.3642883300781
-470.1870422363281
-470.1472473144531
-470.2037658691406
-470.6181640625
-471.0398254394531
-471.4703674316406
-471.87445068359375
-472.1011047363281
-472.2294921875
-472.7660217285156
-472.9341125488281
-471.0756530761719
-470.23223876953125
-469.4230041503906
-468.4736328125
-469.0812072753906
-469.0584716796875
-468.650390625
-466.6993103027344
-465.2874755859375
-464.8714294433594
-465.3159484863281
-465.6788635253906
-465.88739013671875
-466.3050537109375
-466.38482666015625
-466.27154541015625
-466.1722717285156
-466.2919006347656
-466.7226257324219
-467.1344299316406
-467.49969482421875
-467.8282470703125
-468.1421203613281
-468.3332824707031
-468.43023681640625
-468.5088806152344
-468.6894836425781
-468.9736328125
-469.18902587890625
-469.9136962890625
-469.8750305175781
-468.5239562988281
-466.75
-465.8260192871094
-465.8341979980469
-466.29498291015625
-466.5596618652344
-466.802490234375
-467.1385498046875
-466.9747009277344
-466.6529235839844
-466.53900146484375
-466.8600769042969
-467.22174072265625
-467.56878662109375
-467.8734130859375
-468.1121520996094
-468.2830505371094
-468.49310302734375
-468.5201721191406
-468.86492919921875
-469.0403137207031
-469.228759765625
-469.2889099121094
-467.68035888671875
-466.0987854003906
-465.2287292480469
-465.6026916503906
-466.0635681152344
-466.3664855957031
-466.6015930175781
-466.77252197265625
-466.75006103515625
-466.4783630371094
-466.5806884765625
-466.7832336425781
-467.1663513183594
-467.4049987792969
-467.7828674316406
-468.050048828125
-468.324951171875
-468.4350891113281
-468.5476379394531
-468.6978759765625
-469.00848388671875
-469.3070983886719
-469.794189453125
-468.5322570800781
-466.51214599609375
-465.21337890625
-465.4158630371094
-465.7121887207031
-466.0242919921875
-466.10687255859375
-466.3759460449219
-466.494873046875
-466.33544921875
-466.2790222167969
-466.46466064453125
-466.79901123046875
-467.1968688964844
-467.4200439453125
-467.8235168457031
-468.1190185546875
-468.3238830566406
-468.5938415527344
-468.7184753417969
-468.9005126953125
-469.0711669921875
-469.5404968261719
-469.957275390625
-470.1568908691406
-468.74432373046875
-466.5658874511719
-465.4933166503906
-465.25555419921875
-465.6805419921875
-465.98675537109375
-466.1825256347656
-466.38739013671875
-466.57757568359375
-466.595947265625
-466.3975524902344
-466.3501281738281
-466.7750549316406
-467.1325378417969
-467.55755615234375
-467.8043212890625
-468.1308288574219
-468.2635803222656
-468.4501647949219
-468.64398193359375
-468.753662109375
-468.9452209472656
-469.1546630859375
-469.82952880859375
-470.1897888183594
-470.58526611328125
-470.0439147949219
-467.71484375
-465.98260498046875
-465.3093566894531
-465.6476745605469
-466.0847473144531
-466.356689453125
-466.4896240234375
-466.7091979980469
-466.67633056640625
-466.55914306640625
-466.5642395019531
-466.724853515625
-467.00146484375
-467.51336669921875
-467.7984924316406
-467.68475341796875
-467.8485107421875
-468.1424865722656
-468.36248779296875
-468.60101318359375
-468.8043212890625
-469.14715576171875
-469.3660888671875
-470.1361083984375
-470.4546813964844
-470.7264099121094
-469.3439636230469
-466.9883117675781
-466.0100402832031
-465.77435302734375
-466.2535400390625
-466.6674499511719
-467.07977294921875
-467.3317565917969
-467.39581298828125
-467.09295654296875
-466.9386901855469
-467.360595703125
-467.7087707519531
-468.4114685058594
-468.689453125
-469.1001281738281
-469.4349670410156
-469.6947021484375
-470.30377197265625
-470.6715087890625
-470.19683837890625
-468.2194519042969
-466.5245361328125
-466.4461669921875
-466.9400634765625
-467.32452392578125
-467.6990661621094
-467.32861328125
-466.9569091796875
-467.2810363769531
-467.6543273925781
-468.0882263183594
-468.7951354980469
-468.9889831542969
-469.01153564453125
-469.44940185546875
-469.5507507324219
-469.8695373535156
-467.9801330566406
-466.06378173828125
-465.2449645996094
-465.5672912597656
-466.1249694824219
-466.50323486328125
-466.67822265625
-466.9399719238281
-466.8236083984375
-466.4608459472656
-466.3988952636719
-466.52569580078125
-466.86431884765625
-467.30126953125
-467.68316650390625
-468.02178955078125
-468.2509765625
-468.4566955566406
-468.5894470214844
-468.6573181152344
-468.7933654785156
-469.007080078125
-469.3125305175781
-469.1749267578125
-466.9901123046875
-465.10626220703125
-464.4346923828125
-464.8746032714844
-465.271728515625
-468.5703125
-469.7456359863281
-469.90802001953125
-469.73004150390625
-468.55224609375
-468.5157165527344
-468.730712890625
-469.15106201171875
-469.5941467285156
-469.862548828125
-470.16845703125
-470.5237731933594
-470.6869812011719
-470.767822265625
-471.2123107910156
-471.38726806640625
-471.6108093261719
-471.8766784667969
-472.2840881347656
-472.2229919433594
-469.9925231933594
-466.8512268066406
-464.9264221191406
-465.2357177734375
-465.7967529296875
-465.963623046875
-466.0910339355469
-466.5108642578125
-466.4280090332031
-466.1927185058594
-466.1817321777344
-466.32672119140625
-466.6544494628906
-467.0926208496094
-467.4374084472656
-467.7415771484375
-467.996826171875
-468.3124694824219
-468.37457275390625
-468.4715576171875
-468.77978515625
-469.0904235839844
-469.4125061035156
-469.76165771484375
-469.1725158691406
-466.80450439453125
-464.795166015625
-464.5924072265625
-465.0460510253906
-465.3935241699219
-467.5595703125
-468.9179992675781
-470.047119140625
-469.9123840332031
-469.6805725097656
-469.69561767578125
-470.0593566894531
-470.44268798828125
-470.8877258300781
-471.2715759277344
-471.5104675292969
-471.8434753417969
-472.064697265625
-472.3910217285156
-472.5646667480469
-470.69293212890625
-469.94415283203125
-469.19769287109375
-468.383056640625
-468.6136169433594
-466.4980163574219
-464.57391357421875
-463.4777526855469
-463.6847839355469
-464.2161560058594
-467.594482421875
-468.72235107421875
-470.0069885253906
-469.8277282714844
-469.5091552734375
-469.51104736328125
-469.70916748046875
-470.10565185546875
-470.862060546875
-471.1885986328125
-471.4815673828125
-471.6874694824219
-471.87506103515625
-471.87646484375
-472.0030822753906
-472.17303466796875
-472.71881103515625
-472.52276611328125
-468.3924255371094
-465.64324951171875
-463.88873291015625
-465.35003662109375
-466.8271484375
-469.1359558105469
-469.6902770996094
-470.7984619140625
-470.49249267578125
-470.06011962890625
-470.1451721191406
-470.4009094238281
-470.7085266113281
-471.17681884765625
-471.5491943359375
-471.8866882324219
-472.1103210449219
-472.1615295410156
-472.124755859375
-471.3098449707031
-470.6612548828125
-469.786865234375
-467.66802978515625
-464.332275390625
-463.173583984375
-463.2945861816406
-466.917236328125
-468.3042297363281
-469.5641174316406
-469.8328857421875
-469.8621520996094
-469.6300048828125
-469.4754638671875
-469.6227722167969
-469.95001220703125
-470.3464050292969
-470.8254699707031
-471.1718444824219
-471.4631652832031
-471.7286376953125
-471.8487854003906
-471.8567199707031
-472.0994567871094
-472.2434997558594
-472.61761474609375
-472.3973693847656
-469.1366882324219
-466.2008972167969
-464.7464904785156
-465.04327392578125
-466.5350646972656
-467.619140625
-468.82501220703125
-469.1524353027344
-469.03729248046875
-468.88360595703125
-469.0305480957031
-469.3955078125
-469.7677307128906
-470.1430358886719
-470.5318603515625
-470.8591613769531
-471.12957763671875
-471.3202819824219
-471.5160217285156
-471.5839538574219
-471.6775817871094
-472.05206298828125
-472.3887023925781
-472.6695556640625
-471.93170166015625
-468.4476318359375
-465.71826171875
-464.3774719238281
-465.7469482421875
-467.1296691894531
-469.47528076171875
-469.5951843261719
-469.90289306640625
-469.93243408203125
-469.7383117675781
-469.8674621582031
-470.0556640625
-470.51336669921875
-471.0561828613281
-471.4541320800781
-471.79071044921875
-472.1118469238281
-472.4189147949219
-472.6108703613281
-472.773193359375
-470.91021728515625
-471.1453552246094
-470.4593200683594
-469.6493225097656
-469.01068115234375
-469.3022766113281
-467.9593811035156
-465.6304931640625
-464.3011474609375
-464.30517578125
-464.9118347167969
-468.3543395996094
-469.58544921875
-469.880859375
-470.00732421875
-469.8266296386719
-469.58856201171875
-469.8940124511719
-470.1324157714844
-470.5608825683594
-471.0533142089844
-471.5648193359375
-471.847900390625
-472.0511474609375
-472.197509765625
-472.32513427734375
-472.4412536621094
-471.6565246582031
-470.9194641113281
-470.29327392578125
-469.48760986328125
-468.4055480957031
-466.5494689941406
-464.9497375488281
-464.9279479980469
-465.4560852050781
-466.010986328125
-466.4466247558594
-466.60784912109375
-466.59564208984375
-466.256103515625
-466.1165771484375
-466.2052001953125
-466.6188049316406
-467.0901794433594
-467.5505065917969
-467.8008728027344
-468.2000427246094
-468.3759765625
-468.59783935546875
-468.6241455078125
-468.86627197265625
-469.26507568359375
-468.2399597167969
-464.97528076171875
-465.0077819824219
-465.539306640625
-465.96514892578125
-466.21875
-466.4723815917969
-466.56158447265625
-466.30877685546875
-466.1814880371094
-466.41302490234375
-466.659423828125
-467.013671875
-467.4703369140625
-467.7867126464844
-468.0502624511719
-468.3828430175781
-468.46856689453125
-468.533447265625
-469.02276611328125
-469.8222351074219
-469.1488952636719
-465.0142517089844
-464.8662109375
-465.2871398925781
-465.75067138671875
-467.8730773925781
-469.1253662109375
-469.3095703125
-469.2349853515625
-469.07415771484375
-469.17755126953125
-469.4640197753906
-469.865966796875
-470.4403076171875
-470.73468017578125
-471.0111389160156
-471.3359680175781
-471.6180725097656
-471.7763977050781
-471.8976135253906
-472.14251708984375
-472.3978576660156
-473.0423278808594
-472.41192626953125
-471.33892822265625
-468.33880615234375
-465.1862487792969
-463.13470458984375
-463.30853271484375
-465.83001708984375
-468.1346130371094
-469.4826965332031
-469.83343505859375
-469.936767578125
-469.9495849609375
-470.1949768066406
-470.7933654785156
-471.7827453613281
-472.58233642578125
-473.2110290527344
-473.7292175292969
-473.28265380859375
-472.59344482421875
-470.8684997558594
-469.9752502441406
-470.2756652832031
-469.51312255859375
-468.75189208984375
-469.0062561035156
-469.3742370605469
-469.5268249511719
-468.18505859375
-465.3638916015625
-463.6441345214844
-463.2500915527344
-463.5115661621094
-465.6668395996094
-467.44171142578125
-468.5213928222656
-469.4908752441406
-469.3763732910156
-469.030029296875
-468.6762390136719
-470.017333984375
-471.4604797363281
-472.0647888183594
-472.17022705078125
-470.0912170410156
-469.1563720703125
-468.0058898925781
-467.60791015625
-468.3302001953125
-467.98663330078125
-463.37030029296875
-461.75390625
-463.4632568359375
-470.5257263183594
-470.8761291503906
-471.8735046386719
-472.4088134765625
-474.12725830078125
-474.89910888671875
-474.7413330078125
-473.3520812988281
-472.4829406738281
-472.3059997558594
-469.7718200683594
-469.5814208984375
-471.109375
-473.8009948730469
-476.58807373046875
-477.6830139160156
-476.4416198730469
-473.5164489746094
-469.5662841796875
-466.50811767578125
-466.9787902832031
-467.4627685546875
-466.9058837890625
-467.9259033203125
-470.2104187011719
-471.3436584472656
-471.4599304199219
-471.8432312011719
-472.58984375
-473.7094421386719
-472.45867919921875
-470.3182373046875
-469.4954528808594
-470.54119873046875
-472.4990234375
-475.6588134765625
-478.197998046875
-478.66156005859375
-479.47906494140625
-478.81805419921875
-476.1737060546875
-474.53570556640625
-471.8807373046875
-472.3021240234375
-470.8876037597656
-470.159912109375
-471.6534423828125
-469.7423400878906
-468.22216796875
-468.4877624511719
-467.9930725097656
-469.30743408203125
-470.5520324707031
-472.7536926269531
-475.77911376953125
-476.1507263183594
-473.79302978515625
-472.0888671875
-468.3368835449219
-464.72052001953125
-462.053955078125
-461.2701721191406
-462.4207458496094
-463.32891845703125
-465.47894287109375
-467.199951171875
-467.37042236328125
-467.13323974609375
-465.8852233886719
-461.17962646484375
-452.8342590332031
-448.9156494140625
-451.6559143066406
-457.47418212890625
-465.8910217285156
-472.48150634765625
-477.3475341796875
-477.824951171875
-476.8706359863281
-475.2086181640625
-473.2248840332031
-468.4488525390625
-462.2286071777344
-458.1560974121094
-458.7586975097656
-461.4177551269531
-463.2642822265625
-465.2546691894531
-466.1869812011719
-467.4447021484375
-466.9496154785156
-465.7984924316406
-465.6434020996094
-466.67230224609375
-467.43902587890625
-468.49359130859375
-469.6208801269531
-470.7496337890625
-471.4839172363281
-471.99127197265625
-471.53875732421875
-471.41241455078125
-470.4892272949219
-469.349365234375
-469.565673828125
-466.3277587890625
-463.1497802734375
-461.1104736328125
-461.6099548339844
-463.65899658203125
-466.2880859375
-468.180908203125
-468.9097595214844
-469.5462646484375
-469.95635986328125
-470.2163391113281
-470.6860046386719
-471.2803039550781
-472.023193359375
-471.0190124511719
-470.6244201660156
-470.3981018066406
-469.319580078125
-469.0897216796875
-468.8061218261719
-468.39996337890625
-468.7599792480469
-469.3645324707031
-469.9331970214844
-470.5128479003906
-471.1429443359375
-471.53448486328125
-467.9343566894531
-464.364501953125
-461.691650390625
-461.4620056152344
-463.2778015136719
-464.03399658203125
-465.5718078613281
-466.57080078125
-468.45440673828125
-468.59246826171875
-468.42498779296875
-468.4866638183594
-469.1070861816406
-469.4110107421875
-470.0347900390625
-470.58404541015625
-470.9332275390625
-471.5220031738281
-472.00897216796875
-470.8135986328125
-470.46185302734375
-469.3903503417969
-468.9766540527344
-468.7369384765625
-468.5277404785156
-468.51165771484375
-469.0123291015625
-469.2553405761719
-467.52484130859375
-464.5575866699219
-462.6967468261719
-462.0700378417969
-462.1525573730469
-464.6492614746094
-465.45599365234375
-467.4467468261719
-467.69989013671875
-467.4309387207031
-467.2802734375
-467.5558166503906
-467.941650390625
-468.38818359375
-469.1753845214844
-469.8146667480469
-470.2431945800781
-470.8652648925781
-471.3289489746094
-471.5732727050781
-470.26702880859375
-469.81781005859375
-468.5616149902344
-467.7010803222656
-468.2212219238281
-467.83941650390625
-468.3731384277344
-467.8910827636719
-465.1539001464844
-462.0787048339844
-459.6777038574219
-459.9324645996094
-461.63446044921875
-464.2614440917969
-466.11334228515625
-467.23565673828125
-468.3211364746094
-468.1076965332031
-467.79022216796875
-467.684814453125
-467.9940185546875
-468.5540466308594
-469.1100158691406
-469.3792724609375
-470.0016784667969
-470.4151611328125
-470.65753173828125
-470.9476318359375
-469.6315002441406
-469.0904541015625
-468.6439208984375
-468.4197082519531
-467.8212890625
-464.7728576660156
-462.0605773925781
-460.7207336425781
-460.5758056640625
-463.1617126464844
-465.0295715332031
-466.4866638183594
-468.584228515625
-468.5315246582031
-468.1232604980469
-468.3675231933594
-468.9538269042969
-469.73565673828125
-471.2988586425781
-472.7365417480469
-473.6727600097656
-472.67669677734375
-471.3421325683594
-469.5045471191406
-469.1218566894531
