-217.05496215820313
-223.6409149169922
-432.0312805175781
-638.706787109375
-626.3785400390625
-659.9901733398438
-718.1990356445313
-675.8677978515625
-616.3907470703125
-563.3084716796875
-522.3209228515625
-573.1524658203125
-551.4072265625
-549.7401123046875
-518.5531616210938
-497.76007080078125
-477.07061767578125
-462.8243408203125
-465.4997863769531
-465.6883239746094
-467.8457336425781
-468.21954345703125
-469.8326721191406
-469.62652587890625
-471.06939697265625
-471.7400207519531
-472.36114501953125
-472.8783874511719
-473.4166259765625
-473.8219299316406
-474.27984619140625
-474.82098388671875
-473.7055969238281
-473.0465087890625
-472.490234375
-468.989013671875
-467.277587890625
-466.2782897949219
-466.6968078613281
-467.59075927734375
-469.7518310546875
-469.9544372558594
-470.6669921875
-470.28204345703125
-470.0219421386719
-469.8654479980469
-470.0096740722656
-470.37615966796875
-470.5949401855469
-470.91668701171875
-471.2281494140625
-471.4193420410156
-471.44476318359375
-471.4640808105469
-471.6767578125
-471.820556640625
-471.93719482421875
-472.0338134765625
-470.4413757324219
-468.2286376953125
-467.4412841796875
-467.4761047363281
-467.62335205078125
-467.764892578125
-467.93792724609375
-468.1078796386719
-467.9634094238281
-467.5638122558594
-467.3594970703125
-467.5090637207031
-467.6017761230469
-467.70111083984375
-467.6493835449219
-467.9405822753906
-468.2119445800781
-468.4301452636719
-468.6447448730469
-468.92291259765625
-469.1726989746094
-469.4813537597656
-469.7013854980469
-469.8304748535156
-469.94891357421875
-469.52252197265625
-467.51263427734375
-465.76141357421875
-465.4693603515625
-465.73876953125
-467.9061279296875
-469.7387390136719
-470.3706970214844
-470.4393005371094
-470.32061767578125
-470.15679931640625
-470.3824462890625
-470.9947204589844
-471.4432678222656
-471.9367370605469
-472.4469909667969
-472.9660949707031
-473.3278503417969
-473.770751953125
-474.1976623535156
-474.6520690917969
-474.3375549316406
-471.323974609375
-470.9740905761719
-471.30950927734375
-471.7257385253906
-471.3294372558594
-469.4446716308594
-467.8716125488281
-467.48626708984375
-467.59954833984375
-467.87652587890625
-467.9309997558594
-468.1039123535156
-468.26953125
-468.1512451171875
-467.9328918457031
-467.9290771484375
-468.2782897949219
-468.5726318359375
-468.99114990234375
-469.3888244628906
-469.56414794921875
-469.5968322753906
-469.79400634765625
-469.9942321777344
-470.1221618652344
-470.3004455566406
-470.6102600097656
-470.84124755859375
-471.09771728515625
-471.30963134765625
-471.5632019042969
-471.75140380859375
-471.8171691894531
-470.37322998046875
-468.1339416503906
-467.0229797363281
-466.92987060546875
-467.2573547363281
-467.50323486328125
-467.64508056640625
-467.7777099609375
-467.5970764160156
-467.18536376953125
-467.0875549316406
-467.6181945800781
-467.8837585449219
-468.1374816894531
-468.2372131347656
-468.2035827636719
-468.3091735839844
-468.9007263183594
-469.1800537109375
-469.3409118652344
-470.045166015625
-470.2458190917969
-470.2685852050781
-469.5699157714844
-467.1731872558594
-465.4693603515625
-465.05499267578125
-465.3177490234375
-466.2151794433594
-468.4075012207031
-470.7362060546875
-471.5385437011719
-471.30029296875
-470.99578857421875
-470.9798278808594
-471.3830871582031
-471.7414855957031
-472.1894226074219
-472.4924011230469
-472.7612609863281
-472.9967041015625
-473.0637512207031
-473.1404113769531
-473.2978515625
-473.582763671875
-473.84088134765625
-474.0128173828125
-473.06597900390625
-471.3218078613281
-470.3521728515625
-470.4850769042969
-468.8382873535156
-466.2713623046875
-464.6698303222656
-464.3218078613281
-464.569091796875
-467.5765686035156
-469.8569641113281
-471.00115966796875
-470.8427734375
-470.4698791503906
-470.2146911621094
-470.09197998046875
-470.44952392578125
-470.90521240234375
-471.2789611816406
-471.515869140625
-471.78466796875
-471.837158203125
-471.8765563964844
-471.81304931640625
-471.8626708984375
-472.1080017089844
-472.27032470703125
-472.5244140625
-472.6340026855469
-472.7705078125
-472.623779296875
-470.9300537109375
-468.4101867675781
-467.1562194824219
-466.8735656738281
-467.0115661621094
-466.9923095703125
-466.93731689453125
-466.8457336425781
-465.9847717285156
-465.1867980957031
-464.4447326660156
-465.97509765625
-467.16168212890625
-469.2784729003906
-469.9891662597656
-471.3274230957031
-471.1456604003906
-470.9452819824219
-469.2178039550781
-470.47271728515625
-470.29656982421875
-470.201904296875
-470.173828125
-470.295166015625
-470.43963623046875
-469.79168701171875
-467.2901611328125
-464.7850341796875
-463.09649658203125
-462.9006652832031
-464.26715087890625
-467.04559326171875
-468.552001953125
-469.6829528808594
-470.35821533203125
-469.7256774902344
-469.3650817871094
-469.4118347167969
-469.666748046875
-469.7412414550781
-469.87481689453125
-469.8777770996094
-469.77093505859375
-469.8623352050781
-469.81195068359375
-469.7732849121094
-469.8855285644531
-469.938720703125
-470.1366271972656
-469.8675231933594
-467.9813537597656
-466.22064208984375
-465.801513671875
-466.17010498046875
-468.92022705078125
-470.16204833984375
-472.08929443359375
-472.11468505859375
-470.8346252441406
-470.2471618652344
-470.292724609375
-470.5750732421875
-470.89154052734375
-471.1769714355469
-471.5519104003906
-471.7098388671875
-471.6437072753906
-471.697509765625
-471.9621887207031
-472.2591857910156
-472.5353698730469
-472.8121032714844
-471.9402770996094
-469.65386962890625
-468.5215148925781
-468.5381164550781
-469.0706481933594
-469.4001770019531
-470.0094909667969
-469.8435974121094
-469.5893859863281
-469.6748352050781
-470.99560546875
-472.4089660644531
-473.004150390625
-473.6802978515625
-475.4324035644531
-475.14801025390625
-474.9131164550781
-475.21246337890625
-473.6240539550781
-471.9959716796875
-468.8023376464844
-465.8675842285156
-466.36529541015625
-467.0073547363281
-470.8754577636719
-471.09954833984375
-471.9381103515625
-470.8385925292969
-471.1585998535156
-471.65203857421875
-472.1571350097656
-472.718994140625
-473.7212829589844
-474.17205810546875
-474.3747863769531
-474.4625549316406
-473.2328796386719
-471.3599853515625
-471.026611328125
-471.3878479003906
-471.4969482421875
-471.04339599609375
-468.82073974609375
-467.06402587890625
-466.197265625
-466.5216064453125
-467.0078125
-467.0234375
-467.1472473144531
-467.2267150878906
-467.00811767578125
-466.8383483886719
-466.9817810058594
-467.42742919921875
-467.91375732421875
-468.37554931640625
-468.6903076171875
-469.0111083984375
-469.96539306640625
-470.22991943359375
-470.5777282714844
-471.0094299316406
-471.3533020019531
-471.8070983886719
-472.3071594238281
-472.7747497558594
-473.0760192871094
-472.3310546875
-470.1158447265625
-468.8413391113281
-468.8908386230469
-469.27410888671875
-469.6213684082031
-469.8006591796875
-469.97882080078125
-470.13397216796875
-469.9599609375
-469.9024963378906
-470.078369140625
-470.514892578125
-471.02557373046875
-471.45489501953125
-471.8661804199219
-472.1972351074219
-472.3139953613281
-472.4902038574219
-472.8973693847656
-473.181640625
-473.5910339355469
-473.8693542480469
-474.3030700683594
-474.6689758300781
-473.627685546875
-471.7908020019531
-471.0997009277344
-468.2071533203125
-466.2919616699219
-465.7489318847656
-465.95257568359375
-465.8086853027344
-468.0506591796875
-470.9605712890625
-472.0245666503906
-472.7695007324219
-472.56854248046875
-472.7496643066406
-473.1559143066406
-473.66668701171875
-474.1917724609375
-474.5604553222656
-474.76776123046875
-473.4800720214844
-471.7467041015625
-471.2140808105469
-470.2695007324219
-470.60174560546875
-470.990966796875
-471.26031494140625
-471.73382568359375
-472.12432861328125
-472.6685791015625
-473.0623779296875
-473.4524841308594
-473.0731506347656
-471.0219421386719
-469.5771484375
-469.55731201171875
-470.0899658203125
-470.623779296875
-470.7586669921875
-471.08917236328125
-471.4228820800781
-471.5240478515625
-471.4308776855469
-471.5584716796875
-471.994873046875
-472.4718933105469
-472.91064453125
-473.3089599609375
-473.6089172363281
-473.95458984375
-474.143798828125
-473.0421447753906
-472.740234375
-471.84716796875
-471.70831298828125
-471.5469970703125
-471.9169921875
-471.10418701171875
-471.4667663574219
-471.82452392578125
-472.17718505859375
-471.22998046875
-469.122314453125
-468.0546875
-468.30145263671875
-468.75982666015625
-469.1051940917969
-469.21722412109375
-469.5852966308594
-469.65618896484375
-469.5227355957031
-469.4891052246094
-469.683349609375
-470.1244812011719
-470.65277099609375
-471.1205749511719
-471.4582214355469
-471.70111083984375
-471.9842834472656
-472.1992492675781
-472.40704345703125
-472.6115417480469
-473.06317138671875
-473.47216796875
-473.778564453125
-474.1296691894531
-472.6196594238281
-472.48394775390625
-471.8241882324219
-469.18548583984375
-466.4534606933594
-465.6390686035156
-465.9353332519531
-466.5744323730469
-468.8747253417969
-469.86962890625
-470.8552551269531
-470.9656982421875
-470.11822509765625
-470.180419921875
-470.4438171386719
-471.0166015625
-471.5993347167969
-472.1150207519531
-472.5285949707031
-472.7120056152344
-472.9693603515625
-473.38818359375
-473.63226318359375
-474.03961181640625
-474.5201110839844
-474.33123779296875
-472.9734802246094
-472.2106018066406
-472.1299133300781
-471.2749328613281
-470.490966796875
-468.3435363769531
-466.4104919433594
-466.1752624511719
-466.6625671386719
-467.22015380859375
-467.7057189941406
-468.1377868652344
-468.43206787109375
-468.261962890625
-468.0167541503906
-467.9012756347656
-468.0284118652344
-468.3533935546875
-468.7309265136719
-469.3178405761719
-469.26953125
-468.9900817871094
-468.9769592285156
-469.0900573730469
-469.1285400390625
-469.2122802734375
-469.3603820800781
-469.31756591796875
-467.35162353515625
-464.8205871582031
-463.40179443359375
-463.1982116699219
-465.21502685546875
-467.15838623046875
-469.5146484375
-469.43133544921875
-469.468994140625
-468.7565002441406
-468.1221618652344
-467.80987548828125
-467.7312316894531
-467.9873046875
-468.21197509765625
-468.322021484375
-468.3135070800781
-468.08099365234375
-467.944091796875
-467.766845703125
-467.71588134765625
-467.7313232421875
-467.8295593261719
-467.8909912109375
-467.97607421875
-467.5664978027344
-465.5653076171875
-463.5314636230469
-462.5638122558594
-464.2247009277344
-466.93621826171875
-469.1074523925781
-470.09307861328125
-470.4947204589844
-469.7827453613281
-469.1674499511719
-468.9419250488281
-469.0245666503906
-469.28521728515625
-469.7008056640625
-469.9515075683594
-470.1043701171875
-470.07232666015625
-470.0853576660156
-470.00811767578125
-470.11297607421875
-470.2843017578125
-470.4407043457031
-470.5191650390625
-469.2909851074219
-467.07293701171875
-466.1524353027344
-466.4661865234375
-466.3664245605469
-469.4507751464844
-470.5464172363281
-472.28094482421875
-472.0128173828125
-471.597900390625
-470.0448303222656
-470.3049011230469
-470.10247802734375
-470.6995544433594
-471.03057861328125
-471.3338928222656
-471.4975891113281
-471.5780334472656
-471.60699462890625
-471.8700256347656
-472.0306396484375
-472.4432067871094
-472.5975646972656
-471.0661315917969
-468.59930419921875
-467.4710998535156
-467.57867431640625
-467.51055908203125
-468.3486633300781
-468.5159606933594
-468.8443298339844
-468.6364440917969
-468.2928466796875
-468.1999816894531
-468.63153076171875
-469.24371337890625
-469.8938903808594
-470.4267883300781
-470.6994323730469
-470.7534484863281
-470.8846740722656
-470.976318359375
-471.302490234375
-471.6589050292969
-472.0606689453125
-472.376953125
-471.64874267578125
-469.33502197265625
-467.663818359375
-467.5328369140625
-467.9862976074219
-468.34674072265625
-468.38165283203125
-468.6053161621094
-468.6565856933594
-468.2703857421875
-468.0926818847656
-468.21954345703125
-468.56732177734375
-469.1134338378906
-469.677734375
-470.0452880859375
-470.15924072265625
-470.3515319824219
-470.72918701171875
-471.0333251953125
-471.3153381347656
-471.7449035644531
-472.02288818359375
-472.2728271484375
-471.81378173828125
-469.624267578125
-467.3779296875
-466.79034423828125
-466.62628173828125
-467.0588684082031
-467.2763366699219
-467.4456481933594
-468.2417297363281
-468.159423828125
-468.03118896484375
-468.1575012207031
-468.4986877441406
-468.9351501464844
-469.31658935546875
-469.55657958984375
-469.77813720703125
-469.84747314453125
-469.92913818359375
-470.1869812011719
-470.5517272949219
-471.2688293457031
-471.5527648925781
-471.94744873046875
-472.19281005859375
-471.2213439941406
-468.63916015625
-467.051025390625
-466.9683532714844
-466.7906799316406
-467.080322265625
-467.17340087890625
-467.43963623046875
-468.259765625
-468.10333251953125
-468.1091613769531
-468.2469482421875
-468.7154541015625
-469.0710144042969
-469.458740234375
-469.78070068359375
-469.94793701171875
-470.20416259765625
-470.40478515625
-470.6439208984375
-471.0390625
-471.4234619140625
-471.7861328125
-472.1336364746094
-472.4457092285156
-472.6597900390625
-471.8229064941406
-469.30255126953125
-467.7830810546875
-467.67022705078125
-468.0653991699219
-468.4855651855469
-468.7887268066406
-469.01605224609375
-469.26092529296875
-469.169677734375
-469.1818542480469
-469.2906494140625
-469.6461181640625
-470.0580749511719
-470.4794616699219
-470.7756652832031
-471.0173034667969
-471.1252136230469
-471.3344421386719
-471.5777282714844
-472.00213623046875
-472.41802978515625
-472.85076904296875
-473.3280944824219
-473.5659484863281
-473.9295959472656
-474.13677978515625
-472.7649230957031
-469.64556884765625
-467.3378601074219
-467.0789794921875
-468.2154846191406
-470.55902099609375
-470.89508056640625
-471.2594909667969
-471.3633728027344
-471.20745849609375
-471.15185546875
-471.41253662109375
-471.9502258300781
-472.4349060058594
-472.95184326171875
-473.2518615722656
-473.4768981933594
-473.5094299316406
-473.68206787109375
-473.8265686035156
-474.22857666015625
-473.9313659667969
-473.03289794921875
-472.6638488769531
-472.1430358886719
-471.6505126953125
-470.2515563964844
-468.5297546386719
-466.48846435546875
-466.0265197753906
-466.397216796875
-466.8665466308594
-469.1118469238281
-470.07586669921875
-470.95281982421875
-470.85003662109375
-470.0307312011719
-470.17559814453125
-470.3361511230469
-470.7802429199219
-471.3515625
-471.7372131347656
-472.0840148925781
-472.2778015136719
-472.57220458984375
-472.8096008300781
-473.19287109375
-473.5052185058594
-473.9392395019531
-474.46697998046875
-474.9114685058594
-474.668212890625
-473.0150146484375
-472.13897705078125
-468.3504943847656
-466.39111328125
-465.4164123535156
-465.8028564453125
-466.3032531738281
-469.38006591796875
-471.50079345703125
-471.7458190917969
-471.7099609375
-471.4742126464844
-471.4892578125
-471.65899658203125
-471.92633056640625
-472.23370361328125
-472.5426940917969
-472.6564636230469
-472.6355285644531
-472.4994812011719
-472.49981689453125
-472.41912841796875
-472.35284423828125
-472.4810485839844
-472.5419921875
-472.7726745605469
-472.7406921386719
-472.61395263671875
-471.4220275878906
-468.990234375
-467.6123046875
-467.5832824707031
-467.9104309082031
-468.27215576171875
-468.32257080078125
-468.35205078125
-468.06915283203125
-467.2532958984375
-466.5032653808594
-466.0765075683594
-465.94134521484375
-466.063720703125
-467.3136901855469
-469.28302001953125
-469.87060546875
-470.4856262207031
-470.1607666015625
-470.184814453125
-470.2763671875
-470.444091796875
-470.532958984375
-470.7035217285156
-470.6287536621094
-469.3970031738281
-467.0019836425781
-465.43902587890625
-464.62762451171875
-464.8242492675781
-467.6579895019531
-468.4664306640625
-470.6259460449219
-469.99078369140625
-469.2715759277344
-468.8345031738281
-468.7454528808594
-468.9520263671875
-469.28265380859375
-469.3590087890625
-469.3659973144531
-469.1768798828125
-469.07110595703125
-469.22052001953125
-469.3956298828125
-469.5907287597656
-469.8876953125
-470.0682373046875
-469.4121398925781
-467.4349670410156
-466.1763610839844
-466.2774658203125
-466.88507080078125
-468.71673583984375
-470.5225524902344
-471.7049865722656
-471.4580993652344
-471.0136413574219
-470.7579345703125
-470.8917236328125
-471.0609436035156
-471.5180358886719
-471.9667663574219
-472.1553955078125
-472.2216491699219
-472.3158874511719
-472.45849609375
-472.66748046875
-472.96600341796875
-473.12481689453125
-472.9683532714844
-471.23779296875
-469.3904724121094
-468.80633544921875
-469.1092834472656
-469.6029052734375
-469.99652099609375
-470.1263427734375
-470.1019592285156
-469.6709289550781
-469.3199768066406
-469.4622497558594
-469.6031799316406
-470.0400390625
-470.4681091308594
-470.7474365234375
-470.8926086425781
-470.9697570800781
-470.9889221191406
-471.1054382324219
-471.2887268066406
-471.544921875
-471.8514099121094
-471.43408203125
-469.3706359863281
-467.8235168457031
-467.763671875
-468.2309875488281
-468.5985412597656
-468.633056640625
-468.81024169921875
-469.02899169921875
-468.9048156738281
-468.5857238769531
-468.6304626464844
-468.8707580566406
-469.2519836425781
-469.6443786621094
-469.8521423339844
-470.0746765136719
-470.2334899902344
-470.4141540527344
-470.65057373046875
-470.9183349609375
-471.3900451660156
-471.63916015625
-471.78594970703125
-470.6960754394531
-468.5392761230469
-467.76708984375
-467.85882568359375
-468.3617858886719
-468.65936279296875
-468.67266845703125
-469.00390625
-469.03253173828125
-468.9081726074219
-468.80633544921875
-469.0077209472656
-469.48895263671875
-470.0225524902344
-470.44866943359375
-470.8727722167969
-471.06884765625
-471.20361328125
-471.5263366699219
-471.69158935546875
-472.0317077636719
-472.27032470703125
-472.55078125
-472.8708190917969
-472.82098388671875
-471.4549865722656
-469.72833251953125
-469.2930908203125
-469.68084716796875
-470.2785949707031
-470.6095886230469
-470.6262512207031
-470.8433532714844
-470.83544921875
-470.6259765625
-470.6468200683594
-470.8766174316406
-471.1807556152344
-471.6879577636719
-471.95855712890625
-471.9721984863281
-472.0591125488281
-472.19659423828125
-472.3949890136719
-472.7585754394531
-473.1746520996094
-473.6322326660156
-473.9121398925781
-474.25799560546875
-473.1199645996094
-472.60107421875
-471.0328063964844
-468.84674072265625
-465.9220886230469
-465.28955078125
-465.7760314941406
-468.8072509765625
-469.5513916015625
-471.2170715332031
-471.47308349609375
-471.38818359375
-471.3436584472656
-471.518798828125
-471.92132568359375
-472.291748046875
-472.6446533203125
-472.9590148925781
-473.22509765625
-473.4447021484375
-473.5863952636719
-474.4163513183594
-473.4049377441406
-473.2413330078125
-473.0621032714844
-471.421630859375
-471.8726806640625
-471.50927734375
-471.6136169433594
-470.265625
-468.37249755859375
-467.74188232421875
-467.2230224609375
-467.77813720703125
-468.2383728027344
-468.5207824707031
-468.9031982421875
-469.11358642578125
-469.5696716308594
-469.6025390625
-469.6753234863281
-470.0177917480469
-470.44110107421875
-470.783447265625
-471.19036865234375
-471.50201416015625
-471.7371520996094
-471.9525451660156
-472.1564025878906
-472.5009765625
-472.9133605957031
-473.49786376953125
-474.0787353515625
-474.4707336425781
-474.7633056640625
-473.52056884765625
-470.0614013671875
-467.4377136230469
-465.3724060058594
-465.7134094238281
-467.60498046875
-470.199462890625
-472.4901428222656
-472.8955078125
-473.004638671875
-472.9254455566406
-472.86883544921875
-473.11474609375
-473.437255859375
-473.7205505371094
-473.9337463378906
-474.16021728515625
-474.2875061035156
-472.949951171875
-471.7347412109375
-471.3584289550781
-471.01812744140625
-471.4482116699219
-471.83685302734375
-472.35980224609375
-472.86962890625
-473.1981201171875
-473.27606201171875
-472.0007019042969
-470.01885986328125
-469.5123596191406
-470.0072021484375
-470.7837829589844
-471.10479736328125
-471.2575988769531
-471.4681091308594
-471.36175537109375
-470.92791748046875
-470.7367858886719
-470.6666259765625
-470.55279541015625
-470.48443603515625
-470.4582214355469
-470.4239196777344
-470.269775390625
-469.96441650390625
-469.77032470703125
-469.7037353515625
-469.693603515625
-469.6343994140625
-469.4978332519531
-469.3421630859375
-469.2034912109375
-468.79156494140625
-467.94500732421875
-465.6447448730469
-463.4507751464844
-462.07855224609375
-464.6882019042969
-466.2236022949219
-468.7785339355469
-470.07000732421875
-469.6799621582031
-468.9820251464844
-468.3482360839844
-467.8414611816406
-467.54351806640625
-467.44451904296875
-467.3913269042969
-467.2119445800781
-467.1084289550781
-466.9434814453125
-466.695556640625
-466.4032897949219
-466.3716125488281
-466.2974853515625
-466.30743408203125
-466.33746337890625
-467.43182373046875
-467.1620178222656
-465.9532470703125
-465.2884826660156
-466.84600830078125
-469.24981689453125
-470.7959899902344
-471.7431640625
-471.84564208984375
-471.1602478027344
-470.61083984375
-470.131103515625
-469.97283935546875
-470.1019287109375
-470.28460693359375
-470.32501220703125
-470.27825927734375
-469.94561767578125
-469.6831359863281
-469.47235107421875
-469.3996276855469
-469.59765625
-469.5869445800781
-468.5632629394531
-466.5088195800781
-465.0848693847656
-464.81488037109375
-466.86328125
-468.3125915527344
-469.5210876464844
-469.7412414550781
-469.07305908203125
-467.3231201171875
-466.03973388671875
-465.4725341796875
-465.55859375
-468.0028076171875
-469.6119079589844
-470.6502685546875
-470.94415283203125
-471.3271789550781
-472.2574768066406
-473.3404541015625
-473.375244140625
-473.3579406738281
-473.3058776855469
-472.6231384277344
-472.203369140625
-472.29241943359375
-473.1253967285156
-474.33209228515625
-475.2621765136719
-475.48150634765625
-474.5077819824219
-472.8310852050781
-471.2768249511719
-470.5340881347656
-470.76629638671875
-470.793701171875
-470.37982177734375
-470.5212097167969
-471.1817321777344
-471.4579162597656
-471.1719665527344
-471.47998046875
-471.6363525390625
-470.4132080078125
-469.61456298828125
-469.68560791015625
-469.4809875488281
-469.4185791015625
-470.00860595703125
-471.1727294921875
-471.6787414550781
-471.68450927734375
-472.16766357421875
-472.7985534667969
-473.5043029785156
-474.5269775390625
-475.7906188964844
-476.6518249511719
-475.9407653808594
-474.71588134765625
-475.3196716308594
-474.5892028808594
-473.91357421875
-473.8009948730469
-474.5287780761719
-475.5680236816406
-475.19427490234375
-475.1024475097656
-474.01129150390625
-473.1994934082031
-471.5849304199219
-470.33935546875
-470.1313781738281
-471.14849853515625
-472.4987487792969
-473.6451721191406
-474.7528381347656
-475.7307434082031
-476.5522766113281
-476.4273986816406
-473.9367980957031
-471.4197082519531
-467.6024169921875
-466.46063232421875
-466.896728515625
-467.62994384765625
-468.0439453125
-467.93084716796875
-467.94573974609375
-467.68890380859375
-467.3878479003906
-467.1712951660156
-467.1740417480469
-467.58837890625
-467.8819580078125
-468.1150207519531
-468.6450500488281
-469.0636901855469
-469.4525451660156
-469.9474182128906
-470.587646484375
-471.16607666015625
-471.5322265625
-470.3741760253906
-468.2091369628906
-467.2196044921875
-467.3268127441406
-467.6940612792969
-467.9815368652344
-468.2607421875
-468.546630859375
-468.5521545410156
-468.3048400878906
-468.19354248046875
-468.1980285644531
-468.435302734375
-468.818115234375
-469.31427001953125
-469.5274963378906
-469.6772766113281
-469.8075256347656
-470.0428466796875
-470.25091552734375
-470.5238952636719
-470.81805419921875
-471.1488037109375
-470.82928466796875
-468.9414978027344
-467.3713073730469
-467.0986022949219
-467.7149658203125
-467.8988952636719
-468.0440368652344
-468.3994140625
-468.4426574707031
-468.3332214355469
-468.4878234863281
-468.6761779785156
-469.05694580078125
-469.3670959472656
-469.72784423828125
-470.1112976074219
-470.3557434082031
-470.76251220703125
-471.049072265625
-471.2538757324219
-471.6560974121094
-471.8250427246094
-472.11871337890625
-472.2793273925781
-472.5077209472656
-472.75115966796875
-472.9659423828125
-471.979248046875
-470.2869567871094
-469.5106506347656
-469.58551025390625
-469.8673095703125
-469.9671630859375
-470.0567626953125
-470.38543701171875
-470.4685974121094
-470.5189514160156
-470.59613037109375
-470.7728271484375
-471.1854248046875
-471.5462951660156
-471.9524841308594
-472.4244079589844
-472.77685546875
-472.95806884765625
-473.22357177734375
-473.37506103515625
-473.6230163574219
-474.0638732910156
-474.5391540527344
-474.17156982421875
-472.53533935546875
-472.3467102050781
-471.41094970703125
-471.08172607421875
-469.164794921875
-467.5058288574219
-466.718505859375
-466.8971252441406
-467.19940185546875
-467.1986999511719
-467.22747802734375
-467.4090881347656
-467.685546875
-467.58099365234375
-467.607666015625
-467.6514892578125
-467.92669677734375
-468.1087951660156
-468.3913879394531
-468.5946044921875
-468.7605895996094
-468.93133544921875
-469.02923583984375
-469.135498046875
-469.426513671875
-469.82196044921875
-470.0639953613281
-470.3924255371094
-470.6513366699219
-470.9481201171875
-470.7041015625
-469.3695983886719
-468.00250244140625
-467.7691955566406
-467.98046875
-468.20477294921875
-468.4747619628906
-468.38275146484375
-468.5704650878906
-468.50665283203125
-468.4594421386719
-468.3988037109375
-468.45953369140625
-468.6622314453125
-469.070068359375
-469.243896484375
-469.4122619628906
-469.532470703125
-469.6697692871094
-469.5689392089844
-469.6652526855469
-469.82086181640625
-469.9666442871094
-470.268310546875
-470.6605224609375
-470.8104553222656
-471.00811767578125
-471.1875915527344
-470.4240417480469
-468.8294982910156
-468.3172607421875
-468.4283447265625
-468.7614440917969
-468.9369812011719
-469.0614013671875
-469.34576416015625
-469.4526062011719
-469.3392333984375
-469.2422790527344
-469.3626708984375
-469.74615478515625
-470.14569091796875
-470.5704040527344
-470.8410949707031
-471.1891784667969
-471.47906494140625
-471.7071838378906
-471.8999938964844
-472.2023010253906
-472.54266357421875
-472.7454833984375
-472.9784240722656
-473.2173156738281
-473.5278015136719
-473.76348876953125
-472.86279296875
-470.3310546875
-467.556396484375
-466.9893493652344
-467.1509704589844
-469.4051513671875
-470.1122741699219
-470.2982177734375
-470.2904968261719
-469.987060546875
-469.7962951660156
-469.6438293457031
-469.8200988769531
-470.1069641113281
-470.5065002441406
-470.85491943359375
-471.1710205078125
-471.4418029785156
-471.6163024902344
-471.8534851074219
-472.07220458984375
-472.4093933105469
-472.8643493652344
-473.333740234375
-473.7838439941406
-474.05645751953125
-472.2704772949219
-470.90093994140625
-467.75244140625
-466.14312744140625
-465.8246765136719
-465.9076232910156
-466.0938720703125
-466.4036865234375
-466.6636962890625
-466.8218688964844
-466.635986328125
-466.5435485839844
-466.5721435546875
-466.8255310058594
-467.146728515625
-467.432861328125
-467.6856384277344
-467.9407653808594
-468.0293884277344
-468.2081604003906
-468.4509582519531
-468.5996398925781
-468.8084411621094
-468.9727783203125
-469.3161315917969
-469.56744384765625
-469.916015625
-469.9644470214844
-468.6041564941406
-466.6884460449219
-465.91143798828125
-466.043212890625
-466.4345397949219
-466.6615295410156
-466.9762878417969
-467.29986572265625
-467.2719421386719
-466.983642578125
-466.8971862792969
-467.0130920410156
-467.25689697265625
-467.67535400390625
-468.02197265625
-468.3783264160156
-468.69537353515625
-468.88848876953125
-468.98748779296875
-469.1737060546875
-469.30078125
-469.5151672363281
-469.7823181152344
-470.1131896972656
-470.3695983886719
-470.62969970703125
-469.8992919921875
-467.9278869628906
-466.5682373046875
-466.5978698730469
-467.0384521484375
-467.3210754394531
-467.49627685546875
-467.6755676269531
-467.5842590332031
-467.1807556152344
-466.8646545410156
-466.8421325683594
-466.9579772949219
-467.3290710449219
-467.7631530761719
-468.2066650390625
-468.28680419921875
-468.37225341796875
-468.5598449707031
-468.8011474609375
-469.1293029785156
-469.2922668457031
-469.7361145019531
-470.0092468261719
-470.3611145019531
-470.65985107421875
-469.9361877441406
-467.9323425292969
-466.4818420410156
-466.38983154296875
-466.7347106933594
-467.0950622558594
-467.2314147949219
-467.4314880371094
-467.55645751953125
-467.2008361816406
-466.9668884277344
-467.0235900878906
-467.2270812988281
-467.6103515625
-468.05615234375
-468.2921142578125
-468.55615234375
-468.806640625
-468.9593811035156
-469.1388244628906
-469.3507385253906
-469.7274169921875
-470.1393127441406
-470.6184387207031
-471.1195983886719
-471.2649230957031
-470.30426025390625
-468.2494201660156
-467.12896728515625
-467.205810546875
-467.5623779296875
-467.9703063964844
-468.25909423828125
-468.51385498046875
-468.46600341796875
-468.16650390625
-467.9438781738281
-467.9739685058594
-468.2945251464844
-468.481689453125
-468.853515625
-469.08441162109375
-469.2730712890625
-469.3153076171875
-469.4241638183594
-469.3998107910156
-469.4488525390625
-469.4678649902344
-469.6484069824219
-469.7140808105469
-467.42333984375
-465.1670227050781
-464.18756103515625
-464.06280517578125
-466.1276550292969
-467.92730712890625
-468.4415588378906
-468.85321044921875
-468.4891052246094
-468.3313903808594
-468.3597106933594
-468.5030517578125
-468.7568359375
-468.8423156738281
-468.89520263671875
-468.98150634765625
-469.0023193359375
-468.89373779296875
-468.91070556640625
-468.95538330078125
-469.02447509765625
-469.1981506347656
-469.2842712402344
-468.5256042480469
-466.3313293457031
-464.8298034667969
-464.6250915527344
-464.73138427734375
-467.9937744140625
-469.1728210449219
-470.38446044921875
-470.1671447753906
-470.0560302734375
-470.2961120605469
-470.5543212890625
-470.910888671875
-471.24517822265625
-471.5289306640625
-471.6533203125
-471.6583557128906
-471.6192321777344
-471.70123291015625
-471.8768310546875
-472.3691101074219
-472.82720947265625
-472.849609375
-471.8613586425781
-470.2789611816406
-469.7010803222656
-470.1382751464844
-470.5268249511719
-470.6394348144531
-470.6351013183594
-470.8316650390625
-470.6838073730469
-471.1234436035156
-471.5526123046875
-472.4518127441406
-472.9334411621094
-473.2354431152344
-473.7939147949219
-474.0054626464844
-474.53411865234375
-473.3962707519531
-469.1393737792969
-467.3031311035156
-467.3387451171875
-467.7919616699219
-468.3662414550781
-468.47589111328125
-469.0881652832031
-469.036376953125
-468.9955749511719
-469.1217041015625
-469.591064453125
-470.0911560058594
-470.448486328125
-470.71514892578125
-470.9466552734375
-471.1593322753906
-471.33795166015625
-471.5453796386719
-471.9080505371094
-472.4040832519531
-472.89068603515625
-473.0778503417969
-472.0394592285156
-470.3134460449219
-469.6150817871094
-469.9073181152344
-470.321044921875
-470.50250244140625
-470.59686279296875
-470.9496154785156
-471.2038879394531
-470.9790344238281
-471.0859375
-471.4889831542969
-471.9369812011719
-472.34747314453125
-472.6249694824219
-472.7779846191406
-472.86566162109375
-473.0556335449219
-473.34466552734375
-473.4559326171875
-473.8182373046875
-474.2880859375
-472.75164794921875
-472.3157958984375
-471.15301513671875
-469.6866149902344
-466.6977233886719
-465.89093017578125
-466.1170959472656
-466.4615478515625
-468.4308776855469
-469.6538391113281
-470.5523986816406
-470.7660217285156
-470.74957275390625
-470.8468322753906
-471.0788269042969
-471.1895751953125
-471.6101989746094
-471.9840393066406
-472.2406921386719
-472.3586120605469
-472.53607177734375
-472.77496337890625
-472.9760437011719
-473.31781005859375
-473.61932373046875
-473.85308837890625
-474.0992126464844
-473.73516845703125
-472.11431884765625
-471.1903991699219
-469.9895324707031
-468.13232421875
-466.80633544921875
-466.6177978515625
-466.9901123046875
-467.1838073730469
-467.1539611816406
-467.2566833496094
-467.5658874511719
-467.6603698730469
-467.64202880859375
-467.75341796875
-467.9920654296875
-468.36676025390625
-468.75323486328125
-469.0293884277344
-469.2469787597656
-469.4637756347656
-469.6856384277344
-469.9327087402344
-470.3094482421875
-470.5531921386719
-470.88262939453125
-471.2008361816406
-471.43853759765625
-471.7256774902344
-472.0634765625
-472.4347839355469
-472.4818420410156
-471.0684814453125
-469.2820129394531
-468.74383544921875
-469.0628967285156
-469.4068603515625
-469.4001770019531
-469.4830322265625
-469.6687316894531
-469.7030029296875
-469.6373596191406
-469.6287841796875
-469.8448791503906
-470.2025146484375
-470.5390625
-470.89471435546875
-471.200439453125
-471.4658508300781
-471.5394287109375
-471.5284118652344
-471.5519714355469
-471.74139404296875
-471.8719787597656
-472.0491638183594
-472.3307800292969
-472.74420166015625
-473.17022705078125
-473.62213134765625
-473.68731689453125
-472.72552490234375
-468.8927917480469
-466.6514587402344
-466.1369934082031
-467.07000732421875
-468.4154968261719
-469.0888671875
-470.6315612792969
-470.9384460449219
-471.0184020996094
-471.1199035644531
-471.3476867675781
-471.749755859375
-472.1340637207031
-472.606689453125
-472.8968505859375
-473.1332092285156
-473.4330139160156
-473.73626708984375
-473.98541259765625
-473.0018310546875
-471.37103271484375
-471.1980895996094
-471.45379638671875
-470.53399658203125
-470.8380432128906
-471.2120666503906
-471.2034606933594
-470.1004333496094
-468.0242614746094
-467.1343688964844
-467.3029479980469
-467.61199951171875
-467.7806396484375
-467.7737121582031
-467.9821472167969
-467.9732971191406
-467.707763671875
-467.53033447265625
-467.78515625
-467.883056640625
-468.16900634765625
-468.6177062988281
-468.8602600097656
-469.0569152832031
-469.26617431640625
-469.5108337402344
-469.78204345703125
-469.95166015625
-470.2829284667969
-470.6871032714844
-471.158203125
-471.535888671875
-471.9563293457031
-472.29571533203125
-472.0244445800781
-470.2091064453125
-468.5322265625
-468.3070373535156
-468.6164245605469
-469.0425720214844
-469.1663513183594
-469.3024597167969
-469.47760009765625
-469.40789794921875
-469.11981201171875
-468.9413757324219
-469.06927490234375
-469.32476806640625
-469.4827575683594
-469.8606872558594
-470.05181884765625
-470.1296691894531
-470.2382507324219
-470.2410888671875
-470.2864074707031
-470.3773193359375
-470.68505859375
-471.32208251953125
-471.6566467285156
-471.7549133300781
-469.1702575683594
-467.4645080566406
-467.1536560058594
-467.5012512207031
-467.79656982421875
-468.1818542480469
-468.26678466796875
-468.03546142578125
-467.72650146484375
-467.6275329589844
-467.8683166503906
-468.206787109375
-468.63482666015625
-469.0204162597656
-469.2800598144531
-469.5037841796875
-469.5437316894531
-469.6847839355469
-469.6754150390625
-469.7573547363281
-470.0854187011719
-470.3216247558594
-470.49078369140625
-470.60809326171875
-469.96954345703125
-467.9508972167969
-465.9766540527344
-465.39581298828125
-465.6346130371094
-465.9574279785156
-467.8866882324219
-469.7424011230469
-470.9809875488281
-470.5038146972656
-469.9245910644531
-469.606201171875
-469.6136474609375
-469.61407470703125
-469.63421630859375
-469.7201232910156
-469.722900390625
-469.6779479980469
-469.5520935058594
-469.22930908203125
-469.086669921875
-468.95440673828125
-468.9187316894531
-468.67791748046875
-467.91424560546875
-465.5106201171875
-463.1747741699219
-462.4518127441406
-464.15545654296875
-466.6723937988281
-468.73907470703125
-469.5159912109375
-470.7503356933594
-469.4656066894531
-469.3360290527344
-469.49005126953125
-469.7594909667969
-470.0501403808594
-469.9862365722656
-469.8369140625
-469.65380859375
-469.3982849121094
-469.2560119628906
-469.2076110839844
-469.0269775390625
-467.3487854003906
-463.94720458984375
-464.05267333984375
-466.8222961425781
-468.1953430175781
-469.1007385253906
-471.060791015625
-470.5755615234375
-470.3619079589844
-470.484619140625
-470.85076904296875
-471.2145690917969
-471.4277648925781
-471.6894226074219
-471.66033935546875
-471.70819091796875
-471.9171142578125
-472.12872314453125
-471.2130432128906
-469.0787658691406
-467.4322814941406
-467.0781555175781
-467.24188232421875
-466.89764404296875
-466.8858337402344
-466.935302734375
-466.66314697265625
-466.2065124511719
-465.8734436035156
-465.8955993652344
-466.1380615234375
-468.42218017578125
-469.4166564941406
-470.2273254394531
-470.1607971191406
-470.7950134277344
-470.9123229980469
-471.20086669921875
-471.5601501464844
-470.68572998046875
-468.48095703125
-466.98077392578125
-466.28570556640625
-466.5091857910156
-466.6471862792969
-466.5954895019531
-466.6805419921875
-466.61773681640625
-466.3115234375
-466.0998229980469
-465.993896484375
-466.64947509765625
-470.4951171875
-471.4436950683594
-470.6426086425781
-471.22857666015625
-468.4617614746094
-467.0102844238281
-466.912841796875
-467.3609313964844
-467.6985778808594
-467.9836120605469
-467.7122802734375
-467.88323974609375
-468.3762512207031
-469.45806884765625
-469.9630126953125
-470.699951171875
-471.0298767089844
-471.2727355957031
-471.73651123046875
-472.019287109375
-472.55047607421875
-472.7694396972656
-472.68939208984375
-470.4682312011719
-469.05181884765625
-468.39703369140625
-468.8228454589844
-469.0111389160156
-468.9706726074219
-469.3146667480469
-469.5327453613281
-469.4112854003906
-469.46929931640625
-469.6705322265625
-470.246826171875
-470.83984375
-471.22589111328125
-471.578369140625
-471.8450927734375
-471.9786376953125
-472.1654968261719
-472.47430419921875
-473.3060302734375
-473.68402099609375
-474.1768493652344
-474.3892822265625
-472.7158508300781
-472.4151916503906
-472.0993347167969
-470.8124084472656
-468.6602783203125
-467.32220458984375
-466.8813171386719
-467.40447998046875
-467.7020568847656
-467.8025817871094
-468.1219177246094
-468.4991149902344
-468.56024169921875
-469.0620422363281
-469.1197204589844
-469.39556884765625
-469.877197265625
-470.26446533203125
-470.572265625
-470.88079833984375
-471.1224060058594
-471.36822509765625
-471.67034912109375
-472.0787048339844
-472.44012451171875
-472.9122009277344
-473.3603210449219
-473.8042297363281
-474.2944030761719
-474.70111083984375
-472.8392639160156
-471.387939453125
-467.34912109375
-466.04443359375
-466.03448486328125
-465.9949645996094
-468.156982421875
-470.887939453125
-471.1279602050781
-472.06787109375
-472.18170166015625
-472.2058410644531
-472.35333251953125
-472.7171630859375
-473.13775634765625
-473.3112487792969
-473.447509765625
-473.6313781738281
-473.7926330566406
-473.99700927734375
-474.1973571777344
-472.2075500488281
-471.7298278808594
-471.0237731933594
-469.8017883300781
-470.0628967285156
-470.1797790527344
-470.19512939453125
-470.01800537109375
-468.7129211425781
-466.3042907714844
-465.1498718261719
-465.18878173828125
-464.8160705566406
-467.60638427734375
-469.6042175292969
-470.9034118652344
-470.5919494628906
-469.9321594238281
-469.37176513671875
-468.923583984375
-468.37481689453125
-468.692138671875
-468.84637451171875
-468.74884033203125
-468.4120788574219
-468.1038818359375
-467.68438720703125
-467.5611572265625
-467.73052978515625
-467.711669921875
-467.97308349609375
-468.1500549316406
-468.181640625
-467.31011962890625
-465.2135925292969
-463.5576477050781
-462.98944091796875
-465.8278503417969
-467.390625
-470.0038757324219
-471.2733459472656
-471.2648620605469
-470.71649169921875
-470.2908935546875
-470.34185791015625
-470.6132507324219
-470.9640808105469
-471.18505859375
-471.3084411621094
-471.3194885253906
-471.39166259765625
-471.4375915527344
-471.6580505371094
-472.1431579589844
-472.5431823730469
-472.85614013671875
-472.8680419921875
-471.40899658203125
-469.5292663574219
-468.98126220703125
-469.30218505859375
-469.8116760253906
-469.7906494140625
-469.8155822753906
-469.8844299316406
-469.4663391113281
-469.0379333496094
-469.0904846191406
-469.2514343261719
-469.4703369140625
-469.6908874511719
-469.9318542480469
-469.9206848144531
-469.96234130859375
-470.0014343261719
-470.0480041503906
-470.17242431640625
-470.4664611816406
-470.93798828125
-470.7897644042969
-469.1509704589844
-467.20166015625
-466.618896484375
-466.8996276855469
-467.2139892578125
-467.3065490722656
-467.3691711425781
-467.5133361816406
-467.48583984375
-467.21392822265625
-467.0148620605469
-466.8778381347656
-467.00030517578125
-467.2611999511719
-467.56689453125
-467.80810546875
-467.9893493652344
-468.2227478027344
-468.23138427734375
-468.53179931640625
-468.88372802734375
-469.21417236328125
-469.1837158203125
-467.5737609863281
-465.6419677734375
-465.0497741699219
-465.4176940917969
-468.8094177246094
-470.3094177246094
-471.85955810546875
-471.3543395996094
-471.3742980957031
-470.40850830078125
-470.503662109375
-470.8497619628906
-471.36114501953125
-471.854248046875
-472.2257995605469
-472.5478515625
-472.712646484375
-472.8662414550781
-473.01556396484375
-473.152099609375
-473.49261474609375
-473.7642822265625
-471.5866394042969
-465.9478759765625
-465.7770080566406
-466.13812255859375
-468.5094299316406
-470.0556335449219
-471.14990234375
-470.3307189941406
-470.22430419921875
-470.5290222167969
-470.81695556640625
-471.200927734375
-471.4665832519531
-471.75885009765625
-472.08111572265625
-472.32757568359375
-472.4635314941406
-472.65325927734375
-472.74981689453125
-472.9405212402344
-473.1861877441406
-473.09136962890625
-473.2405700683594
-472.9085693359375
-471.0070495605469
-469.458251953125
-469.41986083984375
-469.9844055175781
-470.4266357421875
-470.629638671875
-470.99127197265625
-471.3040466308594
-471.3411560058594
-471.2846374511719
-471.206787109375
-471.4221496582031
-471.77398681640625
-472.2288513183594
-472.39947509765625
-472.54718017578125
-472.64892578125
-472.8245849609375
-473.0425109863281
-473.4505310058594
-473.8368835449219
-474.3107604980469
-473.1670837402344
-473.0628662109375
-472.53680419921875
-472.3177185058594
-472.6727600097656
-469.97259521484375
-467.2862243652344
-465.77490234375
-466.6172180175781
-467.00634765625
-469.3144836425781
-470.0168151855469
-470.19573974609375
-470.1802673339844
-469.98187255859375
-469.6921691894531
-469.661376953125
-469.841064453125
-470.2113037109375
-470.5177917480469
-470.6849670410156
-470.9384460449219
-471.1380615234375
-471.55389404296875
-471.9756164550781
-472.342529296875
-472.8233337402344
-473.3199157714844
-473.6349182128906
-473.6410827636719
-472.9151916503906
-471.3030090332031
-469.22119140625
-466.1976318359375
-465.27862548828125
-465.447998046875
-465.6546936035156
-467.87939453125
-469.1940002441406
-470.6761169433594
-470.72906494140625
-470.34234619140625
-469.9107666015625
-469.832275390625
-469.86529541015625
-470.24456787109375
-470.5687255859375
-470.8621826171875
-470.97113037109375
-471.07415771484375
-471.2171630859375
-471.3799133300781
-471.78118896484375
-472.22491455078125
-472.55682373046875
-472.8846740722656
-473.04718017578125
-473.0508728027344
-472.3131408691406
-470.3475341796875
-468.7447814941406
-468.5452880859375
-468.7398376464844
-468.8206787109375
-468.9068908691406
-469.026611328125
-469.2004699707031
-468.97088623046875
-468.6463623046875
-468.6172180175781
-468.7020263671875
-468.9460754394531
-469.10791015625
-469.1722412109375
-469.0197448730469
-468.82940673828125
-468.8001403808594
-468.7404479980469
-468.720947265625
-468.79815673828125
-468.8476257324219
-468.9393615722656
-468.9153137207031
-468.55645751953125
-466.9871520996094
-464.88128662109375
-464.5165710449219
-464.9189758300781
-467.3450012207031
-469.71307373046875
-471.45904541015625
-471.62896728515625
-471.32489013671875
-470.7936706542969
-470.4249267578125
-470.4275817871094
-470.5872497558594
-470.8894348144531
-470.991943359375
-471.00762939453125
-471.0010681152344
-471.0451354980469
-471.0538024902344
-471.1540222167969
-471.43267822265625
-471.71044921875
-472.0220031738281
-471.4488830566406
-469.6011657714844
-468.2174987792969
-468.1974792480469
-468.7740478515625
-469.1119079589844
-469.2059326171875
-469.42498779296875
-469.2970275878906
-468.7878723144531
-468.5757751464844
-468.6175842285156
-468.8342590332031
-469.0326232910156
-469.35284423828125
-469.58148193359375
-469.7228698730469
-469.937744140625
-470.1510314941406
-470.6263732910156
-470.97015380859375
-471.3428955078125
-471.1845397949219
-469.5240478515625
-467.9003601074219
-467.4303283691406
-467.78277587890625
-468.14434814453125
-468.2610778808594
-468.41754150390625
-468.5024108886719
-468.3298034667969
-467.9529724121094
-467.8431091308594
-468.0384826660156
-468.3732604980469
-468.5981750488281
-468.8097839355469
-468.9397888183594
-469.0612487792969
-469.1329040527344
-469.2229919433594
-469.3163757324219
-469.6951599121094
-469.7593688964844
-468.7150573730469
-466.8731384277344
-465.8942565917969
-466.01519775390625
-466.3703918457031
-468.6838073730469
-469.52764892578125
-470.5465393066406
-470.54718017578125
-470.1622619628906
-470.04779052734375
-470.23529052734375
-470.58917236328125
-470.94451904296875
-471.0613708496094
-471.2002258300781
-471.3282165527344
-471.4268493652344
-471.70928955078125
-472.04541015625
-472.2813720703125
-472.63714599609375
-472.3851623535156
-470.54010009765625
-469.2389831542969
-469.2582092285156
-469.74798583984375
-470.08966064453125
-469.9661560058594
-470.0849304199219
-470.4093017578125
-470.2755126953125
-470.1645202636719
-470.4073791503906
-470.6551818847656
-471.0
-471.3712463378906
-471.6031188964844
-471.6944274902344
-471.7825622558594
-471.8850402832031
-472.2134094238281
-472.6463928222656
-473.052001953125
-473.4588623046875
-473.984130859375
-474.45849609375
-474.5443115234375
-472.02105712890625
-469.1439514160156
-467.61669921875
-467.9732666015625
-468.4940490722656
-468.65789794921875
-468.7334899902344
-468.8421936035156
-468.9382629394531
-468.6055908203125
-468.4392395019531
-468.4444274902344
-468.6152038574219
-469.0788269042969
-469.4157409667969
-469.6761779785156
-469.9241027832031
-470.0473327636719
-470.3293151855469
-470.56243896484375
-470.865478515625
-471.2922668457031
-471.6994323730469
-472.1587829589844
-472.6649169921875
-473.1835021972656
-473.3366394042969
-471.4464416503906
-468.85076904296875
-468.4031677246094
-468.9955139160156
-469.51617431640625
-469.8603515625
-470.3717956542969
-470.68438720703125
-470.9017639160156
-471.2140808105469
-471.6083068847656
-472.05316162109375
-472.3177795410156
-472.6932678222656
-472.9289855957031
-473.04986572265625
-473.160400390625
-473.4488525390625
-473.5457763671875
-473.5133361816406
-472.0462646484375
-471.3206787109375
-470.0108337402344
-470.1614074707031
-469.96881103515625
-468.9393615722656
-466.8841552734375
-465.72906494140625
-466.0606689453125
-466.468505859375
-468.9577941894531
-469.60919189453125
-470.3592224121094
-470.4693298339844
-470.2396240234375
-469.88726806640625
-469.7539367675781
-469.79718017578125
-469.9600830078125
-470.02117919921875
-470.01226806640625
-469.86578369140625
-469.83251953125
-469.5654296875
-469.583740234375
-469.89813232421875
-469.9435119628906
-469.9159851074219
-469.9512023925781
-470.0731506347656
-470.23333740234375
-469.7852783203125
-467.8897705078125
-466.0893249511719
-465.8580017089844
-466.4205322265625
-469.37005615234375
-471.3004150390625
-472.31964111328125
-472.4839782714844
-471.2431945800781
-469.32806396484375
-469.4475402832031
-469.7595520019531
-470.2275390625
-470.58172607421875
-470.7447814941406
-470.8209533691406
-470.9228210449219
-471.18115234375
-471.4981689453125
-471.6336975097656
-471.8869934082031
-472.2567138671875
-472.65460205078125
-472.271484375
-470.4161071777344
-469.3292541503906
-469.5780334472656
-470.3262023925781
-470.888671875
-471.2466735839844
-471.6926574707031
-471.5895690917969
-471.1612548828125
-471.1717224121094
-471.4859313964844
-471.9217224121094
-472.4112243652344
-472.7426452636719
-473.1017761230469
-473.30535888671875
-473.4848937988281
-473.6115417480469
-473.8033142089844
-472.49566650390625
-472.0870666503906
-471.63330078125
-470.1501770019531
-468.698486328125
-466.7118835449219
-466.01708984375
-466.3011474609375
-466.6718444824219
-469.0390930175781
-469.869384765625
-470.8428649902344
-470.7063903808594
-470.37896728515625
-470.35235595703125
-470.6019287109375
-470.9764099121094
-471.3938903808594
-471.8225402832031
-472.0509033203125
-472.0195007324219
-472.1281433105469
-472.3402404785156
-472.6297607421875
-472.9643249511719
-473.18115234375
-473.5157165527344
-473.8756408691406
-473.35308837890625
-469.9624328613281
-467.9747314453125
-467.33563232421875
-468.666259765625
-469.8022766113281
-470.6227722167969
-470.8016357421875
-471.04949951171875
-471.0401916503906
-470.7427978515625
-470.6840515136719
-470.9397888183594
-471.2762756347656
-471.5458068847656
-471.6451416015625
-471.7120361328125
-471.8349304199219
-471.89404296875
-471.96405029296875
-472.14141845703125
-472.497802734375
-472.84112548828125
-473.2427978515625
-473.601318359375
-473.96258544921875
-473.3012390136719
-469.72705078125
-468.0080871582031
-467.5672607421875
-468.8537902832031
-469.9251708984375
-470.9176025390625
-471.15869140625
-471.3333740234375
-471.5034484863281
-471.63995361328125
-472.0191345214844
-472.44512939453125
-472.8147888183594
-473.14605712890625
-473.4105529785156
-473.5967712402344
-473.735107421875
-473.8899841308594
-472.749267578125
-472.463623046875
-471.3712463378906
-470.9878845214844
-471.5270690917969
-471.9795837402344
-472.3228759765625
-472.5577697753906
-471.80120849609375
-469.6798095703125
-468.27862548828125
-468.1581115722656
-468.6317138671875
-469.03643798828125
-469.2757873535156
-469.7796630859375
-470.1413879394531
-470.27490234375
-470.05413818359375
-470.1719970703125
-470.1888427734375
-470.327880859375
-470.4971008300781
-470.5723876953125
-470.56207275390625
-470.62298583984375
-470.6657409667969
-470.77484130859375
-470.87689208984375
-471.0506286621094
-471.3509521484375
-471.6144714355469
-471.7416687011719
-471.8294372558594
-471.8779602050781
-471.296875
-469.1460876464844
-467.30780029296875
-466.9360656738281
-467.08575439453125
-467.2569274902344
-467.2710876464844
-467.3122253417969
-467.4044189453125
-467.15399169921875
-466.77569580078125
-466.5244140625
-466.55950927734375
-466.55419921875
-466.7584228515625
-466.908203125
-467.1451721191406
-467.32470703125
-467.5421447753906
-467.6117248535156
-467.6127624511719
-467.6069641113281
-467.7782897949219
-467.8596496582031
-467.77545166015625
-467.568115234375
-466.21026611328125
-464.0171203613281
-463.2769775390625
-464.1427917480469
-467.0432434082031
-469.585693359375
-471.3372497558594
-472.3178405761719
-471.9446105957031
-471.26141357421875
-470.97381591796875
-471.188720703125
-471.5115661621094
-471.9658508300781
-472.298828125
-472.4103088378906
-472.4505920410156
-472.5323791503906
-472.5433654785156
-472.75421142578125
-472.89764404296875
-473.16558837890625
-473.3214111328125
-472.58331298828125
-470.6391906738281
-469.417724609375
-469.49383544921875
-469.7786560058594
-469.95697021484375
-470.0257568359375
-470.54290771484375
-470.6697998046875
-470.4257507324219
-470.2047119140625
-470.3874206542969
-471.4134216308594
-471.8913269042969
-472.29754638671875
-472.6406555175781
-472.77105712890625
-473.4459228515625
-473.86553955078125
-474.34375
-474.80694580078125
-473.6072998046875
-471.80743408203125
-468.296875
-466.7154846191406
-467.0163269042969
-467.5889892578125
-467.9584655761719
-468.2044982910156
-468.6511535644531
-468.6895446777344
-468.4816589355469
-468.5304260253906
-468.9075927734375
-469.2514953613281
-469.5979309082031
-469.84222412109375
-469.88623046875
-470.04156494140625
-470.2090759277344
-470.40362548828125
-470.81292724609375
-471.0228271484375
-471.2909240722656
-471.5596008300781
-470.02996826171875
-468.0435791015625
-467.41632080078125
-467.7915954589844
-468.2187194824219
-468.6159973144531
-469.1098327636719
-469.2812194824219
-468.9512939453125
-468.95281982421875
-469.2913818359375
-469.6292724609375
-469.9395751953125
-470.2985534667969
-470.572998046875
-470.7572937011719
-471.0486755371094
-471.3414001464844
-471.61029052734375
-472.049072265625
-472.5115661621094
-473.003173828125
-473.4768981933594
-473.81976318359375
-474.078125
-471.7705993652344
-468.9007873535156
-466.24273681640625
-465.77490234375
-466.34832763671875
-466.76593017578125
-469.93670654296875
-470.98260498046875
-472.07861328125
-472.0198669433594
-470.4925537109375
-470.5978698730469
-470.87255859375
-471.3328857421875
-471.8016052246094
-472.169189453125
-472.39080810546875
-472.7188415527344
-472.8930358886719
-473.098388671875
-473.5283203125
-473.9277648925781
-474.3932800292969
-472.61151123046875
-472.4203186035156
-472.1828308105469
-471.8188171386719
-471.20965576171875
-468.9253234863281
-467.45733642578125
-467.39678955078125
-468.12469482421875
-468.7639465332031
-469.2796630859375
-469.6279602050781
-470.02703857421875
-470.06109619140625
-469.9656066894531
-470.01910400390625
-470.314453125
-470.78662109375
-471.1964111328125
-471.67474365234375
-472.0994873046875
-472.41156005859375
-473.35479736328125
-473.7033996582031
-474.02911376953125
-474.5474548339844
-475.09765625
-474.32794189453125
-472.7694396972656
-472.5799560546875
-471.633544921875
-471.8418884277344
-468.9902038574219
-466.6954345703125
-465.28955078125
-464.6560363769531
-465.06793212890625
-468.1060791015625
-468.797119140625
-469.6114196777344
-470.3896484375
-470.2551574707031
-470.074951171875
-470.242431640625
-470.5732727050781
-470.9622497558594
-471.5028991699219
-472.48297119140625
-472.95599365234375
-473.17437744140625
-473.4208984375
-473.697265625
-474.0879821777344
-474.51788330078125
-475.04571533203125
-474.0729675292969
-473.80035400390625
-472.0823669433594
-471.80194091796875
-471.0923767089844
-469.3547058105469
-467.3564147949219
-466.7704162597656
-467.0011291503906
-467.1770324707031
-467.1533508300781
-467.016357421875
-466.8924255371094
-466.5745544433594
-466.1336669921875
-465.8200378417969
-465.6353759765625
-464.9876708984375
-467.8464050292969
-469.0746765136719
-468.9792175292969
-469.6605529785156
-469.51373291015625
-469.3470764160156
-469.24456787109375
-469.3805847167969
-469.5369567871094
-469.76702880859375
-470.0326232910156
-470.1009521484375
-470.2251281738281
-470.64178466796875
-469.2318115234375
-466.8333740234375
-465.0820617675781
-465.0875244140625
-465.4862060546875
-468.47265625
-469.0860290527344
-470.3893127441406
-469.7448425292969
-469.0447998046875
-468.4141540527344
-468.20111083984375
-468.25628662109375
-468.3553161621094
-468.39459228515625
-468.462646484375
-468.36981201171875
-468.32086181640625
-468.2806701660156
-468.2244567871094
-468.2560119628906
-468.40509033203125
-468.63983154296875
-468.8727111816406
-468.2212829589844
-466.3240966796875
-464.9895935058594
-464.9942321777344
-465.4732360839844
-468.1351013183594
-469.7593994140625
-470.8034973144531
-471.5542297363281
-471.1007080078125
-470.78802490234375
-470.8531188964844
-471.27178955078125
-471.8014831542969
-472.04437255859375
-472.3309326171875
-472.6427917480469
-472.7517395019531
-472.8020935058594
-472.95849609375
-473.26611328125
-473.57757568359375
-473.6483154296875
-472.5544128417969
-469.0279541015625
-466.644287109375
-466.9571228027344
-467.2828369140625
-469.776123046875
-470.7688903808594
-471.7707824707031
-471.4922180175781
-470.8990478515625
-470.7087707519531
-470.6824035644531
-470.9855651855469
-471.3756103515625
-471.5936584472656
-471.71771240234375
-471.6875915527344
-471.554931640625
-471.58544921875
-472.0264587402344
-472.5427551269531
-473.12005615234375
-473.1708984375
-471.80633544921875
-469.7462463378906
-469.1277160644531
-469.5069274902344
-470.03460693359375
-470.3215026855469
-470.5300598144531
-470.9405822753906
-470.81231689453125
-470.63702392578125
-470.69329833984375
-471.0609436035156
-471.6746826171875
-472.2001647949219
-472.46435546875
-472.4756774902344
-472.5638122558594
-472.7068176269531
-472.8597717285156
-472.9296875
-473.2424011230469
-473.53350830078125
-473.8683776855469
-474.0189514160156
-471.4919128417969
-468.59490966796875
-466.1045837402344
-466.2282409667969
-466.6832275390625
-468.9966735839844
-469.66229248046875
-470.7054748535156
-470.81878662109375
-470.67401123046875
-470.5550842285156
-470.7724304199219
-470.99365234375
-471.2124938964844
-471.42852783203125
-471.53411865234375
-471.56475830078125
-471.56640625
-471.7903747558594
-471.9942626953125
-472.2295837402344
-472.7417297363281
-473.15069580078125
-473.59368896484375
-474.1053771972656
-474.3076477050781
-472.1240539550781
-469.320556640625
-466.60528564453125
-466.64190673828125
-467.131591796875
-467.4430847167969
-467.46002197265625
-467.692138671875
-467.8776550292969
-467.75433349609375
-467.5805969238281
-467.5843811035156
-467.7232360839844
-467.9067687988281
-468.2159729003906
-468.30743408203125
-468.31561279296875
-468.4931335449219
-468.70343017578125
-468.9249572753906
-469.3939208984375
-469.99285888671875
-470.6275939941406
-471.170654296875
-471.6327819824219
-472.27972412109375
-472.8855285644531
-473.3238525390625
-473.1745910644531
-471.4176330566406
-469.81268310546875
-469.56243896484375
-470.0546875
-470.4792785644531
-470.7060546875
-471.1070251464844
-471.3171081542969
-471.2769470214844
-471.8967590332031
-472.375244140625
-472.9295349121094
-473.3414306640625
-473.8064270019531
-474.0471496582031
-474.1279602050781
-472.977783203125
-472.44366455078125
-471.3904724121094
-471.7745361328125
-471.5993957519531
-472.08795166015625
-472.4911804199219
-473.3624572753906
-473.7864685058594
-473.5946044921875
-471.8162536621094
-467.8345947265625
-466.005126953125
-466.4012451171875
-466.7524719238281
-468.84356689453125
-470.03948974609375
-470.11456298828125
-469.83709716796875
-469.23492431640625
-468.7557373046875
-468.52801513671875
-468.34930419921875
-468.4572448730469
-468.436767578125
-468.1126708984375
-467.6506042480469
-467.4715881347656
-467.35064697265625
-467.17962646484375
-467.1551208496094
-467.2657775878906
-467.2376403808594
-467.12725830078125
-467.2864074707031
-467.4050598144531
-467.6746826171875
-467.333984375
-465.30859375
-463.5687255859375
-463.5226135253906
-466.1033020019531
-468.107177734375
-470.6647033691406
-471.6982727050781
-472.51348876953125
-472.0809020996094
-471.3458251953125
-471.1078796386719
-471.127685546875
-471.4036560058594
-472.0342102050781
-472.1632385253906
-472.0545654296875
-472.2453308105469
-472.3082275390625
-472.55645751953125
-472.71417236328125
-473.05078125
-473.3598937988281
-473.76190185546875
-474.4481506347656
-474.46099853515625
-471.2940673828125
-469.01885986328125
-467.40667724609375
-467.946044921875
-468.4583740234375
-468.85394287109375
-469.160888671875
-469.30560302734375
-468.9212951660156
-468.5370178222656
-468.4212646484375
-468.7638854980469
-469.11151123046875
-469.4201965332031
-469.4253234863281
-469.5156555175781
-469.54327392578125
-469.7472839355469
-469.90924072265625
-470.12921142578125
-470.406005859375
-470.688232421875
-470.8717041015625
-470.4287414550781
-468.69451904296875
-467.4522705078125
-467.4245300292969
-467.90325927734375
-468.2210388183594
-468.36920166015625
-468.718994140625
-468.9915466308594
-468.6158752441406
-468.4743347167969
-468.63037109375
-468.9801025390625
-469.48687744140625
-470.01171875
-470.3088684082031
-470.6255187988281
-470.9216003417969
-471.0181884765625
-471.1925354003906
-471.32080078125
-471.5
-471.7951354980469
-472.1235656738281
-472.36962890625
-471.73065185546875
-469.7039489746094
-468.6373291015625
-468.7905578613281
-469.3980712890625
-469.6861877441406
-469.8196105957031
-469.95025634765625
-469.9583740234375
-469.6183776855469
-469.33270263671875
-469.28094482421875
-469.3804016113281
-469.59710693359375
-469.795654296875
-469.94635009765625
-469.9854736328125
-470.1159973144531
-470.2603759765625
-470.43115234375
-470.5762939453125
-470.8486633300781
-471.1183166503906
-471.4176330566406
-471.7363586425781
-471.8716735839844
-470.6058654785156
-468.61737060546875
-467.8994445800781
-468.3030090332031
-468.7455139160156
-469.0768737792969
-469.2384948730469
-469.5386962890625
-469.58856201171875
-469.40869140625
-469.25140380859375
-469.4721984863281
-469.8553466796875
-470.2378234863281
-470.3189392089844
-470.4993896484375
-470.6598815917969
-470.7653503417969
-470.8074645996094
-471.10345458984375
-471.5033264160156
-471.7724304199219
-472.0923767089844
-472.4407653808594
-472.73846435546875
-472.9671630859375
-473.1756286621094
-471.64471435546875
-469.40142822265625
-468.6108703613281
-468.9194030761719
-469.400390625
-469.74322509765625
-469.93194580078125
-470.1578369140625
-470.2166442871094
-469.761474609375
-469.58624267578125
-469.73846435546875
-469.91925048828125
-470.3866271972656
-470.9013366699219
-471.15728759765625
-471.2927551269531
-471.44378662109375
-471.59832763671875
-471.6980285644531
-472.25213623046875
-472.7999572753906
-473.16412353515625
-473.68536376953125
-474.0223388671875
-474.3953552246094
-473.259765625
-472.6228332519531
-469.5072937011719
-467.3627014160156
-465.962890625
-467.0577392578125
-467.54998779296875
-469.2950439453125
-470.96380615234375
-471.3066711425781
-471.50799560546875
-471.328857421875
-471.17279052734375
-471.31463623046875
-471.6238098144531
-471.950439453125
-472.2546081542969
-472.4273376464844
-472.58380126953125
-472.7491760253906
-472.91510009765625
-473.02130126953125
-473.28912353515625
-473.60296630859375
-473.7725830078125
-474.0600891113281
-472.98931884765625
-472.5588684082031
-472.1333312988281
-470.8000183105469
-468.2830810546875
-464.0428466796875
-463.31048583984375
-465.6583251953125
-467.537353515625
-469.9321594238281
-470.8191833496094
-471.0781555175781
-470.8340759277344
-470.399658203125
-470.15545654296875
-470.17230224609375
-470.28759765625
-470.4982604980469
-470.4965515136719
-470.57952880859375
-470.5596008300781
-470.5157470703125
-470.3882141113281
-470.401123046875
-470.63824462890625
-470.8348388671875
-470.9505920410156
-471.1692199707031
-471.43377685546875
-471.3081359863281
-469.95880126953125
-467.48419189453125
-466.1240539550781
-466.1203918457031
-466.5440673828125
-469.0302429199219
-470.7730407714844
-471.67279052734375
-471.2996826171875
-470.5714416503906
-470.0926208496094
-469.99053955078125
-469.9903259277344
-470.138427734375
-470.36260986328125
-470.3789367675781
-470.2767639160156
-470.2295837402344
-470.1347961425781
-470.0667419433594
-470.2421569824219
-470.6073913574219
-470.85650634765625
-471.1085205078125
-470.6051330566406
-468.6133728027344
-466.9856872558594
-466.9219665527344
-467.51019287109375
-468.0053405761719
-468.426513671875
-468.8023681640625
-468.305419921875
-467.97088623046875
-467.96484375
-468.1768798828125
-468.71075439453125
-469.04071044921875
-469.4295959472656
-469.52191162109375
-469.62445068359375
-469.67340087890625
-469.9219665527344
-470.38818359375
-470.76800537109375
-470.5464172363281
-469.033447265625
-467.1725158691406
-466.53472900390625
-466.8607177734375
-467.4465637207031
-469.1557312011719
-470.9456481933594
-471.36761474609375
-471.1350402832031
-470.82275390625
-470.9161376953125
-471.4721984863281
-472.0657043457031
-472.5928039550781
-472.98773193359375
-473.244384765625
-473.3055419921875
-473.31817626953125
-473.4236755371094
-473.57684326171875
-473.8851623535156
-474.22296142578125
-474.629638671875
-473.40960693359375
-471.8919372558594
-469.13726806640625
-467.3132629394531
-467.5660400390625
-468.2658386230469
-468.7959899902344
-469.0377502441406
-469.3586730957031
-469.4725341796875
-469.3050231933594
-469.2665100097656
-469.7508850097656
-470.0719299316406
-470.5282897949219
-470.7229919433594
-470.7614440917969
-471.1278381347656
-471.4281921386719
-471.6427917480469
-471.9342041015625
-472.2215576171875
-472.5776062011719
-472.81719970703125
-472.93524169921875
-472.078857421875
-470.1359558105469
-469.22186279296875
-469.59625244140625
-470.2098693847656
-470.7579650878906
-470.9716491699219
-471.367431640625
-471.6828308105469
-471.8075866699219
-471.9159851074219
-472.1027526855469
-472.4256896972656
-472.74432373046875
-473.29296875
-473.6728210449219
-473.9270935058594
-474.21136474609375
-472.99908447265625
-472.43853759765625
-471.4125061035156
-471.0235290527344
-470.734130859375
-471.13885498046875
-471.7013244628906
-472.1231689453125
-472.28887939453125
-471.91436767578125
-469.9813232421875
-468.3901672363281
-468.234375
-468.45166015625
-468.7021789550781
-468.68414306640625
-468.7820739746094
-468.8126525878906
-468.5439147949219
-468.1607971191406
-468.0085144042969
-468.1470947265625
-468.24359130859375
-468.1944885253906
-468.1620178222656
-467.93389892578125
-467.75555419921875
-467.5222473144531
-467.28607177734375
-467.2183837890625
-467.36871337890625
-467.5085144042969
-467.73443603515625
-467.9786071777344
-468.11383056640625
-468.2351379394531
-468.0459289550781
-463.6339111328125
-462.4847717285156
-462.8996276855469
-466.3798522949219
-468.9200439453125
-471.1807861328125
-471.33038330078125
-471.30841064453125
-470.7777099609375
-469.7730712890625
-469.87152099609375
-470.13861083984375
-470.3119201660156
-470.4527893066406
-470.48956298828125
-470.6508483886719
-470.715087890625
-471.00146484375
-471.1793212890625
-471.4629821777344
-471.6172180175781
-471.7275085449219
-471.7908020019531
-471.8406677246094
-471.05078125
-469.1912841796875
-467.9998474121094
-468.15081787109375
-468.8118591308594
-469.33428955078125
-469.6425476074219
-469.832763671875
-470.02099609375
-469.7880859375
-469.5539245605469
-469.6785583496094
-469.9979248046875
-470.3042907714844
-470.36639404296875
-470.5814208984375
-470.5466613769531
-470.638916015625
-470.82489013671875
-471.012451171875
-471.235107421875
-471.6048583984375
-471.9468688964844
-472.2947998046875
-471.7313537597656
-469.8355407714844
-468.66522216796875
-468.8069763183594
-469.4880676269531
-470.0135192871094
-470.1656799316406
-470.4552917480469
-470.606689453125
-470.4879455566406
-470.48028564453125
-470.6087341308594
-470.9438171386719
-471.4107360839844
-471.80035400390625
-471.8958740234375
-471.9961242675781
-472.2730407714844
-472.4185791015625
-472.5920104980469
-472.7309875488281
-473.1055908203125
-473.4647521972656
-473.7602233886719
-474.01141357421875
-473.411376953125
-469.8663635253906
-467.9992980957031
-467.5267333984375
-468.19635009765625
-470.1406555175781
-471.0697937011719
-471.20831298828125
-471.4083251953125
-471.22894287109375
-471.076416015625
-471.1496276855469
-471.36785888671875
-471.64068603515625
-471.95904541015625
-472.2073059082031
-472.3607482910156
-472.5193176269531
-472.6504821777344
-472.8167724609375
-473.01129150390625
-473.3770751953125
