-11.724440104166666
-13.537903645833333
-96.24723958333334
-237.94579427083335
-252.49532552083335
-188.9326953125
-65.2523046875
-62.62428385416667
-56.43630208333333
-49.668932291666664
-43.53498697916667
-50.23024739583333
-46.63333333333333
-46.05796875
-41.66192708333333
-38.903567708333334
-36.348932291666664
-34.206041666666664
-34.56596354166667
-34.2626171875
-33.706484375
-34.06928385416666
-34.17665364583333
-34.42135416666667
-34.554088541666665
-34.609791666666666
-34.64315104166667
-34.675481770833336
-34.7057421875
-34.71057291666666
-34.72740885416667
-34.73684895833333
-34.76126302083333
-34.68802083333333
-34.378671875
-34.13809895833333
-34.0930078125
-34.1468359375
-34.210026041666666
-34.2493359375
-34.30515625
-34.25895833333333
-34.241770833333334
-34.25591145833334
-34.3044140625
-34.372890625
-34.418984375
-34.453828125
-34.47994791666667
-34.530911458333335
-34.57319010416666
-34.52108072916667
-34.21596354166667
-34.042630208333335
-34.0441796875
-34.17072916666667
-34.2571875
-34.20420572916667
-34.205091145833336
-34.27307291666666
-34.34653645833333
-34.393307291666666
-34.4425390625
-34.4728125
-34.52651041666667
-34.52876302083333
-34.554348958333335
-34.643828125
-34.570625
-34.28104166666667
-34.08850260416666
-34.071796875
-34.2043359375
-34.28231770833333
-34.236627604166664
-34.2296484375
-34.25010416666667
-34.3165234375
-34.442044270833335
-34.4766015625
-34.52481770833333
-34.55578125
-34.5884765625
-34.59908854166667
-34.61348958333333
-34.64609375
-34.67920572916667
-34.63360677083333
-34.39248697916667
-34.21084635416667
-34.1910546875
-34.250299479166664
-34.322109375
-34.380520833333335
-34.41295572916667
-34.39546875
-34.355143229166664
-34.33065104166667
-34.35217447916666
-34.39381510416667
-34.422513020833335
-34.46470052083333
-34.53209635416667
-34.55216145833333
-34.5452734375
-34.5535546875
-34.583294270833335
-34.6118359375
-34.54109375
-34.308671875
-34.140963541666665
-34.13104166666667
-34.21072916666667
-34.27036458333333
-34.312200520833336
-34.34171875
-34.330677083333335
-34.29466145833333
-34.27446614583334
-34.2895703125
-34.33057291666667
-34.40118489583333
-34.48822916666666
-34.515703125
-34.5578515625
-34.579739583333335
-34.60205729166667
-34.53794270833333
-34.287838541666666
-34.118125
-34.181966145833336
-34.2769921875
-34.3191015625
-34.324635416666666
-34.273125
-34.25087239583333
-34.27325520833333
-34.30997395833333
-34.35368489583333
-34.40158854166667
-34.421236979166665
-34.45265625
-34.48484375
-34.4941796875
-34.514921875
-34.53627604166667
-34.531184895833334
-34.338307291666666
-34.0724609375
-33.95752604166667
-33.97764322916667
-34.0490625
-34.314921875
-34.54497395833334
-34.5443359375
-34.53359375
-34.48920572916666
-34.487552083333334
-34.51002604166667
-34.5494921875
-34.59783854166667
-34.6295703125
-34.6612109375
-34.68225260416666
-34.69114583333333
-34.70065104166667
-34.71829427083333
-34.74236979166667
-34.72802083333333
-34.5108203125
-34.253177083333334
-34.182942708333336
-34.24010416666667
-34.30673177083333
-34.3266796875
-34.3715625
-34.37548177083333
-34.33403645833334
-34.2953515625
-34.303984375
-34.3410546875
-34.401705729166665
-34.433359375
-34.471263020833334
-34.501536458333334
-34.518515625
-34.526328125
-34.53479166666666
-34.540729166666665
-34.56569010416667
-34.609713541666665
-34.479505208333336
-34.21329427083333
-34.07092447916666
-34.093736979166664
-34.171901041666665
-34.22389322916667
-34.269453125
-34.288776041666665
-34.266041666666666
-34.23485677083333
-34.229466145833335
-34.24032552083333
-34.273502604166666
-34.373033854166664
-34.391953125
-34.4079296875
-34.43239583333333
-34.43868489583333
-34.437486979166664
-34.45102864583333
-34.49506510416666
-34.49298177083333
-34.0130859375
-33.94180989583333
-33.983984375
-34.37389322916667
-34.6296875
-34.75546875
-34.665390625
-34.6148828125
-34.583255208333334
-34.54403645833333
-34.56360677083333
-34.588932291666666
-34.6148046875
-34.65018229166667
-34.68178385416667
-34.685924479166665
-34.68127604166666
-34.70555989583333
-34.7190625
-34.654296875
-34.42311197916667
-34.259466145833336
-34.24661458333333
-34.317369791666664
-34.374583333333334
-34.42763020833333
-34.46856770833333
-34.45486979166667
-34.4219921875
-34.401380208333336
-34.4258203125
-34.46796875
-34.5117578125
-34.56459635416667
-34.6089453125
-34.64923177083333
-34.6790234375
-34.69967447916667
-34.72541666666667
-34.74791666666667
-34.676744791666664
-34.40703125
-34.2330859375
-34.22984375
-34.2953125
-34.432421875
-34.444453125
-34.414296875
-34.4130078125
-34.458997395833336
-34.502200520833334
-34.546940104166666
-34.58220052083333
-34.62934895833333
-34.645807291666664
-34.65567708333333
-34.66779947916667
-34.69203125
-34.70001302083333
-34.4787890625
-34.207578125
-34.142643229166666
-34.188098958333335
-34.256901041666666
-34.321875
-34.36739583333333
-34.38220052083334
-34.34657552083333
-34.3193359375
-34.335520833333334
-34.372708333333335
-34.43950520833334
-34.49627604166667
-34.536119791666664
-34.56985677083333
-34.602109375
-34.6128515625
-34.62766927083333
-34.662747395833335
-34.69899739583333
-34.710520833333334
-34.560390625
-34.239674479166666
-34.105
-34.14145833333333
-34.216380208333334
-34.30580729166667
-34.351328125
-34.37885416666666
-34.35609375
-34.321588541666664
-34.31408854166666
-34.354140625
-34.40776041666667
-34.47994791666667
-34.540768229166666
-34.56924479166667
-34.6053125
-34.6349609375
-34.649765625
-34.66325520833333
-34.69899739583333
-34.72994791666667
-34.756236979166665
-34.601848958333335
-34.320078125
-34.18169270833334
-34.21536458333333
-34.305338541666664
-34.38229166666667
-34.43630208333333
-34.47970052083333
-34.458919270833334
-34.411875
-34.4134765625
-34.458971354166664
-34.51309895833333
-34.569986979166664
-34.62938802083333
-34.664348958333335
-34.685247395833336
-34.71751302083333
-34.734361979166664
-34.74171875
-34.76993489583333
-34.793125
-34.82657552083333
-34.69518229166667
-34.409856770833336
-34.2681640625
-34.305
-34.39026041666666
-34.47055989583333
-34.53622395833333
-34.5759765625
-34.5374609375
-34.46848958333333
-34.42161458333333
-34.45583333333333
-34.51016927083333
-34.565130208333336
-34.61640625
-34.6645703125
-34.6906640625
-34.71859375
-34.71359375
-34.73748697916667
-34.757265625
-34.715442708333335
-34.46608072916667
-34.2648828125
-34.250989583333336
-34.34451822916667
-34.4218359375
-34.51052083333333
-34.57580729166666
-34.5762109375
-34.52037760416667
-34.49197916666667
-34.5059765625
-34.5456640625
-34.61984375
-34.67942708333333
-34.73817708333333
-34.781666666666666
-34.817135416666666
-34.836888020833335
-34.85565104166667
-34.885494791666666
-34.769947916666666
-34.475260416666664
-34.32338541666667
-34.342447916666664
-34.425221354166666
-34.516666666666666
-34.57145833333333
-34.61540364583333
-34.59125
-34.54873697916667
-34.534856770833336
-34.55481770833333
-34.61518229166666
-34.6795703125
-34.732005208333334
-34.77502604166666
-34.8039453125
-34.8209765625
-34.844127604166665
-34.86729166666667
-34.8744921875
-34.741770833333334
-34.4235546875
-34.27526041666667
-34.31548177083334
-34.4016796875
-34.47315104166667
-34.52061197916667
-34.5626953125
-34.53227864583334
-34.509453125
-34.49760416666667
-34.5345703125
-34.604427083333334
-34.662265625
-34.70934895833334
-34.743125
-34.784114583333334
-34.7940234375
-34.79682291666666
-34.82080729166667
-34.85778645833334
-34.8050390625
-34.5364453125
-34.330013020833334
-34.33319010416667
-34.412044270833334
-34.48255208333333
-34.53609375
-34.5782421875
-34.56716145833333
-34.53640625
-34.515208333333334
-34.54651041666666
-34.59983072916667
-34.670703125
-34.7267578125
-34.767877604166664
-34.78891927083333
-34.7960546875
-34.8094140625
-34.83127604166667
-34.849140625
-34.889088541666666
-34.7805078125
-34.5205859375
-34.373958333333334
-34.395520833333336
-34.474765625
-34.539479166666666
-34.59303385416667
-34.6218359375
-34.58859375
-34.56720052083333
-34.5526953125
-34.58873697916667
-34.64239583333333
-34.691432291666665
-34.72872395833333
-34.75940104166666
-34.78395833333333
-34.79080729166667
-34.80100260416667
-34.81561197916667
-34.851901041666665
-34.80881510416667
-34.575260416666666
-34.40772135416667
-34.41037760416667
-34.484075520833336
-34.54497395833334
-34.60200520833333
-34.6284375
-34.61997395833333
-34.55328125
-34.53915364583333
-34.57298177083333
-34.62515625
-34.6826171875
-34.70959635416666
-34.74135416666667
-34.77552083333333
-34.78869791666666
-34.803385416666664
-34.84131510416667
-34.845416666666665
-34.70640625
-34.471015625
-34.407161458333334
-34.46049479166667
-34.5266015625
-34.58295572916666
-34.6162109375
-34.6426171875
-34.610625
-34.5639453125
-34.5774609375
-34.62677083333333
-34.66858072916666
-34.71953125
-34.752578125
-34.7862890625
-34.809596354166665
-34.814153645833336
-34.834309895833336
-34.868515625
-34.874088541666666
-34.6883203125
-34.434921875
-34.339908854166666
-34.37962239583333
-34.43575520833333
-34.47182291666667
-34.509075520833335
-34.53555989583333
-34.50802083333333
-34.47743489583333
-34.495442708333336
-34.531875
-34.595143229166666
-34.650013020833335
-34.685520833333335
-34.725208333333335
-34.741627604166666
-34.7618359375
-34.772578125
-34.7953515625
-34.8254296875
-34.85294270833333
-34.70220052083334
-34.392916666666665
-34.27109375
-34.3111328125
-34.376666666666665
-34.4175390625
-34.44872395833333
-34.48509114583333
-34.46040364583333
-34.445703125
-34.454388020833335
-34.50177083333333
-34.55787760416667
-34.612955729166664
-34.65477864583333
-34.683880208333335
-34.72274739583333
-34.75893229166667
-34.77076822916667
-34.77817708333333
-34.82123697916666
-34.86682291666666
-34.875729166666666
-34.6819921875
-34.42279947916666
-34.33936197916667
-34.3942578125
-34.46231770833333
-34.511341145833335
-34.5490234375
-34.5805859375
-34.54311197916667
-34.51634114583333
-34.53963541666667
-34.58752604166666
-34.64756510416667
-34.689440104166664
-34.7268359375
-34.7519140625
-34.769205729166664
-34.78259114583334
-34.800768229166664
-34.813815104166665
-34.845989583333335
-34.88049479166666
-34.86998697916667
-34.66389322916667
-34.414348958333335
-34.383046875
-34.437513020833336
-34.500377604166665
-34.6112109375
-34.610625
-34.561197916666664
-34.522395833333334
-34.535
-34.5840234375
-34.629921875
-34.684921875
-34.7191015625
-34.74305989583333
-34.7518359375
-34.7861328125
-34.78950520833333
-34.64234375
-34.407604166666665
-34.323619791666665
-34.390911458333335
-34.47065104166666
-34.54466145833333
-34.595677083333335
-34.61313802083333
-34.58315104166667
-34.54234375
-34.55973958333333
-34.59544270833333
-34.654375
-34.714205729166665
-34.76450520833333
-34.799479166666664
-34.84575520833334
-34.868580729166666
-34.8855859375
-34.91149739583334
-34.927408854166664
-34.776015625
-34.50578125
-34.40536458333333
-34.45779947916667
-34.53684895833333
-34.592578125
-34.637708333333336
-34.65735677083333
-34.653971354166664
-34.61825520833333
-34.63579427083334
-34.6651953125
-34.7148046875
-34.767161458333334
-34.814518229166666
-34.87130208333333
-34.88533854166667
-34.909830729166664
-34.92346354166666
-34.950859375
-35.00203125
-34.9828125
-34.511171875
-34.0451171875
-33.89381510416667
-33.95990885416666
-34.3551953125
-34.61016927083333
-34.65348958333333
-34.67244791666667
-34.636028645833335
-34.61368489583333
-34.63595052083333
-34.68692708333333
-34.74342447916667
-34.785755208333335
-34.81524739583333
-34.85649739583334
-34.8916015625
-34.915052083333336
-34.93615885416666
-34.9666796875
-34.99848958333333
-34.908190104166664
-34.48979166666667
-33.991770833333334
-33.9192578125
-33.99015625
-34.37509114583333
-34.54934895833333
-34.679934895833334
-34.70268229166667
-34.67013020833333
-34.65412760416667
-34.56450520833334
-34.6025
-34.65291666666667
-34.7030078125
-34.75015625
-34.788645833333334
-34.8076953125
-34.838619791666666
-34.861354166666665
-34.88075520833333
-34.906328125
-34.94186197916667
-34.88399739583333
-34.61307291666667
-34.17296875
-33.949296875
-34.123385416666665
-34.40186197916667
-34.66102864583333
-34.7019140625
-34.679361979166664
-34.537408854166664
-34.50546875
-34.52317708333333
-34.5823828125
-34.621106770833336
-34.658932291666666
-34.713229166666665
-34.75580729166666
-34.766171875
-34.787747395833335
-34.802669270833334
-34.82858072916667
-34.83901041666667
-34.68381510416667
-34.4120703125
-34.290052083333336
-34.3240625
-34.408932291666666
-34.47024739583333
-34.546223958333336
-34.58384114583333
-34.54420572916667
-34.494700520833334
-34.4728515625
-34.503932291666665
-34.54865885416667
-34.603098958333334
-34.63725260416667
-34.679609375
-34.71528645833333
-34.73641927083333
-34.743151041666664
-34.748372395833336
-34.695546875
-34.20848958333333
-34.1980859375
-34.2569921875
-34.33809895833333
-34.412447916666665
-34.46501302083333
-34.44079427083334
-34.411145833333336
-34.3703515625
-34.3642578125
-34.409908854166666
-34.46248697916667
-34.51634114583333
-34.55747395833333
-34.5912109375
-34.6330078125
-34.65046875
-34.68395833333334
-34.6243359375
-34.350208333333335
-34.1193359375
-34.06388020833333
-34.16069010416667
-34.24942708333333
-34.316653645833334
-34.40829427083333
-34.3287890625
-34.37446614583333
-34.41889322916666
-34.51145833333333
-34.56765625
-34.578151041666665
-34.55770833333333
-33.98611979166667
-33.972356770833336
-34.50296875
-34.6525
-34.64466145833333
-34.621419270833336
-34.53434895833333
-34.57662760416667
-34.632734375
-34.69153645833333
-34.74809895833334
-34.78203125
-34.822278645833336
-34.85342447916667
-34.89595052083333
-34.92010416666667
-34.801197916666666
-34.5039453125
-34.34484375
-34.4425390625
-34.49813802083333
-34.553515625
-34.61020833333333
-34.62126302083333
-34.603229166666665
-34.608424479166665
-34.656848958333335
-34.70526041666667
-34.75890625
-34.80911458333333
-34.86634114583333
-34.904921875
-34.93591145833334
-34.94380208333333
-34.97701822916667
-34.94520833333333
-34.862981770833336
-34.55490885416667
-34.1909765625
-34.00571614583333
-34.049739583333334
-34.343190104166666
-34.5047265625
-34.661197916666666
-34.68768229166667
-34.67756510416667
-34.658619791666666
-34.67924479166667
-34.72305989583333
-34.76802083333333
-34.818385416666665
-34.855403645833334
-34.891484375
-34.93729166666667
-34.969049479166664
-34.98912760416667
-35.01061197916667
-34.786875
-34.623776041666666
-34.25390625
-34.0467578125
-34.05677083333333
-34.12407552083334
-34.197591145833336
-34.24272135416667
-34.28434895833333
-34.24979166666667
-34.237591145833335
-34.28170572916667
-34.37477864583333
-34.46537760416667
-34.51171875
-34.55540364583333
-34.5750390625
-34.61776041666667
-34.4206640625
-34.068984375
-34.1698828125
-34.27209635416666
-34.250690104166665
-34.2201953125
-34.22221354166667
-34.2608203125
-34.30895833333334
-34.3352734375
-34.369791666666664
-34.38098958333333
-34.3955078125
-34.42266927083333
-34.40625
-34.172877604166665
-33.932903645833335
-33.868502604166665
-33.916432291666666
-34.21684895833334
-34.4745703125
-34.6249609375
-34.71734375
-34.661783854166664
-34.6215625
-34.61305989583333
-34.62299479166666
-34.6752734375
-34.710924479166664
-34.752291666666665
-34.77640625
-34.795234375
-34.80330729166667
-34.812747395833334
-34.83459635416666
-34.779921875
-34.55135416666667
-34.353528645833336
-34.3367578125
-34.39078125
-34.46196614583334
-34.53890625
-34.59401041666667
-34.593151041666665
-34.5459765625
-34.505234375
-34.524127604166665
-34.5641015625
-34.6203515625
-34.65770833333333
-34.6961328125
-34.7576171875
-34.77986979166667
-34.664348958333335
-34.35723958333333
-34.18151041666667
-34.184192708333335
-34.26092447916667
-34.39138020833333
-34.42005208333333
-34.36372395833333
-34.37940104166667
-34.418971354166665
-34.47123697916667
-34.574921875
-34.61811197916666
-34.63821614583333
-34.65368489583334
-34.676197916666666
-34.692890625
-34.59388020833333
-34.28234375
-34.050533854166666
-34.18908854166666
-34.296549479166664
-34.30029947916667
-34.2648828125
-34.248333333333335
-34.25776041666666
-34.308033854166666
-34.3608203125
-34.40841145833333
-34.455
-34.4952734375
-34.51865885416667
-34.532252604166665
-34.5587890625
-34.58217447916667
-34.5931640625
-34.4110546875
-34.088046875
-33.949635416666666
-33.97376302083333
-34.06036458333333
-34.433307291666665
-34.600885416666664
-34.637682291666664
-34.6276953125
-34.58295572916666
-34.566080729166664
-34.59205729166667
-34.643880208333336
-34.704127604166665
-34.76013020833334
-34.803776041666666
-34.8399609375
-34.857174479166666
-34.872630208333334
-34.897877604166666
-34.924244791666666
-34.959973958333336
-34.837604166666665
-34.535572916666666
-34.2501953125
-34.1512109375
-34.3488671875
-34.5451953125
-34.60860677083333
-34.64196614583334
-34.61346354166667
-34.551484375
-34.53694010416667
-34.55809895833333
-34.6063671875
-34.63881510416667
-34.6776953125
-34.722721354166666
-34.75575520833333
-34.77494791666667
-34.78212239583333
-34.7990625
-34.82076822916667
-34.8320703125
-34.7175390625
-34.40903645833333
-34.2556640625
-34.2726171875
-34.450794270833335
-34.5329296875
-34.52395833333333
-34.45260416666667
-34.43416666666667
-34.50966145833333
-34.629557291666664
-34.719609375
-34.73817708333333
-34.75444010416667
-34.78759114583333
-34.665638020833335
-34.21376302083333
-34.3480859375
-34.52770833333334
-34.553723958333336
-34.4674609375
-34.55033854166667
-34.64350260416666
-34.726315104166666
-34.76118489583333
-34.78670572916667
-34.578541666666666
-34.25643229166667
-34.185859375
-34.286197916666666
-34.3725390625
-34.440130208333336
-34.47220052083333
-34.390299479166664
-34.426822916666666
-34.4896484375
-34.55420572916667
-34.6029296875
-34.650729166666665
-34.687122395833335
-34.72065104166666
-34.76247395833333
-34.790625
-34.63796875
-34.2681640625
-34.04903645833333
-34.04704427083333
-34.22217447916667
-34.286953125
-34.34360677083333
-34.34677083333333
-34.285130208333335
-34.258815104166665
-34.2893359375
-34.353229166666665
-34.420859375
-34.48717447916667
-34.54536458333333
-34.60325520833333
-34.61536458333333
-34.6165625
-34.63489583333333
-34.671328125
-34.707630208333335
-34.50795572916667
-34.12217447916667
-33.93151041666667
-33.968059895833335
-34.05389322916667
-34.473072916666666
-34.629921875
-34.767018229166666
-34.761341145833335
-34.7359375
-34.72661458333334
-34.771497395833336
-34.852565104166665
-34.92169270833333
-34.96576822916666
-35.02135416666667
-35.06686197916667
-34.8827734375
-34.81561197916667
-34.63916666666667
-34.679388020833336
-34.727864583333336
-34.64110677083333
-34.27984375
-34.04052083333333
-34.0376953125
-34.1294921875
-34.208346354166665
-34.28209635416667
-34.343684895833334
-34.349765625
-34.3168359375
-34.315455729166665
-34.35559895833333
-34.49227864583333
-34.552356770833335
-34.60125
-34.65229166666666
-34.68359375
-34.72537760416667
-34.739596354166665
-34.76895833333333
-34.778606770833335
-34.2401953125
-34.1342578125
-34.19397135416666
-34.2906640625
-34.3568359375
-34.428020833333335
-34.4374609375
-34.388671875
-34.354557291666666
-34.35826822916667
-34.401432291666666
-34.46140625
-34.52108072916667
-34.56239583333333
-34.61044270833333
-34.635143229166665
-34.655559895833335
-34.656875
-34.666953125
-34.68802083333333
-34.70783854166667
-34.5510546875
-34.24036458333333
-34.08903645833333
-34.116809895833335
-34.20251302083334
-34.28373697916667
-34.351276041666665
-34.40115885416667
-34.3484765625
-34.30700520833334
-34.2939453125
-34.331432291666665
-34.396145833333335
-34.4507421875
-34.5190234375
-34.553385416666664
-34.60928385416667
-34.62052083333333
-34.641875
-34.6729296875
-34.68842447916666
-34.509700520833334
-34.2184375
-34.101236979166664
-34.170963541666666
-34.2741796875
-34.36145833333333
-34.424296875
-34.454609375
-34.42140625
-34.37294270833333
-34.380611979166666
-34.406549479166664
-34.47954427083334
-34.542591145833335
-34.58904947916667
-34.6347265625
-34.67391927083333
-34.684140625
-34.703046875
-34.733997395833335
-34.684192708333335
-34.414973958333334
-34.1864453125
-34.15614583333333
-34.239270833333336
-34.32329427083334
-34.38983072916667
-34.4402734375
-34.46015625
-34.43861979166667
-34.40934895833333
-34.42270833333333
-34.475299479166665
-34.54453125
-34.60546875
-34.64838541666666
-34.69325520833333
-34.704114583333336
-34.73227864583333
-34.74684895833333
-34.7901171875
-34.753528645833335
-34.481471354166665
-34.234361979166664
-34.19100260416667
-34.264010416666665
-34.32994791666667
-34.391640625
-34.431927083333335
-34.453854166666666
-34.43213541666667
-34.409375
-34.43735677083333
-34.50296875
-34.56067708333333
-34.610026041666664
-34.66184895833333
-34.6826171875
-34.72825520833333
-34.74305989583333
-34.7618359375
-34.7877734375
-34.8355078125
-34.78040364583333
-34.50891927083333
-34.29184895833333
-34.27592447916667
-34.34313802083334
-34.41651041666667
-34.47348958333333
-34.528645833333336
-34.5344140625
-34.516588541666664
-34.5022265625
-34.528880208333334
-34.585638020833336
-34.6355859375
-34.689388020833334
-34.732265625
-34.7568359375
-34.7919921875
-34.8115625
-34.82044270833333
-34.857122395833336
-34.8905078125
-34.891640625
-34.67825520833333
-34.400768229166665
-34.302317708333334
-34.35072916666667
-34.41986979166666
-34.4876171875
-34.5351953125
-34.55654947916667
-34.51934895833333
-34.48348958333333
-34.5319921875
-34.572018229166666
-34.6561328125
-34.68545572916667
-34.7041796875
-34.71986979166667
-34.7491796875
-34.775703125
-34.695078125
-34.44346354166667
-34.2580078125
-34.22989583333333
-34.29346354166667
-34.37190104166667
-34.44389322916667
-34.47846354166666
-34.447916666666664
-34.406497395833334
-34.391002604166665
-34.4025390625
-34.45373697916666
-34.52153645833334
-34.58927083333333
-34.6362109375
-34.68040364583333
-34.688489583333336
-34.718424479166664
-34.73647135416667
-34.7340234375
-34.555598958333334
-34.27953125
-34.16359375
-34.200260416666666
-34.285716145833334
-34.36203125
-34.411471354166665
-34.429986979166664
-34.4016015625
-34.3596484375
-34.3574609375
-34.401783854166666
-34.47897135416667
-34.562213541666665
-34.623463541666666
-34.665
-34.69256510416667
-34.72696614583333
-34.74712239583334
-34.7809765625
-34.786328125
-34.6010546875
-34.264713541666666
-34.126666666666665
-34.15735677083333
-34.247799479166666
-34.3334375
-34.3769140625
-34.41485677083333
-34.402890625
-34.371393229166664
-34.371484375
-34.417265625
-34.47748697916666
-34.536106770833335
-34.59045572916666
-34.6484765625
-34.66822916666667
-34.6862109375
-34.7077734375
-34.715260416666666
-34.757174479166665
-34.73813802083333
-34.467760416666664
-34.17600260416667
-34.0936328125
-34.159830729166664
-34.26123697916667
-34.33084635416667
-34.3998828125
-34.415338541666664
-34.39967447916667
-34.384205729166666
-34.396861979166665
-34.519205729166664
-34.589205729166665
-34.68838541666667
-34.721640625
-34.78609375
-34.8055078125
-34.85736979166666
-34.86311197916667
-34.32998697916667
-34.2316796875
-34.38760416666667
-34.527643229166664
-34.5389453125
-34.51
-34.554752604166666
-34.609934895833334
-34.71546875
-34.76354166666667
-34.7914453125
-34.8129296875
-34.76572916666667
-34.480807291666665
-34.22182291666667
-34.28759114583333
-34.37359375
-34.4515234375
-34.50467447916667
-34.492565104166665
-34.43040364583333
-34.397135416666664
-34.448880208333335
-34.59477864583334
-34.631419270833334
-34.661471354166665
-34.67203125
-34.7002734375
-34.72018229166667
-34.713125
-34.50076822916667
-34.20734375
-34.0966015625
-34.1637109375
-34.258515625
-34.333020833333336
-34.415729166666665
-34.444140625
-34.403984375
-34.34225260416667
-34.398138020833336
-34.46950520833333
-34.53786458333333
-34.58953125
-34.634036458333334
-34.674453125
-34.6980078125
-34.7248046875
-34.694713541666665
-34.405833333333334
-34.078059895833334
-33.96984375
-34.0383984375
-34.13979166666667
-34.46178385416667
-34.62421875
-34.75856770833333
-34.736354166666665
-34.70106770833333
-34.68305989583333
-34.72147135416667
-34.79315104166667
-34.860052083333336
-34.912838541666666
-34.9704296875
-35.000325520833336
-35.01608072916667
-34.82134114583334
-34.7212109375
-34.37100260416667
-33.900716145833336
-33.74032552083333
-33.78733072916667
-34.23001302083333
-34.5355859375
-34.702135416666664
-34.73912760416667
-34.7184375
-34.68110677083333
-34.684817708333334
-34.7249609375
-34.7825
-34.8594921875
-34.921575520833336
-34.96759114583333
-34.994869791666666
-35.03204427083333
-34.952565104166666
-34.88600260416667
-34.636419270833336
-34.209973958333336
-33.912109375
-33.85561197916667
-33.93083333333333
-34.35182291666667
-34.625911458333334
-34.6786328125
-34.695911458333335
-34.667018229166665
-34.665546875
-34.6825
-34.74106770833333
-34.80678385416667
-34.862994791666665
-34.91052083333334
-34.956119791666666
-34.98321614583333
-35.003216145833335
-34.928645833333334
-34.86471354166667
-34.72875
-34.303072916666665
-33.91201822916667
-33.8675390625
-33.93296875
-34.356770833333336
-34.53201822916667
-34.682591145833335
-34.69446614583333
-34.65158854166667
-34.6271484375
-34.531940104166665
-34.578151041666665
-34.636067708333336
-34.67932291666666
-34.724921875
-34.75770833333333
-34.76938802083333
-34.778697916666665
-34.783984375
-34.792109375
-34.783515625
-34.557890625
-34.278046875
-34.194713541666665
-34.25591145833334
-34.35502604166667
-34.42369791666667
-34.48966145833333
-34.47358072916666
-34.4235546875
-34.390234375
-34.39869791666667
-34.443697916666665
-34.49255208333334
-34.56143229166667
-34.601263020833336
-34.64026041666666
-34.650989583333335
-34.67130208333333
-34.69348958333333
-34.72173177083334
-34.594609375
-34.30234375
-34.148138020833336
-34.179622395833334
-34.277591145833334
-34.365794270833334
-34.44423177083333
-34.47177083333333
-34.4453125
-34.3955859375
-34.38658854166667
-34.43421875
-34.50272135416667
-34.5704296875
-34.629596354166665
-34.6640625
-34.682864583333334
-34.7001953125
-34.7251953125
-34.7371484375
-34.6419921875
-34.30294270833333
-34.06653645833333
-34.057643229166665
-34.154296875
-34.23877604166667
-34.314700520833334
-34.36404947916667
-34.353541666666665
-34.294765625
-34.28270833333333
-34.3115625
-34.380481770833335
-34.45006510416667
-34.51411458333333
-34.55483072916667
-34.583307291666664
-34.6084375
-34.63384114583334
-34.647760416666664
-34.67321614583334
-34.50536458333333
-34.144778645833334
-33.96053385416667
-34.00790364583333
-34.10078125
-34.526028645833335
-34.688671875
-34.826106770833334
-34.81098958333333
-34.780234375
-34.779270833333335
-34.80325520833333
-34.859700520833336
-34.9053125
-34.9630078125
-35.001171875
-35.043307291666665
-34.936861979166665
-34.742421875
-34.677109375
-34.60856770833333
-34.533880208333336
-34.20579427083333
-33.9738671875
-33.96828125
-34.0844921875
-34.51938802083333
-34.6892578125
-34.838567708333336
-34.82984375
-34.786953125
-34.758815104166665
-34.775403645833336
-34.822682291666666
-34.8837109375
-34.949205729166664
-35.00359375
-35.04430989583334
-34.97403645833333
-34.77451822916667
-34.704427083333336
-34.53604166666667
-34.018125
-34.002109375
-34.09872395833333
-34.751666666666665
-34.80614583333333
-34.792552083333334
-34.724856770833334
-34.690091145833335
-34.711497395833334
-34.7674609375
-34.825494791666664
-34.87544270833333
-34.93966145833333
-34.965143229166664
-34.990872395833335
-34.9375390625
-34.7428125
-34.546809895833334
-34.14080729166667
-33.9294921875
-33.99915364583333
-34.10716145833333
-34.432578125
-34.84455729166667
-34.861015625
-34.8334765625
-34.792734375
-34.78458333333333
-34.8140625
-34.87260416666667
-34.942057291666664
-35.00510416666667
-35.06209635416667
-35.102265625
-34.893567708333336
-34.807330729166665
-34.621875
-34.4981640625
-34.0053515625
-33.78119791666666
-33.8059765625
-34.121471354166665
-34.5551953125
-34.73587239583333
-34.910885416666666
-34.90377604166667
-34.863294270833336
-34.835520833333334
-34.8711328125
-34.934986979166666
-35.014401041666666
-35.078190104166666
-35.14041666666667
-35.07598958333333
-34.7685546875
-34.683606770833336
-34.62352864583333
-34.649140625
-34.5328125
-34.1702734375
-33.973919270833335
-33.9968359375
-34.112109375
-34.42977864583333
-34.820546875
-34.88139322916667
-34.87453125
-34.835
-34.8245703125
-34.86123697916667
-34.920078125
-34.987721354166666
-35.0477734375
-35.1133203125
-34.92595052083333
-34.85134114583333
-34.677096354166665
-34.636783854166666
-34.075872395833336
-33.80553385416667
-33.78046875
-33.886080729166665
-34.6003125
-34.77143229166666
-34.877200520833334
-34.82345052083333
-34.78235677083333
-34.787669270833334
-34.845638020833334
-34.8959375
-34.9576953125
-34.99454427083333
-35.032161458333334
-34.85072916666667
-34.75243489583333
-34.665325520833335
-34.58100260416666
-34.5159765625
-34.22890625
-34.00571614583333
-34.00018229166667
-34.092447916666664
-34.4185546875
-34.605494791666665
-34.86497395833333
-34.83876302083333
-34.791354166666665
-34.761640625
-34.791953125
-34.84432291666667
-34.9003515625
-34.95522135416667
-35.009166666666665
-35.04079427083333
-34.85234375
-34.78010416666667
-34.6939453125
-34.531236979166664
-34.24830729166667
-34.01819010416666
-33.9962890625
-34.08731770833333
-34.40412760416667
-34.57859375
-34.83057291666667
-34.82506510416667
-34.782265625
-34.762044270833336
-34.7642578125
-34.82875
-34.886432291666665
-34.937578125
-34.9778125
-35.02317708333333
-34.8291796875
-34.7430859375
-34.59641927083333
-34.165286458333334
-33.8768359375
-33.838828125
-33.92170572916667
-34.34979166666667
-34.5211328125
-34.78572916666667
-34.79670572916667
-34.768932291666665
-34.7245703125
-34.74912760416667
-34.80584635416667
-34.87479166666667
-34.92729166666667
-34.9791015625
-35.01352864583333
-35.0387890625
-34.852161458333335
-34.767877604166664
-34.66322916666667
-34.36860677083333
-34.00700520833333
-33.850833333333334
-33.903203125
-34.23481770833333
-34.6536328125
-34.8194921875
-34.864010416666666
-34.8394140625
-34.81059895833334
-34.81373697916667
-34.8641796875
-34.92720052083333
-34.98694010416666
-35.04403645833333
-35.087591145833336
-35.014765625
-34.809244791666664
-34.72671875
-34.6603515625
-34.55109375
-34.317578125
-33.98096354166667
-33.869440104166664
-33.94359375
-34.269869791666665
-34.571354166666666
-34.733424479166665
-34.75598958333333
-34.717356770833334
-34.69248697916667
-34.702890625
-34.75118489583333
-34.8080859375
-34.85203125
-34.89536458333333
-34.92809895833334
-34.955546875
-34.95494791666667
-34.96803385416667
-34.98221354166667
-34.88174479166667
-34.48036458333333
-34.14856770833333
-33.907161458333334
-34.08704427083333
-34.175364583333334
-34.583294270833335
-34.628580729166664
-34.737981770833336
-34.69380208333333
-34.6506640625
-34.54080729166667
-34.588841145833335
-34.65154947916667
-34.716549479166666
-34.760104166666665
-34.7953515625
-34.806171875
-34.8171484375
-34.825130208333334
-34.85850260416667
-34.7721484375
-34.49720052083333
-34.29083333333333
-34.30845052083333
-34.401328125
-34.4875390625
-34.553359375
-34.60536458333333
-34.581731770833336
-34.51859375
-34.49360677083333
-34.52546875
-34.59688802083333
-34.643177083333335
-34.72260416666666
-34.76841145833333
-34.7825
-34.7782421875
-34.50868489583333
-34.232838541666666
-34.17990885416667
-34.27365885416667
-34.358151041666666
-34.47501302083333
-34.49858072916667
-34.47282552083333
-34.473958333333336
-34.535885416666666
-34.6053515625
-34.712239583333336
-34.74604166666666
-34.793515625
-34.822565104166664
-34.868502604166665
-34.285546875
-34.24690104166667
-34.3398046875
-34.3919140625
-34.4921484375
-34.46227864583334
-34.44938802083333
-34.57986979166667
-34.63748697916667
-34.6791015625
-34.75755208333333
-34.803359375
-34.827265625
-34.862552083333334
-34.8675
-34.638736979166666
-34.2776953125
-34.22776041666667
-34.32102864583333
-34.405208333333334
-34.46205729166667
-34.484309895833334
-34.45463541666667
-34.401328125
-34.40516927083333
-34.4477734375
-34.51286458333333
-34.5641796875
-34.610377604166665
-34.64001302083334
-34.67635416666667
-34.68444010416667
-34.69639322916667
-34.7595703125
-34.700208333333336
-34.37912760416667
-34.1187890625
-34.094973958333334
-34.19029947916667
-34.292552083333334
-34.42567708333333
-34.39756510416667
-34.3241796875
-34.30212239583334
-34.3324609375
-34.3815625
-34.516002604166665
-34.584934895833335
-34.616809895833335
-34.66817708333333
-34.70140625
-34.319375
-34.06703125
-34.2883984375
-34.374270833333334
-34.4640234375
-34.370442708333336
-34.45787760416667
-34.528606770833335
-34.645078125
-34.727604166666666
-34.78536458333333
-34.81955729166667
-34.72703125
-34.12845052083333
-34.11544270833333
-34.32888020833333
-34.480859375
-34.44341145833334
-34.40305989583333
-34.42891927083333
-34.482578125
-34.618463541666664
-34.73260416666667
-34.7691015625
-34.79274739583333
-34.872721354166664
-34.453671875
-34.133098958333335
-34.250416666666666
-34.4502734375
-34.520755208333334
-34.54744791666667
-34.4631640625
-34.53475260416667
-34.599947916666665
-34.666354166666665
-34.72759114583334
-34.77752604166667
-34.8191796875
-34.84282552083334
-34.86600260416667
-34.863932291666664
-34.5933203125
-34.259140625
-34.18084635416667
-34.372265625
-34.44421875
-34.514401041666666
-34.539739583333336
-34.4955859375
-34.4373046875
-34.428020833333335
-34.471432291666666
-34.540065104166665
-34.60171875
-34.646731770833334
-34.67875
-34.707408854166665
-34.71274739583333
-34.728671875
-34.76162760416667
-34.720377604166664
-34.44479166666667
-34.1581640625
-34.11483072916667
-34.208606770833335
-34.3303515625
-34.413736979166664
-34.486015625
-34.488606770833336
-34.42694010416667
-34.373385416666665
-34.38299479166667
-34.42884114583333
-34.49498697916667
-34.54975260416666
-34.60889322916667
-34.6422265625
-34.675625
-34.698919270833336
-34.711536458333335
-34.707734375
-34.4792578125
-34.17240885416667
-34.068658854166664
-34.15830729166667
-34.27356770833333
-34.35803385416666
-34.44813802083333
-34.48122395833333
-34.43493489583334
-34.38229166666667
-34.38783854166667
-34.43421875
-34.4995703125
-34.553372395833335
-34.60130208333333
-34.64830729166667
-34.67752604166667
-34.6851171875
-34.6939453125
-34.714921875
-34.61705729166667
-34.267864583333335
-34.01805989583333
-34.0101171875
-34.11270833333333
-34.441783854166665
-34.705104166666665
-34.749713541666665
-34.72466145833334
-34.6576171875
-34.632473958333335
-34.664127604166666
-34.716158854166665
-34.7925390625
-34.840703125
-34.894153645833335
-34.93440104166667
-34.9676953125
-34.98201822916667
-35.010729166666664
-35.056653645833336
-34.89498697916667
-34.47869791666667
-34.1182421875
-33.981380208333334
-34.2
-34.416796875
-34.7062890625
-34.867200520833336
-34.7698046875
-34.7134375
-34.69809895833333
-34.60947916666667
-34.558880208333335
-34.61678385416667
-34.67388020833334
-34.7258984375
-34.7423828125
-34.77401041666667
-34.79322916666667
-34.8017578125
-34.82994791666667
-34.861015625
-34.34234375
-34.221979166666664
-34.42454427083333
-34.4838671875
-34.5270703125
-34.481783854166665
-34.4236328125
-34.436861979166665
-34.546276041666665
-34.649075520833335
-34.67670572916666
-34.68609375
-34.7037890625
-34.70591145833333
-34.2051953125
-34.111953125
-34.27852864583333
-34.436770833333334
-34.40419270833333
-34.3750390625
-34.419140625
-34.48424479166667
-34.608984375
-34.6853515625
-34.7126171875
-34.75694010416667
-34.657877604166664
-34.1579296875
-34.166015625
-34.284453125
-34.42826822916667
-34.468072916666664
-34.46278645833333
-34.414661458333335
-34.39790364583333
-34.431393229166666
-34.5005078125
-34.56979166666667
-34.62514322916667
-34.6784375
-34.68661458333333
-34.731380208333334
-34.74734375
-34.779609375
-34.8111328125
-34.69546875
-34.35731770833333
-34.14727864583333
-34.167552083333334
-34.2748046875
-34.36723958333334
-34.4366015625
-34.4847265625
-34.497005208333334
-34.442317708333334
-34.4315625
-34.46751302083333
-34.52321614583333
-34.59334635416667
-34.6444921875
-34.6967578125
-34.729153645833335
-34.769609375
-34.77729166666666
-34.79123697916667
-34.816692708333335
-34.7507421875
-34.23416666666667
-34.238697916666666
-34.366458333333334
-34.45610677083334
-34.5116015625
-34.568984375
-34.55296875
-34.544375
-34.57221354166666
-34.68053385416667
-34.7811328125
-34.81428385416667
-34.8565234375
-34.88893229166667
-34.79514322916667
-34.3470703125
-34.47131510416666
-34.56229166666667
-34.64609375
-34.62046875
-34.570638020833336
-34.6171484375
-34.65375
-34.7512109375
-34.81716145833333
-34.80658854166666
-34.8066796875
-34.83677083333333
-34.86404947916667
-34.836263020833336
-34.605091145833335
-34.3787109375
-34.3512109375
-34.426171875
-34.505
-34.57190104166666
-34.6399609375
-34.6444140625
-34.587265625
-34.55869791666667
-34.584986979166665
-34.6350390625
-34.699856770833335
-34.748606770833334
-34.802083333333336
-34.84161458333333
-34.85901041666666
-34.8719921875
-34.888919270833334
-34.898736979166664
-34.73583333333333
-34.431341145833336
-34.32359375
-34.3771875
-34.47748697916666
-34.559270833333336
-34.617838541666664
-34.6731640625
-34.652942708333335
-34.60920572916667
-34.60963541666667
-34.6491015625
-34.71212239583333
-34.770625
-34.8277734375
-34.865234375
-34.89671875
-34.9207421875
-34.934192708333335
-34.942890625
-34.835950520833336
-34.512395833333336
-34.098346354166665
-34.131015625
-34.320729166666666
-34.40897135416667
-34.396549479166666
-34.346432291666666
-34.385768229166665
-34.501575520833335
-34.56485677083333
-34.59950520833333
-34.66458333333333
-34.67002604166667
-34.686940104166666
-34.642916666666665
-34.0515625
-34.05296875
-34.4669921875
-34.7444140625
-34.788984375
-34.73953125
-34.827708333333334
-34.893138020833334
-35.00079427083333
-35.03630208333333
-35.062265625
-34.95983072916667
-34.87096354166667
-34.78671875
-34.71298177083333
-34.751614583333335
-34.52822916666667
-34.185169270833335
-33.972356770833336
-33.99
-34.09533854166666
-34.42037760416667
-34.706744791666665
-34.862018229166665
-34.858046875
-34.8083984375
-34.79154947916667
-34.8025390625
-34.85703125
-34.92305989583333
-34.979830729166665
-35.0161328125
-35.05114583333334
-34.85578125
-34.762265625
-34.65455729166667
-34.573268229166665
-34.613971354166665
-34.62322916666667
-34.3676953125
-34.050442708333335
-33.97609375
-34.0435546875
-34.387682291666664
-34.685924479166665
-34.848984375
-34.86990885416667
-34.723932291666664
-34.55953125
-34.4445703125
-34.49524739583333
-34.54954427083333
-34.615234375
-34.654986979166665
-34.7141796875
-34.7508984375
-34.773020833333334
-34.791966145833335
-34.814075520833335
-34.833255208333334
-34.67977864583333
-34.3619921875
-34.2038671875
-34.257486979166664
-34.37731770833334
-34.464427083333334
-34.559453125
-34.6059765625
-34.5806640625
-34.5083984375
-34.48677083333333
-34.52002604166667
-34.583020833333336
-34.643125
-34.717890625
-34.761783854166666
-34.791263020833334
-34.80485677083333
-34.8298046875
-34.858059895833335
-34.86111979166667
-34.60138020833333
-34.24881510416667
-34.121067708333335
-34.19162760416667
-34.29705729166667
-34.39727864583333
-34.46984375
-34.52015625
-34.47665364583333
-34.412578125
-34.403203125
-34.44122395833333
-34.49294270833333
-34.5670703125
-34.6158203125
-34.670338541666666
-34.69993489583333
-34.72208333333333
-34.7414453125
-34.75368489583333
-34.779921875
-34.590885416666666
-34.204479166666665
-34.017825520833334
-34.048893229166666
-34.1675
-34.595364583333335
-34.7720703125
-34.91850260416667
-34.89342447916667
-34.82600260416667
-34.79936197916667
-34.8515625
-34.90572916666667
-34.9703515625
-35.03826822916667
-35.10104166666667
-35.1385546875
-34.92567708333333
-34.7234765625
-34.654674479166665
-34.57079427083333
-34.543385416666666
-34.2229296875
-33.864375
-33.74658854166667
-33.811588541666666
-34.26223958333333
-34.5710546875
-34.7419921875
-34.852565104166665
-34.69881510416667
-34.659427083333334
-34.660755208333335
-34.59791666666667
-34.66424479166667
-34.725299479166665
-34.786015625
-34.8232421875
-34.843515625
-34.85533854166667
-34.88192708333333
-34.91067708333333
-34.710963541666665
-34.33938802083333
-34.160130208333335
-34.204830729166666
-34.3060546875
-34.41225260416667
-34.49485677083333
-34.4608203125
-34.38065104166667
-34.385442708333336
-34.5069140625
-34.61244791666667
-34.6241015625
-34.646236979166666
-34.684856770833335
-34.578424479166664
-33.962604166666665
-33.96244791666667
-34.08126302083333
-34.53893229166667
-34.749921875
-34.82076822916667
-34.7877734375
-34.7080859375
-34.680546875
-34.70875
-34.767877604166664
-34.84171875
-34.936145833333335
-34.98983072916667
-35.036953125
-35.06537760416666
-34.9798828125
-34.89114583333333
-34.77688802083333
-34.37678385416667
-33.88486979166667
-33.742200520833336
-33.81783854166667
-34.175390625
-34.617877604166665
-34.79748697916666
-34.94908854166667
-34.914088541666665
-34.85921875
-34.845455729166666
-34.881953125
-34.9592578125
-35.040026041666664
-35.107981770833334
-35.157161458333334
-34.95529947916667
-34.860104166666666
-34.756770833333334
-34.679375
-34.665234375
-34.2288671875
-33.819661458333336
-33.682591145833335
-33.7526953125
-34.2383203125
-34.54311197916667
-34.70458333333333
-34.849192708333334
-34.814205729166666
-34.75567708333333
-34.747799479166666
-34.7951171875
-34.85626302083333
-34.9316015625
-35.001015625
-35.069010416666664
-35.096263020833334
-35.00736979166667
-34.784921875
-34.811497395833335
-34.73686197916667
-34.62798177083334
-34.2540625
-33.9446875
-33.926875
-34.2640234375
-34.5830859375
-34.850026041666666
-34.7746484375
-34.87375
-35.00763020833333
-35.08265625
-34.9048046875
-34.7331640625
-34.5779296875
-33.948125
-33.94032552083333
-34.02649739583333
-34.643541666666664
-34.792057291666666
-34.69834635416667
-34.78953125
-34.902421875
-34.94359375
-34.971393229166665
-35.0203125
-34.994466145833336
-34.576770833333335
-34.23833333333334
-33.960559895833335
-34.18971354166667
-34.810572916666665
-34.87798177083334
-34.866276041666666
-34.70303385416667
-34.6742578125
-34.63033854166667
-34.686458333333334
-34.736341145833336
-34.77944010416667
-34.8367578125
-34.851171875
-34.89493489583333
-34.90877604166667
-34.71791666666667
-34.42946614583333
-34.390286458333335
-34.47891927083333
-34.56147135416666
-34.632434895833335
-34.67329427083333
-34.643828125
-34.6184765625
-34.61532552083333
-34.65321614583333
-34.71138020833333
-34.7834375
-34.853502604166664
-34.88861979166666
-34.9344921875
-34.959544270833334
-34.9683984375
-35.0044921875
-34.94690104166666
-34.64709635416666
-34.2796484375
-33.99572916666666
-34.18692708333333
-34.41036458333333
-34.6880078125
-34.8659765625
-34.88774739583334
-34.851875
-34.714778645833334
-34.62705729166667
-34.592096354166664
-34.6569921875
-34.7179296875
-34.771640625
-34.8216796875
-34.849934895833336
-34.8878125
-34.898359375
-34.92763020833333
-34.9629296875
-34.8040234375
-34.48
-34.33055989583333
-34.37037760416667
-34.4587890625
-34.52990885416666
-34.59227864583333
-34.643268229166665
-34.64119791666667
-34.627330729166665
-34.634375
-34.69618489583333
-34.755078125
-34.819583333333334
-34.89489583333334
-34.920559895833335
-34.969348958333335
-35.047109375
-35.081341145833335
-34.89098958333334
-34.93216145833333
-34.406315104166666
-34.012356770833335
-33.9791796875
-34.402369791666665
-34.58825520833334
-34.77006510416667
-34.789075520833336
-34.779635416666665
-34.7958203125
-34.931263020833335
-34.9996484375
-35.047213541666665
-35.0940625
-35.02970052083333
-34.94352864583333
-34.83734375
-34.68412760416667
-34.63002604166667
-34.5776953125
-34.03205729166667
-34.03365885416667
-34.118502604166665
-34.45194010416667
-34.76084635416667
-34.801341145833334
-34.79833333333333
-34.76356770833333
-34.7387109375
-34.746328125
-34.788098958333336
-34.840442708333335
-34.888919270833334
-34.9398046875
-34.975338541666666
-35.014765625
-35.019283854166666
-35.030546875
-34.9388671875
-34.86075520833333
-34.74106770833333
-34.40057291666667
-34.1225390625
-33.951848958333336
-34.01442708333333
-34.115572916666665
-34.552356770833335
-34.731119791666664
-34.85341145833333
-34.806328125
-34.75928385416667
-34.76846354166667
-34.81559895833333
-34.86141927083333
-34.9080859375
-34.95388020833333
-35.003528645833335
-35.03346354166667
-35.05787760416667
-34.84776041666667
-34.768671875
-34.64404947916667
-34.2871484375
-34.001940104166664
-33.92609375
-33.99876302083333
-34.46911458333334
-34.6672265625
-34.84424479166667
-34.856484375
-34.82013020833333
-34.555416666666666
-34.550703125
-34.588138020833334
-34.65122395833333
-34.7118359375
-34.75990885416667
-34.80287760416667
-34.8326953125
-34.8555078125
-34.8752734375
-34.893216145833335
-34.88846354166667
-34.642604166666665
-34.29421875
-34.15251302083333
-34.214830729166664
-34.31266927083333
-34.40348958333333
-34.4751171875
-34.49694010416667
-34.469375
-34.4054296875
-34.39571614583333
-34.4351171875
-34.49764322916667
-34.566484375
-34.62951822916666
-34.673138020833335
-34.71283854166666
-34.7565625
-34.76109375
-34.7775
-34.79990885416667
-34.70225260416667
-34.340546875
-34.06098958333333
-34.048177083333336
-34.146861979166665
-34.49326822916667
-34.683203125
-34.74401041666667
-34.75395833333334
-34.713216145833336
-34.6751171875
-34.6840625
-34.7440234375
-34.813450520833335
-34.89670572916667
-34.94962239583333
-34.98735677083334
-35.02365885416667
-35.04256510416667
-34.942005208333335
-34.95888020833333
-34.74134114583333
-34.484296875
-34.01772135416667
-33.78338541666667
-33.8589453125
-34.3318359375
-34.64430989583333
-34.82994791666667
-34.8625
-34.838216145833336
-34.780234375
-34.77235677083333
-34.811953125
-34.868802083333335
-34.93240885416667
-34.98984375
-35.033125
-35.068515625
-34.96334635416667
-34.8509765625
-34.74733072916667
-34.6560546875
-34.49583333333333
-33.9920703125
-33.79446614583333
-33.80463541666666
-34.2890625
-34.50256510416666
-34.7985546875
-34.83643229166667
-34.78274739583333
-34.7074609375
-34.669244791666664
-34.68989583333333
-34.73899739583333
-34.79908854166667
-34.84559895833333
-34.89252604166666
-34.926158854166665
-34.940052083333335
-34.951419270833334
-34.96875
-34.92200520833333
-34.618125
-34.3234375
-34.28463541666667
-34.388997395833336
-34.49880208333333
-34.6062890625
-34.6821875
-34.6839453125
-34.6211328125
-34.577877604166666
-34.608072916666664
-34.68545572916667
-34.760104166666665
-34.83740885416667
-34.893802083333334
-34.95015625
-34.976236979166664
-35.001875
-35.02235677083333
-34.900677083333335
-34.3032421875
-33.9434375
-33.960286458333336
-34.186940104166666
-34.52421875
-34.71040364583333
-34.88662760416667
-34.868190104166665
-34.68930989583333
-34.562265625
-34.594609375
-34.651705729166665
-34.727265625
-34.786549479166666
-34.8317578125
-34.85834635416666
-34.8875
-34.90766927083333
-34.93102864583334
-34.708919270833334
-34.142890625
-34.302057291666664
-34.37680989583333
-34.44157552083333
-34.472265625
-34.436223958333336
-34.404622395833336
-34.412760416666664
-34.45811197916667
-34.5215234375
-34.586588541666664
-34.64470052083333
-34.69526041666666
-34.733645833333334
-34.74296875
-34.75733072916667
-34.777981770833335
-34.6845703125
-34.2952734375
-34.005533854166664
-33.98940104166667
-34.05359375
-34.36953125
-34.64302083333333
-34.845546875
-34.862994791666665
-34.84225260416667
-34.830703125
-34.849765625
-34.90748697916667
-34.96985677083333
-35.029674479166665
-35.07045572916667
-35.10885416666667
-35.00467447916667
-34.893138020833334
-34.81786458333333
-34.75049479166667
-34.67703125
-34.51747395833333
-34.12424479166667
-33.920872395833335
-33.937200520833336
-33.99205729166667
-34.295546875
-34.579388020833335
-34.9078125
-34.9055078125
-34.886731770833336
-34.894505208333335
-34.940416666666664
-35.016484375
-35.065716145833335
-35.1266015625
-35.173841145833336
-34.948515625
-34.854375
-34.773190104166666
-34.680651041666664
-34.717708333333334
-34.65609375
-34.68727864583333
-34.73748697916667
-34.664440104166665
-34.29921875
-34.020091145833334
-34.010390625
-34.056393229166666
-34.49229166666667
-34.652109375
-34.864921875
-34.89782552083334
-34.87513020833333
-34.73359375
-34.647890625
-34.6662109375
-34.723606770833335
-34.7887890625
-34.868203125
-34.927708333333335
-34.9516796875
-34.98778645833333
-35.00345052083333
-35.13453125
-35.007825520833336
-34.622747395833336
-33.929388020833336
-33.9947265625
-34.327421875
-34.60729166666667
-34.7723046875
-34.800390625
-34.772122395833335
-34.74205729166667
-34.76256510416667
-34.80684895833333
-34.87942708333333
-34.9363671875
-34.999609375
-35.04276041666667
-35.07475260416667
-35.000026041666665
-34.843190104166666
-34.68630208333333
-34.745846354166666
-34.17408854166667
-34.00826822916667
-34.057552083333334
-34.477239583333336
-34.7828515625
-34.734401041666665
-34.66359375
-34.69864583333333
-34.75203125
-34.81384114583334
-34.86061197916667
-34.909466145833335
-34.97765625
-34.97544270833333
-35.007747395833334
-35.036432291666664
-34.987903645833335
-34.668203125
-34.05561197916666
-34.1426953125
-34.49716145833333
-34.69567708333334
-34.90444010416667
-34.948580729166665
-34.90727864583334
-34.6423046875
-34.576549479166665
-34.64608072916667
-34.71359375
-34.78236979166667
-34.83203125
-34.87161458333333
-34.89838541666666
-34.9075390625
-34.937421875
-34.97279947916667
-34.99165364583333
-34.7698828125
-34.44678385416667
-34.3016015625
-34.34498697916667
-34.4528515625
-34.5587109375
-34.700442708333334
-34.62227864583333
-34.5954296875
-34.681002604166665
-34.75436197916667
-34.85819010416667
-34.91446614583333
-34.94411458333333
-34.97342447916667
-34.989635416666665
-35.02263020833333
-35.06388020833333
-35.03346354166667
-34.599361979166666
-34.14572916666667
-33.94615885416667
-34.03299479166667
-34.37881510416667
-34.5688671875
-34.8642578125
-34.89098958333334
-34.87385416666667
-34.82138020833333
-34.80477864583333
-34.84401041666667
-34.92609375
-34.999296875
-35.068424479166666
-35.112682291666665
-34.9272265625
-34.83061197916667
-34.74915364583333
-34.75963541666667
-34.779609375
-34.80674479166667
-34.60272135416667
-34.22701822916667
-34.051067708333335
-34.095403645833336
-34.20627604166667
-34.4357421875
-34.74006510416667
-34.8957421875
-34.88915364583333
-34.84552083333333
-34.836223958333335
-34.8391015625
-34.910455729166664
-34.977825520833335
-35.03243489583333
-35.1060546875
-35.1471484375
-34.946796875
-34.846119791666666
-34.74692708333333
-34.7764453125
-34.67587239583333
-34.364635416666665
-33.9698046875
-33.75411458333333
-33.786692708333334
-34.25729166666667
-34.588125
-34.878619791666665
-34.920703125
-34.900716145833336
-34.8233984375
-34.77455729166667
-34.793385416666666
-34.834661458333336
-34.89858072916667
-34.9595703125
-35.00376302083333
-35.029296875
-35.035091145833334
-34.828502604166665
-34.73765625
-34.629921875
-34.475
-34.110625
-33.89200520833333
-33.9096484375
-34.02622395833333
-34.37899739583333
-34.687265625
-34.923984375
-34.85694010416667
-34.819036458333336
-34.88680989583333
-34.9558984375
-35.025729166666665
-35.074205729166664
-35.12048177083334
-34.90197916666666
-34.80951822916666
-34.48752604166667
-34.10583333333334
-33.84092447916667
-34.15234375
-34.872265625
-35.04075520833333
-34.979296875
-34.67977864583333
-34.58641927083333
-34.64265625
-34.775052083333335
-34.83850260416666
-34.911419270833335
-34.921223958333336
-34.94053385416667
-34.87953125
-34.551484375
-34.2095703125
-34.1079296875
-34.249322916666664
-34.6768359375
-34.737604166666664
-34.908190104166664
-34.8766796875
-34.71559895833333
-34.71720052083333
-34.64723958333333
-34.7221875
-34.849609375
-34.8675390625
-34.8901953125
-34.91223958333333
-34.9345703125
-34.9755859375
-34.93375
-34.610013020833335
-34.26778645833333
-34.1695703125
-34.20032552083333
-34.29083333333333
-34.3612109375
-34.4224609375
-34.455078125
-34.42399739583333
-34.3958984375
-34.4185546875
-34.463828125
-34.54291666666666
-34.597356770833336
-34.689869791666666
-34.73319010416667
-34.77526041666667
-34.791302083333335
-34.803072916666665
-34.82385416666666
-34.8741015625
-34.872369791666664
-34.59467447916666
-34.227838541666664
-34.10485677083334
-34.135494791666666
-34.23091145833333
-34.538046875
-34.70658854166667
-34.841145833333336
-34.802760416666665
-34.76669270833333
-34.773138020833336
-34.823125
-34.8851171875
-34.943072916666665
-35.020221354166665
-35.05484375
-35.07640625
-35.084583333333335
-34.848307291666664
-34.74529947916667
-34.79282552083333
-34.692708333333336
-34.49485677083333
-34.1368359375
-33.98671875
-34.02528645833333
-34.122044270833335
-34.46169270833333
-34.77389322916667
-34.81548177083334
-34.896809895833336
-34.72997395833333
-34.65244791666667
-34.68766927083333
-34.62930989583333
-34.681002604166665
-34.7472265625
-34.80423177083333
-34.885052083333335
-34.9056640625
-34.923580729166666
-34.9603125
-34.982721354166664
-34.77484375
-34.4639453125
-34.359934895833334
-34.3973828125
-34.504921875
-34.59194010416667
-34.661471354166665
-34.6787109375
-34.64697916666667
-34.599609375
-34.6148046875
-34.66850260416667
-34.73546875
-34.81356770833333
-34.891614583333336
-34.93998697916667
-34.97921875
-34.98903645833333
-35.02845052083333
-35.0530078125
-35.084544270833334
-34.92662760416667
-34.45157552083333
-34.12716145833333
-34.119830729166665
-34.23020833333333
-34.55227864583333
-34.72171875
-34.77622395833333
-34.7743359375
-34.74080729166667
-34.7374609375
-34.780911458333335
-34.851236979166664
-34.9234375
-35.04420572916667
-35.102473958333334
-35.15221354166667
-35.060794270833334
-34.95938802083333
-34.853229166666665
-34.76895833333333
-34.67973958333334
-34.523046875
-34.031979166666666
-33.8462890625
-33.85279947916667
-34.34130208333333
-34.547825520833335
-34.915598958333334
-34.931953125
-34.972669270833336
-35.14217447916667
-35.0232421875
-34.8558203125
-34.673489583333335
-34.64671875
-34.1637890625
-33.909153645833335
-33.910442708333335
-34.464544270833336
-34.772135416666664
-34.842174479166665
-34.7935546875
-34.63848958333333
-34.661549479166666
-34.7312109375
-34.793919270833335
-34.85858072916667
-34.90639322916667
-34.936497395833335
-34.958684895833336
-34.97217447916667
-34.9939453125
-35.025403645833336
-35.01967447916667
-34.809283854166665
-34.2250390625
-33.969479166666666
-34.011744791666665
-34.13436197916667
-34.473828125
-34.79766927083333
-34.855442708333335
-34.8158203125
-34.76375
-34.646497395833336
-34.69510416666667
-34.751393229166666
-34.8261328125
-34.88795572916667
-34.953802083333336
-34.97541666666667
-35.010494791666666
-35.03536458333333
-35.06861979166667
-34.948216145833335
-34.47541666666667
-34.135052083333335
-34.0216015625
-34.21325520833334
-34.444309895833335
-34.75829427083333
-34.870455729166665
-34.873958333333334
-34.83876302083333
-34.700885416666665
-34.72970052083333
-34.67203125
-34.7388671875
-34.794934895833336
-34.85595052083333
-34.88938802083333
-34.909921875
-34.93473958333333
-34.9528515625
-34.96634114583333
-34.327135416666664
-34.17272135416667
-34.1987109375
-34.4226953125
-34.56240885416667
-34.501979166666665
-34.501796875
-34.56307291666667
-34.69514322916667
-34.8063671875
-34.84842447916667
-34.896783854166664
-34.9073046875
-34.60515625
-34.15180989583333
-34.34662760416666
-34.43959635416667
-34.5963671875
-34.536471354166665
-34.6037890625
-34.7018359375
-34.80578125
-34.8396875
-34.86453125
-34.89141927083333
-34.950611979166666
-34.7349609375
-34.17248697916666
-34.19313802083333
-34.3146875
-34.406588541666665
-34.485286458333334
-34.55899739583333
-34.53510416666666
-34.47963541666667
-34.47125
-34.501627604166664
-34.578190104166666
-34.629283854166665
-34.69104166666666
-34.74041666666667
-34.765247395833335
-34.7765625
-34.77880208333333
-34.80953125
-34.843997395833334
-34.727109375
-34.37016927083334
-34.139609375
-34.12802083333333
-34.26807291666667
-34.367174479166664
-34.72131510416666
-34.793658854166665
-34.907734375
-34.86029947916666
-34.84454427083333
-34.868802083333335
-34.94815104166667
-35.031263020833336
-35.095416666666665
-35.16610677083333
-35.226953125
-35.13096354166667
-34.8941015625
-34.7873828125
-34.649296875
-34.226940104166665
-33.8713671875
-33.79584635416666
-33.8851171875
-34.38985677083333
-34.71227864583334
-34.91446614583333
-34.9646875
-34.791002604166664
-34.768489583333334
-34.652096354166666
-34.7151171875
-34.795208333333335
-34.8580859375
-34.91760416666666
-34.98286458333333
-35.0087109375
-35.0288671875
-35.04225260416667
-35.071614583333336
-34.831171875
-34.290390625
-33.86665364583333
-33.741627604166666
-33.820638020833336
-34.303958333333334
-34.614231770833335
-34.7980078125
-34.929973958333335
-34.79484375
-34.77725260416667
-34.69421875
-34.774088541666664
-34.8594921875
-34.92497395833333
-34.98125
-35.047916666666666
-35.08546875
-34.97779947916667
-34.8741796875
-34.74768229166666
-34.32506510416667
-33.82483072916666
-33.7110546875
-33.7732421875
-34.26743489583333
-34.5926953125
-34.9026171875
-34.95096354166667
-34.847591145833334
-34.69376302083333
-34.71403645833333
-34.7768359375
-34.85391927083333
-34.92305989583333
-34.97328125
-35.043385416666666
-35.081341145833335
-35.108828125
-34.8744140625
-34.7648046875
-34.69748697916667
-34.58151041666667
-34.29080729166667
-33.8906640625
-33.786953125
-33.8368359375
-34.33248697916667
-34.67977864583333
-34.85932291666666
-34.89984375
-34.890065104166666
-34.8398046875
-34.8378515625
-34.94190104166667
-35.02528645833333
-35.08614583333333
