-29.469088541666668
-51.341419270833335
-75.94459635416666
-49.99951822916667
-46.11111979166667
-44.638125
-44.96591145833333
-45.14625
-44.97540364583333
-44.47350260416667
-44.5736328125
-44.64221354166666
-44.691171875
-44.24234375
-44.91287760416667
-45.195247395833334
-45.2297265625
-45.213541666666664
-43.84078125
-43.986614583333335
-44.06537760416666
-44.1364453125
-44.0072265625
-44.13609375
-44.2005859375
-44.15483072916667
-44.13063802083333
-44.06115885416666
-43.88916666666667
-43.81506510416666
-43.8430078125
-43.82950520833333
-43.865208333333335
-43.846028645833336
-43.8794140625
-43.86807291666667
-43.845859375
-43.83118489583333
-43.83157552083333
-43.86319010416667
-43.928033854166664
-43.946171875
-43.9602734375
-44.00790364583333
-43.994205729166666
-44.01877604166667
-44.02296875
-44.0454296875
-44.0481640625
-44.120143229166665
-44.141302083333336
-44.023763020833336
-43.85622395833333
-43.782877604166664
-43.77161458333333
-43.75671875
-43.589453125
-43.73251302083333
-43.9407421875
-44.007252604166666
-44.09802083333334
-44.16493489583333
-44.283893229166665
-44.0983984375
-43.7002734375
-43.761705729166664
-43.32334635416667
-43.263684895833336
-43.9770703125
-43.97345052083333
-43.92778645833334
-44.017825520833334
-43.973619791666664
-43.575182291666664
-43.553997395833335
-43.708958333333335
-43.8301953125
-43.976145833333334
-44.043671875
-44.284765625
-44.220950520833334
-44.032213541666664
-43.67490885416667
-43.8181640625
-43.7802734375
-43.833671875
-43.89604166666667
-43.74888020833333
-43.724049479166666
-43.7509765625
-43.73776041666667
-43.776041666666664
-43.815494791666666
-43.858984375
-43.90225260416667
-43.9224609375
-43.88697916666667
-43.74915364583333
-43.6262890625
-43.60703125
-43.61626302083334
-43.61044270833333
-43.6210546875
-43.62127604166667
-43.60373697916667
-43.57231770833334
-43.5572265625
-43.575794270833335
-43.597239583333334
-44.1134375
-43.58713541666667
-43.6253125
-43.6640625
-43.694986979166664
-43.22569010416667
-43.866640625
-43.914739583333336
-43.8774609375
-43.7719921875
-43.580364583333335
-43.52166666666667
-43.5201953125
-44.00598958333333
-43.41069010416667
-43.41739583333333
-43.48432291666666
-43.46671875
-43.4478125
-43.44145833333334
-43.45174479166667
-43.48477864583333
-43.51361979166666
-43.533450520833334
-43.5658203125
-43.55942708333333
-43.595325520833335
-43.6316015625
-43.655078125
-43.57830729166667
-43.42981770833333
-43.30872395833333
-43.234440104166666
-43.227526041666664
-43.24502604166667
-43.24865885416666
-43.2623046875
-43.263020833333336
-43.23184895833333
-43.20813802083333
-43.204401041666664
-43.222643229166664
-43.22540364583333
-43.262265625
-43.302747395833336
-43.32802083333333
-43.34662760416666
-43.35266927083333
-43.359973958333335
-43.38548177083333
-43.38516927083333
-43.116549479166665
-43.0288671875
-43.000950520833335
-42.997630208333334
-42.91295572916667
-42.90515625
-42.910807291666664
-42.91328125
-43.36963541666667
-43.283763020833334
-43.3095703125
-43.33061197916667
-43.39700520833333
-43.4409765625
-43.46598958333333
-43.496471354166665
-43.5037890625
-43.519114583333334
-43.52161458333333
-43.41059895833333
-43.2693359375
-43.186458333333334
-43.155611979166665
-43.136796875
-43.12140625
-43.09752604166667
-43.09778645833333
-43.114765625
-43.096744791666666
-43.07434895833333
-43.10102864583333
-43.11908854166666
-43.13375
-43.13515625
-43.20559895833333
-43.213125
-43.2368359375
-43.24764322916667
-43.27205729166667
-43.34944010416667
-43.3669921875
-43.35434895833333
-43.2136328125
-43.09055989583333
-42.99528645833333
-42.967265625
-42.91880208333333
-42.91596354166666
-42.93151041666667
-42.906236979166664
-42.9123046875
-42.8976171875
-42.88450520833333
-42.91290364583333
-42.91975260416667
-42.957682291666664
-42.975169270833334
-43.020182291666664
-43.046236979166665
-43.06755208333333
-43.09575520833334
-43.126276041666664
-43.15522135416666
-43.17498697916667
-43.1919140625
-43.05122395833333
-42.90002604166666
-42.82005208333333
-42.791041666666665
-42.78608072916666
-43.3112109375
-43.297838541666664
-43.41725260416667
-43.436484375
-43.4286328125
-43.40604166666667
-43.425455729166664
-43.4429296875
-43.471002604166664
-43.50666666666667
-43.54026041666667
-43.55842447916667
-43.6008203125
-43.560872395833336
-43.6212109375
-43.64182291666667
-43.65921875
-43.04604166666667
-42.914661458333335
-42.747005208333334
-43.210651041666665
-43.218411458333335
-43.25791666666667
-43.368190104166665
-43.37868489583333
-43.345364583333335
-43.34229166666667
-43.37126302083333
-43.39373697916667
-43.387317708333335
-43.383502604166665
-43.41493489583333
-43.4851953125
-43.530559895833335
-43.509791666666665
-43.51171875
-43.34873697916667
-43.24403645833333
-43.19776041666667
-43.22385416666667
-43.2719921875
-43.30153645833333
-43.31080729166667
-43.29415364583333
-43.29447916666667
-43.2612890625
-43.25791666666667
-43.280234375
-43.309505208333334
-43.31911458333333
-43.3489453125
-43.39756510416667
-43.41858072916666
-43.44470052083334
-43.45880208333333
-43.4715234375
-43.44522135416667
-43.305729166666666
-43.144375
-43.03174479166667
-43.021145833333335
-43.04092447916667
-43.04513020833333
-43.04248697916667
-43.017643229166666
-42.98833333333334
-42.966067708333334
-42.96067708333333
-42.951458333333335
-42.97674479166667
-43.039609375
-43.09946614583333
-43.123333333333335
-43.147760416666664
-43.16102864583333
-43.12610677083333
-42.95875
-42.78493489583333
-42.7222265625
-42.69936197916667
-43.174140625
-43.12421875
-43.1809765625
-43.201197916666665
-43.154713541666666
-43.12243489583334
-43.149127604166665
-43.160130208333335
-43.171458333333334
-43.19936197916667
-43.21015625
-43.229427083333334
-43.29764322916667
-43.33541666666667
-43.35342447916667
-43.371432291666665
-43.31466145833333
-43.20944010416667
-43.0230078125
-42.92723958333333
-42.896497395833336
-42.796809895833334
-43.40514322916667
-43.346171875
-43.3389453125
-43.43899739583333
-43.474231770833335
-43.49506510416666
-43.508111979166664
-43.5365234375
-43.589856770833336
-43.61276041666667
-43.64669270833333
-43.6758984375
-43.69544270833333
-43.735052083333336
-43.19712239583333
-43.1322265625
-42.9501171875
-42.82462239583333
-42.67572916666666
-42.645859375
-43.205494791666666
-43.1460546875
-43.155690104166666
-43.16850260416667
-43.28299479166667
-43.30880208333333
-43.36209635416667
-43.388333333333335
-43.42799479166667
-43.49759114583333
-43.555078125
-43.59622395833333
-43.670481770833334
-43.70268229166667
-43.74822916666667
-43.2296875
-43.045625
-42.83092447916667
-42.794596354166664
-43.35950520833333
-43.31063802083333
-43.494075520833334
-43.530520833333334
-43.519114583333334
-43.61421875
-43.67520833333333
-43.723294270833335
-43.7785546875
-43.25709635416667
-43.356119791666664
-43.387578125
-43.41286458333333
-43.39821614583333
-43.35138020833333
-43.226861979166664
-43.20045572916667
-43.175104166666664
-43.172890625
-43.1768359375
-43.205
-43.2115234375
-43.2792578125
-43.328684895833334
-43.352565104166665
-43.396770833333335
-43.441067708333335
-43.55678385416667
-43.57993489583333
-43.609752604166665
-43.64170572916667
-43.67756510416667
-43.6892578125
-43.60177083333333
-43.498294270833334
-43.4371875
-43.43713541666666
-43.4606640625
-43.45040364583333
-43.47834635416667
-43.49463541666667
-43.48578125
-43.47967447916667
-43.49475260416666
-43.5136328125
-43.5516015625
-43.589869791666665
-43.614765625
-43.63391927083333
-43.70401041666667
-43.715143229166664
-43.74138020833333
-43.781979166666666
-43.1630078125
-42.980143229166664
-42.91677083333333
-42.87225260416667
-43.44481770833333
-43.399114583333336
-43.386028645833335
-43.37615885416667
-43.3916796875
-43.424518229166665
-43.454388020833335
-43.4474609375
-43.5684765625
-43.595716145833336
-43.61477864583333
-43.64700520833333
-43.73098958333333
-43.675807291666665
-43.42572916666666
-43.378828125
-43.332994791666664
-43.33411458333333
-43.3173046875
-43.24979166666667
-43.254596354166665
-43.247356770833335
-43.24756510416667
-43.27548177083333
-43.310260416666665
-43.3410546875
-43.386328125
-43.4175
-43.458333333333336
-43.55170572916666
-43.567044270833335
-43.58264322916666
-43.62912760416667
-43.681614583333335
-43.62993489583334
-43.49279947916666
-43.38091145833334
-43.32174479166667
-43.3191796875
-43.30875
-43.245846354166666
-43.2393359375
-43.26171875
-43.2363671875
-43.242473958333335
-43.265286458333335
-43.326640625
-43.334947916666664
-43.43759114583333
-43.5016796875
-43.603502604166664
-43.63352864583333
-43.65712239583333
-43.698828125
-43.691067708333335
-43.572734375
-43.439166666666665
-43.37927083333334
-43.38134114583333
-43.35608072916666
-43.384739583333335
-43.33825520833334
-43.33973958333333
-43.329921875
-43.32501302083333
-43.33305989583334
-43.349934895833336
-43.39729166666667
-43.433893229166664
-43.46462239583333
-43.49725260416667
-43.595703125
-43.6233984375
-43.66842447916667
-43.6862890625
-43.7138671875
-43.69481770833333
-43.54140625
-43.419765625
-43.3627734375
-43.346653645833335
-43.324505208333335
-43.305963541666664
-43.270924479166666
-43.280299479166665
-43.240299479166666
-43.27002604166667
-43.286328125
-43.328815104166665
-43.364010416666666
-43.40141927083334
-43.4601171875
-43.499270833333334
-43.57596354166667
-43.60147135416667
-43.630572916666665
-43.66264322916667
-43.70259114583333
-43.611263020833334
-43.44125
-43.320950520833335
-43.30028645833333
-43.30216145833333
-43.266979166666665
-43.19486979166667
-43.209296875
-43.2279296875
-43.1925390625
-43.203463541666665
-43.20591145833333
-43.252890625
-43.2709765625
-43.3462890625
-43.397421875
-43.4247265625
-43.580677083333335
-43.59610677083333
-43.695690104166665
-43.7291796875
-43.69934895833333
-43.554036458333336
-43.400677083333335
-43.390078125
-43.3753125
-43.39088541666667
-43.337239583333336
-43.3624609375
-43.3528125
-43.33630208333334
-43.425403645833335
-43.4380078125
-43.474856770833334
-43.52783854166667
-43.616015625
-43.657565104166665
-43.67302083333333
-43.701640625
-43.742252604166666
-43.63520833333333
-43.50005208333334
-43.452135416666664
-43.47059895833333
-43.49134114583333
-43.521484375
-43.52778645833333
-43.500598958333335
-43.46600260416667
-43.495846354166666
-43.50794270833333
-43.537174479166666
-43.55717447916667
-43.596028645833336
-43.60834635416666
-43.65229166666666
-43.67569010416667
-43.69278645833333
-43.720729166666665
-43.72110677083333
-43.60467447916667
-43.463541666666664
-43.375390625
-43.371393229166664
-43.38321614583333
-43.36571614583333
-43.32333333333333
-43.3204296875
-43.318359375
-43.29897135416667
-43.30381510416667
-43.317942708333334
-43.344791666666666
-43.3824609375
-43.4045703125
-43.43368489583333
-43.57536458333333
-43.596041666666665
-43.65834635416667
-43.586484375
-43.410403645833334
-43.2880859375
-43.218125
-43.20002604166667
-43.17342447916667
-43.0459375
-43.06537760416666
-43.05993489583334
-43.03822916666667
-43.0094140625
-43.090885416666666
-43.134739583333335
-43.14489583333334
-43.15123697916667
-43.11608072916667
-43.0846875
-43.110234375
-43.13529947916667
-43.11830729166667
-42.795520833333335
-42.662174479166666
-42.61014322916667
-43.12783854166667
-43.009427083333335
-42.951015625
-42.85747395833334
-42.89670572916667
-42.871484375
-43.43631510416667
-43.405859375
-43.45072916666667
-43.520833333333336
-43.6389453125
-43.7826171875
-43.874440104166666
-43.9278125
-44.0151953125
-43.51145833333333
-43.675130208333336
-43.7328125
-43.8016015625
-43.732708333333335
-43.55485677083333
-43.4705859375
-43.4509765625
-43.469661458333334
-43.4687890625
-43.468984375
-43.487643229166665
-43.49875
-43.4715234375
-43.4397265625
-43.436171875
-43.4566796875
-43.495
-43.52104166666667
-43.53697916666667
-43.564453125
-43.5990234375
-43.630846354166664
-43.6453125
-43.67161458333333
-43.71571614583333
-43.7364453125
-43.651080729166665
-43.5359765625
-43.46453125
-43.464466145833335
-43.51247395833333
-43.5333203125
-43.54873697916667
-43.542018229166665
-43.52811197916667
-43.531888020833335
-43.55118489583333
-43.58766927083333
-43.617161458333335
-43.653346354166665
-43.677799479166666
-43.7423046875
-43.7702734375
-43.79861979166667
-43.77546875
-43.641614583333336
-43.532526041666664
-43.49841145833334
-43.48231770833333
-43.48233072916667
-43.495143229166665
-43.505182291666664
-43.510065104166664
-43.4946484375
-43.471263020833334
-43.49494791666667
-43.5126953125
-43.55016927083334
-43.576861979166665
-43.59484375
-43.633802083333336
-43.66369791666666
-43.68411458333333
-43.6925
-43.735338541666664
-43.73494791666667
-43.6062109375
-43.4455078125
-43.3428515625
-43.33186197916667
-43.32467447916667
-43.319765625
-43.315403645833335
-43.32307291666667
-43.31506510416666
-43.3118359375
-43.300755208333335
-43.3065625
-43.329127604166665
-43.358072916666664
-43.3985546875
-43.417330729166665
-43.440442708333336
-43.486575520833334
-43.503893229166664
-43.5276953125
-43.5720703125
-43.560533854166664
-43.436901041666665
-43.24696614583333
-43.17852864583333
-43.151705729166665
-43.14333333333333
-43.1447265625
-43.16231770833333
-43.1643359375
-43.166927083333334
-43.150234375
-43.1527734375
-43.18446614583333
-43.22125
-43.26345052083333
-43.285169270833336
-43.32407552083333
-43.3587890625
-43.3844140625
-43.410221354166666
-43.4391015625
-43.477161458333335
-43.51454427083333
-43.5383203125
-43.4248828125
-43.2451953125
-43.15408854166667
-43.1825
-43.20734375
-43.2333984375
-43.219036458333335
-43.25177083333333
-43.2858984375
-43.3237109375
-43.34850260416667
-43.379583333333336
-43.41092447916667
-43.45423177083333
-43.47265625
-43.520260416666666
-43.52778645833333
-43.4301953125
-43.23096354166667
-43.21204427083333
-43.2555859375
-43.298984375
-43.27028645833333
-43.264895833333334
-43.32875
-43.36805989583333
-43.403385416666666
-43.4287109375
-43.459296875
-43.48170572916667
-43.5044921875
-43.53990885416667
-43.5424609375
-43.47790364583334
-43.351809895833334
-43.24865885416666
-43.210234375
-43.216197916666665
-43.234934895833334
-43.24106770833333
-43.24272135416667
-43.25240885416667
-43.24609375
-43.243893229166666
-43.2519140625
-43.27518229166667
-43.30841145833333
-43.337473958333334
-43.37703125
-43.40713541666667
-43.427981770833334
-43.4498828125
-43.480234375
-43.52095052083333
-43.5448828125
-43.3046484375
-43.192317708333334
-43.14604166666667
-43.1209375
-43.13579427083334
-43.155208333333334
-43.14390625
-43.138385416666665
-43.141536458333334
-43.14572916666667
-43.179700520833336
-43.2069921875
-43.2399609375
-43.272213541666666
-43.273359375
-43.25640625
-43.26424479166667
-43.29678385416667
-43.351627604166666
-43.408880208333336
-43.4183984375
-43.3749609375
-43.21022135416667
-43.09255208333333
-43.045703125
-43.050846354166666
-43.624973958333335
-43.511484375
-43.57638020833333
-43.6206640625
-43.63235677083333
-43.659244791666666
-43.69545572916667
-43.714856770833336
-43.74526041666667
-43.80765625
-43.832942708333334
-43.841549479166666
-43.861002604166664
-43.902643229166664
-43.942760416666665
-43.95889322916667
-43.27526041666667
-43.20983072916667
-43.12286458333333
-43.0810546875
-43.098828125
-43.67694010416667
-43.61671875
-43.65079427083333
-43.63328125
-43.645442708333334
-43.6915625
-43.71235677083333
-43.75123697916667
-43.78990885416667
-43.81561197916667
-43.860286458333334
-43.87880208333333
-43.8912109375
-43.9222265625
-43.3787109375
-43.48509114583333
-43.376354166666665
-43.17563802083333
-43.01022135416667
-43.02197916666667
-43.5965234375
-43.52911458333333
-43.543828125
-43.56729166666667
-43.590234375
-43.616276041666666
-43.6521484375
-43.6818359375
-43.712643229166666
-43.75897135416667
-43.80645833333333
-43.838268229166665
-43.899752604166665
-43.91290364583333
-43.9525
-44.0021875
-43.451640625
-43.445963541666664
-43.2763671875
-43.14270833333333
-43.10434895833333
-43.666341145833336
-43.5853515625
-43.67888020833333
-43.7079296875
-43.69397135416666
-43.7211328125
-43.737369791666666
-43.769466145833334
-43.8137109375
-43.85595052083333
-43.88244791666666
-43.9117578125
-43.937877604166665
-43.3880078125
-43.50899739583333
-43.549778645833335
-43.51766927083333
-43.331614583333334
-43.140078125
-43.07149739583333
-43.072330729166666
-43.061276041666666
-43.6298828125
-43.597955729166664
-43.61615885416666
-43.60359375
-43.653255208333334
-43.693515625
-43.722643229166664
-43.77102864583333
-43.820013020833336
-43.853984375
-43.911119791666664
-43.93638020833333
-43.97373697916667
-43.426028645833334
-43.52420572916667
-43.56537760416666
-43.49298177083333
-43.21078125
-43.15516927083333
-43.14501302083333
-43.142018229166666
-43.16348958333333
-43.19125
-43.181002604166665
-43.184192708333335
-43.15635416666667
-43.168919270833335
-43.216119791666664
-43.23807291666667
-43.259752604166664
-43.29158854166667
-43.3299609375
-43.3506640625
-43.35305989583333
-43.4015625
-43.41704427083334
-43.44540364583333
-43.396731770833334
-43.238919270833335
-43.10178385416667
-43.065989583333334
-43.04967447916667
-43.62880208333333
-43.57407552083333
-43.59748697916667
-43.5698828125
-43.6068359375
-43.6525
-43.73911458333333
-43.743841145833336
-43.78315104166666
-43.831783854166666
-43.826848958333336
-43.863971354166665
-43.90274739583333
-43.92360677083333
-43.89110677083333
-43.15305989583333
-43.026796875
-42.915638020833335
-42.876171875
-43.412408854166664
-43.327799479166664
-43.33904947916667
-43.360911458333334
-43.34391927083333
-43.376015625
-43.41986979166666
-43.41451822916667
-43.4676171875
-43.512265625
-43.55552083333333
-43.58890625
-43.6284375
-43.6454296875
-43.717447916666664
-43.75647135416666
-43.797513020833335
-43.70255208333333
-43.515026041666665
-43.389934895833335
-43.376575520833335
-43.413359375
-43.45209635416666
-43.486015625
-43.514986979166665
-43.516640625
-43.5438671875
-43.549830729166665
-43.5662890625
-43.6056640625
-43.6393359375
-43.67565104166667
-43.7163671875
-43.7783984375
-43.82014322916667
-43.848359375
-43.895885416666665
-43.934583333333336
-43.97873697916667
-43.40091145833333
-43.3158984375
-43.145234375
-43.05899739583333
-43.025403645833336
-43.55490885416667
-43.484361979166664
-43.5572265625
-43.625234375
-43.6352734375
-43.61541666666667
-43.638255208333334
-43.69649739583333
-43.7269140625
-43.76614583333333
-43.81453125
-43.847890625
-43.88563802083333
-43.90865885416667
-43.957994791666664
-43.407239583333336
-43.533046875
-43.48345052083334
-43.315364583333334
-43.190807291666665
-43.114505208333334
-43.116888020833336
-43.15736979166667
-43.20334635416667
-43.800859375
-43.7121875
-43.6922265625
-43.68118489583333
-43.753919270833336
-43.847057291666665
-43.897434895833335
-43.93467447916667
-43.968684895833334
-43.43026041666667
-43.537799479166665
-43.57766927083333
-43.62140625
-43.6025
-43.5016015625
-43.341861979166666
-43.21626302083333
-43.1717578125
-43.1856640625
-43.20828125
-43.21795572916667
-43.24555989583333
-43.237109375
-43.232890625
-43.22471354166667
-43.2343359375
-43.2665625
-43.31721354166667
-43.36657552083334
-43.40704427083333
-43.44993489583333
-43.46147135416667
-43.4766796875
-43.523111979166664
-43.570598958333335
-43.545169270833334
-43.383541666666666
-43.21263020833333
-43.11950520833334
-43.1023828125
-43.109700520833336
-43.0944140625
-43.67684895833333
-43.598828125
-43.57119791666667
-43.562200520833336
-43.58216145833333
-43.66911458333333
-43.72385416666667
-43.740911458333336
-43.76748697916667
-43.821796875
-43.8630859375
-43.88358072916667
-43.915598958333334
-43.93338541666667
-43.4001953125
-43.48065104166667
-43.29235677083334
-43.08197916666666
-42.971041666666665
-42.96006510416667
-43.539309895833334
-43.464856770833336
-43.53334635416667
-43.587643229166666
-43.592213541666666
-43.58770833333333
-43.6000390625
-43.637057291666665
-43.661809895833336
-43.720234375
-43.76686197916667
-43.806705729166666
-43.849453125
-43.8732421875
-43.913984375
-43.9361328125
-43.970013020833335
-43.44747395833333
-43.47604166666667
-43.313229166666666
-43.188723958333334
-43.108098958333336
-43.131848958333336
-43.1546875
-43.77225260416667
-43.718411458333335
-43.76123697916667
-43.783450520833334
-43.79790364583334
-43.82640625
-43.868229166666666
-43.9148046875
-43.93786458333334
-43.99239583333333
-43.4646875
-43.557265625
-43.55623697916667
-43.6148046875
-43.601002604166666
-43.54079427083333
-43.4211328125
-43.31484375
-43.279296875
-43.30100260416667
-43.32572916666667
-43.34458333333333
-43.3653515625
-43.392330729166666
-43.3961328125
-43.390065104166666
-43.44046875
-43.4934375
-43.52029947916667
-43.55490885416667
-43.59313802083334
-43.625559895833334
-43.663203125
-43.682578125
-43.682916666666664
-43.683177083333334
-43.65567708333333
-43.4972265625
-43.422291666666666
-43.39346354166667
-43.398190104166666
-43.42235677083333
-43.436809895833335
-43.46740885416666
-43.465
-43.4594140625
-43.45583333333333
-43.46889322916667
-43.50010416666667
-43.53114583333333
-43.56640625
-43.6037890625
-43.62260416666667
-43.67268229166667
-43.701328125
-43.74889322916667
-43.782526041666664
-43.7127734375
-43.4608203125
-43.42609375
-43.423268229166666
-43.417942708333335
-43.413203125
-43.43919270833333
-43.45161458333333
-43.43502604166667
-43.414388020833336
-43.416979166666664
-43.45463541666667
-43.481380208333334
-43.52071614583333
-43.557421875
-43.572604166666665
-43.602239583333336
-43.6249609375
-43.65450520833333
-43.6791796875
-43.69787760416666
-43.69100260416667
-43.55580729166667
-43.39212239583333
-43.32473958333333
-43.31203125
-43.3157421875
-43.323177083333334
-43.361927083333335
-43.3919921875
-43.3746875
-43.356953125
-43.35782552083333
-43.38723958333333
-43.44651041666667
-43.470546875
-43.530234375
-43.5501953125
-43.57768229166667
-43.60294270833333
-43.6001953125
-43.4826171875
-43.326171875
-43.2105859375
-43.18678385416667
-43.1731640625
-43.18567708333333
-43.207356770833336
-43.227578125
-43.21533854166667
-43.175091145833335
-43.165078125
-43.179622395833334
-43.200611979166666
-43.23015625
-43.26989583333334
-43.305703125
-43.35365885416667
-43.34294270833333
-43.38748697916667
-43.39498697916667
-43.26061197916667
-43.0699609375
-42.9551171875
-42.907252604166665
-43.4858984375
-43.43359375
-43.444895833333334
-43.51614583333333
-43.55098958333333
-43.518359375
-43.527591145833334
-43.541979166666664
-43.5912109375
-43.608411458333336
-43.64510416666667
-43.69393229166667
-43.71537760416667
-43.72286458333333
-43.735338541666664
-43.765377604166666
-43.764348958333336
-43.691380208333335
-43.4657421875
-43.263333333333335
-43.178033854166664
-43.147838541666665
-43.137356770833335
-43.13703125
-43.72567708333333
-43.630625
-43.634830729166666
-43.631484375
-43.648502604166666
-43.6889453125
-43.74747395833333
-43.78625
-43.809375
-43.83998697916667
-43.861002604166664
-43.33748697916667
-43.4509375
-43.496432291666665
-43.5119921875
-43.55584635416667
-43.492109375
-43.313046875
-43.19721354166666
-43.1637890625
-43.17274739583333
-43.204518229166666
-43.806315104166664
-43.7546484375
-43.75817708333334
-43.73921875
-43.754869791666664
-43.77779947916667
-43.83243489583333
-43.87130208333333
-43.89662760416667
-43.367604166666666
-43.475651041666666
-43.55360677083333
-43.5811328125
-43.62059895833333
-43.680026041666665
-43.63391927083333
-43.496171875
-43.388684895833336
-43.324544270833336
-43.334713541666666
-43.38631510416667
-43.41704427083334
-43.450494791666664
-43.445299479166664
-43.4459375
-43.43765625
-43.4633203125
-43.4986328125
-43.533541666666665
-43.57576822916667
-43.613307291666665
-43.6687109375
-43.70033854166667
-43.70912760416667
-43.728515625
-43.75889322916667
-43.70307291666666
-43.52826822916666
-43.386328125
-43.3290234375
-43.323984375
-43.338359375
-43.36319010416667
-43.39404947916667
-43.405859375
-43.37654947916667
-43.344700520833335
-43.36178385416667
-43.38626302083333
-43.42697916666667
-43.46169270833333
-43.509830729166666
-43.544856770833334
-43.57208333333333
-43.59321614583333
-43.6108984375
-43.645859375
-43.63723958333333
-43.50151041666667
-43.2943359375
-43.163463541666665
-43.15270833333334
-43.13973958333333
-43.1396484375
-43.151380208333336
-43.15869791666667
-43.724934895833336
-44.18837239583333
-44.21587239583334
-44.233776041666665
-44.2931640625
-44.3189453125
-44.5683203125
-44.1621484375
-44.17356770833333
-44.18359375
-44.30459635416667
-44.13235677083333
-43.928736979166665
-43.81384114583334
-43.78134114583333
-43.803203125
-43.81485677083333
-43.84006510416667
-43.85552083333334
-43.841731770833334
-43.849049479166666
-43.87328125
-43.898424479166664
-43.944583333333334
-43.990885416666664
-44.06200520833333
-44.10604166666667
-44.1446484375
-44.19407552083333
-44.2419921875
-44.26486979166667
-44.2991015625
-44.34326822916667
-44.3290234375
-44.1541015625
-43.950182291666664
-43.856380208333334
-43.85701822916667
-43.891171875
-43.930950520833335
-43.9637890625
-43.979192708333336
-43.94536458333334
-43.9309765625
-43.9341796875
-43.97985677083334
-44.0299609375
-44.069934895833335
-44.136341145833335
-44.1967578125
-44.217734375
-44.251328125
-44.265859375
-44.306614583333335
-44.331731770833336
-44.33247395833333
-44.20690104166667
-43.9944140625
-43.876536458333334
-43.86225260416666
-43.900234375
-43.92880208333333
-43.9618359375
-43.978177083333335
-43.95697916666666
-43.917903645833334
-43.93470052083333
-43.947942708333336
-43.97149739583333
-44.033828125
-44.0766015625
-44.114674479166666
-44.17075520833333
-44.19348958333333
-44.21502604166667
-44.247408854166665
-44.27720052083333
-44.251953125
-44.03955729166667
-43.813450520833335
-43.69544270833333
-43.6259765625
-43.658268229166666
-43.71174479166667
-44.3240234375
-44.2549609375
-44.218059895833335
-44.205638020833334
-44.211015625
-44.24071614583333
-44.2683203125
-44.3366015625
-44.3625
-44.4230859375
-44.46766927083333
-43.909244791666666
-44.00151041666667
-44.054270833333334
-44.086315104166665
-44.0230078125
-43.811901041666665
-43.59415364583333
-43.5019140625
-43.492526041666665
-44.07407552083333
-44.01984375
-44.0312109375
-44.05334635416666
-44.0534765625
-44.0076953125
-44.01100260416667
-44.043658854166665
-44.0678515625
-44.12092447916667
-44.237109375
-44.296575520833336
-44.4055078125
-44.43203125
-43.89782552083334
-44.0265234375
-43.92302083333333
-43.66286458333333
-43.48625
-43.45203125
-43.45196614583333
-44.041354166666665
-43.993723958333334
-44.019921875
-44.015299479166664
-44.00015625
-43.98977864583333
-44.01588541666667
-44.076145833333335
-44.123059895833336
-44.162421875
-44.218828125
-44.27486979166667
-44.31578125
-44.34130208333333
-44.3730859375
-44.4171875
-43.88654947916667
-43.906875
-43.7248828125
-43.56325520833333
-43.507526041666665
-43.51203125
-44.1165234375
-44.0934375
-44.1299609375
-44.13841145833333
-44.116484375
-44.09903645833333
-44.10951822916667
-44.15296875
-44.18963541666667
-44.25111979166667
-44.2949609375
-44.357421875
-44.420885416666664
-43.8714453125
-43.98686197916667
-43.989596354166665
-43.838984375
-43.64026041666666
-43.535078125
-43.4953125
-43.512395833333336
-44.106783854166665
-44.04048177083333
-44.067395833333336
-44.067447916666666
-44.03048177083333
-44.0319921875
-44.10634114583333
-44.1998046875
-44.250625
-44.2932421875
-44.33154947916667
-44.32927083333333
-44.3489453125
-43.826953125
-43.89635416666667
-43.74938802083334
-43.506158854166664
-43.3475390625
-43.309244791666664
-43.90606770833333
-43.8020703125
-43.805703125
-43.8405078125
-43.84184895833334
-43.8125390625
-43.79602864583333
-43.82622395833334
-43.880169270833335
-43.92368489583333
-43.95330729166667
-44.00821614583333
-44.04772135416667
-44.06455729166667
-44.0918359375
-44.13265625
-44.15141927083334
-44.20005208333333
-44.250677083333336
-44.13143229166667
-43.896901041666666
-43.7269140625
-43.65864583333333
-43.68591145833334
-43.6987109375
-43.72727864583333
-43.72466145833334
-43.7063671875
-43.707994791666664
-43.7374609375
-43.77811197916667
-43.834283854166664
-43.87796875
-43.920169270833334
-43.95494791666667
-44.00234375
-44.03208333333333
-44.07600260416667
-44.11744791666667
-44.16223958333333
-44.213528645833335
-44.255078125
-44.20036458333333
-43.991770833333334
-43.786692708333334
-43.68962239583333
-43.68575520833333
-43.6886328125
-43.713541666666664
-43.76766927083333
-43.767903645833336
-43.74791666666667
-43.7332421875
-43.74850260416667
-43.83110677083334
-43.8857421875
-43.930377604166665
-43.97700520833333
-44.00825520833333
-44.0475
-44.07083333333333
-44.096263020833334
-44.1401953125
-44.198671875
-44.2355859375
-44.2741796875
-44.2255859375
-43.987109375
-43.77977864583333
-43.689609375
-43.702161458333336
-43.711901041666664
-43.74002604166667
-43.77170572916667
-43.775091145833336
-43.76069010416666
-43.74161458333333
-43.745755208333335
-43.7951171875
-43.848958333333336
-43.8947265625
-43.950169270833335
-43.99951822916667
-44.03924479166667
-44.064479166666665
-44.08154947916667
-44.100651041666666
-44.1468359375
-44.20143229166667
-44.22125
-44.1059375
-43.890286458333335
-43.726640625
-43.69022135416667
-43.717799479166665
-43.76522135416667
-43.816783854166665
-43.8487890625
-43.822682291666666
-43.794296875
-43.783138020833334
-43.80197916666667
-43.842265625
-43.89298177083333
-43.948255208333336
-44.003619791666665
-44.04549479166667
-44.0643359375
-44.0976171875
-44.138736979166666
-44.16384114583333
-44.099895833333335
-43.88712239583333
-43.67618489583333
-43.595377604166664
-43.5961328125
-43.62397135416666
-43.651744791666665
-43.6966015625
-43.702825520833336
-43.672552083333336
-43.665078125
-43.712591145833336
-43.75598958333333
-43.820325520833336
-43.8503125
-43.87678385416667
-43.900638020833334
-43.904361979166666
-43.93200520833334
-43.97563802083334
-44.0122265625
-43.8548828125
-43.59625
-43.4387109375
-43.41971354166667
-43.4305078125
-43.97260416666666
-43.926328125
-43.98095052083333
-43.965234375
-43.949947916666666
-43.945638020833336
-43.9741796875
-44.02684895833333
-44.065416666666664
-44.10985677083333
-44.19421875
-44.289713541666664
-44.3189453125
-43.820859375
-43.94677083333333
-43.94354166666667
-43.753515625
-43.51385416666667
-43.3698046875
-43.338177083333335
-43.89053385416667
-43.82421875
-43.84559895833333
-43.892265625
-43.88265625
-43.873294270833334
-43.88885416666667
-43.90440104166667
-43.9337109375
-44.002578125
-44.080091145833336
-44.138020833333336
-44.19641927083333
-44.2437109375
-44.286822916666665
-44.334010416666665
-43.845716145833336
-43.968203125
-44.02065104166667
-43.957734375
-43.73063802083333
-43.56852864583333
-43.526927083333334
-43.5397265625
-43.59515625
-44.120703125
-44.130924479166666
-44.1390234375
-44.1740625
-44.2414453125
-44.303125
-44.34087239583334
-43.87454427083333
-44.00296875
-44.049739583333334
-44.096171875
-44.14151041666667
-44.188463541666664
-44.249700520833336
-44.301380208333335
-44.32536458333333
-44.19803385416667
-44.03889322916667
-43.9597265625
-43.95697916666666
-44.00278645833333
-44.04903645833333
-44.1162109375
-44.12490885416667
-44.113958333333336
-44.10395833333333
-44.126276041666664
-44.17177083333333
-44.22053385416667
-44.281497395833334
-44.335260416666664
-44.398125
-44.425403645833335
-44.4685546875
-43.928111979166665
-44.050143229166665
-44.093502604166666
-44.05287760416667
-43.885182291666666
-43.711614583333336
-43.64670572916667
-43.657265625
-43.687213541666665
-44.27944010416667
-44.223932291666664
-44.2434765625
-44.203815104166665
-44.19145833333334
-44.2090625
-44.2562890625
-44.28602864583333
-44.3472265625
-44.39180989583333
-44.439388020833334
-44.47140625
-43.93837239583333
-44.052044270833335
-44.0758203125
-44.10729166666667
-44.09859375
-43.93837239583333
-43.7344140625
-43.616796875
-43.616627604166666
-44.2016796875
-44.1353125
-44.1295703125
-44.09557291666667
-44.081953125
-44.09256510416667
-44.10015625
-44.1527734375
-44.2149609375
-44.3006640625
-44.3554296875
-44.403515625
-44.444713541666665
-43.8934765625
-43.988346354166666
-44.017903645833336
-44.07145833333333
-44.072955729166665
-43.88645833333333
-43.683971354166665
-43.569296875
-43.5399609375
-43.5504296875
-44.124713541666665
-44.0755859375
-44.0973828125
-44.091731770833334
-44.0735546875
-44.08305989583334
-44.122760416666665
-44.16526041666667
-44.213984375
-44.26375
-44.322890625
-44.3646484375
-44.39265625
-43.88805989583334
-43.98069010416667
-44.031536458333335
-44.06450520833334
-43.99546875
-43.77395833333333
-43.63427083333333
-43.58944010416667
-43.58290364583333
-44.2103125
-44.1625390625
-44.18755208333334
-44.1790625
-44.15776041666667
-44.160716145833334
-44.191783854166665
-44.22420572916667
-44.258723958333334
-44.31231770833333
-44.378619791666665
-44.4161328125
-44.453463541666665
-43.899088541666664
-44.009127604166665
-44.050755208333335
-44.03791666666667
-43.893802083333334
-43.67796875
-43.5598828125
-43.57309895833333
-44.125950520833335
-44.14373697916667
-44.1398828125
-44.096328125
-44.107708333333335
-44.153033854166665
-44.17928385416667
-44.2330078125
-44.306953125
-44.362903645833335
-44.391940104166665
-44.42799479166667
-43.8830859375
-43.9846875
-44.027057291666665
-43.963203125
-43.732486979166666
-43.52126302083333
-43.420520833333335
-43.4128515625
-43.99227864583333
-43.908489583333335
-43.941328125
-43.94220052083333
-43.948203125
-43.93705729166667
-43.942669270833335
-43.9709375
-44.0256640625
-44.05225260416667
-44.112265625
-44.16098958333333
-44.219921875
-44.240299479166666
-44.276796875
-44.327825520833336
-44.30234375
-44.09783854166667
-43.8784375
-43.76752604166666
-43.74954427083333
-43.745130208333336
-43.76578125
-43.797838541666664
-43.8365625
-43.823828125
-43.81553385416667
-43.827578125
-43.881184895833336
-43.92958333333333
-43.969479166666666
-44.024375
-44.07545572916667
-44.120104166666664
-44.1613671875
-44.19227864583333
-44.218671875
-44.28950520833333
-44.33337239583334
-44.028359375
-43.86204427083333
-43.793046875
-43.8128515625
-43.835950520833336
-43.865963541666666
-43.89821614583333
-43.89998697916667
-43.915598958333334
-43.91450520833333
-43.942057291666664
-43.978450520833334
-44.029583333333335
-44.084674479166665
-44.123125
-44.16391927083333
-44.19842447916667
-44.232096354166664
-44.275989583333335
-44.3086328125
-44.35236979166667
-44.3461328125
-44.184010416666666
-43.43174479166667
-43.423763020833334
-43.426015625
-44.04440104166667
-43.99161458333333
-44.040377604166665
-44.055390625
-44.0171875
-43.9983203125
-44.03309895833333
-44.06294270833333
-44.114765625
-44.1554296875
-44.200611979166666
-44.236927083333335
-44.27087239583334
-44.303684895833335
-44.3877734375
-43.67635416666667
-43.55516927083333
-43.40604166666667
-43.38467447916667
-44.00376302083333
-43.94708333333333
-43.988606770833336
-44.02428385416667
-44.017109375
-44.017109375
-44.05751302083333
-44.1115234375
-44.155703125
-44.18333333333333
-44.24861979166667
-44.30334635416666
-44.32799479166667
-44.3637890625
-44.412356770833334
-44.443346354166664
-43.909856770833336
-43.9231640625
-43.6952734375
-43.49815104166667
-43.4253515625
-43.42321614583334
-44.013072916666665
-43.93723958333333
-43.9808203125
-44.025638020833334
-44.03510416666666
-44.0371484375
-44.04502604166667
-44.07182291666667
-44.113294270833336
-44.1475390625
-44.19180989583333
-44.23126302083333
-44.27703125
-44.311809895833335
-44.34455729166667
-44.37901041666667
-44.42279947916666
-43.8670703125
-43.767565104166664
-43.55072916666666
-43.424375
-43.38856770833333
-43.973072916666666
-43.901380208333336
-43.93071614583334
-43.94126302083333
-43.954036458333334
-43.955716145833335
-43.961848958333334
-43.98716145833333
-44.030546875
-44.07436197916667
-44.1255078125
-44.19283854166667
-44.24828125
-44.2759765625
-44.33309895833333
-44.3797265625
-44.42231770833333
-44.4391796875
-43.9372265625
-44.030390625
-43.8785546875
-43.65149739583333
-43.53108072916667
-43.521458333333335
-44.112291666666664
-44.0458203125
-44.091236979166666
-44.1269921875
-44.12140625
-44.1073828125
-44.11420572916666
-44.152369791666665
-44.1835546875
-44.24236979166667
-44.29696614583333
-44.3455078125
-44.379869791666664
-44.41555989583333
-43.8690625
-43.98451822916667
-44.007799479166664
-44.0451953125
-44.0763671875
-43.944309895833335
-43.7190625
-43.64072916666667
-43.662122395833336
-44.2738671875
-44.23526041666667
-44.26615885416667
-44.25079427083333
-44.22768229166667
-44.22260416666666
-44.2683203125
-44.30165364583333
-44.35173177083333
-44.4030078125
-44.44459635416667
-43.910442708333335
-44.00537760416667
-44.0327734375
-44.0683984375
-44.102252604166665
-44.01361979166666
-43.783984375
-43.596640625
-43.541028645833336
-43.54317708333333
-44.14475260416667
-44.096979166666664
-44.1163671875
-44.12770833333333
-44.106145833333336
-44.089596354166666
-44.124934895833334
-44.15671875
-44.20233072916667
-44.22796875
-44.3370703125
-44.37490885416667
-44.38774739583334
-44.43372395833333
-43.88263020833333
-43.9795703125
-43.8832421875
-43.6536328125
-43.4645703125
-43.399700520833335
-43.965520833333336
-43.89108072916667
-43.89764322916667
-43.933619791666665
-43.94736979166667
-43.924609375
-43.91416666666667
-43.90018229166667
-43.961497395833334
-44.02286458333333
-44.06115885416666
-44.12149739583333
-44.1796875
-44.1984375
-44.24131510416667
-44.2921875
-44.3347265625
-44.37016927083334
-44.339518229166664
-44.123424479166665
-43.359309895833334
-43.3700390625
-43.9670703125
-43.903828125
-43.943828125
-43.95908854166667
-43.953046875
-43.940846354166666
-43.9628125
-43.99661458333333
-44.0478125
-44.109140625
-44.1572265625
-44.24110677083333
-44.27921875
-44.31565104166667
-44.357747395833336
-44.39365885416667
-44.4478125
-44.45458333333333
-43.721653645833335
-43.6121875
-43.52739583333334
-43.540598958333334
-44.13708333333334
-44.0716015625
-44.0869921875
-44.0944140625
-44.10432291666667
-44.1087109375
-44.14432291666667
-44.18625
-44.250299479166664
-44.29470052083333
-44.33065104166667
-44.38522135416667
-44.43412760416667
-43.93475260416667
-44.05544270833333
-44.08345052083333
-44.053984375
-43.8927734375
-43.691966145833334
-43.72342447916667
-43.763971354166664
-43.7996875
-43.856822916666665
-43.87278645833333
-43.838671875
-43.840794270833335
-43.864583333333336
-43.92454427083333
-43.962825520833334
-44.00184895833333
-44.05983072916667
-44.091484375
-44.128229166666664
-44.160169270833336
-44.21927083333333
-44.14470052083333
-43.95055989583334
-43.798489583333335
-43.764973958333336
-43.786015625
-43.814205729166666
-43.85330729166667
-43.88872395833334
-43.86890625
-43.86518229166666
-43.892109375
-43.936822916666664
-43.979557291666666
-44.02990885416666
-44.09036458333333
-44.12580729166667
-44.13970052083334
-44.196002604166665
-44.22059895833333
-44.19766927083333
-44.038372395833335
-43.828138020833336
-43.69975260416667
-43.6845703125
-43.69819010416666
-43.711354166666666
-44.290598958333334
-44.220013020833335
-44.23596354166666
-44.218372395833335
-44.2534765625
-44.30188802083333
-44.35071614583333
-44.40640625
-44.46533854166667
-44.49524739583333
-43.961223958333335
-44.05907552083333
-44.091497395833336
-44.144205729166664
-44.16779947916667
-44.0838671875
-43.85622395833333
-43.6877734375
-43.64502604166667
-43.64475260416667
-43.661510416666665
-44.254244791666665
-44.196848958333334
-44.20194010416667
-44.2039453125
-44.180911458333334
-44.23330729166667
-44.275325520833334
-44.30360677083333
-44.371080729166664
-44.454348958333334
-44.494427083333335
-43.97020833333333
-44.08455729166667
-44.10747395833334
-44.155559895833335
-44.2076953125
-44.21592447916667
-44.09899739583334
-43.9087109375
-43.778255208333334
-43.75235677083333
-43.78444010416667
-43.794375
-43.815729166666664
-43.86045572916667
-43.8662109375
-43.8669921875
-43.8759375
-43.947825520833334
-44.00470052083333
-44.1100390625
-44.144375
-44.178515625
-44.21825520833333
-44.244791666666664
-44.30065104166667
-44.34673177083334
-44.291028645833336
-44.115390625
-43.96787760416667
-43.92453125
-43.94046875
-43.985651041666664
-44.015950520833336
-44.034479166666664
-44.044453125
-44.024713541666664
-44.03819010416667
-44.05881510416667
-44.16938802083333
-44.191171875
-44.225833333333334
-44.26190104166667
-44.2823046875
-44.3151171875
-44.3493359375
-44.368841145833336
-44.329765625
-44.14768229166667
-43.98260416666667
-43.93575520833333
-43.9580078125
-43.97145833333333
-44.002421875
-44.037265625
-44.02359375
-44.007799479166664
-44.01526041666666
-44.02010416666667
-44.048815104166664
-44.08180989583333
-44.147786458333336
-44.17891927083333
-44.20485677083333
-44.230091145833335
-44.246067708333335
-44.279713541666666
-44.3003125
-44.19315104166667
-43.973880208333334
-43.817669270833335
-43.77130208333333
-43.781549479166664
-43.77388020833333
-43.78231770833333
-43.80809895833333
-43.8154296875
-43.8001953125
-43.785703125
-43.81174479166667
-43.8508203125
-43.8887890625
-43.95752604166667
-43.98233072916667
-44.0198828125
-44.05432291666666
-44.07889322916667
-44.104921875
-44.15022135416667
-44.08763020833333
-43.8455078125
-43.667630208333335
-43.624986979166664
-43.62223958333333
-44.20888020833333
-44.66822916666667
-44.713854166666664
-44.7380859375
-44.73513020833333
-44.748203125
-44.7591796875
-44.798203125
-44.86513020833333
-44.91194010416667
-44.98041666666666
-45.0276171875
-45.057916666666664
-44.493580729166666
-44.09197916666667
-44.1322265625
-43.9990625
-43.76540364583333
-43.648046875
-43.6155859375
-43.63466145833333
-44.2258203125
-44.171640625
-44.1901953125
-44.19522135416667
-44.202434895833335
-44.20748697916667
-44.22962239583333
-44.29666666666667
-44.36380208333333
-44.41920572916667
-44.45595052083333
-44.517864583333335
-43.9871875
-44.09622395833333
-44.1264453125
-44.16229166666667
-44.195963541666664
-44.233385416666664
-44.081653645833335
-43.837864583333335
-43.70486979166667
-43.708307291666664
-43.73546875
-43.77223958333333
-44.399661458333334
-44.3474609375
-44.3586328125
-44.32567708333333
-44.34067708333333
-44.39639322916667
-44.425403645833335
-44.47869791666667
-43.94778645833333
-44.06924479166667
-44.11096354166666
-44.14825520833333
-44.184322916666666
-44.22157552083333
-44.2677734375
-44.287395833333335
-44.13985677083333
-43.932057291666666
-43.8256640625
-43.810611979166666
-43.85484375
-43.897161458333336
-43.9746484375
-43.99923177083333
-43.989609375
-43.955677083333335
-43.95890625
-43.976015625
-44.00919270833333
-44.0747265625
-44.1137890625
-44.166171875
-44.205416666666665
-44.2348828125
-44.2609765625
-44.280546875
-44.081484375
-43.846953125
-43.7355859375
-43.732434895833336
-43.7893359375
-43.855533854166666
-43.889296875
-43.85359375
-43.82764322916667
-43.85272135416667
-43.90368489583334
-43.934283854166665
-43.9905859375
-44.048203125
-44.080703125
-44.129140625
-44.170872395833335
-44.19251302083333
-44.223919270833335
-44.1747265625
-43.941966145833334
-43.69130208333333
-43.58182291666667
-43.571979166666665
-43.575924479166666
-44.16317708333333
-44.11040364583334
-44.13915364583333
-44.11927083333333
-44.088828125
-44.09649739583333
-44.121393229166664
-44.17506510416667
-44.240794270833334
-44.3346875
-44.39328125
-44.418359375
-44.4533203125
-43.916744791666666
-44.0230078125
-43.90260416666667
-43.64493489583333
-43.454739583333335
-43.42618489583333
-44.0016015625
-43.93328125
-43.977877604166665
-44.002890625
-44.017200520833335
-44.008125
-44.0023828125
-44.0278125
-44.0628515625
-44.1165234375
-44.17356770833333
-44.23170572916667
-44.28690104166667
-44.3194140625
-44.3462109375
-44.39049479166667
-44.43333333333333
-44.48837239583333
-43.93140625
-43.850247395833335
-43.60760416666667
-43.45389322916667
-43.4059765625
-44.02338541666666
-43.999309895833335
-44.03072916666667
-44.02942708333333
-44.02848958333333
-44.021822916666665
-44.034205729166665
-44.094348958333335
-44.165377604166665
-44.194765625
-44.22733072916667
-44.30381510416667
-44.3363671875
-44.36307291666667
-44.396484375
-44.443919270833334
-44.487942708333335
-43.916666666666664
-43.81028645833333
-43.5885546875
-43.495091145833335
-43.5087109375
-44.10596354166667
-44.05921875
-44.112955729166664
-44.13513020833334
-44.095234375
-44.074375
-44.102513020833335
-44.13174479166667
-44.1726953125
-44.218684895833334
-44.279010416666665
-44.32209635416667
-44.35859375
-44.390924479166664
-44.39609375
-44.4444921875
-43.8791796875
-43.84752604166667
-43.61634114583333
-43.4428125
-43.41686197916667
-44.010182291666666
-43.94807291666667
-44.008671875
-44.050182291666665
-44.0394921875
-44.00493489583334
-43.9935546875
-44.03946614583333
-44.07470052083333
-44.1203515625
-44.188229166666666
-44.23873697916667
-44.27393229166667
-44.30848958333333
-44.311015625
-44.32040364583333
-44.3735546875
-44.3647265625
-44.13787760416667
-43.32067708333334
-43.250729166666666
-43.8279296875
-43.81881510416667
-43.843203125
-43.81125
-43.7746484375
-43.777760416666666
-43.8075
-43.8346875
-43.90217447916667
-43.96528645833333
-44.016041666666666
-44.051692708333334
-44.08638020833333
-44.11963541666667
-44.14889322916667
-44.210611979166664
-44.261041666666664
-44.167552083333334
-43.887994791666664
-43.673359375
-43.5879296875
-43.582760416666666
-43.607356770833334
-43.62602864583334
-43.65548177083333
-43.6568359375
-43.64977864583334
-43.6471875
-43.67559895833333
-43.72049479166667
-43.77295572916667
-43.8287109375
-43.890286458333335
-43.93899739583333
-43.96333333333333
-44.00203125
-44.04208333333333
-44.070963541666664
-44.10955729166667
-44.16091145833333
-44.21622395833333
-44.16002604166667
-43.928385416666664
-43.67516927083334
-43.582005208333335
-43.57723958333333
-43.60009114583333
-43.62743489583333
-43.665
-43.70302083333333
-43.698125
-43.69415364583333
-43.704075520833335
-43.75678385416666
-43.802395833333335
-43.86868489583333
-43.91752604166667
-43.96006510416667
-44.00123697916667
-44.03173177083333
-44.067708333333336
-44.1079296875
-44.15705729166667
-44.2051953125
-44.25763020833333
-44.28502604166667
-44.13529947916667
-43.89079427083333
-43.73514322916667
-43.70587239583333
-43.746419270833336
-43.77401041666667
-43.81014322916667
-43.84837239583333
-43.845
-43.792721354166666
-43.768932291666665
-43.788333333333334
-43.824283854166666
-43.87842447916667
-43.91627604166667
-43.96311197916667
-43.99106770833333
-44.029309895833336
-44.02951822916667
-44.0744140625
-44.116223958333336
-44.164036458333335
-44.136640625
-43.924479166666664
-43.7097265625
-43.63194010416667
-43.656015625
-43.7013671875
-43.74325520833333
-43.79798177083333
-43.821940104166664
-43.79505208333333
-43.762708333333336
-43.77981770833333
-43.81365885416667
-43.87744791666667
-43.933528645833334
-43.992864583333336
-44.048138020833335
-44.083033854166665
-44.11049479166667
-44.1409375
-44.18115885416667
-44.177734375
-44.005559895833336
-43.761393229166664
-43.61606770833333
-43.5939453125
-43.63080729166666
-43.66518229166667
-43.695377604166666
-43.73061197916667
-43.72670572916667
-43.692057291666664
-43.680950520833335
-43.711888020833335
-43.756510416666664
-43.790416666666665
-43.853268229166666
-43.91734375
-43.94359375
-43.96639322916667
-44.006158854166664
-44.05015625
-44.05157552083333
-43.87868489583333
-43.475703125
-43.44446614583333
-43.4355078125
-43.993893229166666
-43.951953125
-43.98873697916667
-43.977552083333336
-43.95096354166667
-43.9721875
-44.00697916666667
-44.0496875
-44.089453125
-44.14807291666666
-44.1796484375
-44.200872395833336
-44.23515625
-44.2899609375
-44.307604166666664
-43.64817708333333
-43.436510416666664
-43.23427083333333
-43.18247395833333
-43.74734375
-43.66158854166667
-43.68591145833334
-43.716783854166664
-43.720677083333335
-43.71041666666667
-43.75768229166667
-43.79868489583333
-43.9258203125
-44.036328125
-44.09580729166667
-44.1154296875
-44.16484375
-44.20264322916667
-44.25274739583333
-44.17533854166667
-43.91658854166667
-43.183255208333335
-43.17747395833333
-43.208307291666664
-43.761393229166664
-43.694765625
-43.74170572916667
-43.76794270833334
-43.7623046875
-43.77717447916667
-43.806341145833336
-43.86235677083334
-43.91911458333333
-43.98859375
-44.0389453125
-44.08970052083333
-44.1435546875
-44.18390625
-44.23524739583333
-44.2925
-44.335950520833336
-43.84944010416667
-43.963450520833334
-44.00337239583333
-43.82826822916667
-43.57697916666667
-43.439075520833335
-43.41744791666667
-43.44674479166667
-43.9568359375
-43.996471354166665
-44.00958333333333
-44.0235546875
-44.04578125
-44.0997265625
-44.162734375
-44.232122395833336
-44.283450520833334
-44.32611979166666
-44.37515625
-43.880260416666665
-43.988958333333336
-44.0472265625
-44.095325520833335
-44.15256510416667
-44.203411458333335
-44.25578125
-44.04358072916666
-43.82669270833333
-43.724283854166664
-43.737291666666664
-43.7798828125
-43.816432291666665
-43.841770833333335
-43.84854166666667
-43.829661458333334
-43.84092447916667
-43.87114583333334
-43.9159375
-43.982447916666665
-44.026354166666664
-44.08053385416667
-44.134427083333335
-44.177981770833334
-44.2121484375
-44.24912760416667
-44.302434895833336
-44.328359375
-44.37225260416667
-44.4367578125
-44.49125
-43.77631510416666
-43.5973828125
-43.451861979166665
-43.415546875
-44.007174479166665
-43.95983072916667
-43.999609375
-44.032903645833336
-44.03098958333333
-43.98783854166667
-43.985598958333334
-44.015651041666665
-44.057552083333334
-44.126263020833335
-44.179752604166666
-44.2194140625
-44.280078125
-44.304921875
-44.345416666666665
-44.37459635416667
-44.38610677083334
-44.352473958333334
-44.1433984375
-43.344375
-43.33393229166666
-43.328502604166665
-43.96040364583333
-43.92783854166667
-43.99005208333333
-43.975911458333336
-43.9415625
-43.96856770833333
-44.0088671875
-44.0486328125
-44.1038671875
-44.16688802083333
-44.197994791666666
-44.25421875
-44.2951171875
-44.32036458333334
-44.36364583333334
-44.38010416666667
-44.2126953125
-43.3913671875
-43.2880078125
-43.284739583333334
-43.870533854166666
-43.8175390625
-43.851328125
-43.883723958333334
-43.88584635416667
-43.88759114583333
-43.905598958333336
-43.9552734375
-43.988268229166664
-44.030299479166665
-44.1015234375
-44.1565234375
-44.19609375
-44.22643229166667
-44.257213541666665
-44.2797265625
-44.332942708333334
-44.35565104166667
-44.192630208333334
-43.913372395833335
-43.736015625
-43.7000390625
-43.71501302083333
-43.7387890625
-43.769231770833336
-43.794010416666666
-43.80352864583333
-43.7902734375
-43.7825390625
-43.77756510416667
-43.84424479166667
-43.9003515625
-43.966953125
-44.029296875
-44.078802083333336
-44.103515625
-44.14661458333333
-44.178645833333334
-44.21102864583333
-44.22895833333333
-44.298815104166664
-44.089518229166664
-43.81434895833333
-43.68338541666667
-43.66484375
-43.68696614583333
-43.6771484375
-43.70272135416667
-43.7478515625
-43.76921875
-43.76450520833333
-43.7670703125
-43.8045703125
-43.85649739583334
-43.9048828125
-43.95080729166666
-43.995546875
-44.04606770833333
-44.09873697916667
-44.178997395833335
-44.2102734375
-44.256875
-44.293932291666664
-44.31850260416667
-43.916927083333334
-43.7688671875
-43.724544270833334
-43.7412890625
-43.787447916666665
-43.823046875
-43.84734375
-43.84787760416667
-43.81553385416667
-43.80114583333334
-43.8017578125
-43.8530078125
-43.90705729166667
-43.951015625
-44.00692708333333
-44.05490885416667
-44.076419270833334
-44.09765625
-44.145234375
-44.1526953125
-44.196888020833335
-44.2048828125
-44.03578125
-43.804765625
-43.6598046875
-43.639375
-43.71009114583333
-43.730755208333335
-43.76015625
-43.74209635416667
-43.71111979166667
-43.74432291666667
-43.7725390625
-43.8112890625
-43.874609375
-43.9177734375
-43.94290364583333
-43.99033854166667
-44.0201171875
-44.050768229166664
-44.076145833333335
-43.98184895833333
-43.725703125
-43.5075390625
-43.42768229166666
-43.39407552083333
-43.99506510416666
-44.46537760416667
-44.54061197916667
-44.554765625
-44.5286328125
-44.51131510416667
-44.51841145833333
-44.56565104166667
-44.60916666666667
-44.663671875
-44.73833333333334
-44.788111979166665
-44.799518229166665
-44.83131510416667
-44.881419270833334
-44.9314453125
-44.969127604166665
-44.325859375
-43.58708333333333
-43.2955078125
-43.16690104166667
-43.68190104166667
-43.695
-43.73158854166667
-43.71755208333333
-43.70565104166667
-43.754466145833334
-43.78462239583333
-43.84658854166667
-43.90407552083333
-43.959375
-44.015026041666665
-44.05158854166667
-44.089466145833335
-44.114596354166665
-44.17436197916667
-44.232721354166664
-44.16319010416667
-43.91032552083333
-43.649427083333336
-43.526171875
-43.538125
-43.5716796875
-43.5556640625
-43.571041666666666
-43.6174609375
-43.617565104166665
-43.60233072916667
-43.62286458333333
-43.66970052083333
-43.7346875
-43.78510416666666
-43.840260416666666
-43.87221354166667
-43.933294270833336
-43.97842447916667
-44.00817708333334
-44.04411458333333
-44.08412760416667
-44.1383203125
-44.174479166666664
-44.07049479166667
-43.815729166666664
-43.61014322916667
-43.56463541666667
-43.57213541666667
-43.594401041666664
-43.664075520833336
-43.713984375
-43.71397135416667
-43.70143229166667
-43.691171875
-43.714244791666665
-43.76778645833333
-43.7920703125
-43.855533854166666
-43.9741796875
-44.00643229166667
-44.06533854166667
-44.1103515625
-44.1680078125
-44.184192708333335
-44.042552083333334
-43.8165625
-43.65774739583333
-43.63139322916667
-43.654283854166664
-43.710598958333335
-43.76416666666667
-43.78819010416667
-43.797161458333335
-43.785442708333335
-43.77947916666667
-43.814127604166664
-43.86901041666667
-43.9237890625
-43.97665364583333
-44.031927083333336
-44.0718359375
-44.10444010416666
-44.152421875
-44.19197916666667
-44.22244791666667
-44.1447265625
-43.903346354166665
-43.671953125
-43.5608203125
-43.560859375
-43.57901041666667
-43.61772135416667
-43.66291666666667
-43.682734375
-43.67067708333333
-43.660703125
-43.6894140625
-43.730533854166666
-43.786197916666666
-43.854453125
-43.9033984375
-43.95885416666667
-44.0053515625
-44.035716145833334
-44.0658984375
-44.14709635416666
-44.08403645833334
-43.80260416666667
-43.55682291666667
-43.44453125
-43.44609375
-43.449231770833336
-43.45455729166667
-43.4821875
-43.51087239583333
-43.50524739583334
-43.48811197916667
-43.51059895833333
-43.56557291666667
-43.62798177083334
-43.70298177083333
-43.759296875
-43.808528645833334
-43.86859375
-43.92071614583333
-43.960651041666665
-43.966158854166665
-44.01119791666667
-44.0612890625
-43.957317708333335
-43.66294270833333
-43.4313671875
-43.34227864583333
-43.36580729166667
-43.98618489583333
-44.48419270833333
-44.542643229166664
-44.5419140625
-44.54994791666667
-44.57296875
-44.61919270833334
-44.682239583333335
-44.74858072916667
-44.8201953125
-44.8755078125
-44.37942708333333
-44.501966145833336
-44.521497395833336
-44.56537760416666
-44.620455729166665
-44.66713541666667
-44.556002604166665
-44.2964453125
-44.0628125
-43.95317708333334
-43.972356770833336
-44.05725260416666
-44.663072916666664
-44.6328125
-44.66786458333333
-44.625013020833336
-44.623359375
-44.65979166666666
-44.71212239583333
-44.754375
-44.9015625
-44.4136328125
-44.5143359375
-44.55390625
-44.60071614583333
-44.64076822916667
-44.66220052083333
-44.5820703125
-44.292239583333334
-44.0603515625
-43.98842447916667
-44.020208333333336
-44.06897135416666
-44.685625
-44.66481770833333
-44.67506510416667
-44.647786458333336
-44.6245703125
-44.664661458333335
-44.69619791666667
-44.7614453125
-44.84220052083333
-44.90651041666667
-44.40453125
-44.52516927083333
-44.5541796875
-44.59190104166667
-44.618854166666665
-44.59197916666667
-44.0558203125
-43.88876302083333
-43.842083333333335
-44.418359375
-44.35765625
-44.382252604166666
-44.42233072916667
-44.4164453125
-44.40125
-44.44421875
-44.503046875
-44.56747395833333
-44.62584635416667
-44.681627604166664
-44.742838541666664
-44.78098958333333
-44.8165234375
-44.29380208333333
-43.87608072916667
-43.89138020833333
-43.776640625
-43.47075520833334
-43.188815104166665
-43.07434895833333
-43.0584375
-43.64274739583333
-44.12247395833333
-44.195690104166665
-44.20748697916667
-44.19838541666667
-44.20622395833333
-44.22140625
-44.256770833333334
-44.33962239583333
-44.408216145833336
-44.46848958333333
-44.53213541666667
-44.57772135416667
-44.60475260416667
-44.64489583333334
-44.675846354166666
-44.7316796875
-44.78927083333333
-44.742473958333335
-43.892565104166664
-43.1248046875
-42.966158854166665
-43.5070703125
-43.4287890625
-43.4523828125
-43.5042578125
-43.55032552083333
-43.56973958333333
-43.559817708333334
-43.57106770833333
-43.61497395833333
-43.671901041666665
-43.762760416666666
-43.813046875
-43.927760416666665
-43.963216145833336
-44.0005859375
-44.055065104166665
-44.1252734375
-44.175403645833335
-43.67658854166667
-43.74848958333333
-43.630442708333334
-43.769283854166666
-44.497486979166666
-43.947513020833334
-43.90358072916667
-43.76390625
-43.6844140625
-43.6879296875
-43.7234765625
-43.74391927083333
-43.763671875
-43.83350260416667
-43.90049479166667
-43.97317708333333
-44.020625
-44.023450520833336
-44.0562890625
-44.10368489583333
-44.132877604166666
-44.06588541666667
-43.24419270833334
-43.5803125
-43.49266927083333
-44.05283854166667
-44.010182291666666
-44.068046875
-44.1320703125
-44.15359375
-44.1279296875
-44.1157421875
-44.11673177083333
-44.14989583333333
-44.2346484375
-44.325234375
-44.387760416666666
-44.45654947916667
-44.498111979166666
-44.515390625
-44.55065104166667
-44.606731770833335
-44.591861979166666
-44.337578125
-44.0066796875
-43.79140625
-43.74440104166667
-43.77200520833333
-44.3841796875
-43.80026041666667
-43.825625
-43.8234375
-43.81830729166666
-43.8293359375
-43.86118489583333
-43.918515625
-43.98783854166667
-44.06986979166667
-44.14040364583333
-43.6545703125
-44.3181640625
-44.39756510416667
-44.443828125
-44.482578125
-44.103359375
-43.741276041666666
-43.7398046875
-44.353450520833334
-44.306666666666665
-44.37391927083333
-44.41526041666667
-44.42401041666667
-44.41890625
-44.451901041666666
-44.52815104166667
-44.59098958333333
-44.673229166666665
-44.765026041666665
-44.28884114583333
-44.4275390625
-44.4878515625
-44.5546875
-44.607760416666665
-44.64502604166667
-44.5870703125
-44.315703125
-44.084401041666666
-44.0148046875
-44.046458333333334
-44.0978125
-44.14684895833334
-44.21315104166667
-44.258463541666664
-44.25674479166667
-44.25416666666667
-44.281627604166665
-44.35501302083333
-44.4137890625
-44.49006510416667
-44.553697916666664
-44.62118489583333
-44.669583333333335
-44.770520833333336
-44.820546875
-44.32278645833333
-43.81537760416666
-43.3796875
-43.314205729166666
-43.358958333333334
-43.98740885416667
-44.496015625
-44.60604166666667
-44.62459635416667
-44.5975390625
-44.58665364583333
-44.614895833333335
-44.670611979166665
-44.733125
-44.8046484375
-44.87419270833333
-44.391002604166665
-43.967395833333335
-44.004140625
-44.06236979166667
-44.005481770833335
-43.79177083333333
-43.610859375
-43.5919921875
-43.63563802083333
-43.68322916666666
-43.76046875
-43.74618489583333
-43.73296875
-43.7591015625
-43.80654947916667
-43.85885416666667
-43.90541666666667
-43.9743359375
