-9.148984375
-10.705846354166667
-84.50118489583333
-224.56782552083334
-245.47180989583333
-161.70088541666667
-67.5312109375
-60.148984375
-53.453125
-46.9287890625
-41.455104166666665
-47.90453125
-44.970989583333335
-41.40868489583333
-39.05875
-34.259140625
-34.37682291666667
-34.168658854166665
-33.83947916666666
-34.14244791666667
-34.4445703125
-34.6348828125
-34.78725260416667
-34.733684895833335
-34.545572916666664
-34.3916796875
-34.36661458333333
-34.379817708333334
-34.3789453125
-34.344375
-34.3075
-34.28967447916666
-34.2599609375
-34.2171875
-34.210390625
-34.2000390625
-34.20591145833333
-34.18890625
-34.19962239583333
-34.1996484375
-34.1904296875
-34.19545572916667
-34.171809895833334
-34.17138020833333
-34.160533854166665
-34.152890625
-34.19423177083333
-34.2294921875
-34.2084375
-34.04735677083333
-33.9216796875
-33.8958984375
-34.0623828125
-34.417630208333335
-34.59454427083333
-34.73979166666667
-34.58903645833333
-34.574244791666665
-34.55877604166667
-34.4065234375
-34.38223958333333
-34.379895833333336
-34.35209635416667
-34.3459765625
-34.33895833333333
-34.352825520833335
-34.353359375
-34.372109375
-34.38423177083333
-34.367578125
-34.381106770833334
-34.40184895833333
-34.40958333333333
-34.38584635416667
-34.24458333333333
-34.1527734375
-34.164401041666665
-34.206705729166664
-34.21990885416667
-34.217786458333336
-34.21272135416667
-34.21001302083334
-34.19798177083333
-34.168255208333335
-34.1737109375
-34.179440104166666
-34.1869921875
-34.18466145833333
-34.1932421875
-34.210924479166664
-34.210598958333335
-34.20609375
-34.21756510416667
-34.23229166666667
-34.24169270833333
-34.26291666666667
-34.26552083333333
-34.201328125
-34.093984375
-34.0600390625
-34.06907552083333
-34.118229166666666
-34.13462239583333
-34.12717447916667
-34.10861979166667
-34.07403645833333
-34.08083333333333
-34.086666666666666
-34.10303385416667
-34.103828125
-34.11930989583333
-34.10485677083334
-34.10240885416667
-34.10765625
-34.096744791666666
-34.07799479166667
-34.08065104166667
-34.067408854166665
-34.003229166666664
-33.910078125
-33.869817708333336
-34.3212890625
-34.486744791666666
-34.62522135416667
-34.59046875
-34.573893229166664
-34.5903125
-34.595065104166665
-34.611393229166666
-34.6225
-34.62614583333333
-34.624674479166664
-34.6280078125
-34.63959635416666
-34.647578125
-34.6479296875
-34.65091145833333
-34.5645703125
-34.457669270833335
-34.449765625
-34.48654947916667
-34.512981770833335
-34.532265625
-34.529049479166666
-34.52822916666667
-34.495
-34.480859375
-34.4801171875
-34.50563802083333
-34.50283854166667
-34.52162760416667
-34.526705729166665
-34.54110677083333
-34.54024739583333
-34.53821614583333
-34.544140625
-34.543880208333334
-34.5712890625
-34.54381510416667
-34.416354166666665
-34.33180989583333
-34.3461328125
-34.40131510416666
-34.41361979166667
-34.4131640625
-34.405703125
-34.40651041666667
-34.395572916666666
-34.3840234375
-34.37212239583334
-34.3750390625
-34.389635416666664
-34.4004296875
-34.4067578125
-34.4176953125
-34.43234375
-34.4246484375
-34.4414453125
-34.427799479166666
-34.42790364583333
-34.41033854166667
-34.26686197916667
-34.153984375
-34.15341145833333
-34.23421875
-34.287734375
-34.301328125
-34.2646875
-34.27451822916667
-34.27029947916667
-34.25755208333333
-34.251171875
-34.25315104166667
-34.258502604166665
-34.261692708333335
-34.291979166666664
-34.29606770833333
-34.317369791666664
-34.34846354166667
-34.340182291666665
-34.34680989583333
-34.3767578125
-34.333125
-34.217096354166664
-34.08897135416667
-34.0975390625
-34.16096354166667
-34.21432291666667
-34.229557291666666
-34.247708333333335
-34.33927083333333
-34.3858203125
-34.466380208333334
-34.607721354166664
-34.8475390625
-34.92626302083333
-34.975611979166665
-35.022161458333336
-35.10334635416667
-35.139348958333336
-34.90970052083333
-34.54024739583333
-34.27421875
-34.2429296875
-34.2273046875
-34.224375
-34.27354166666667
-34.2635546875
-34.2428125
-34.25861979166667
-34.237903645833335
-34.20619791666667
-34.2323046875
-34.2167578125
-34.18247395833333
-34.175859375
-34.14631510416667
-34.09184895833334
-34.0553515625
-34.03725260416667
-34.01970052083333
-33.97869791666667
-33.88587239583333
-33.991953125
-34.05643229166667
-34.186223958333336
-34.48334635416666
-34.474934895833336
-34.61571614583333
-34.62545572916667
-34.628567708333335
-34.59848958333333
-34.577877604166666
-34.5679296875
-34.554765625
-34.5506640625
-34.570234375
-34.56356770833333
-34.57076822916667
-34.56471354166667
-34.553828125
-34.556302083333335
-34.544270833333336
-34.5378515625
-34.43795572916667
-34.31506510416666
-34.2702734375
-34.28391927083333
-34.3115234375
-34.33484375
-34.33384114583333
-34.34329427083333
-34.3297265625
-34.278828125
-34.26479166666667
-34.26026041666667
-34.266640625
-34.26453125
-34.267421875
-34.27209635416666
-34.290455729166666
-34.288997395833334
-34.2771875
-34.252513020833334
-34.2606640625
-34.24227864583333
-34.1041015625
-34.02380208333334
-34.09326822916667
-34.576875
-34.73196614583333
-34.71147135416667
-34.69739583333333
-34.72078125
-34.729505208333336
-34.76682291666667
-34.76927083333333
-34.75768229166667
-34.74489583333333
-34.725026041666666
-34.52721354166667
-34.551953125
-34.5975
-34.60200520833333
-34.631549479166665
-34.61803385416667
-34.611927083333335
-34.63854166666667
-34.6655078125
-34.712239583333336
-34.730234375
-34.750989583333336
-34.764361979166665
-34.730481770833336
-34.5894140625
-34.54194010416666
-34.581015625
-34.6191796875
-34.648424479166664
-34.65807291666667
-34.66076822916666
-34.666432291666666
-34.65897135416667
-34.6159765625
-34.60315104166666
-34.63005208333333
-34.64125
-34.65860677083333
-34.661875
-34.68216145833333
-34.68967447916667
-34.69787760416666
-34.707447916666666
-34.7135546875
-34.7261328125
-34.736875
-34.6680859375
-34.53114583333333
-34.4684765625
-34.504140625
-34.55100260416667
-34.55673177083333
-34.58157552083333
-34.595677083333335
-34.601901041666665
-34.57953125
-34.55263020833333
-34.560625
-34.5747265625
-34.592578125
-34.58997395833333
-34.5959375
-34.60462239583333
-34.612890625
-34.61544270833333
-34.60231770833333
-34.60919270833333
-34.601640625
-34.61342447916667
-34.601484375
-34.50444010416667
-34.410794270833335
-34.38684895833333
-34.4190234375
-34.45361979166667
-34.472317708333335
-34.49
-34.50440104166667
-34.489635416666665
-34.480182291666665
-34.4623828125
-34.46625
-34.460338541666665
-34.486640625
-34.494114583333335
-34.502890625
-34.526744791666665
-34.52618489583333
-34.53897135416667
-34.534765625
-34.549518229166665
-34.53244791666667
-34.40419270833333
-34.33380208333333
-34.359622395833334
-34.38805989583334
-34.4142578125
-34.4312890625
-34.4562890625
-34.45493489583333
-34.430013020833336
-34.41037760416667
-34.391171875
-34.400859375
-34.4204296875
-34.434192708333335
-34.454661458333334
-34.47833333333333
-34.484049479166664
-34.496744791666664
-34.4980859375
-34.49014322916667
-34.500989583333336
-34.5007421875
-34.455807291666666
-34.31983072916667
-34.26765625
-34.2914453125
-34.34334635416667
-34.36256510416667
-34.393671875
-34.41983072916667
-34.41046875
-34.385703125
-34.36354166666667
-34.35231770833333
-34.355885416666666
-34.368359375
-34.3776171875
-34.38787760416667
-34.416953125
-34.42567708333333
-34.415377604166665
-34.419296875
-34.4326953125
-34.44895833333333
-34.40337239583334
-34.265234375
-34.1878515625
-34.20755208333333
-34.260859375
-34.29114583333333
-34.329296875
-34.349856770833334
-34.35315104166666
-34.33541666666667
-34.3013671875
-34.299739583333334
-34.310169270833335
-34.33
-34.353984375
-34.36657552083334
-34.386171875
-34.399440104166665
-34.402630208333335
-34.40588541666666
-34.415598958333334
-34.422252604166665
-34.37059895833333
-34.2353125
-34.189921875
-34.2109375
-34.252903645833335
-34.27845052083333
-34.27876302083333
-34.311588541666666
-34.2912109375
-34.25826822916667
-34.22505208333333
-34.21338541666667
-34.23514322916667
-34.255625
-34.275052083333335
-34.299140625
-34.30428385416667
-34.31014322916667
-34.31147135416666
-34.309544270833335
-34.30966145833333
-34.28782552083333
-34.16747395833333
-34.111614583333335
-34.144140625
-34.20106770833333
-34.23001302083333
-34.24526041666667
-34.27739583333334
-34.266848958333334
-34.240481770833334
-34.21963541666667
-34.213229166666665
-34.23057291666667
-34.2511328125
-34.262942708333334
-34.2671875
-34.27356770833333
-34.278997395833336
-34.2837890625
-34.276705729166665
-34.2355859375
-34.102565104166665
-33.97908854166667
-33.962239583333336
-34.004192708333335
-34.1993359375
-34.367838541666664
-34.68118489583333
-34.69606770833333
-34.68563802083333
-34.68158854166666
-34.674127604166664
-34.67720052083333
-34.7050390625
-34.72739583333333
-34.76412760416667
-34.77065104166667
-34.776705729166665
-34.76057291666667
-34.7759765625
-34.76446614583333
-34.6999609375
-34.56942708333333
-34.57723958333333
-34.611263020833334
-34.650716145833336
-34.67453125
-34.684583333333336
-34.685390625
-34.69061197916667
-34.6699609375
-34.6615625
-34.679752604166666
-34.685924479166665
-34.7066015625
-34.73287760416667
-34.75052083333333
-34.758984375
-34.761744791666665
-34.7650390625
-34.775104166666665
-34.76375
-34.651614583333334
-34.541614583333335
-34.5382421875
-34.5816015625
-34.61768229166667
-34.643216145833335
-34.6632421875
-34.67994791666667
-34.68506510416667
-34.6616015625
-34.676822916666666
-34.69942708333333
-34.726940104166665
-34.7505078125
-34.7699609375
-34.779375
-34.78391927083333
-34.79962239583333
-34.80421875
-34.80319010416667
-34.8163671875
-34.8098046875
-34.71252604166666
-34.60494791666667
-34.596979166666664
-34.65248697916667
-34.688776041666664
-34.70828125
-34.7148828125
-34.71272135416667
-34.710208333333334
-34.694622395833335
-34.710026041666666
-34.73192708333333
-34.744440104166664
-34.77294270833333
-34.78895833333333
-34.8058984375
-34.82760416666667
-34.843046875
-34.85166666666667
-34.86692708333333
-34.87192708333333
-34.88609375
-34.9111328125
-34.8716796875
-34.73756510416667
-34.69028645833333
-34.727526041666664
-34.77330729166667
-34.802747395833336
-34.804453125
-34.815677083333334
-34.8150390625
-34.80356770833333
-34.79009114583334
-34.80947916666667
-34.82921875
-34.849010416666665
-34.860052083333336
-34.886158854166666
-34.89106770833333
-34.89915364583333
-34.914049479166664
-34.92459635416667
-34.931393229166666
-34.937734375
-34.96145833333333
-34.98805989583333
-34.98
-34.904895833333335
-34.790052083333336
-34.7559765625
-34.795559895833335
-34.850520833333334
-34.877200520833334
-34.86475260416667
-34.878671875
-34.8725390625
-34.8638671875
-34.86571614583333
-34.876875
-34.888958333333335
-34.9044921875
-34.903671875
-34.924817708333336
-34.94026041666667
-34.93453125
-34.94127604166667
-34.941731770833336
-34.9485546875
-34.9725
-34.977578125
-34.957018229166664
-34.8479296875
-34.79276041666667
-34.86359375
-34.886419270833336
-34.89467447916667
-34.90216145833333
-34.9066796875
-34.87608072916667
-34.88591145833333
-34.89993489583333
-34.90998697916667
-34.93084635416667
-34.935703125
-34.93368489583333
-34.92861979166667
-34.93537760416667
-34.92734375
-34.9329296875
-34.8874609375
-34.78263020833333
-34.73171875
-34.7758203125
-34.81533854166667
-34.833033854166665
-34.85001302083333
-34.8528125
-34.84717447916667
-34.83602864583333
-34.82723958333333
-34.840494791666664
-34.85852864583333
-34.886158854166666
-34.901041666666664
-34.908932291666666
-34.931705729166666
-34.9142578125
-34.92596354166667
-34.92419270833334
-34.93692708333333
-34.9047265625
-34.7883984375
-34.7609765625
-34.78782552083333
-34.827473958333336
-34.841861979166666
-34.866236979166665
-34.883203125
-34.87881510416667
-34.8765625
-34.867161458333335
-34.88126302083333
-34.901640625
-34.9133984375
-34.9263671875
-34.93723958333333
-34.93071614583334
-34.93430989583333
-34.942135416666666
-34.9430078125
-34.94872395833333
-34.970065104166665
-34.97615885416667
-34.87927083333334
-34.77131510416667
-34.76645833333333
-34.80673177083333
-34.836497395833334
-34.847955729166664
-34.85147135416667
-34.852526041666664
-34.8515625
-34.84313802083334
-34.82768229166667
-34.844921875
-34.87459635416667
-34.87299479166666
-34.88015625
-34.882825520833336
-34.89598958333333
-34.898098958333335
-34.90834635416667
-34.92561197916667
-34.931927083333335
-34.94678385416667
-34.953203125
-34.94640625
-34.840755208333334
-34.725625
-34.787395833333335
-34.829127604166665
-34.836888020833335
-34.83100260416666
-34.846119791666666
-34.85854166666667
-34.8815625
-34.910442708333335
-34.92302083333333
-34.925455729166664
-34.929986979166664
-34.946614583333336
-34.957682291666664
-34.975169270833334
-34.947552083333335
-34.84717447916667
-34.76118489583333
-34.76811197916667
-34.7993359375
-34.843502604166666
-34.8634375
-34.883815104166665
-34.88391927083333
-34.86611979166667
-34.85080729166667
-34.8626953125
-34.88584635416667
-34.89622395833333
-34.927356770833335
-34.93572916666667
-34.952708333333334
-34.97744791666667
-34.98522135416667
-34.991627604166666
-34.98516927083333
-35.00106770833333
-35.014921875
-35.018203125
-34.8360546875
-34.573567708333336
-34.35489583333333
-34.37944010416667
-34.41747395833333
-34.4341796875
-34.45138020833333
-34.457708333333336
-34.43203125
-34.4178515625
-34.38569010416666
-34.4026171875
-34.395546875
-34.4105859375
-34.423763020833334
-34.42403645833333
-34.4187890625
-34.421940104166666
-34.418958333333336
-34.421497395833335
-34.438203125
-34.44415364583333
-34.400325520833334
-34.276432291666666
-34.22243489583333
-34.252955729166665
-34.2896875
-34.30904947916667
-34.31424479166667
-34.337864583333335
-34.3287109375
-34.30354166666667
-34.2751953125
-34.26927083333333
-34.284192708333336
-34.29381510416667
-34.2983984375
-34.300455729166664
-34.32725260416667
-34.31393229166667
-34.321484375
-34.27388020833333
-34.138033854166665
-34.08446614583333
-34.12979166666667
-34.159869791666665
-34.19444010416667
-34.22190104166667
-34.234036458333335
-34.23358072916667
-34.2052734375
-34.19618489583333
-34.22377604166667
-34.233046875
-34.261015625
-34.268893229166665
-34.276041666666664
-34.271158854166664
-34.061848958333336
-34.0292578125
-34.10559895833333
-34.2737109375
-34.58963541666667
-34.591510416666665
-34.57506510416667
-34.60640625
-34.6193359375
-34.64990885416667
-34.64895833333333
-34.651666666666664
-34.65518229166667
-34.656015625
-34.44868489583333
-34.43345052083333
-34.4764453125
-34.51829427083333
-34.53365885416667
-34.5682421875
-34.57458333333334
-34.55065104166667
-34.56010416666667
-34.607669270833334
-34.62975260416667
-34.642278645833336
-34.662760416666664
-34.6700390625
-34.697955729166665
-34.7026171875
-34.6334375
-34.51984375
-34.48555989583333
-34.517239583333335
-34.57140625
-34.59126302083333
-34.60404947916667
-34.62140625
-34.6120703125
-34.60119791666666
-34.58483072916667
-34.6105859375
-34.62328125
-34.64600260416667
-34.67760416666667
-34.686861979166665
-34.69875
-34.71701822916667
-34.71688802083333
-34.7272265625
-34.7361328125
-34.72869791666667
-34.6422265625
-34.538372395833335
-34.54092447916667
-34.58610677083333
-34.61729166666667
-34.634791666666665
-34.652994791666664
-34.6627734375
-34.65703125
-34.6546875
-34.660169270833336
-34.674739583333334
-34.69229166666667
-34.71294270833334
-34.73682291666667
-34.72877604166667
-34.73942708333333
-34.75048177083333
-34.758098958333335
-34.779283854166664
-34.773723958333335
-34.680911458333334
-34.60063802083334
-34.61576822916667
-34.651783854166666
-34.69095052083333
-34.705013020833334
-34.72869791666667
-34.724674479166666
-34.69415364583333
-34.694453125
-34.684908854166665
-34.702395833333334
-34.715143229166664
-34.736979166666664
-34.74622395833333
-34.753216145833335
-34.7535546875
-34.75022135416667
-34.75744791666666
-34.745078125
-34.63720052083333
-34.53444010416667
-34.548580729166666
-34.58802083333333
-34.63220052083334
-34.65049479166667
-34.664296875
-34.683307291666665
-34.6494140625
-34.631184895833336
-34.62748697916667
-34.65265625
-34.6762109375
-34.686458333333334
-34.7038671875
-34.699231770833336
-34.70028645833333
-34.71134114583333
-34.699908854166665
-34.68044270833333
-34.555911458333334
-34.45393229166667
-34.44845052083333
-34.49395833333333
-34.5234765625
-34.532890625
-34.54502604166667
-34.53135416666667
-34.516302083333336
-34.50369791666667
-34.496692708333335
-34.504453125
-34.537109375
-34.559505208333334
-34.57315104166667
-34.58188802083333
-34.60109375
-34.61399739583333
-34.61466145833333
-34.62365885416666
-34.59615885416667
-34.458515625
-34.38553385416667
-34.421276041666665
-34.462252604166665
-34.492513020833336
-34.4912109375
-34.4978125
-34.5074609375
-34.49270833333333
-34.51
-34.51734375
-34.547526041666664
-34.558177083333334
-34.57036458333334
-34.59755208333333
-34.60723958333333
-34.62494791666666
-34.62578125
-34.633111979166664
-34.6511328125
-34.565859375
-34.4425390625
-34.431927083333335
-34.47678385416667
-34.514361979166665
-34.53125
-34.54705729166667
-34.552447916666665
-34.54430989583334
-34.5323046875
-34.5415234375
-34.5687109375
-34.5921875
-34.590143229166664
-34.6221875
-34.644375
-34.6578515625
-34.679088541666665
-34.69322916666667
-34.701015625
-34.73127604166667
-34.74100260416667
-34.665377604166665
-34.53989583333333
-34.53888020833333
-34.584622395833335
-34.62
-34.6525
-34.65608072916667
-34.65110677083333
-34.649427083333336
-34.6378125
-34.64154947916666
-34.653880208333334
-34.6651953125
-34.685247395833336
-34.717135416666665
-34.72936197916667
-34.74694010416667
-34.760364583333335
-34.750625
-34.760442708333336
-34.76649739583333
-34.776640625
-34.70328125
-34.6152734375
-34.5980078125
-34.66
-34.7110546875
-34.71890625
-34.7227734375
-34.73401041666666
-34.7185546875
-34.71015625
-34.70234375
-34.72936197916667
-34.7230859375
-34.747669270833335
-34.766263020833335
-34.771236979166666
-34.78141927083333
-34.785833333333336
-34.79483072916667
-34.8139453125
-34.824296875
-34.734049479166664
-34.628580729166664
-34.62807291666667
-34.68075520833333
-34.714908854166666
-34.73358072916667
-34.74768229166666
-34.758671875
-34.755078125
-34.728203125
-34.7182421875
-34.72569010416667
-34.74270833333333
-34.75118489583333
-34.771731770833334
-34.77821614583333
-34.79421875
-34.781875
-34.794765625
-34.8158203125
-34.80756510416666
-34.69151041666667
-34.598333333333336
-34.5889453125
-34.6256640625
-34.6705078125
-34.69252604166667
-34.698229166666664
-34.698893229166664
-34.67364583333333
-34.665390625
-34.66716145833333
-34.67588541666667
-34.69397135416666
-34.707760416666666
-34.721041666666665
-34.72829427083333
-34.7446875
-34.7528515625
-34.753229166666664
-34.7647265625
-34.7762890625
-34.734075520833336
-34.60998697916666
-34.53923177083333
-34.5725
-34.616875
-34.634752604166664
-34.639986979166665
-34.646015625
-34.64014322916667
-34.635755208333336
-34.63358072916667
-34.630572916666665
-34.6489453125
-34.6550390625
-34.673580729166666
-34.68373697916667
-34.698125
-34.72078125
-34.724375
-34.7421875
-34.754505208333335
-34.76088541666667
-34.664375
-34.552135416666665
-34.535130208333335
-34.57567708333333
-34.615625
-34.634765625
-34.64640625
-34.6590234375
-34.6518359375
-34.627265625
-34.623697916666664
-34.64893229166667
-34.66822916666667
-34.68016927083333
-34.67342447916667
-34.689778645833336
-34.70950520833333
-34.71631510416667
-34.72645833333333
-34.75373697916667
-34.7760546875
-34.78276041666667
-34.73170572916667
-34.60891927083333
-34.56653645833333
-34.5975
-34.6464453125
-34.69088541666667
-34.70725260416667
-34.703684895833334
-34.70192708333333
-34.6875390625
-34.6687109375
-34.6623828125
-34.68346354166667
-34.69158854166667
-34.702122395833335
-34.72790364583334
-34.73109375
-34.733515625
-34.727513020833335
-34.722369791666665
-34.72828125
-34.6984375
-34.56921875
-34.50921875
-34.53658854166667
-34.57838541666667
-34.59778645833333
-34.616940104166666
-34.62251302083333
-34.61826822916667
-34.58393229166666
-34.560963541666666
-34.570638020833336
-34.5685546875
-34.57873697916666
-34.57611979166666
-34.59671875
-34.60098958333333
-34.5887890625
-34.591484375
-34.604166666666664
-34.588046875
-34.47509114583333
-34.385703125
-34.39342447916667
-34.44438802083334
-34.474765625
-34.49170572916667
-34.5082421875
-34.505572916666665
-34.491015625
-34.4629296875
-34.4681640625
-34.48721354166667
-34.506458333333335
-34.5229296875
-34.52459635416667
-34.521770833333335
-34.52259114583333
-34.5373046875
-34.54466145833333
-34.54044270833333
-34.5084375
-34.363958333333336
-34.280390625
-34.289049479166664
-34.331953125
-34.3654296875
-34.3601953125
-34.35756510416667
-34.34432291666667
-34.3346875
-34.3353515625
-34.33260416666667
-34.341809895833336
-34.350520833333334
-34.365872395833335
-34.37671875
-34.390026041666665
-34.37649739583333
-34.37936197916667
-34.3815625
-34.38911458333333
-34.4048828125
-34.336588541666664
-34.202838541666665
-34.15811197916667
-34.195325520833336
-34.232799479166665
-34.25540364583333
-34.26540364583333
-34.27529947916667
-34.266979166666665
-34.241861979166664
-34.242109375
-34.25720052083334
-34.2873046875
-34.305963541666664
-34.31059895833334
-34.33376302083333
-34.34912760416667
-34.35830729166667
-34.3613671875
-34.360286458333334
-34.3930078125
-34.41126302083333
-34.34174479166666
-34.19875
-34.1465234375
-34.244114583333335
-34.27037760416667
-34.279674479166665
-34.27325520833333
-34.27610677083333
-34.303723958333336
-34.3539453125
-34.375390625
-34.387356770833335
-34.39740885416666
-34.4071484375
-34.421276041666665
-34.31227864583333
-34.230078125
-34.2812109375
-34.32404947916667
-34.34614583333333
-34.3251171875
-34.320026041666665
-34.325130208333334
-34.33114583333333
-34.357838541666666
-34.38076822916667
-34.36580729166667
-34.38484375
-34.41006510416667
-34.386067708333336
-34.311875
-34.19485677083333
-34.165716145833336
-34.23811197916667
-34.27682291666667
-34.30846354166667
-34.30059895833333
-34.32763020833333
-34.32044270833333
-34.297578125
-34.29309895833333
-34.304752604166666
-34.34358072916667
-34.3549609375
-34.387044270833336
-34.396953125
-34.40153645833333
-34.405260416666664
-34.41194010416667
-34.41395833333333
-34.44154947916667
-34.43662760416667
-34.35984375
-34.238828125
-34.18998697916667
-34.24484375
-34.2839453125
-34.30526041666667
-34.30673177083333
-34.32009114583333
-34.33686197916666
-34.3248828125
-34.327486979166665
-34.3366015625
-34.3548046875
-34.38338541666667
-34.422109375
-34.427057291666664
-34.4197265625
-34.411171875
-34.4285546875
-34.42986979166667
-34.42567708333333
-34.30654947916667
-34.19220052083333
-34.236028645833336
-34.29194010416666
-34.300091145833335
-34.31233072916667
-34.32790364583333
-34.326158854166664
-34.34694010416667
-34.36766927083333
-34.41904947916667
-34.449869791666664
-34.46143229166667
-34.5109375
-34.42078125
-34.2906640625
-34.34625
-34.408932291666666
-34.413359375
-34.4311328125
-34.38920572916667
-34.425859375
-34.44541666666667
-34.476901041666665
-34.4882421875
-34.4847265625
-34.49428385416667
-34.50296875
-34.5423828125
-34.5617578125
-34.50673177083333
-34.37979166666667
-34.323541666666664
-34.3630078125
-34.4180859375
-34.44609375
-34.483333333333334
-34.5009375
-34.483515625
-34.45131510416667
-34.446263020833335
-34.45872395833333
-34.464166666666664
-34.46920572916667
-34.488880208333335
-34.49592447916667
-34.501354166666665
-34.507565104166666
-34.5067578125
-34.515950520833336
-34.51641927083333
-34.4970703125
-34.37614583333333
-34.2945703125
-34.315052083333335
-34.36180989583333
-34.400065104166664
-34.42440104166667
-34.433515625
-34.4424609375
-34.41348958333333
-34.407825520833335
-34.416875
-34.4254296875
-34.43755208333334
-34.45875
-34.49134114583333
-34.487890625
-34.5015234375
-34.503528645833335
-34.52774739583333
-34.53475260416667
-34.51407552083333
-34.391953125
-34.299205729166665
-34.309153645833334
-34.3483984375
-34.383515625
-34.38947916666667
-34.40384114583333
-34.40994791666667
-34.4062890625
-34.38915364583333
-34.391666666666666
-34.40419270833333
-34.43048177083333
-34.4333984375
-34.4576953125
-34.445859375
-34.46430989583333
-34.467434895833335
-34.50471354166667
-34.50639322916667
-34.492604166666666
-34.367825520833335
-34.241588541666665
-34.23916666666667
-34.288151041666666
-34.32986979166667
-34.3481640625
-34.34544270833333
-34.366953125
-34.3605859375
-34.32928385416667
-34.323880208333335
-34.3539453125
-34.367265625
-34.39631510416667
-34.41611979166667
-34.43149739583333
-34.429609375
-34.431223958333334
-34.43154947916667
-34.4448828125
-34.460208333333334
-34.4264453125
-34.2983984375
-34.19037760416666
-34.19776041666667
-34.248606770833334
-34.288763020833336
-34.3081640625
-34.319322916666664
-34.325546875
-34.32432291666667
-34.3071875
-34.31115885416666
-34.33522135416667
-34.352877604166665
-34.3588671875
-34.39381510416667
-34.40904947916667
-34.4188671875
-34.43692708333333
-34.44962239583333
-34.457578125
-34.4858203125
-34.49786458333333
-34.45921875
-34.32
-34.2223828125
-34.243138020833335
-34.310872395833336
-34.34720052083333
-34.3650390625
-34.384296875
-34.38276041666666
-34.38942708333333
-34.39401041666667
-34.39643229166666
-34.434010416666666
-34.4465234375
-34.47020833333333
-34.49440104166667
-34.51947916666666
-34.5338671875
-34.530572916666664
-34.55916666666667
-34.56947916666667
-34.57826822916667
-34.580013020833334
-34.52751302083333
-34.3733984375
-34.3286328125
-34.36403645833333
-34.41983072916667
-34.4399609375
-34.45161458333333
-34.4649609375
-34.450572916666665
-34.42307291666667
-34.42013020833333
-34.439388020833334
-34.46203125
-34.479609375
-34.4950390625
-34.51252604166667
-34.5306640625
-34.528567708333334
-34.52744791666667
-34.54220052083333
-34.564466145833336
-34.58868489583333
-34.58921875
-34.491536458333336
-34.37483072916667
-34.3753515625
-34.429270833333334
-34.47532552083333
-34.5051171875
-34.52911458333333
-34.531575520833336
-34.51140625
-34.481744791666664
-34.490924479166665
-34.493229166666666
-34.521184895833336
-34.538815104166666
-34.550390625
-34.555859375
-34.55196614583333
-34.561640625
-34.564427083333335
-34.57430989583333
-34.57889322916667
-34.4848046875
-34.35377604166667
-34.319622395833335
-34.41677083333333
-34.4290234375
-34.4496875
-34.462200520833335
-34.4459375
-34.421640625
-34.427356770833335
-34.4397265625
-34.468098958333336
-34.48002604166667
-34.49813802083333
-34.52184895833334
-34.5392578125
-34.53852864583333
-34.542682291666665
-34.55868489583333
-34.5659375
-34.545169270833334
-34.407513020833335
-34.29984375
-34.304661458333335
-34.3524609375
-34.383372395833334
-34.3858984375
-34.4151953125
-34.403671875
-34.3970703125
-34.38721354166667
-34.3930859375
-34.4233984375
-34.4482421875
-34.45848958333333
-34.4668359375
-34.491184895833335
-34.494427083333335
-34.49986979166667
-34.500325520833336
-34.50395833333334
-34.52721354166667
-34.52713541666667
-34.45303385416667
-34.295546875
-34.22575520833333
-34.26740885416667
-34.313229166666666
-34.336888020833335
-34.3451953125
-34.36180989583333
-34.365
-34.34411458333334
-34.3504296875
-34.36123697916667
-34.386158854166666
-34.4057421875
-34.422916666666666
-34.442005208333335
-34.45627604166667
-34.467760416666664
-34.47731770833333
-34.48322916666667
-34.50408854166667
-34.52055989583334
-34.5323828125
-34.4511328125
-34.3144921875
-34.26131510416667
-34.312825520833336
-34.35272135416667
-34.37029947916667
-34.391796875
-34.41868489583333
-34.41940104166667
-34.4055078125
-34.413411458333336
-34.419583333333335
-34.447890625
-34.47377604166667
-34.49424479166667
-34.52260416666667
-34.546901041666665
-34.54903645833333
-34.55643229166667
-34.5694921875
-34.5878515625
-34.611171875
-34.59420572916667
-34.473828125
-34.3853515625
-34.40091145833333
-34.458255208333334
-34.5076171875
-34.5234765625
-34.539752604166665
-34.541328125
-34.527018229166664
-34.50407552083333
-34.486744791666666
-34.501393229166666
-34.529322916666665
-34.54497395833334
-34.565234375
-34.55579427083333
-34.56203125
-34.5617578125
-34.5648828125
-34.534869791666665
-34.53171875
-34.423151041666664
-34.28329427083333
-34.2603125
-34.29345052083333
-34.32401041666667
-34.338932291666666
-34.354453125
-34.3448828125
-34.31481770833334
-34.276080729166665
-34.26873697916667
-34.275390625
-34.3253125
-34.375286458333335
-34.39186197916667
-34.391315104166665
-34.41174479166666
-34.43403645833333
-34.444010416666664
-34.4096484375
-34.27298177083333
-34.16520833333333
-34.17951822916667
-34.2315625
-34.2796484375
-34.31489583333333
-34.32984375
-34.345403645833336
-34.329661458333334
-34.290455729166666
-34.29872395833333
-34.327109375
-34.361315104166664
-34.38600260416667
-34.410859375
-34.4215625
-34.44255208333333
-34.4490234375
-34.44705729166667
-34.4501171875
-34.4099609375
-34.25770833333333
-34.155338541666666
-34.1704296875
-34.223385416666666
-34.270182291666664
-34.269596354166666
-34.270794270833335
-34.281015625
-34.258763020833335
-34.256497395833335
-34.26864583333333
-34.2690625
-34.27975260416667
-34.30114583333334
-34.314036458333334
-34.32453125
-34.32671875
-34.33923177083334
-34.350169270833334
-34.356432291666664
-34.367604166666666
-34.27234375
-34.1268359375
-34.07005208333333
-34.12217447916667
-34.148815104166665
-34.18772135416667
-34.19717447916667
-34.21510416666667
-34.2078125
-34.19380208333333
-34.195559895833334
-34.209401041666666
-34.23854166666667
-34.25536458333333
-34.280833333333334
-34.29932291666667
-34.3034375
-34.32080729166667
-34.330755208333336
-34.34690104166667
-34.35565104166667
-34.373125
-34.283671875
-34.131848958333336
-34.09713541666667
-34.12671875
-34.184765625
-34.2111328125
-34.215833333333336
-34.21864583333333
-34.218997395833334
-34.204752604166664
-34.21239583333333
-34.222109375
-34.237239583333334
-34.25596354166667
-34.2773828125
-34.30872395833333
-34.324375
-34.323802083333334
-34.33348958333333
-34.349947916666665
-34.37061197916667
-34.39302083333333
-34.219049479166664
-34.141614583333336
-34.2167578125
-34.291393229166665
-34.32510416666667
-34.30282552083333
-34.314778645833336
-34.341510416666665
-34.39213541666667
-34.401041666666664
-34.42587239583333
-34.432278645833335
-34.44424479166667
-34.4599609375
-34.47700520833333
-34.4725390625
-34.26916666666666
-34.271497395833336
-34.32639322916667
-34.374609375
-34.400768229166665
-34.436536458333336
-34.43247395833333
-34.42786458333333
-34.41786458333333
-34.399791666666665
-34.44033854166667
-34.46209635416667
-34.47971354166667
-34.485013020833335
-34.490651041666666
-34.4859765625
-34.50381510416667
-34.515208333333334
-34.38368489583333
-34.299166666666665
-34.29283854166667
-34.35165364583333
-34.395
-34.42098958333333
-34.4273828125
-34.437083333333334
-34.417981770833336
-34.409817708333335
-34.38951822916667
-34.43635416666667
-34.44161458333333
-34.484622395833334
-34.49404947916667
-34.5001171875
-34.508515625
-34.531588541666665
-34.41321614583333
-34.33096354166667
-34.35994791666667
-34.40994791666667
-34.44779947916667
-34.46993489583333
-34.491640625
-34.496653645833334
-34.47891927083333
-34.4721875
-34.47149739583333
-34.480403645833334
-34.51313802083333
-34.5421484375
-34.547174479166664
-34.57182291666667
-34.56432291666667
-34.5632421875
-34.54930989583333
-34.4034375
-34.31783854166667
-34.37393229166667
-34.428463541666666
-34.447864583333335
-34.42907552083334
-34.41037760416667
-34.43936197916667
-34.4508984375
-34.474622395833336
-34.4842578125
-34.478528645833336
-34.48419270833333
-34.49631510416667
-34.49912760416667
-34.43696614583333
-34.293984375
-34.25826822916667
-34.315013020833334
-34.3637109375
-34.3795703125
-34.37584635416667
-34.3741015625
-34.370416666666664
-34.392877604166664
-34.41815104166667
-34.43057291666667
-34.44265625
-34.45235677083333
-34.466106770833335
-34.4710546875
-34.5001171875
-34.464427083333334
-34.33166666666666
-34.25252604166667
-34.2605078125
-34.32149739583333
-34.36608072916667
-34.37552083333333
-34.3937890625
-34.4024609375
-34.386015625
-34.392890625
-34.4019140625
-34.41651041666667
-34.456783854166666
-34.45454427083333
-34.48694010416666
-34.48350260416667
-34.503841145833334
-34.505885416666665
-34.49822916666667
-34.498958333333334
-34.52059895833333
-34.53428385416667
-34.519244791666665
-34.4323828125
-34.31169270833333
-34.31095052083333
-34.3648828125
-34.418359375
-34.435130208333334
-34.4509375
-34.462552083333335
-34.45424479166667
-34.44026041666667
-34.45614583333333
-34.46493489583333
-34.4830859375
-34.50467447916667
-34.518216145833335
-34.544231770833335
-34.547265625
-34.57404947916667
-34.57803385416667
-34.58376302083333
-34.611080729166666
-34.62055989583333
-34.626575520833335
-34.538515625
-34.4226953125
-34.4127734375
-34.46569010416667
-34.51182291666667
-34.54114583333333
-34.5583984375
-34.56701822916666
-34.54673177083333
-34.51807291666667
-34.52001302083333
-34.5240234375
-34.541432291666666
-34.5553125
-34.56006510416667
-34.587239583333336
-34.59755208333333
-34.594388020833335
-34.60891927083333
-34.613580729166664
-34.621419270833336
-34.629244791666665
-34.545260416666665
-34.437486979166664
-34.44095052083333
-34.497799479166666
-34.55192708333333
-34.60942708333334
-34.6284765625
-34.6395703125
-34.629557291666664
-34.60095052083334
-34.589830729166664
-34.6221875
-34.63240885416667
-34.66321614583333
-34.6735546875
-34.6828515625
-34.698802083333334
-34.706119791666666
-34.7204296875
-34.7318359375
-34.722278645833335
-34.6214453125
-34.521236979166666
-34.52165364583333
-34.591171875
-34.61709635416667
-34.64838541666666
-34.66787760416667
-34.68834635416667
-34.674518229166665
-34.644596354166666
-34.651328125
-34.6504296875
-34.66548177083333
-34.69283854166667
-34.7033203125
-34.69325520833333
-34.71703125
-34.728502604166664
-34.740078125
-34.739934895833336
-34.655950520833336
-34.539622395833334
-34.5146875
-34.555703125
-34.62149739583333
-34.6523828125
-34.6504296875
-34.68609375
-34.673359375
-34.6484375
-34.64315104166667
-34.6541015625
-34.672526041666664
-34.69514322916667
-34.718190104166666
-34.719036458333335
-34.733776041666665
-34.743841145833336
-34.63432291666667
-34.4987890625
-34.544010416666666
-34.62325520833333
-34.62579427083333
-34.63984375
-34.63157552083333
-34.632838541666665
-34.621640625
-34.640625
-34.65126302083333
-34.6718359375
-34.698203125
-34.72080729166667
-34.73421875
-34.7410546875
-34.737630208333336
-34.74266927083333
-34.756419270833334
-34.77005208333333
-34.66694010416666
-34.51515625
-34.497083333333336
-34.56872395833334
-34.604075520833334
-34.62671875
-34.632473958333335
-34.642252604166664
-34.630703125
-34.61904947916667
-34.621432291666665
-34.63463541666667
-34.65891927083333
-34.678997395833335
-34.6947265625
-34.7007421875
-34.7299609375
-34.73791666666666
-34.749674479166664
-34.76350260416667
-34.7780859375
-34.79984375
-34.8234765625
-34.7946484375
-34.65153645833333
-34.577708333333334
-34.6114453125
-34.66001302083333
-34.711940104166665
-34.7389453125
-34.7384375
-34.75315104166667
-34.75416666666667
-34.74703125
-34.74701822916666
-34.75954427083333
-34.7776953125
-34.79158854166667
-34.808294270833336
-34.83522135416667
-34.84462239583333
-34.853177083333335
-34.69673177083333
-34.571588541666664
-34.4364453125
-34.464466145833335
-34.43020833333333
-34.2873046875
-34.214244791666665
-34.25346354166667
-34.325221354166665
-34.380260416666665
-34.4191015625
-34.41690104166667
-34.38537760416666
-34.379231770833336
-34.400859375
-34.4170703125
-34.435299479166666
-34.449765625
-34.44803385416667
-34.4545703125
-34.440234375
-34.440091145833335
-34.46466145833333
-34.4673828125
-34.399166666666666
-34.26602864583333
-34.19326822916667
-34.24115885416666
-34.291432291666666
-34.294322916666665
-34.328450520833336
-34.3573046875
-34.34065104166667
-34.32022135416667
-34.289036458333335
-34.28114583333333
-34.29018229166667
-34.321315104166665
-34.33265625
-34.3404296875
-34.355716145833334
-34.37708333333333
-34.3731640625
-34.38200520833333
-34.39235677083333
-34.40029947916667
-34.318059895833336
-34.16520833333333
-34.14470052083333
-34.1862109375
-34.238203125
-34.27813802083333
-34.292109375
-34.3151171875
-34.30526041666667
-34.3029296875
-34.295
-34.30515625
-34.31970052083334
-34.333736979166666
-34.36311197916667
-34.38640625
-34.399427083333336
-34.40794270833333
-34.4055859375
-34.4078515625
-34.4251953125
-34.44321614583333
-34.411015625
-34.26552083333333
-34.155026041666666
-34.17649739583333
-34.2358203125
-34.280572916666664
-34.28723958333333
-34.30126302083333
-34.30583333333333
-34.27966145833334
-34.280625
-34.302174479166666
-34.32442708333333
-34.342760416666664
-34.377265625
-34.40217447916667
-34.401302083333334
-34.432630208333336
-34.414765625
-34.419674479166666
-34.4395703125
-34.46088541666666
-34.4044140625
-34.250078125
-34.1650390625
-34.20981770833333
-34.27375
-34.30615885416667
-34.312565104166666
-34.3276171875
-34.336888020833335
-34.321276041666664
-34.309921875
-34.315703125
-34.3351171875
-34.346705729166665
-34.370104166666664
-34.3783984375
-34.401015625
-34.39755208333333
-34.41001302083333
-34.4124609375
-34.437213541666665
-34.44407552083333
-34.428645833333334
-34.319401041666666
-34.1889453125
-34.19295572916667
-34.239505208333334
-34.27970052083333
-34.3217578125
-34.33779947916667
-34.346614583333334
-34.34076822916666
-34.317981770833335
-34.299127604166664
-34.3151171875
-34.3313671875
-34.3494140625
-34.36118489583333
-34.381861979166665
-34.386015625
-34.392734375
-34.398828125
-34.418033854166666
-34.403515625
-34.30166666666667
-34.14860677083333
-34.11541666666667
-34.157109375
-34.214153645833335
-34.25604166666667
-34.277278645833334
-34.29
-34.26623697916666
-34.22677083333333
-34.208697916666665
-34.220104166666665
-34.21373697916667
-34.24373697916667
-34.26002604166667
-34.2771484375
-34.27751302083333
-34.29184895833333
-34.29923177083333
-34.31600260416667
-34.319348958333336
-34.29739583333333
-34.155299479166665
-34.051015625
-34.04545572916667
-34.10130208333333
-34.13677083333334
-34.162799479166665
-34.18375
-34.198567708333336
-34.1907421875
-34.161640625
-34.146861979166665
-34.160833333333336
-34.19290364583333
-34.20908854166667
-34.236028645833336
-34.2501171875
-34.2385546875
-34.239283854166665
-34.238828125
-34.2483984375
-34.27233072916667
-34.26166666666666
-34.101145833333334
-33.927096354166665
-33.943776041666666
-34.15669270833333
-34.48401041666666
-34.511783854166666
-34.51264322916666
-34.4883984375
-34.4761328125
-34.49765625
-34.5329296875
-34.547252604166665
-34.5691796875
-34.579830729166666
-34.59837239583333
-34.6065234375
-34.606158854166665
-34.617473958333335
-34.6284375
-34.64048177083333
-34.526067708333336
-34.35401041666667
-34.30157552083333
-34.350026041666666
-34.40239583333334
-34.426783854166665
-34.448880208333335
-34.466419270833335
-34.461015625
-34.43364583333334
-34.449244791666665
-34.471354166666664
-34.488294270833336
-34.51149739583333
-34.51131510416667
-34.522213541666666
-34.55194010416667
-34.55095052083333
-34.5616796875
-34.565052083333335
-34.58979166666666
-34.599947916666665
-34.57231770833334
-34.415859375
-34.28555989583333
-34.294609375
-34.34873697916667
-34.39875
-34.415013020833335
-34.44299479166666
-34.4366796875
-34.41036458333333
-34.40770833333333
-34.4094140625
-34.43475260416667
-34.4702734375
-34.5132421875
-34.54639322916667
-34.55286458333333
-34.55776041666667
-34.563177083333336
-34.578190104166666
-34.60110677083333
-34.600625
-34.6134375
-34.50559895833333
-34.34298177083333
-34.34220052083333
-34.39140625
-34.44962239583333
-34.47739583333333
-34.496341145833334
-34.519557291666665
-34.50022135416667
-34.470390625
-34.4638671875
-34.4672265625
-34.47536458333333
-34.50279947916667
-34.520078125
-34.53428385416667
-34.55735677083333
-34.5615234375
-34.558606770833336
-34.55552083333333
-34.41251302083333
-34.29115885416667
-34.371692708333335
-34.475559895833335
-34.49690104166667
-34.50893229166667
-34.475299479166665
-34.49578125
-34.5198046875
-34.5485546875
-34.56236979166667
-34.568645833333335
-34.57998697916667
-34.28342447916667
-34.25962239583333
-34.3681640625
-34.4262890625
-34.420260416666665
-34.40125
-34.388606770833334
-34.414440104166665
-34.45375
-34.4550390625
-34.47279947916667
-34.4712890625
-34.46391927083334
-34.50147135416667
-34.457942708333334
-34.28182291666667
-34.17045572916667
-34.19375
-34.26380208333333
-34.306666666666665
-34.335611979166664
-34.348307291666664
-34.32305989583333
-34.30571614583334
-34.31861979166667
-34.330390625
-34.37184895833333
-34.382174479166665
-34.409153645833335
-34.41520833333333
-34.443645833333335
-34.464609375
-34.47677083333333
-34.49028645833334
-34.500559895833334
-34.474947916666665
-34.33403645833334
-34.22481770833333
-34.2439453125
-34.308268229166664
-34.33970052083333
-34.362721354166666
-34.37609375
-34.397122395833335
-34.364231770833335
-34.36709635416667
-34.41313802083334
-34.444622395833335
-34.48225260416667
-34.4916015625
-34.51912760416667
-34.52703125
-34.56920572916667
-34.5858984375
-34.343411458333335
-34.42609375
-34.46803385416667
-34.521197916666665
-34.50967447916667
-34.5044921875
-34.534375
-34.56522135416667
-34.6021875
-34.62166666666667
-34.624401041666665
-34.644231770833336
-34.697578125
-34.53134114583333
-34.445338541666665
-34.481770833333336
-34.5832421875
-34.6271484375
-34.648359375
-34.62459635416667
-34.60520833333333
-34.61908854166666
-34.6378515625
-34.67876302083334
-34.693606770833334
-34.70130208333333
-34.7288671875
-34.74747395833333
-34.73001302083333
-34.57567708333333
-34.357578125
-34.423450520833335
-34.476861979166664
-34.50376302083333
-34.521809895833336
-34.53106770833333
-34.5259765625
-34.50963541666667
-34.506458333333335
-34.521328125
-34.54940104166667
-34.6073046875
-34.61411458333333
-34.63162760416667
-34.64013020833333
-34.657786458333334
-34.695611979166664
-34.690455729166665
-34.577786458333335
-34.419010416666666
-34.48481770833333
-34.5273828125
-34.55290364583333
-34.57036458333334
-34.58470052083333
-34.565625
-34.543880208333334
-34.53231770833333
-34.5530078125
-34.573177083333334
-34.591171875
-34.6
-34.59690104166667
-34.61475260416667
-34.622799479166666
-34.61615885416666
-34.61342447916667
-34.625859375
-34.624700520833336
-34.50630208333333
-34.359700520833336
-34.330716145833335
-34.37938802083333
-34.43055989583333
-34.4566015625
-34.470716145833336
-34.493841145833336
-34.4866015625
-34.4664453125
-34.45223958333333
-34.48024739583333
-34.499453125
-34.511744791666665
-34.52983072916667
-34.54799479166667
-34.5777734375
-34.593098958333336
-34.60502604166667
-34.59609375
-34.595703125
-34.61018229166667
-34.62201822916666
-34.49778645833333
-34.34548177083333
-34.3238671875
-34.38421875
-34.45791666666667
-34.487734375
-34.51549479166667
-34.51805989583333
-34.513658854166664
-34.491145833333334
-34.496731770833335
-34.52518229166667
-34.55221354166667
-34.571575520833335
-34.60102864583333
-34.61545572916667
-34.6245703125
-34.63102864583333
-34.65279947916667
-34.653997395833336
-34.658580729166665
-34.6720703125
-34.706692708333335
-34.6715625
-34.50204427083333
-34.370078125
-34.395182291666664
-34.460338541666665
-34.514322916666664
-34.53782552083333
-34.56889322916667
-34.58141927083334
-34.55561197916666
-34.536145833333336
-34.530703125
-34.55171875
-34.59427083333333
-34.61765625
-34.64765625
-34.65997395833333
-34.66986979166666
-34.6801953125
-34.686184895833335
-34.704440104166665
-34.718333333333334
-34.71569010416667
-34.6080078125
-34.47015625
-34.467838541666666
-34.53203125
-34.5923828125
-34.62744791666667
-34.65904947916667
-34.663385416666664
-34.64376302083333
-34.60876302083334
-34.62126302083333
-34.6398046875
-34.6605859375
-34.67625
-34.68430989583333
-34.69510416666667
-34.7139453125
-34.713216145833336
-34.71854166666667
-34.734622395833334
-34.73029947916667
-34.59526041666667
-34.4601953125
-34.436236979166665
-34.490559895833336
-34.55024739583333
-34.59135416666667
-34.62229166666667
-34.62415364583333
-34.61860677083333
-34.596875
-34.56526041666667
-34.5839453125
-34.612278645833335
-34.668359375
-34.678151041666666
-34.685221354166664
-34.7012109375
-34.71076822916667
-34.718046875
-34.727864583333336
-34.72838541666667
-34.6292578125
-34.44942708333333
-34.37671875
-34.427669270833334
-34.47553385416666
-34.499036458333336
-34.522578125
-34.53494791666667
-34.533671875
-34.506510416666664
-34.48716145833333
-34.4876171875
-34.51428385416666
-34.54506510416667
-34.55479166666667
-34.56466145833333
-34.59561197916667
-34.59877604166667
-34.601796875
-34.602604166666666
-34.61118489583333
-34.57688802083333
-34.40940104166667
-34.27223958333333
-34.28764322916667
-34.3408984375
-34.386731770833336
-34.42623697916667
-34.44647135416667
-34.4708984375
-34.449895833333336
-34.4324609375
-34.4501171875
-34.47938802083333
-34.4942578125
-34.518138020833334
-34.539375
-34.5605078125
-34.56430989583333
-34.58234375
-34.588229166666665
-34.6076953125
-34.62095052083333
-34.6229296875
-34.48481770833333
-34.32923177083333
-34.306315104166664
-34.4132421875
-34.45069010416667
-34.4969140625
-34.48854166666667
-34.47221354166667
-34.4716015625
-34.497669270833335
-34.537109375
-34.57315104166667
-34.59609375
-34.6228125
-34.617213541666665
-34.358671875
-34.4216015625
-34.48588541666667
-34.5155078125
-34.536692708333334
-34.52673177083334
-34.515872395833334
-34.55640625
-34.61276041666667
-34.652096354166666
-34.675533854166666
-34.68919270833333
-34.70911458333333
-34.580234375
-34.468411458333335
-34.597981770833336
-34.623463541666666
-34.66330729166667
-34.6455859375
-34.6203515625
-34.624296875
-34.623424479166665
-34.656953125
-34.6921484375
-34.70404947916666
-34.7134375
-34.71125
-34.7226953125
-34.7308203125
-34.660403645833334
-34.25276041666667
-34.135729166666664
-34.1909765625
-34.218723958333335
-34.2344921875
-34.251223958333334
-34.24428385416667
-34.24490885416667
-34.25807291666667
-34.28764322916667
-34.31928385416666
-34.333346354166665
-34.35919270833333
-34.3784375
-34.38294270833333
-34.393984375
-34.418385416666666
-34.4369140625
-34.36772135416667
-34.196328125
-34.115859375
-34.2128125
-34.238841145833334
-34.264661458333336
-34.284921875
-34.2956640625
-34.273020833333334
-34.325494791666664
-34.3527734375
-34.37677083333333
-34.392018229166666
-34.40326822916666
-34.4111328125
-34.4491796875
-34.465859375
-34.37048177083334
-34.1665625
-34.280598958333336
-34.32475260416667
-34.364544270833335
-34.369296875
-34.37114583333334
-34.37063802083333
-34.458255208333334
-34.498723958333336
-34.528255208333334
-34.55682291666667
-34.5879296875
-34.49462239583333
-34.32524739583334
-34.2505859375
-34.31106770833333
-34.36829427083333
-34.42768229166666
-34.44216145833333
-34.436536458333336
-34.43118489583333
-34.4399609375
-34.49140625
-34.53498697916667
-34.54194010416666
-34.547734375
-34.54709635416667
-34.57899739583333
-34.604244791666666
-34.599375
-34.46110677083333
-34.3141015625
-34.32376302083333
-34.38049479166666
-34.451197916666665
-34.49399739583333
-34.5473046875
-34.531315104166666
-34.51283854166667
-34.5115625
-34.5184375
-34.5621484375
-34.581354166666664
-34.60307291666667
-34.61755208333334
-34.61921875
-34.621770833333336
-34.6298046875
-34.63188802083334
-34.642877604166664
-34.53108072916667
-34.36869791666667
-34.33352864583333
-34.39791666666667
-34.458072916666666
-34.495703125
-34.5305859375
-34.54235677083334
-34.5221484375
-34.48859375
-34.47830729166667
-34.505
-34.524036458333335
-34.554622395833334
-34.57338541666667
-34.60235677083333
-34.6184765625
-34.615963541666666
-34.634127604166665
-34.6505859375
-34.62233072916667
-34.46489583333334
-34.309544270833335
-34.28014322916667
-34.34983072916667
-34.40412760416667
-34.44251302083333
-34.455703125
-34.4682421875
-34.450078125
-34.42614583333334
-34.421627604166666
-34.44614583333333
-34.46618489583334
-34.488255208333335
-34.50993489583333
-34.51798177083333
-34.5161328125
-34.5176953125
-34.536471354166665
-34.54537760416667
-34.522447916666664
-34.356015625
-34.189765625
-34.183619791666665
-34.2921875
-34.34313802083334
-34.35235677083333
-34.31102864583333
-34.33153645833333
-34.3379296875
-34.367578125
-34.392955729166665
-34.402408854166666
-34.44092447916667
-34.4478125
-34.45063802083333
-34.45609375
-34.470546875
-34.40450520833333
-34.19188802083333
-34.07442708333333
-34.09592447916667
-34.20076822916667
-34.20942708333333
-34.2301171875
-34.24200520833333
-34.21697916666667
-34.20889322916667
-34.21727864583333
-34.24440104166667
-34.2640625
-34.29328125
-34.31135416666667
-34.3229296875
-34.33779947916667
-34.33348958333333
-34.347057291666665
-34.36333333333334
-34.376653645833336
-34.35954427083333
-34.1705078125
-34.03098958333333
-34.11151041666667
-34.15923177083334
-34.1940234375
-34.207421875
-34.216484375
-34.18858072916667
-34.188723958333334
-34.24028645833334
-34.25598958333333
-34.274036458333335
-34.3209375
-34.31588541666667
-34.330807291666666
-34.37365885416666
-34.2946484375
-34.11755208333334
-34.068958333333335
-34.117578125
-34.17915364583333
-34.21864583333333
-34.236080729166666
-34.2340625
-34.19356770833333
-34.191432291666665
-34.20552083333333
-34.231119791666664
-34.256236979166665
-34.263033854166665
-34.27184895833334
-34.29127604166667
-34.291927083333334
-34.313151041666664
-34.33768229166667
-34.3301953125
-34.2103125
-34.0650390625
-34.027369791666665
-34.093072916666664
-34.16709635416667
-34.18856770833333
-34.20424479166667
-34.235065104166665
-34.22256510416667
-34.27453125
-34.215442708333335
-34.276302083333334
-34.357265625
-34.3771875
-34.3757421875
-34.40247395833333
-34.40416666666667
-34.424830729166665
-34.434921875
-34.443125
-34.44934895833333
-34.3517578125
-34.1785546875
-34.13041666666667
-34.19639322916667
-34.25532552083333
-34.2903515625
-34.309322916666666
-34.328151041666665
-34.3260546875
-34.3184765625
-34.30041666666666
-34.31970052083334
-34.358072916666664
-34.376041666666666
-34.399401041666664
-34.405703125
-34.4389453125
-34.445859375
-34.44114583333333
-34.446015625
-34.4785546875
-34.479869791666665
-34.350872395833335
-34.20520833333333
-34.177109375
-34.3120703125
-34.333736979166666
-34.340703125
-34.32307291666667
-34.297604166666666
-34.314453125
-34.334895833333334
-34.372669270833335
-34.37740885416667
-34.387356770833335
-34.412447916666665
-34.40763020833333
-34.43506510416667
-34.46139322916667
-34.4498828125
-34.3114453125
-34.20565104166667
-34.214453125
-34.2923046875
-34.35875
-34.39401041666667
-34.418671875
-34.439166666666665
-34.436184895833335
-34.413763020833336
-34.42572916666666
-34.446223958333334
-34.45502604166666
-34.4737890625
-34.48930989583334
-34.49897135416666
-34.491888020833336
-34.49388020833333
-34.4800390625
-34.47989583333333
-34.530950520833336
-34.57639322916667
-34.464518229166664
-34.289075520833336
-34.2552734375
-34.3053515625
-34.3186328125
-34.347994791666665
-34.38912760416667
-34.42377604166666
-34.43399739583333
-34.4208203125
-34.4387890625
-34.48842447916667
-34.5074609375
-34.544609375
-34.55942708333333
-34.58677083333333
-34.64705729166667
-34.676158854166665
-34.708671875
-34.75143229166667
-34.666041666666665
-34.5266796875
-34.2482421875
-33.96592447916667
-33.98255208333333
-34.050625
-34.2528125
-34.30063802083333
-34.340091145833334
-34.3496484375
-34.3325390625
-34.289049479166664
-34.269596354166666
-34.2835546875
-34.30421875
-34.33190104166667
-34.345729166666665
-34.353268229166666
-34.362552083333334
-34.3678515625
-34.363919270833335
-34.358997395833335
-34.33442708333333
-34.24209635416667
-34.0587890625
-33.98520833333333
-34.021901041666666
-34.0691015625
-34.120807291666665
-34.147083333333335
-34.156549479166664
-34.155546875
-34.10609375
-34.0763671875
-34.09899739583334
-34.1232421875
-34.148515625
-34.16854166666667
-34.1973828125
-34.21381510416666
-34.214244791666665
-34.2266015625
-34.236393229166666
-34.249713541666665
-34.22385416666667
-34.06358072916667
-33.910091145833334
-33.91220052083333
-33.98001302083333
-34.04647135416667
-34.07786458333333
-34.105794270833336
-34.124375
-34.10526041666667
-34.074518229166664
-34.063046875
-34.101861979166664
-34.125026041666665
-34.14763020833333
-34.1709765625
-34.1882421875
-34.1961328125
-34.19580729166667
-34.186236979166665
-34.19127604166667
-34.201822916666664
-34.18908854166666
-34.04244791666667
-33.863958333333336
-33.824518229166664
-33.87803385416667
-34.214427083333334
-34.38384114583334
-34.563541666666666
-34.5865234375
-34.566640625
-34.56204427083333
-34.53845052083334
-34.57786458333333
-34.6021484375
-34.636067708333336
-34.6560546875
-34.67006510416667
-34.693671875
-34.7266796875
-34.72696614583333
-34.733372395833335
-34.444973958333335
-34.466380208333334
-34.275455729166666
-34.09259114583333
-33.9808203125
-33.99391927083333
-34.047734375
-34.08873697916667
-34.135078125
-34.139453125
-34.15634114583333
-34.13209635416667
-34.1021875
-34.0998828125
-34.116197916666664
-34.13563802083333
-34.160794270833335
-34.174505208333336
-34.17765625
-34.19145833333334
-34.1930078125
-34.19201822916666
-34.19299479166666
-34.21662760416667
-34.2475
-34.216731770833334
-34.0466015625
-33.927057291666664
-33.9397265625
-34.013971354166664
-34.069322916666664
-34.09451822916667
-34.121822916666666
-34.12046875
-34.11709635416667
-34.11138020833334
-34.12341145833334
-34.16584635416667
-34.20169270833333
-34.232747395833336
-34.24619791666667
-34.27778645833333
-34.29868489583333
-34.291705729166665
-34.282903645833336
-34.26796875
-34.26186197916667
-34.214166666666664
-34.043294270833336
-33.8747265625
-33.85135416666667
-33.867526041666665
-33.99662760416667
-34.13618489583333
-34.29220052083333
-34.4420703125
-34.39350260416666
-34.378359375
-34.417669270833336
-34.476796875
-34.524140625
-34.567096354166665
-34.59424479166667
-34.622408854166665
-34.66734375
-34.69389322916667
-34.709375
-34.73545572916667
-34.607447916666665
-34.357109375
-34.0348046875
-33.8656640625
-34.07822916666667
-34.27430989583333
-34.46466145833333
-34.49747395833333
-34.48524739583333
-34.42102864583333
-34.35134114583333
-34.31848958333333
-34.32080729166667
-34.31040364583333
-34.303828125
-34.3033984375
-34.320247395833334
-34.3541015625
-34.37962239583333
-34.39533854166667
-34.40341145833333
-34.416341145833336
-34.40928385416667
-34.24515625
-34.12837239583333
-34.15145833333333
-34.218072916666664
-34.267877604166664
-34.302734375
-34.33311197916667
-34.341419270833335
-34.3426171875
-34.331119791666666
-34.353580729166666
-34.381510416666664
-34.45234375
-34.47048177083333
-34.493541666666665
-34.50119791666667
-34.5265625
-34.535221354166666
-34.2409375
-34.17516927083334
-34.28009114583333
-34.3424609375
-34.36901041666667
-34.3336328125
-34.3799609375
-34.410481770833336
-34.42813802083333
-34.46036458333333
-34.476002604166666
-34.48540364583334
-34.50408854166667
-34.52821614583333
-34.556888020833334
-34.50842447916666
-34.335703125
-34.23329427083333
-34.33287760416667
-34.387395833333336
-34.40727864583334
-34.424921875
-34.424739583333334
-34.404635416666665
-34.37513020833333
-34.3858203125
-34.40571614583333
-34.45979166666667
-34.49069010416667
-34.4898046875
-34.50755208333333
-34.507395833333334
-34.49796875
-34.5108984375
-34.508125
-34.51078125
-34.4484375
-34.2941796875
-34.224934895833336
-34.268229166666664
-34.34690104166667
-34.3815625
-34.38872395833334
-34.42361979166667
-34.41126302083333
-34.37309895833334
-34.34953125
-34.35572916666667
-34.35436197916667
-34.3774609375
-34.391640625
-34.3858203125
-34.396770833333335
-34.398723958333335
-34.4002734375
-34.377578125
-34.390690104166666
-34.3823046875
-34.30454427083333
-34.151302083333334
-34.1051171875
-34.161067708333334
-34.22803385416667
-34.320078125
-34.344140625
-34.33958333333333
-34.3280859375
-34.31759114583333
-34.36153645833333
-34.3927734375
-34.429765625
-34.4416796875
-34.436822916666664
-34.41428385416667
-34.1305078125
-34.18643229166667
-34.25421875
-34.29904947916667
-34.310859375
-34.265299479166664
-34.31854166666667
-34.37587239583333
-34.37608072916667
-34.4154296875
-34.425533854166666
-34.431315104166664
-34.40203125
-34.106328125
-34.10053385416666
-34.1683203125
-34.2203125
-34.241497395833335
-34.28071614583333
-34.2708203125
-34.2401171875
-34.23354166666667
-34.25602864583333
-34.28598958333333
-34.309153645833334
-34.316158854166666
-34.32704427083333
-34.344713541666664
-34.365963541666666
-34.371419270833336
-34.37125
-34.355169270833336
-34.235390625
-34.06334635416667
-34.03733072916667
-34.10205729166667
-34.14884114583333
-34.19388020833333
-34.2111328125
-34.22024739583333
-34.2247265625
-34.20631510416667
-34.1964453125
-34.21104166666667
-34.246080729166664
-34.25958333333333
-34.27890625
-34.29109375
-34.30578125
-34.313463541666664
-34.3103125
-34.3175390625
-34.34203125
-34.35795572916667
-34.285455729166664
-34.1202734375
-34.0511328125
-34.08247395833333
-34.162408854166664
-34.200572916666665
-34.215703125
-34.27815104166667
-34.270846354166665
-34.26119791666667
-34.31848958333333
-34.322265625
-34.354479166666664
-34.405690104166666
-34.42196614583333
-34.43240885416667
-34.46506510416667
-34.3454296875
-34.1845703125
-34.30850260416667
-34.360989583333335
-34.38037760416667
-34.37299479166666
-34.36713541666666
-34.409466145833335
-34.4370703125
-34.4719140625
-34.4901953125
-34.49821614583333
-34.53106770833333
-34.55067708333333
-34.47708333333333
-34.3252734375
-34.368190104166665
-34.434557291666664
-34.45033854166667
-34.484791666666666
-34.505390625
-34.44975260416667
-34.4551171875
-34.45790364583333
-34.4761328125
-34.5096484375
-34.530546875
-34.54860677083333
-34.55397135416667
-34.55483072916667
-34.562486979166664
-34.558671875
-34.571002604166665
-34.5072265625
-34.35688802083333
-34.30805989583333
-34.35954427083333
-34.4408203125
-34.513645833333335
-34.548541666666665
-34.5465234375
-34.53104166666667
-34.52421875
-34.55290364583333
-34.60372395833333
-34.622369791666664
-34.6190625
-34.62787760416666
-34.6440234375
-34.6495703125
