-26.497682291666667
-26.9073828125
-51.0773828125
-75.191640625
-74.61993489583334
-51.15580729166667
-50.439075520833335
-50.368177083333336
-50.10760416666667
-50.72477864583333
-50.735
-50.798815104166664
-50.8979296875
-50.924479166666664
-50.934765625
-50.9618359375
-51.0158203125
-51.120416666666664
-51.212825520833334
-51.287122395833336
-51.357395833333335
-51.416796875
-50.83873697916667
-50.978229166666665
-51.04634114583333
-51.07665364583333
-50.957981770833335
-50.79567708333333
-50.607109375
-50.5525390625
-50.56466145833333
-50.645481770833335
-50.730625
-50.785221354166666
-50.83126302083333
-50.8396484375
-50.82248697916667
-50.8098828125
-50.8458984375
-50.888515625
-50.9558203125
-51.032955729166666
-51.09201822916667
-51.1467578125
-51.2091796875
-51.25287760416666
-51.29158854166667
-50.773671875
-50.73813802083333
-50.48028645833333
-50.29567708333333
-50.242747395833334
-50.2819140625
-50.97177083333333
-51.05454427083333
-51.064479166666665
-50.97830729166667
-50.966197916666665
-50.98256510416667
-51.04411458333333
-51.1001953125
-51.1679296875
-51.227252604166665
-51.2763671875
-51.334583333333335
-51.35880208333333
-50.734401041666665
-50.8129296875
-50.89345052083333
-50.9123828125
-50.73881510416667
-50.53169270833333
-50.473671875
-50.5640234375
-50.6180859375
-50.705859375
-50.7624609375
-50.72173177083334
-50.671536458333335
-50.72225260416667
-50.74493489583333
-50.78875
-50.84130208333333
-50.9259375
-50.973072916666666
-51.00932291666667
-51.04611979166667
-51.08255208333333
-51.0492578125
-50.828854166666666
-50.6041796875
-50.513606770833334
-50.54962239583333
-50.611640625
-51.31459635416667
-51.36893229166667
-51.41104166666667
-49.36897135416667
-48.778515625
-48.88493489583333
-48.926796875
-48.98162760416667
-49.0906640625
-49.13677083333334
-49.15712239583333
-49.189778645833336
-49.1667578125
-48.89022135416667
-48.646901041666666
-48.54486979166666
-48.551796875
-49.271236979166666
-49.24063802083333
-49.29118489583333
-49.23744791666667
-49.27265625
-49.23223958333333
-49.21625
-49.24294270833333
-49.31388020833333
-49.3742578125
-49.4347265625
-49.48930989583334
-49.52805989583333
-49.58998697916667
-48.96466145833333
-49.0242578125
-48.8250390625
-48.53115885416667
-48.3253125
-48.2710546875
-48.9497265625
-48.945559895833334
-48.963619791666666
-48.984036458333335
-48.97408854166667
-48.901796875
-48.84515625
-48.86908854166666
-48.901393229166665
-48.9664453125
-49.04213541666667
-49.087552083333335
-49.1694921875
-49.189075520833335
-49.2054296875
-49.25536458333333
-49.2883984375
-49.19118489583333
-48.88903645833334
-48.6006640625
-48.48921875
-48.5084375
-48.56640625
-49.25451822916666
-49.22354166666667
-49.24893229166667
-49.2291015625
-49.27194010416667
-49.26930989583333
-49.3054296875
-49.372747395833336
-49.429986979166664
-49.48345052083334
-49.53576822916666
-49.574140625
-48.94140625
-49.013346354166664
-49.00966145833333
-49.0395703125
-49.0867578125
-48.7650390625
-48.41942708333333
-48.25078125
-48.2353125
-48.960390625
-48.9270703125
-48.9510546875
-48.983463541666666
-48.899765625
-48.842109375
-48.85984375
-48.877330729166665
-48.921497395833335
-48.97962239583333
-49.03983072916667
-49.104192708333336
-49.1712109375
-49.189453125
-49.20266927083333
-49.214869791666665
-49.265338541666665
-49.28998697916666
-49.31196614583333
-49.321640625
-49.084921875
-48.75915364583334
-48.5295703125
-48.5083984375
-48.571888020833335
-48.62540364583333
-48.685169270833335
-48.69671875
-48.70170572916667
-48.66779947916667
-48.6481640625
-48.69024739583333
-48.750286458333335
-48.839518229166664
-48.88748697916667
-48.94028645833333
-49.000703125
-49.07283854166667
-49.13979166666667
-49.16490885416667
-49.218463541666665
-49.24559895833333
-49.2801171875
-49.15088541666667
-48.79997395833333
-48.548984375
-48.47779947916667
-48.50546875
-48.5788671875
-49.26638020833333
-49.25145833333333
-49.248776041666666
-49.2326171875
-49.19609375
-49.323268229166665
-49.40774739583333
-49.47830729166667
-49.548763020833334
-49.068359375
-49.165638020833335
-49.210286458333336
-49.236627604166664
-49.2574609375
-49.3058984375
-49.3590625
-49.41140625
-49.3346875
-49.02209635416666
-48.75766927083333
-48.66255208333333
-48.7276953125
-48.79736979166667
-48.85423177083333
-48.917955729166664
-48.95205729166667
-48.908268229166666
-48.86803385416667
-48.895755208333334
-48.953424479166664
-49.025546875
-49.07888020833333
-49.142890625
-49.20203125
-49.22376302083333
-49.23713541666667
-49.25954427083333
-49.28856770833333
-49.3079296875
-49.30091145833333
-49.13662760416667
-48.88977864583333
-48.7531640625
-48.76186197916667
-48.8508984375
-48.9593359375
-49.0488671875
-49.0505859375
-49.03174479166667
-48.9802734375
-48.970104166666665
-48.99095052083333
-49.047122395833334
-49.1233203125
-49.199283854166666
-49.261067708333336
-49.30140625
-49.313815104166665
-49.357395833333335
-49.41744791666667
-49.43919270833333
-49.240520833333335
-48.938815104166665
-48.7755859375
-48.78325520833334
-48.861354166666665
-48.9395703125
-48.998463541666666
-49.04276041666667
-49.01223958333333
-48.92756510416667
-48.970078125
-49.0528515625
-49.136080729166665
-49.194401041666666
-49.23725260416666
-49.27795572916666
-49.32822916666667
-49.36415364583333
-49.3697265625
-49.31973958333333
-49.0615625
-48.77065104166667
-48.66903645833333
-48.7198046875
-48.78768229166667
-48.8268359375
-48.86971354166667
-48.90180989583333
-48.876888020833334
-48.822291666666665
-48.81484375
-48.875963541666664
-48.962903645833336
-49.028606770833335
-49.118815104166664
-49.155572916666664
-49.1940234375
-49.232083333333335
-49.263645833333335
-49.18305989583333
-48.63130208333333
-48.53563802083333
-48.63557291666667
-49.2971875
-49.29091145833333
-49.24716145833333
-49.23365885416667
-49.209661458333336
-49.236015625
-49.3071484375
-49.38234375
-49.415364583333336
-49.4773828125
-48.93899739583333
-49.0230859375
-49.0599609375
-49.1075
-49.2237890625
-49.289921875
-49.171861979166664
-48.858984375
-48.6462890625
-48.6162109375
-48.646901041666666
-48.682109375
-49.35145833333333
-49.341419270833335
-49.34240885416666
-49.334622395833335
-49.37061197916667
-49.40154947916667
-49.431627604166664
-49.488307291666665
-49.5555078125
-49.631549479166665
-49.052356770833335
-49.15466145833334
-49.186770833333334
-49.19953125
-49.2351171875
-49.295481770833334
-49.3451171875
-49.26766927083333
-49.011731770833336
-48.81095052083333
-48.75473958333333
-48.7824609375
-48.8537890625
-48.89609375
-48.92546875
-48.95911458333333
-48.9679296875
-48.96421875
-48.994388020833334
-49.04475260416667
-49.133502604166665
-49.1955859375
-49.2299609375
-49.285455729166664
-49.346341145833335
-49.3882421875
-49.420924479166665
-49.457630208333335
-49.496015625
-49.558619791666665
-48.8784765625
-48.69470052083334
-48.49692708333333
-48.45291666666667
-48.5315625
-49.2627734375
-49.216770833333335
-49.2474609375
-49.21587239583334
-49.17567708333333
-49.2117578125
-49.249375
-49.295651041666666
-49.348216145833334
-49.41752604166667
-49.47080729166667
-49.48473958333334
-49.53171875
-48.8680078125
-48.94588541666667
-48.980794270833336
-49.043671875
-49.11936197916667
-49.01026041666667
-48.77575520833334
-48.66205729166666
-48.663997395833334
-48.733828125
-48.79703125
-48.84588541666667
-48.86291666666666
-48.84490885416667
-48.807916666666664
-48.78356770833334
-48.8131640625
-48.888971354166664
-48.958346354166665
-49.0157421875
-49.04975260416666
-49.08213541666667
-49.109036458333335
-49.1398828125
-49.17388020833334
-49.208385416666665
-49.127265625
-48.88032552083333
-48.679609375
-48.6544921875
-48.701171875
-48.73477864583333
-49.431927083333335
-49.42778645833334
-49.436223958333336
-49.31973958333333
-49.2970703125
-49.3846484375
-49.42272135416667
-49.4723046875
-49.52520833333333
-49.57611979166666
-49.63817708333333
-49.01229166666667
-49.131796875
-49.174205729166665
-49.20587239583333
-48.9103125
-48.6365234375
-48.56872395833334
-48.60104166666667
-49.31259114583333
-49.280911458333335
-49.327890625
-49.35192708333334
-49.335911458333335
-49.3222265625
-49.310703125
-49.361328125
-49.438190104166665
-49.51419270833333
-49.550221354166666
-49.596953125
-49.01505208333333
-49.103671875
-49.13569010416666
-49.185247395833336
-49.22770833333333
-49.27915364583333
-49.3144140625
-49.150690104166664
-48.86141927083333
-48.68803385416667
-48.68890625
-48.77002604166667
-48.80264322916667
-48.85778645833334
-48.91369791666666
-48.8876171875
-48.85338541666667
-48.848216145833334
-48.879322916666666
-48.942135416666666
-49.001927083333335
-49.07545572916667
-49.145234375
-49.188828125
-49.23921875
-49.28701822916667
-49.318697916666665
-49.338541666666664
-49.391015625
-49.44220052083333
-49.31690104166667
-49.032903645833336
-48.868177083333336
-48.86631510416667
-48.97270833333334
-49.04891927083333
-49.090234375
-49.14524739583333
-49.12611979166667
-49.0662109375
-49.05416666666667
-49.088854166666664
-49.12673177083333
-49.1828515625
-49.26838541666667
-49.32540364583333
-49.384609375
-49.460924479166664
-49.48548177083333
-49.51875
-49.45809895833333
-49.19967447916667
-48.2804296875
-48.2552734375
-48.31067708333333
-49.03493489583333
-49.02819010416667
-49.11346354166667
-49.1216796875
-49.015924479166664
-48.96692708333333
-49.0105078125
-49.048177083333336
-49.151171875
-49.2126171875
-49.274765625
-49.336484375
-49.3819140625
-49.4218359375
-49.46178385416667
-49.495234375
-49.418828125
-49.15815104166666
-48.864453125
-48.750325520833336
-48.771471354166664
-48.826328125
-48.89036458333333
-48.94643229166667
-48.97079427083333
-48.9033203125
-48.852239583333336
-48.854778645833335
-48.952473958333336
-49.02325520833333
-48.85428385416667
-48.9133984375
-48.963489583333335
-47.812526041666665
-47.86287760416667
-47.8988671875
-47.87583333333333
-47.60075520833333
-47.284908854166666
-47.13259114583333
-47.1612890625
-47.89473958333333
-47.87998697916667
-47.88975260416667
-47.9191015625
-48.1920703125
-48.1609375
-48.144557291666665
-48.197552083333335
-48.2805078125
-48.3229296875
-48.369778645833335
-48.40270833333334
-48.4120703125
-48.472421875
-48.521822916666665
-48.561536458333336
-47.934453125
-47.874713541666665
-47.556966145833336
-47.3584375
-47.3116796875
-48.02890625
-47.9879296875
-48.0184375
-48.0508984375
-48.0718359375
-48.045247395833336
-48.0197265625
-48.036796875
-48.096705729166665
-48.15119791666667
-48.20328125
-48.248723958333336
-48.30123697916667
-48.34071614583333
-48.36475260416667
-48.371471354166665
-48.41846354166667
-48.4866015625
-48.444361979166665
-48.14688802083333
-47.222096354166666
-47.2180078125
-47.22337239583333
-47.91552083333333
-47.88266927083333
-47.93858072916667
-47.94938802083333
-47.91752604166667
-47.87588541666667
-47.89561197916667
-47.94640625
-47.996158854166666
-48.117122395833334
-48.1642578125
-48.19544270833333
-48.24395833333333
-48.252369791666666
-48.250546875
-48.309947916666665
-48.35825520833333
-48.23390625
-47.97799479166667
-47.79141927083333
-47.774127604166665
-47.830390625
-47.86776041666667
-47.91904947916667
-47.93346354166667
-47.921848958333335
-47.8794140625
-47.88265625
-47.8928515625
-47.93145833333333
-47.973125
-48.081640625
-48.11834635416667
-48.224856770833334
-48.24139322916667
-48.26877604166667
-48.26575520833333
-47.82653645833334
-47.72548177083333
-47.79151041666667
-47.84783854166667
-47.8811328125
-47.9158984375
-47.9241015625
-47.8953125
-47.84796875
-47.84037760416667
-47.9012109375
-47.9843359375
-48.036953125
-48.054440104166666
-48.099856770833334
-48.16748697916667
-48.21108072916667
-48.213190104166664
-48.21569010416667
-48.05587239583333
-47.773828125
-47.62157552083333
-47.612369791666666
-47.69352864583333
-47.73859375
-47.7837890625
-47.804296875
-47.772526041666666
-47.73118489583333
-47.71111979166667
-47.768854166666664
-47.849583333333335
-47.90731770833333
-47.99561197916667
-48.01940104166667
-48.03639322916667
-48.0798046875
-48.00826822916667
-47.7
-47.455104166666665
-47.38298177083333
-47.428723958333336
-48.10856770833333
-48.289661458333335
-48.34330729166667
-48.3545703125
-48.325859375
-48.2849609375
-48.28884114583333
-48.3278515625
-48.167981770833336
-48.2623828125
-48.32506510416667
-48.323841145833335
-48.43483072916667
-45.9603125
-46.084986979166665
-46.1204296875
-46.13130208333333
-45.9438671875
-45.62854166666666
-45.18638020833333
-45.5346875
-44.000859375
-44.099921875
-44.151171875
-44.138645833333335
-43.90048177083333
-43.91442708333334
-43.951875
-44.01446614583333
-44.068606770833334
-44.114010416666666
-44.1661328125
-44.217734375
-44.2686328125
-44.2581640625
-44.31911458333333
-44.358072916666664
-44.40794270833333
-44.332265625
-44.04212239583333
-43.820390625
-43.76783854166667
-43.81578125
-43.84401041666667
-43.89071614583333
-43.947864583333335
-43.946223958333334
-43.9323046875
-43.944401041666666
-43.965143229166664
-44.024036458333335
-44.156171875
-44.238606770833336
-44.29825520833333
-44.33311197916667
-44.3676953125
-44.40026041666667
-44.42493489583333
-44.46885416666667
-44.538424479166665
-44.47256510416667
-44.181927083333335
-43.41006510416667
-43.42723958333333
-43.50895833333333
-44.1545703125
-44.1041015625
-44.1462109375
-44.1579296875
-44.14247395833333
-44.1201171875
-44.1451171875
-44.2113671875
-44.281171875
-44.331484375
-44.3833984375
-44.428697916666664
-44.48127604166667
-44.515299479166664
-44.5296875
-44.063059895833334
-43.64458333333334
-43.45489583333333
-43.02419270833333
-43.040065104166665
-43.6740625
-43.6562890625
-43.70009114583333
-43.74875
-43.751653645833336
-43.68333333333333
-43.655390625
-43.703203125
-43.769765625
-43.83609375
-43.896171875
-43.95397135416667
-44.0101171875
-44.056979166666665
-43.522265625
-43.61936197916667
-43.621380208333335
-43.4777734375
-43.1903125
-43.05880208333333
-43.0684765625
-43.68647135416666
-44.20055989583334
-44.296875
-44.333203125
-44.297578125
-44.24578125
-44.22177083333333
-44.25088541666667
-44.31440104166666
-44.38192708333333
-44.42756510416667
-44.50283854166667
-44.55838541666667
-44.5962890625
-44.635143229166665
-44.09102864583333
-43.55505208333334
-43.21895833333333
-42.981822916666665
-42.932734375
-43.539088541666665
-43.485338541666664
-43.543515625
-43.60984375
-43.6277734375
-43.593515625
-43.555
-43.57013020833333
-43.63393229166667
-43.69680989583333
-43.756809895833335
-43.80455729166667
-43.8713671875
-43.9267578125
-43.959713541666666
-43.9847265625
-43.99069010416667
-42.99947916666667
-42.83774739583333
-42.839283854166666
-43.4359375
-43.937786458333335
-44.067682291666664
-44.07859375
-44.0465625
-44.02395833333333
-44.02059895833333
-44.04608072916667
-44.09716145833333
-44.162044270833334
-44.252369791666666
-44.29895833333333
-44.328815104166665
-44.36373697916667
-44.415677083333335
-44.44372395833334
-44.45436197916667
-44.4123828125
-44.169635416666665
-43.8696484375
-43.753580729166664
-43.8033984375
-43.875677083333336
-43.931315104166664
-43.97046875
-43.99623697916667
-43.96897135416667
-43.94033854166667
-43.963854166666664
-44.00364583333333
-44.0640625
-44.14731770833333
-44.196666666666665
-44.24069010416667
-44.28532552083333
-44.3443359375
-44.342447916666664
-44.38467447916667
-44.389088541666666
-44.13490885416667
-43.8255859375
-43.787135416666665
-43.8475390625
-43.90868489583333
-43.99141927083333
-44.00497395833333
-43.978138020833335
-43.9375390625
-43.9859375
-44.0171484375
-44.08384114583333
-44.17640625
-44.243138020833335
-44.29546875
-44.321953125
-44.3382421875
-44.371119791666665
-44.400625
-44.44962239583333
-44.455
-44.23205729166666
-43.92854166666667
-43.80109375
-43.92524739583333
-43.98815104166667
-44.08126302083333
-44.08891927083334
-44.02852864583333
-43.991549479166665
-43.992513020833336
-44.029856770833334
-44.11270833333333
-44.18869791666667
-44.26092447916667
-44.3031640625
-44.364283854166665
-44.393828125
-44.41359375
-44.45520833333333
-44.44251302083333
-44.17876302083334
-43.90704427083333
-43.83061197916667
-43.89432291666667
-43.970052083333336
-44.06756510416667
-44.133046875
-44.12713541666667
-44.0759765625
-44.040729166666665
-44.0403125
-44.10658854166667
-44.190091145833335
-44.2498828125
-44.331067708333336
-44.3909765625
-44.420260416666665
-44.461953125
-44.501953125
-44.46057291666666
-44.19450520833333
-43.89221354166666
-43.7905078125
-43.842135416666665
-43.93403645833333
-44.01381510416667
-44.084622395833335
-44.093098958333336
-44.04024739583333
-44.0026171875
-44.02162760416667
-44.093515625
-44.148736979166664
-44.23384114583333
-44.28634114583333
-44.34061197916667
-44.38552083333333
-44.42391927083333
-44.4618359375
-44.37350260416667
-44.03115885416667
-43.736484375
-43.67115885416667
-43.740703125
-43.7973046875
-44.408515625
-44.379231770833336
-44.39634114583333
-44.35311197916667
-44.317408854166665
-43.77872395833333
-43.380611979166666
-43.428958333333334
-43.50834635416667
-43.55779947916667
-43.60625
-43.650455729166666
-43.65147135416667
-43.69783854166667
-43.68932291666667
-43.42768229166666
-43.0797265625
-42.91915364583333
-42.957096354166666
-43.592213541666666
-44.086666666666666
-44.13635416666666
-44.18899739583333
-44.16486979166667
-44.13388020833333
-44.15645833333333
-44.23233072916667
-44.26989583333334
-44.3144921875
-44.412578125
-44.4899609375
-44.522708333333334
-43.99014322916667
-43.56684895833333
-43.552747395833336
-43.5995703125
-43.636484375
-43.56885416666667
-43.26671875
-42.93502604166667
-42.8921875
-43.46470052083333
-43.38326822916667
-43.4499609375
-43.49102864583333
-43.48225260416667
-43.46075520833333
-43.49791666666667
-43.58220052083333
-43.64147135416667
-43.720390625
-43.787122395833336
-43.830455729166665
-43.89026041666666
-43.901796875
-43.40796875
-43.5300390625
-43.587161458333334
-43.6204296875
-43.66850260416667
-43.66552083333333
-43.4246484375
-43.119557291666666
-43.04545572916667
-43.098294270833335
-43.70548177083333
-44.210208333333334
-44.285234375
-44.30057291666667
-44.290234375
-44.3051171875
-44.3673046875
-44.46506510416667
-44.53268229166667
-44.578125
-44.086666666666666
-43.69255208333333
-43.69876302083333
-43.73486979166667
-43.773828125
-43.82768229166667
-43.87415364583333
-43.8962109375
-43.962825520833334
-43.8882421875
-43.590885416666666
-42.859036458333335
-42.90486979166667
-42.993541666666665
-43.60475260416667
-44.09282552083334
-44.15415364583333
-44.185885416666665
-44.15989583333333
-44.1324609375
-44.165950520833334
-44.25368489583333
-44.33122395833333
-44.3954296875
-44.44833333333333
-44.51803385416667
-44.56462239583333
-44.58630208333334
-44.58598958333334
-44.075625
-43.69509114583333
-43.618841145833336
-43.37845052083333
-43.1490234375
-43.1006640625
-43.158854166666664
-43.74645833333334
-43.735104166666666
-43.80802083333333
-43.79475260416667
-43.742747395833334
-43.721171875
-43.731953125
-43.78692708333333
-43.876171875
-43.9284375
-43.972005208333336
-44.043828125
-44.072916666666664
-43.57731770833333
-43.68477864583333
-43.7185546875
-43.71954427083333
-43.51403645833334
-43.227161458333335
-43.08744791666667
-43.1134765625
-43.7205859375
-44.20713541666667
-44.27774739583333
-44.3235546875
-44.311953125
-44.23415364583333
-44.20291666666667
-44.260390625
-44.322239583333335
-44.3740234375
-44.416575520833334
-44.473697916666666
-44.525638020833334
-44.56756510416667
-44.59365885416667
-44.611484375
-44.0987890625
-43.630546875
-43.31712239583333
-42.9785546875
-42.864934895833336
-42.88944010416667
-43.44731770833334
-43.41416666666667
-43.477916666666665
-43.48942708333333
-43.485416666666666
-43.45518229166667
-43.490625
-43.51557291666666
-43.58907552083333
-43.663984375
-43.72709635416667
-43.78819010416667
-43.831484375
-43.86536458333333
-43.9246484375
-43.9896875
-43.857356770833334
-43.017330729166666
-42.86891927083333
-42.842135416666665
-43.4380078125
-43.4309765625
-43.47696614583333
-43.508763020833335
-43.502239583333335
-43.468333333333334
-43.475390625
-43.50243489583333
-43.54768229166667
-43.60598958333333
-43.683671875
-43.742864583333336
-43.798046875
-43.8230859375
-43.86934895833333
-43.9109375
-43.930390625
-43.96600260416667
-44.006158854166664
-43.951953125
-43.1215234375
-43.40376302083333
-44.0258984375
-44.06095052083333
-44.092122395833336
-44.1373828125
-44.11696614583333
-44.07
-44.0984765625
-44.170338541666666
-44.240260416666665
-44.26611979166667
-44.349583333333335
-44.41096354166667
-44.44216145833333
-44.46545572916666
-44.492174479166664
-44.52361979166667
-44.5694921875
-44.49578125
-44.1858203125
-43.40686197916666
-42.941953125
-42.976875
-43.58484375
-43.5620703125
-43.612317708333336
-43.60752604166667
-43.55979166666667
-43.519244791666665
-43.54407552083333
-43.69772135416667
-43.757825520833336
-43.80842447916667
-43.859388020833336
-43.90186197916667
-43.926783854166665
-43.94032552083333
-43.98041666666666
-43.79239583333333
-42.94927083333334
-42.8383203125
-42.85901041666666
-43.500559895833334
-43.482760416666665
-43.540703125
-43.574466145833334
-43.56141927083333
-43.50674479166667
-43.482356770833334
-43.518802083333334
-43.586953125
-43.63358072916667
-43.70817708333333
-43.7645703125
-43.77950520833333
-43.81147135416666
-43.83989583333334
-43.84375
-43.753177083333334
-43.4508984375
-43.14959635416667
-43.06626302083333
-43.11311197916667
-43.194635416666664
-43.77063802083333
-43.783125
-43.75208333333333
-43.7185546875
-43.7115625
-43.76088541666667
-43.839192708333336
-43.8971484375
-43.96572916666667
-43.46139322916667
-43.56848958333333
-43.59432291666667
-43.623020833333335
-43.66912760416667
-43.651080729166665
-43.39139322916667
-43.064140625
-42.9063671875
-42.9228125
-43.557643229166665
-44.05122395833333
-44.11708333333333
-44.151744791666665
-44.15501302083333
-44.11696614583333
-44.12479166666667
-44.1749609375
-44.26907552083333
-44.339544270833336
-44.4051171875
-44.5006640625
-43.986614583333335
-43.559986979166666
-43.57735677083333
-43.63759114583333
-43.59131510416667
-43.2955859375
-43.0080859375
-42.92231770833333
-42.988567708333335
-43.61014322916667
-43.55157552083333
-43.592526041666666
-43.62967447916667
-43.62109375
-43.60140625
-43.606692708333334
-43.653359375
-43.719401041666664
-43.788333333333334
-43.824505208333335
-43.88845052083333
-43.949557291666665
-43.447552083333335
-44.095143229166666
-44.1590625
-44.200872395833336
-44.18549479166666
-43.94979166666667
-43.688125
-43.626927083333335
-43.6739453125
-44.28701822916667
-43.7038671875
-43.741536458333336
-43.7726171875
-43.72953125
-43.698619791666665
-43.72744791666667
-43.811901041666665
-43.931875
-43.446328125
-43.56311197916666
-43.5819140625
-43.61595052083333
-43.64768229166667
-43.6911328125
-43.69352864583333
-43.489296875
-43.2077734375
-43.124401041666665
-43.18110677083333
-43.25536458333333
-43.311549479166665
-43.3941015625
-43.420872395833335
-43.367252604166666
-43.3305078125
-43.41321614583333
-43.4953515625
-43.542903645833334
-43.60731770833333
-43.660755208333335
-43.68209635416667
-43.70631510416667
-43.721979166666664
-43.78705729166666
-43.71962239583333
-43.4242578125
-43.182317708333336
-43.158802083333335
-43.22953125
-43.2605859375
-43.31942708333333
-43.3882421875
-43.4051171875
-43.3368359375
-43.28108072916667
-43.34158854166667
-43.43244791666667
-43.48920572916666
-43.5448046875
-43.6107421875
-43.666575520833334
-43.686197916666664
-43.6916796875
-43.73416666666667
-43.7915625
-43.75924479166667
-43.51567708333334
-43.220286458333334
-43.11473958333333
-43.144921875
-43.20553385416667
-43.8173046875
-44.32080729166667
-44.379557291666664
-44.377252604166664
-44.351536458333335
-44.384765625
-44.520221354166665
-44.074817708333335
-43.6675390625
-43.67298177083333
-43.70790364583333
-43.73484375
-43.76770833333333
-43.80747395833333
-43.79151041666667
-43.526302083333334
-43.2417578125
-43.126354166666665
-43.158359375
-43.2237109375
-43.81295572916667
-44.33055989583333
-44.376223958333334
-44.35981770833333
-44.375013020833336
-44.38263020833333
-44.42520833333333
-44.504583333333336
-44.068203125
-43.66192708333333
-43.67071614583333
-43.7458203125
-43.7913671875
-43.86114583333333
-43.8741015625
-43.6567578125
-43.3169921875
-43.171184895833335
-43.181002604166665
-43.25053385416667
-43.291705729166665
-43.3673828125
-43.421197916666664
-43.4161328125
-43.397747395833335
-43.398046875
-43.434921875
-43.53462239583333
-43.560859375
-43.6191796875
-43.6955078125
-43.7427734375
-43.76243489583333
-43.79959635416667
-43.8394921875
-43.86897135416667
-43.892291666666665
-43.963190104166664
-43.93873697916667
-43.6539453125
-42.82958333333333
-42.789348958333335
-42.85109375
-43.4766015625
-43.43803385416667
-43.49063802083333
-43.4931640625
-43.472005208333336
-43.441653645833334
-43.488307291666665
-43.56484375
-43.65317708333333
-43.722942708333335
-43.8251171875
-43.84453125
-43.86141927083333
-43.90328125
-43.93216145833333
-43.9680078125
-43.8705078125
-43.573984375
-42.84259114583333
-42.89244791666667
-42.97377604166667
-43.58239583333334
-43.5375390625
-43.587864583333335
-43.58328125
-43.50727864583333
-43.49622395833333
-43.5363671875
-43.651028645833335
-43.70765625
-43.781184895833334
-43.839296875
-43.8796484375
-43.90763020833333
-43.99125
-43.9076953125
-43.0816796875
-42.924466145833335
-42.91708333333333
-43.52942708333333
-44.03453125
-44.136471354166666
-44.201510416666665
-44.21240885416667
-44.159375
-44.107486979166666
-44.10330729166667
-44.162734375
-44.201158854166664
-44.2741796875
-44.336875
-44.3811328125
-44.41446614583333
-44.4350390625
-44.459947916666664
-44.47506510416667
-44.33546875
-43.98303385416666
-43.761484375
-43.74520833333333
-43.827135416666664
-43.892994791666666
-44.50134114583334
-44.44680989583333
-44.463307291666666
-44.41899739583334
-43.8444140625
-43.453059895833334
-43.519205729166664
-43.601640625
-43.62658854166666
-43.67947916666667
-43.70528645833333
-43.698515625
-43.70484375
-43.650416666666665
-43.33125
-43.016953125
-42.929375
-43.01438802083333
-43.63690104166667
-44.0936328125
-44.166263020833334
-44.198880208333335
-44.16036458333333
-44.1271875
-44.1174609375
-44.123125
-44.19708333333333
-44.26515625
-44.323828125
-44.381875
-44.41717447916667
-44.485065104166665
-44.52192708333333
-44.55186197916667
-44.05708333333333
-43.542369791666665
-43.17528645833333
-42.87829427083334
-42.8163671875
-42.898502604166666
-43.50479166666667
-43.454348958333334
-43.4995703125
-43.5032421875
-43.48859375
-43.456080729166665
-43.4753515625
-43.561484375
-43.6209375
-43.6875390625
-43.726640625
-43.797877604166665
-43.8574609375
-43.86755208333334
-43.88546875
-43.3915625
-43.512630208333334
-43.528385416666666
-43.34641927083333
-42.96924479166667
-42.7666015625
-42.79138020833334
-43.421184895833335
-43.37927083333334
-43.46119791666667
-43.500338541666665
-43.46180989583333
-43.41127604166667
-43.37420572916667
-43.41463541666667
-43.47673177083333
-43.5535546875
-43.60325520833333
-43.653125
-43.70640625
-43.73520833333333
-43.748059895833336
-43.76184895833333
-43.811236979166665
-43.72302083333334
-43.40239583333334
-43.1402734375
-43.11608072916667
-43.21438802083333
-43.2838671875
-43.353489583333335
-43.431041666666665
-43.435
-43.3591796875
-43.31716145833333
-43.34986979166667
-43.424244791666666
-43.475520833333334
-43.5455078125
-43.66483072916667
-43.678828125
-43.68442708333333
-43.74110677083333
-43.625638020833335
-43.27298177083333
-43.000338541666665
-42.94640625
-43.013958333333335
-43.6665234375
-44.17696614583333
-44.2413671875
-44.23485677083333
-44.17947916666667
-44.149375
-44.20203125
-44.27889322916667
-44.3128515625
-44.37510416666667
-44.44421875
-43.934322916666666
-44.038098958333336
-44.06815104166667
-44.09298177083333
-44.137278645833334
-44.126171875
-43.8887890625
-43.515924479166664
-43.31694010416667
-43.339830729166664
-44.012109375
-43.95462239583333
-44.018177083333335
-44.06454427083333
-44.07533854166667
-44.02942708333333
-44.022421875
-44.079830729166666
-44.17795572916667
-44.317044270833335
-44.375989583333336
-44.40313802083333
-43.855533854166666
-43.4124609375
-43.40673177083333
-43.46625
-43.51037760416666
-43.31356770833333
-42.92200520833333
-42.701328125
-42.7386328125
-43.39436197916667
-43.8968359375
-43.9903125
-44.05841145833333
-44.04319010416667
-43.9935546875
-43.993046875
-44.04860677083333
-44.12841145833333
-44.205065104166664
-44.26962239583333
-44.404947916666664
-44.42497395833333
-43.97438802083333
-44.02813802083333
-44.03071614583333
-43.8049609375
-43.45591145833333
-43.2849609375
-43.3548046875
-44.029934895833335
-44.01069010416666
-44.08348958333333
-44.11984375
-44.07856770833333
-44.007513020833336
-44.01083333333333
-44.05684895833333
-44.1548828125
-44.22106770833334
-44.286783854166664
-44.333606770833335
-44.401393229166665
-43.86440104166667
-43.952825520833336
-43.99506510416666
-43.972005208333336
-43.66899739583334
-43.34260416666667
-43.251484375
-43.34640625
-44.020481770833335
-44.00346354166667
-44.08973958333333
-44.09348958333333
-44.047434895833334
-43.9906640625
-44.005533854166664
-44.0856640625
-44.158802083333335
-44.212473958333334
-44.29265625
-44.3463671875
-44.382838541666665
-43.856953125
-43.95388020833333
-44.005234375
-43.95640625
-43.62658854166666
-43.2824609375
-43.197421875
-43.287265625
-43.94686197916667
-43.898463541666665
-43.97412760416667
-44.00087239583333
-43.9686328125
-43.941471354166666
-43.966458333333335
-44.033177083333335
-44.12805989583333
-44.194661458333336
-44.27662760416667
-44.33483072916667
-44.37904947916667
-44.426458333333336
-43.882252604166666
-43.445325520833336
-43.37416666666667
-43.034453125
-42.766940104166665
-42.8242578125
-43.4837109375
-43.97608072916667
-44.068111979166666
-44.06912760416667
-44.04518229166667
-44.043346354166665
-44.068997395833335
-44.13845052083333
-44.21342447916667
-44.28765625
-44.3665234375
-44.4124609375
-43.88533854166667
-43.98587239583333
-44.01553385416667
-44.054049479166665
-44.104869791666665
-44.171145833333334
-44.1051171875
-43.77446614583334
-43.4853515625
-43.43204427083333
-43.534192708333336
-44.19677083333333
-44.19126302083333
-44.237643229166665
-44.221484375
-44.2010546875
-44.17684895833333
-44.194583333333334
-44.26375
-44.346705729166665
-44.42235677083333
-44.484375
-43.969075520833336
-44.11700520833333
-44.133502604166665
-44.1549609375
-44.19807291666667
-44.2019140625
-43.907565104166665
-43.614635416666665
-43.5384375
-43.62877604166667
-43.7063671875
-44.34938802083333
-44.34783854166667
-44.3794140625
-44.32796875
-43.25302083333333
-43.293619791666664
-43.38404947916667
-43.45290364583333
-43.51584635416667
-43.5719921875
-43.621822916666666
-43.636328125
-43.6656640625
-43.75079427083333
-43.58708333333333
-43.241940104166666
-43.0153515625
-43.0638671875
-43.134739583333335
-43.77584635416667
-44.282916666666665
-44.299791666666664
-43.678359375
-43.7158203125
-43.733385416666664
-43.826236979166666
-43.910091145833334
-43.92388020833334
-43.9787109375
-44.06059895833334
-44.09216145833334
-44.08837239583333
-44.118138020833335
-44.18350260416667
-44.213138020833334
-44.133372395833334
-43.8180078125
-43.52911458333333
-43.41334635416667
-43.4843359375
-44.158528645833336
-44.08901041666667
-44.13774739583334
-43.8506640625
-44.09391927083333
-44.09127604166667
-44.11009114583333
-44.17963541666666
-44.257174479166665
-44.33455729166667
-44.3915625
-44.4433984375
-43.910234375
-43.486328125
-43.517252604166664
-43.54319010416667
-43.59
-43.559986979166666
-43.24421875
-42.91303385416666
-42.8412109375
-42.948528645833335
-43.5766015625
-44.03798177083333
-44.133450520833335
-44.19798177083333
-44.16904947916667
-44.13578125
-44.18661458333333
-44.31390625
-44.37658854166666
-44.445
-43.94997395833333
-44.09317708333333
-44.11701822916667
-44.16432291666667
-44.20528645833333
-44.25114583333333
-44.3036328125
-44.230846354166665
-43.938059895833334
-43.68700520833333
-43.68856770833333
-43.776028645833335
-43.856953125
-43.91028645833333
-43.972278645833335
-43.952526041666665
-43.88399739583333
-43.85018229166667
-43.909375
-43.97389322916667
-44.0387890625
-44.0896484375
-44.153515625
-44.22412760416667
-44.2405078125
-44.27227864583333
-44.30286458333333
-44.345677083333335
-44.19162760416667
-43.846979166666664
-43.651796875
-43.66615885416667
-43.74161458333333
-43.79153645833333
-43.850260416666664
-43.90772135416667
-43.9067578125
-43.85609375
-43.849049479166666
-43.903033854166665
-43.9593359375
-44.014453125
-44.11088541666667
-44.16029947916667
-44.21858072916667
-44.25859375
-44.29256510416667
-44.3054296875
-44.30057291666667
-44.053645833333334
-43.7098828125
-43.546796875
-43.586236979166664
-43.6380859375
-44.24104166666667
-44.196705729166666
-44.218059895833335
-44.2104296875
-44.19481770833333
-44.2222265625
-44.2699609375
-44.3228125
-44.395494791666664
-44.465143229166664
-43.94665364583334
-44.04731770833333
-44.07139322916667
-44.095234375
-44.11235677083334
-44.16296875
-44.20881510416667
-43.734348958333335
-43.468684895833334
-43.490533854166664
-44.129231770833336
-44.07661458333333
-44.123346354166664
-44.1187109375
-44.08727864583334
-44.071979166666665
-44.103984375
-44.15903645833333
-44.21018229166667
-44.28791666666667
-44.32751302083334
-44.346341145833335
-44.389140625
-43.879466145833334
-43.98286458333333
-43.99963541666666
-44.02618489583333
-44.10703125
-44.122317708333334
-43.90522135416666
-43.5576953125
-43.396419270833334
-43.4331640625
-44.07958333333333
-44.05805989583333
-44.1287109375
-44.15779947916667
-44.12016927083334
-44.07139322916667
-44.0955859375
-44.162421875
-44.20959635416666
-44.2916796875
-44.40473958333333
-44.455325520833334
-43.910533854166665
-43.442135416666666
-43.450872395833336
-43.50697916666667
-43.514622395833335
-43.333606770833335
-42.99161458333333
-42.85721354166667
-42.906575520833336
-43.56325520833333
-44.090130208333335
-44.187252604166666
-44.21342447916667
-44.18899739583333
-44.15177083333333
-44.158190104166664
-44.217421875
-44.276966145833335
-44.343190104166666
-44.41548177083333
-44.4733203125
-43.91619791666667
-43.978268229166666
-43.961640625
-44.00375
-44.07772135416667
-43.784505208333336
-43.48778645833333
-43.3809375
-43.4212890625
-44.058033854166666
-43.489375
-43.5030078125
-43.553020833333335
-43.51233072916666
-43.468359375
-43.4646484375
-43.52615885416667
-43.58740885416667
-43.61569010416667
-43.683828125
-43.71951822916667
-43.75061197916666
-43.785859375
-43.26287760416667
-43.38270833333333
-43.41930989583334
-43.46798177083333
-43.3087890625
-42.959544270833334
-42.76735677083333
-42.77272135416667
-43.43510416666667
-43.9444140625
-44.0099609375
-44.06098958333333
-44.07075520833333
-44.013684895833336
-43.992200520833336
-44.05846354166667
-44.1487890625
-44.23677083333333
-44.29606770833333
-44.346979166666664
-44.38791666666667
-44.41216145833334
-43.88415364583334
-43.99213541666666
-44.01602864583333
-44.06489583333333
-44.00248697916667
-43.380078125
-43.30450520833333
-43.40358072916667
-44.061861979166665
-43.466106770833335
-43.49973958333333
-43.51345052083333
-43.467421875
-43.4429296875
-43.4326171875
-43.48837239583333
-43.56140625
-43.63391927083333
-43.6996875
-43.749986979166664
-43.8082421875
-43.82173177083333
-43.3021484375
-43.44092447916667
-43.480716145833334
-43.27796875
-42.9162890625
-42.749934895833334
-42.7928125
-43.472994791666665
-44.00375
-44.123033854166664
-44.1741796875
-44.1385546875
-44.10200520833333
-44.086575520833335
-44.1270703125
-44.19212239583333
-44.2840234375
-44.34986979166667
-44.393177083333335
-44.44234375
-43.9112890625
-44.015
-44.076796875
-44.07231770833334
-43.828815104166665
-43.482005208333334
-43.3469921875
-43.38975260416667
-44.0457421875
-44.0178125
-44.09641927083333
-44.13690104166667
-44.06485677083333
-44.0205078125
-44.02791666666667
-44.08078125
-44.1690625
-44.238606770833336
-44.32171875
-44.37579427083333
-44.40944010416667
-43.89178385416667
-43.46114583333333
-43.4273046875
-43.4325390625
-43.27227864583333
-42.894283854166666
-42.67045572916667
-42.684296875
-43.334049479166666
-43.84397135416667
-43.91779947916667
-43.95723958333333
-43.96470052083333
-43.91420572916667
-43.90279947916667
-43.94739583333333
-44.034192708333336
-44.10266927083333
-44.172473958333335
-44.230143229166664
-44.27559895833333
-44.297174479166664
-44.29602864583333
-44.34196614583333
-44.37947916666667
-43.76625
-43.53391927083333
-43.20569010416666
-43.084713541666666
-43.726848958333335
-43.78365885416667
-43.84981770833333
-43.84845052083333
-43.82936197916667
-43.82696614583333
-43.83477864583333
-43.90244791666667
-43.95653645833333
-44.026875
-44.13828125
-44.1815625
-44.19875
-44.2221875
-44.24828125
-44.29733072916667
-44.33701822916667
-44.2206640625
-43.328802083333336
-43.1303125
-43.0928515625
-43.7707421875
-43.732486979166666
-43.78270833333333
-43.8571875
-43.8319140625
-43.7430859375
-43.711354166666666
-43.76610677083333
-43.845768229166666
-43.9078515625
-43.968815104166666
-44.018203125
-44.062747395833334
-44.08805989583333
-44.12052083333333
-44.14088541666667
-44.14052083333333
-43.9680078125
-43.63419270833333
-43.40384114583333
-43.392291666666665
-43.48428385416667
-44.1356640625
-44.0870703125
-44.158828125
-44.17561197916667
-44.0955078125
-44.083307291666664
-44.28330729166667
-44.358411458333336
-43.870234375
-44.036197916666666
-44.06141927083333
-44.064609375
-44.113268229166664
-44.07688802083333
-43.760234375
-43.46053385416667
-43.3644921875
-44.075234375
-44.0582421875
-44.09325520833333
-44.064075520833335
-44.030911458333335
-44.041484375
-44.128971354166666
-44.18955729166667
-44.25092447916666
-44.33794270833334
-44.35954427083333
-43.83779947916667
-43.9484765625
-44.0237109375
-44.08670572916667
-43.97438802083333
-43.6337109375
-43.372486979166666
-43.340169270833336
-43.4092578125
-44.04065104166666
-43.99475260416666
-44.052760416666665
-44.0519140625
-44.0155078125
-44.0210546875
-44.073255208333336
-44.134036458333334
-44.23397135416667
-44.31032552083333
-44.34161458333333
-43.8576171875
-43.973216145833334
-43.98930989583334
-44.03173177083333
-44.1013671875
-44.166002604166664
-44.08095052083333
-43.73643229166667
-43.48391927083333
-43.4574609375
-43.535182291666665
-43.598294270833335
-44.2095703125
-44.173802083333335
-44.17786458333333
-44.17598958333333
-44.13454427083333
-43.759114583333336
-43.89694010416667
-43.932890625
-43.963138020833334
-44.012044270833336
-44.0596875
-44.0623046875
-44.110729166666665
-44.14915364583333
-44.19881510416667
-44.062890625
-43.7321484375
-43.537044270833334
-43.55580729166667
-43.6266796875
-43.711497395833334
-43.77493489583333
-43.822955729166665
-43.806080729166666
-43.775143229166666
-43.769114583333334
-43.820651041666665
-43.9025
-43.976536458333335
-44.04630208333333
-44.0873828125
-44.14147135416667
-44.184947916666665
-44.21598958333333
-44.23221354166667
-44.29278645833333
-44.206015625
-43.838828125
-43.05393229166667
-43.095377604166664
-43.14528645833333
-43.80397135416667
-43.77805989583333
-43.83828125
-43.806666666666665
-43.7628515625
-43.7589453125
-43.80868489583333
-43.90295572916666
-43.98421875
-44.041653645833335
-44.100559895833335
-44.1559375
-44.19095052083333
-44.22122395833333
-44.26682291666667
-44.29763020833333
-44.37809895833333
-44.2826953125
-43.3523046875
-43.117213541666665
-43.092421875
-43.696041666666666
-43.73509114583333
-43.80356770833333
-43.816119791666665
-43.755299479166666
-43.770807291666664
-43.805638020833335
-43.860065104166665
-43.94135416666666
-44.01735677083333
-44.05842447916667
-44.141328125
-44.194036458333336
-44.175234375
-44.194765625
-44.2913671875
-44.34454427083333
-44.333072916666666
-44.0617578125
-43.14266927083333
-43.04727864583333
-43.12545572916667
-43.806796875
-43.754453125
-43.80264322916667
-43.8476171875
-43.8137890625
-43.755182291666664
-43.76509114583333
-43.90028645833333
-43.989986979166666
-44.05520833333333
-44.09729166666666
-44.153658854166665
-44.202565104166666
-44.22743489583333
-44.24595052083333
-44.31109375
-44.36411458333333
-44.19766927083333
-43.26975260416667
-42.571705729166666
-42.535533854166665
-43.2025390625
-43.74209635416667
-43.85860677083333
-43.91915364583333
-43.5904296875
-43.52096354166667
-43.48584635416667
-43.54153645833333
-43.64311197916667
-43.70688802083333
-43.77395833333333
-43.868359375
-43.929140625
-43.933658854166666
-43.97678385416667
-44.050546875
-44.07901041666667
-43.55552083333333
-42.935703125
-42.313502604166665
-42.65934895833333
-43.359296875
-43.8812109375
-44.01505208333333
-44.09036458333333
-44.057955729166665
-43.94903645833333
-43.943385416666665
-43.97811197916667
-44.0416015625
-44.1000390625
-44.16529947916667
-44.26354166666667
-44.30700520833334
-44.340533854166665
-44.37184895833333
-43.835559895833335
-43.404765625
-43.1469140625
-42.75984375
-42.60315104166666
-42.634205729166666
-43.29838541666667
-43.83220052083333
-43.93114583333333
-43.97052083333333
-43.878984375
-43.8669140625
-43.91091145833333
-43.986653645833336
-44.069309895833335
-44.126536458333334
-44.197864583333335
-44.227838541666664
-44.231458333333336
-44.281927083333336
-44.32298177083333
-44.278997395833336
-43.9632421875
-43.06408854166666
-43.029609375
-43.0719140625
-43.72065104166666
-43.72665364583333
-43.782200520833335
-43.78977864583333
-43.761640625
-43.70651041666667
-43.40700520833333
-43.4473046875
-43.500911458333334
-43.58947916666666
-43.648684895833334
-43.676119791666665
-43.7618359375
-43.821354166666666
-43.84903645833333
-43.89333333333333
-43.524830729166666
-43.2082421875
-43.1217578125
-43.17169270833333
-43.2775
-43.879505208333335
-43.8462890625
-43.85990885416667
-43.804986979166664
-43.578059895833334
-43.67950520833333
-43.75830729166667
-43.83739583333333
-43.899088541666664
-43.945234375
-43.9991015625
-44.052890625
-44.05352864583333
-44.08279947916667
-44.11537760416667
-44.161783854166664
-43.95045572916667
-43.62459635416667
-43.4997265625
-43.543255208333335
-43.65838541666667
-43.72575520833333
-43.79766927083333
-43.82671875
-43.7946875
-43.7409375
-43.77462239583333
-43.814453125
-43.89458333333334
-43.97256510416667
-44.0176953125
-44.1426171875
-44.15352864583333
-44.19575520833333
-44.2355859375
-44.2197265625
-43.6510546875
-43.557278645833335
-43.64022135416667
-43.717265625
-43.77690104166667
-43.85268229166667
-43.85109375
-43.7748828125
-43.7759765625
-43.8108984375
-43.87850260416667
-43.933203125
-43.959140625
-43.98516927083333
-44.016614583333336
-44.067708333333336
-44.097890625
-44.171901041666665
-44.14345052083333
-43.890247395833335
-43.45990885416666
-43.51731770833333
-43.6109375
-44.22666666666667
-44.228489583333335
-43.87423177083333
-43.61890625
-43.7059375
-43.766002604166665
-43.817421875
-43.86528645833334
-43.933033854166666
-44.00186197916667
-44.03209635416667
-44.067356770833335
-44.137994791666664
-44.20427083333333
-44.182890625
-43.915859375
-43.604557291666666
-43.43483072916667
-43.47678385416667
-43.57377604166667
-44.170625
-44.1334765625
-44.17984375
-44.17686197916667
-44.14720052083333
-44.13071614583333
-44.21227864583334
-44.263424479166666
-44.3360546875
-43.838567708333336
-43.95265625
-44.003216145833335
-44.045611979166665
-44.062747395833334
-44.068919270833334
-44.19037760416666
-44.01403645833334
-43.658893229166665
-43.439778645833336
-43.41747395833333
-43.4959765625
-44.089453125
-44.0241015625
-44.06015625
-44.08575520833333
-44.07108072916667
-44.05807291666667
-44.09375
-44.16421875
-44.22641927083333
-44.30041666666666
-44.3673046875
-43.84291666666667
-43.984661458333335
-44.0002734375
-44.0091015625
-44.07458333333334
-44.11611979166667
-43.95302083333333
-43.60454427083334
-43.3727734375
-43.37328125
-43.48942708333333
-44.12243489583334
-44.0946875
-44.11673177083333
-44.0896484375
-44.067135416666666
-44.11505208333333
-44.192395833333336
-44.26731770833333
-44.3476953125
-43.87203125
-43.98596354166666
-44.01354166666667
-44.07279947916667
-44.1069140625
-44.131158854166664
-43.98350260416667
-43.61834635416667
-43.39109375
-43.395481770833335
-43.498385416666665
-44.12578125
-44.10981770833333
-44.1745703125
-44.12966145833333
-44.052799479166666
-44.04829427083333
-44.07373697916667
-44.14825520833333
-44.241510416666664
-44.297916666666666
-44.336940104166665
-43.8833984375
-43.95513020833334
-43.98078125
-44.02227864583333
-43.809010416666666
-43.45423177083333
-43.258111979166664
-43.2821484375
-43.944583333333334
-43.89828125
-43.970768229166666
-44.03657552083333
-43.9956640625
-43.97518229166667
-43.984361979166664
-44.006822916666664
-44.0809765625
-44.164921875
-44.21977864583334
-44.27348958333334
-44.294361979166666
-43.779140625
-43.29151041666667
-43.264270833333335
-43.326184895833336
-43.25890625
-42.90479166666667
-42.6683984375
-42.61302083333333
-42.71046875
-43.35102864583333
-43.844036458333335
-43.9431640625
-43.9804296875
-43.9437109375
-43.926783854166665
-43.968059895833335
-44.0453515625
-44.13515625
-44.21005208333333
-44.25545572916667
-44.3203515625
-43.8236328125
-43.941419270833336
-43.9742578125
-44.018125
-44.08713541666667
-44.08841145833333
-43.813229166666666
-43.501979166666665
-43.37864583333333
-43.43634114583333
-43.542057291666666
-44.12048177083334
-44.10235677083333
-44.1661328125
-44.1248828125
-44.0724609375
-44.11278645833333
-44.19415364583333
-44.23265625
-44.318333333333335
-43.8739453125
-43.992786458333335
-44.039309895833334
-44.087330729166666
-44.101236979166664
-44.115221354166664
-44.1745703125
-44.12126302083333
-43.78342447916667
-43.5900390625
-43.6040234375
-43.71040364583333
-43.78791666666667
-43.85532552083333
-43.898684895833334
-43.8533984375
-43.77893229166666
-43.791692708333336
-43.864010416666666
-43.928997395833335
-44.0009765625
-44.07421875
-44.13520833333333
-44.1596875
-44.20641927083334
-44.2305859375
-44.2636328125
-44.320638020833336
-44.119127604166664
-43.77916666666667
-43.07276041666667
-43.2025390625
-43.3215234375
-43.9531640625
-43.931953125
-43.980859375
-43.933658854166666
-43.8727734375
-43.91653645833333
-43.96240885416667
-44.02029947916667
-44.0966796875
-44.15677083333333
-44.20322916666667
-44.21115885416667
-44.256236979166665
-44.28106770833333
-44.27459635416667
-44.19876302083333
-43.90708333333333
-43.59299479166667
-43.50915364583334
-43.5978125
-43.658828125
-43.71875
-43.771549479166666
-43.79399739583334
-43.7755859375
-43.75216145833333
-43.766875
-43.805546875
-43.89239583333333
-43.940130208333336
-43.978177083333335
-44.048203125
-44.08604166666667
-44.09631510416666
-44.1391015625
-44.17520833333333
-43.71720052083333
-43.41463541666667
-44.08973958333333
-44.06071614583333
-44.103932291666666
-44.102265625
-44.073971354166666
-44.02876302083333
-44.073216145833335
-44.14798177083333
-44.2228125
-44.26763020833334
-44.321927083333335
-43.84524739583333
-43.94290364583333
-43.94834635416667
-43.99171875
-44.034453125
-44.05032552083333
-43.838893229166665
-43.473203125
-43.27786458333333
-43.3555078125
-43.974296875
-43.93212239583333
-44.0191015625
-44.0562890625
-44.047252604166665
-44.026380208333336
-44.05065104166667
-44.10759114583333
-44.16614583333333
-44.26975260416667
-44.343997395833334
-44.394908854166665
-43.9239453125
-44.06459635416667
-44.0732421875
-44.0934375
-44.1610546875
-44.22123697916667
-44.01670572916667
-43.693346354166664
-43.54875
-43.577083333333334
-43.69162760416667
-43.76084635416667
-43.81401041666667
-43.87361979166667
-43.85044270833333
-43.80744791666667
-43.8861328125
-43.95080729166666
-44.02708333333333
-44.08674479166667
-44.14567708333333
-44.17860677083333
-44.198932291666665
-44.237955729166664
-44.28369791666667
-44.27481770833333
-44.04408854166667
-43.7564453125
-43.694453125
-43.746484375
-43.8300390625
-43.917239583333334
-43.967786458333336
-43.97975260416667
-43.93919270833333
-43.915104166666666
-43.909921875
-43.959140625
-44.045390625
-44.1069921875
-44.1482421875
-44.16752604166667
-44.21239583333333
-44.25217447916667
-44.26670572916667
-44.262135416666666
-44.10561197916667
-43.803033854166664
-43.62505208333334
-43.66130208333333
-43.74627604166667
-43.8183203125
-43.874453125
-43.92279947916666
-43.87938802083333
-43.836575520833335
-43.8582421875
-43.8948828125
-43.938125
-44.02375
-44.0869921875
-44.115533854166664
-44.160481770833336
-44.17330729166667
-44.20587239583333
-44.223658854166665
-44.203059895833334
-43.929401041666665
-43.62942708333333
-43.527018229166664
-43.5592578125
-43.62083333333333
-43.666744791666666
-43.686549479166665
-43.70609375
-43.694609375
-43.66645833333333
-43.672109375
-43.75005208333334
-43.7963671875
-43.85854166666667
-43.92178385416667
-43.956354166666664
-43.981640625
-43.975546875
-44.01078125
-44.07625
-44.1049609375
-43.96342447916667
-43.62212239583334
-43.43083333333333
-43.42765625
-43.520859375
-44.106770833333336
-43.541875
-43.5465234375
-43.21045572916667
-43.467109375
-43.47372395833333
-43.5366796875
-43.61510416666667
-43.686901041666665
-43.741484375
-43.2373046875
-43.89234375
-43.9688671875
-44.000703125
-44.02583333333333
-44.06498697916667
-44.130169270833335
-44.12690104166666
-43.844375
-43.534908854166666
-43.485286458333334
-43.5784375
-43.6602734375
-44.26065104166667
-44.255520833333335
-44.2705078125
-44.226901041666665
-43.69618489583333
-43.7880859375
-43.82395833333333
-43.897708333333334
-43.967890625
-44.01309895833333
-44.08473958333333
-44.11411458333333
-44.115833333333335
-44.1333203125
-44.19411458333333
-44.226223958333335
-44.061536458333336
-43.73015625
-43.57768229166667
-43.63369791666667
-43.7102734375
-43.79830729166667
-43.86608072916667
-43.9029296875
-43.86506510416667
-43.81666666666667
-43.84774739583333
-43.91171875
-43.98247395833334
-44.056640625
-44.12029947916667
-44.213216145833336
-44.26899739583333
-44.334283854166664
-44.372135416666666
-44.40416666666667
-43.825169270833335
-43.07266927083333
-42.7266796875
-42.641979166666665
-42.70489583333333
-43.312747395833334
-43.8109375
-43.67686197916667
-43.616184895833335
-43.576588541666666
-43.66446614583333
-43.71493489583333
-43.78587239583333
-43.8509765625
-43.88095052083333
-43.92109375
-43.944322916666664
-43.98319010416667
-44.022473958333336
-43.996692708333335
-43.72389322916667
-42.81986979166667
-42.76459635416666
-43.11631510416667
-43.8048046875
-43.755130208333334
-43.80614583333333
-43.838138020833334
-43.7965625
-43.781940104166665
-43.7825
-43.851809895833334
-43.915052083333336
-43.979153645833335
-44.06162760416667
-44.08184895833333
-44.12807291666667
-44.157734375
-44.2026953125
-44.23059895833333
-44.260104166666665
-44.12247395833333
-43.7645703125
-43.5553515625
-43.55454427083333
-43.6624609375
-43.73450520833333
-43.82045572916667
-43.8804296875
-43.85630208333333
-43.804361979166664
-43.811223958333336
-43.858125
-44.0344921875
-44.0898828125
-44.138424479166666
-44.2020703125
-44.24205729166667
-44.25319010416667
-44.2860546875
-44.329661458333334
-44.2090625
-43.864270833333336
-43.08473958333333
-42.66807291666667
-42.7453125
-43.4201953125
-43.4100390625
-43.464153645833335
-43.08654947916666
-43.327799479166664
-43.3543359375
-43.400950520833334
-43.479296875
-43.54123697916667
-43.59826822916666
-43.63881510416667
-43.674375
-43.70055989583334
-43.73423177083333
-43.74098958333333
-43.59848958333333
-42.71013020833333
-43.130169270833335
-43.20837239583334
-43.86186197916667
-43.842578125
-43.924375
-43.96759114583333
-43.93138020833333
-43.86723958333334
-43.867265625
-43.934596354166665
-44.009609375
-44.05555989583333
-44.13361979166667
-44.169296875
-44.18838541666667
-44.229830729166665
-44.264375
-44.25244791666667
-43.9956640625
-43.6421484375
-43.498984375
-43.54147135416667
-43.609036458333335
-43.66166666666667
-43.74432291666667
-43.75640625
-43.71725260416667
-43.688828125
-43.701015625
-43.74037760416667
-43.81174479166667
-43.86114583333333
-43.9152734375
-43.958203125
-43.97147135416667
-44.00595052083333
-44.0365625
-44.030963541666665
-43.8391796875
-43.504322916666666
-43.32401041666667
-43.338671875
-43.44665364583334
-44.051770833333336
-44.002239583333335
-44.03791666666667
-44.0225390625
-43.68298177083334
-43.97666666666667
-44.059817708333334
-44.1341796875
-44.19296875
-44.25239583333333
-44.30411458333333
-44.32598958333333
-43.808346354166666
-43.915989583333335
-43.9600390625
-43.94359375
-43.351796875
-43.26953125
-43.333515625
-43.95459635416667
-43.96296875
-43.993489583333336
-44.03958333333333
-44.0121875
-43.970052083333336
-44.03466145833333
-44.11838541666667
-44.21209635416667
-44.2861328125
-44.3451953125
-43.873020833333335
-43.40619791666666
-43.4092578125
-43.47278645833333
-43.4837109375
-43.37348958333333
-43.083671875
-42.8834765625
-42.895390625
-43.001575520833335
-43.656328125
-43.64803385416667
-43.66854166666667
-43.63059895833333
-43.04127604166667
-43.6567578125
-43.7557421875
-43.84462239583333
-43.869140625
-43.93079427083333
-43.986341145833336
-43.99196614583333
-44.0388671875
-44.0848046875
-44.067421875
-43.8884375
-43.5936328125
-43.415
-43.45734375
-43.5906640625
-44.199544270833336
-43.66739583333333
-43.678723958333336
-43.31427083333333
-43.071927083333335
-43.737955729166664
-43.814166666666665
-43.875
-43.94860677083334
-44.00108072916667
-44.04234375
-44.07165364583334
-44.1283984375
-44.177356770833335
-44.22046875
-44.16786458333333
-43.8405078125
-43.578359375
-43.53173177083333
-43.624973958333335
-43.763828125
-43.83794270833334
-43.8529296875
-43.80171875
-43.86055989583333
-43.9116796875
-43.98578125
-44.0425
-44.114934895833336
-44.1640234375
-44.208958333333335
-44.22220052083333
-44.263203125
-44.2932421875
-44.22311197916667
-43.924427083333335
-43.67423177083333
-43.62837239583333
-43.699895833333336
-43.77981770833333
-43.84348958333333
-43.899388020833335
-43.91641927083333
-43.901328125
-43.88106770833333
-43.9219921875
-44.01428385416666
-44.074869791666664
-44.150690104166664
-44.221354166666664
-44.24502604166667
-44.283177083333335
-44.317981770833335
-44.3268359375
-44.3910546875
-44.43955729166667
-42.91791666666666
-42.77756510416667
-42.82993489583333
-43.4934765625
-44.020390625
-44.142565104166664
-44.181354166666665
-44.12916666666667
-44.149713541666664
-44.2811328125
-44.342434895833335
-44.41358072916667
-44.46169270833333
-43.948658854166666
-44.0642578125
-44.08588541666666
-44.145208333333336
-44.15020833333333
-43.8840625
-43.60796875
-43.520625
-43.60635416666667
-44.29567708333333
-44.26248697916667
-44.34911458333333
-44.30161458333333
-43.699453125
-43.80140625
-43.949908854166665
-44.0440234375
-44.0619140625
-44.08583333333333
-44.130924479166666
-44.161510416666665
-44.11354166666667
-43.838138020833334
-43.544765625
-43.4957421875
-43.573216145833335
-44.223203125
-44.20002604166667
-44.27294270833333
-44.301770833333336
-44.243098958333334
-44.19885416666666
-44.211328125
-44.28204427083333
-44.32936197916667
-44.383372395833334
-44.4753125
-43.94973958333333
-44.038671875
-44.074296875
-44.10078125
-44.132825520833336
-43.90092447916667
-43.556979166666665
-43.421809895833334
-43.48770833333333
-44.150546875
-44.106471354166665
-44.1883203125
-44.187473958333335
-44.151966145833335
-44.16384114583333
-44.21625
-44.2880078125
-44.353268229166666
-44.417369791666665
-44.46083333333333
-43.9180859375
-44.029622395833336
-44.0890625
-44.09966145833334
-44.06169270833333
-43.7808203125
-43.47442708333333
-43.43770833333333
-43.519778645833334
-44.13734375
-44.1243359375
-44.1737890625
-44.191171875
-44.2258984375
-44.235950520833335
-44.24032552083333
-44.316419270833336
-44.404765625
-44.46403645833333
-44.54302083333334
-44.045924479166665
-44.158619791666666
-44.248697916666664
-44.281588541666665
-44.280572916666664
-44.14359375
-43.80734375
-43.60470052083333
-43.627591145833335
-43.7344140625
-44.369700520833334
-44.34322916666667
-44.38240885416667
-44.34760416666666
-43.75125
-43.30822916666666
-43.33114583333333
-43.410091145833334
-43.464296875
-43.50856770833333
-43.574544270833336
-43.605
-43.644140625
-43.69643229166667
-43.7405078125
-43.7418359375
-43.60671875
-43.26321614583333
-43.09454427083333
-43.16877604166667
-43.24390625
-43.323203125
-43.412734375
-43.45432291666667
-43.3981640625
-43.348645833333336
-43.33536458333333
-43.378307291666665
-43.4378125
-43.508463541666664
-43.584361979166665
-43.62259114583333
-43.64399739583333
-43.67561197916667
-43.708645833333335
-43.73509114583333
-43.59481770833333
-43.23455729166667
-43.02924479166666
-43.053424479166665
-43.1298046875
-43.20455729166667
-43.29234375
-43.327877604166666
-43.3131640625
-43.283841145833335
-43.260078125
-43.29669270833333
-43.37390625
-43.441341145833334
-43.4914453125
-43.52760416666667
-43.5830859375
-43.58936197916667
-43.5838671875
-43.64149739583333
-43.620794270833336
-43.28434895833333
-42.96391927083334
-42.8850390625
-43.589778645833334
-44.12026041666667
-44.21360677083333
-44.25647135416666
-44.227239583333336
-44.21307291666667
-44.267200520833335
-44.30805989583333
-44.3626171875
-44.3953515625
-43.92859375
-43.477526041666664
-43.48247395833334
-43.50697916666667
-43.299739583333334
-42.921848958333335
-42.81459635416667
-43.478268229166666
-43.99671875
-44.086497395833334
-44.12194010416667
-44.10084635416667
-44.04251302083333
-44.02787760416667
-44.217760416666664
-44.3585546875
-44.398111979166664
-44.459713541666666
-43.91455729166667
-44.01149739583333
-44.053372395833335
-44.088125
-44.12365885416666
-44.134739583333335
-43.86180989583333
-43.527330729166664
-43.40673177083333
-43.48782552083333
-44.17182291666666
-44.179765625
-44.366536458333336
-44.55606770833333
-44.51095052083333
-43.81942708333333
-43.813723958333334
-43.896901041666666
-43.97807291666667
-44.037747395833335
-44.0896484375
-44.0995703125
-44.090807291666664
-44.1002734375
-44.12321614583333
-44.14075520833333
-44.18434895833333
-44.21305989583333
-44.035755208333335
-43.71016927083333
-43.57248697916667
-43.618671875
-44.3829296875
-43.82567708333333
-43.801731770833335
-43.4108984375
-43.13729166666667
-43.7805859375
-43.88546875
-43.971666666666664
-44.023151041666665
-44.09557291666667
-44.13782552083333
-44.1532421875
-44.155234375
-44.193072916666665
-44.225572916666664
-44.2080078125
-43.6394921875
-43.51026041666667
-43.559453125
-43.654947916666664
-44.225234375
-43.9303125
-44.142578125
-44.16610677083333
-44.3028125
-44.329791666666665
-44.352864583333336
-43.83794270833334
-43.981028645833334
-44.01518229166667
-44.06395833333333
-44.07014322916667
-43.7962109375
-43.474583333333335
-43.35911458333333
-43.42421875
-44.080416666666665
-44.04216145833333
-44.1209375
-44.1705859375
-44.130260416666665
-44.07720052083334
-44.11528645833334
-44.17891927083333
-44.241848958333335
-44.3027734375
-44.379244791666665
-44.42662760416667
-44.4428125
-43.89622395833333
-44.02578125
-44.073567708333336
-44.095390625
-43.96372395833333
-43.64958333333333
-43.475234375
-43.51125
-43.5957421875
-44.22282552083333
-44.287734375
-44.2846875
-44.24604166666666
-44.242265625
-44.287109375
-44.351809895833334
-44.4055859375
-44.480533854166666
-43.974322916666665
-44.08315104166667
-44.11513020833333
-44.21174479166667
-44.23428385416667
-44.29484375
-44.231770833333336
-43.9410546875
-43.684609375
-43.71203125
-43.800846354166666
-44.45924479166667
-44.4223828125
-44.399921875
-43.32555989583334
-43.324908854166665
-43.466783854166664
-43.54177083333333
-43.592734375
-43.652630208333335
-43.678671875
-43.70404947916666
-43.750911458333334
-43.7353515625
-43.517018229166666
-43.25235677083333
