-445.66815185546875
-444.821533203125
-445.04266357421875
-645.4536743164062
-604.2705688476562
-587.6836547851562
-607.2996826171875
-602.0543212890625
-585.6746215820312
-585.8745727539062
-578.5421752929688
-579.155029296875
-581.8255615234375
-580.8636474609375
-579.9195556640625
-580.2434692382812
-580.6549682617188
-580.6998291015625
-580.8341064453125
-581.3382568359375
-581.7267456054688
-582.150146484375
-582.2122192382812
-582.58984375
-583.1134643554688
-583.6612548828125
-584.138671875
-584.6923217773438
-585.1146850585938
-585.4491577148438
-585.7932739257812
-585.8447875976562
-586.2103271484375
-586.3816528320312
-586.3682861328125
-586.2461547851562
-586.3040771484375
-586.3324584960938
-585.4669189453125
-584.3569946289062
-583.6885375976562
-583.5960693359375
-583.7760620117188
-583.8504028320312
-583.8407592773438
-583.6444702148438
-583.510498046875
-583.7232666015625
-583.8787841796875
-584.0824584960938
-584.1463012695312
-584.2034912109375
-584.2213745117188
-584.3858032226562
-584.5178833007812
-584.6417236328125
-584.7182006835938
-584.89794921875
-585.0938110351562
-585.2481079101562
-585.4197998046875
-585.09716796875
-583.869384765625
-582.9677124023438
-582.8126831054688
-583.1201782226562
-582.8814697265625
-582.744873046875
-582.7756958007812
-582.6187133789062
-582.3712158203125
-582.3162231445312
-582.4127197265625
-582.4807739257812
-582.6270751953125
-582.7654418945312
-582.8717651367188
-583.0368041992188
-583.0690307617188
-583.2030639648438
-583.3585205078125
-583.5440673828125
-583.5556640625
-583.6241455078125
-583.7276611328125
-583.7318725585938
-583.9525146484375
-583.6276245117188
-582.2412719726562
-581.0814208984375
-580.6568603515625
-580.6183471679688
-580.40478515625
-580.1519775390625
-580.1934814453125
-579.7227172851562
-579.6766357421875
-579.9714965820312
-580.248291015625
-580.5731811523438
-580.6659545898438
-580.8036499023438
-581.006103515625
-581.1189575195312
-581.3130493164062
-581.6148681640625
-581.5176391601562
-579.0653076171875
-578.4312133789062
-578.53955078125
-584.1375122070312
-583.9017944335938
-583.3368530273438
-583.3739013671875
-583.100830078125
-578.8450317382812
-579.042236328125
-579.0726928710938
-579.130126953125
-579.255859375
-579.7972412109375
-580.1470336914062
-580.2452392578125
-580.5045166015625
-580.6239624023438
-580.700927734375
-580.08740234375
-577.3917846679688
-577.0609741210938
-577.2352905273438
-576.8033447265625
-576.5736083984375
-576.60205078125
-576.4285888671875
-575.8501586914062
-575.9321899414062
-576.176025390625
-576.2939453125
-576.4784545898438
-576.7704467773438
-576.8301391601562
-577.158203125
-577.4867553710938
-577.5762329101562
-576.5045776367188
-574.486572265625
-574.3595581054688
-580.035400390625
-579.306640625
-577.8994750976562
-577.8700561523438
-578.2710571289062
-578.9000244140625
-579.14697265625
-579.4811401367188
-579.7032470703125
-574.6129760742188
-574.7959594726562
-574.7210083007812
-575.3427124023438
-574.117919921875
-573.5245361328125
-573.4423217773438
-579.1055908203125
-579.2605590820312
-579.2833251953125
-579.3068237304688
-579.1430053710938
-577.0812377929688
-577.1345825195312
-577.3275146484375
-577.4503784179688
-577.6954345703125
-577.9566650390625
-578.0160522460938
-578.2024536132812
-578.48974609375
-578.5716552734375
-578.70263671875
-578.9472045898438
-579.1129150390625
-579.2009887695312
-578.67138671875
-577.1276245117188
-570.5859985351562
-570.2288818359375
-570.2682495117188
-575.8917236328125
-574.92138671875
-572.6925048828125
-572.744384765625
-574.0444946289062
-574.0760498046875
-574.40576171875
-575.12353515625
-575.6812133789062
-575.8587036132812
-576.0780639648438
-571.222900390625
-572.8116455078125
-573.1085205078125
-573.6463623046875
-573.3284912109375
-573.6663818359375
-573.7190551757812
-573.8800048828125
-573.9190673828125
-573.76220703125
-573.6198120117188
-573.6112670898438
-573.8375854492188
-574.2435913085938
-574.6172485351562
-574.8995361328125
-575.043701171875
-575.3953857421875
-575.5776977539062
-575.68310546875
-575.901123046875
-576.08740234375
-576.289794921875
-576.5623779296875
-576.801025390625
-576.8379516601562
-574.1885986328125
-573.6234130859375
-573.7445678710938
-573.9553833007812
-574.096435546875
-574.1292724609375
-574.0995483398438
-574.1218872070312
-574.1229248046875
-574.308349609375
-574.6468505859375
-574.9146118164062
-575.047119140625
-575.1652221679688
-575.4852294921875
-575.7269897460938
-575.9105834960938
-576.26416015625
-576.560546875
-576.7490844726562
-577.0292358398438
-577.3738403320312
-577.6672973632812
-577.7769165039062
-575.1414794921875
-574.5494384765625
-574.566162109375
-574.329833984375
-574.4010620117188
-574.4080200195312
-574.3375854492188
-574.149169921875
-574.343994140625
-574.9066162109375
-575.2318725585938
-575.4408569335938
-575.6527709960938
-576.1683959960938
-576.409423828125
-576.2710571289062
-576.56396484375
-576.8375244140625
-577.2687377929688
-577.554443359375
-574.8118286132812
-574.177001953125
-574.1852416992188
-574.3529052734375
-574.5032348632812
-574.6316528320312
-574.5584106445312
-574.23876953125
-574.0771484375
-574.0476684570312
-574.438720703125
-574.7529296875
-575.5326538085938
-575.8287353515625
-576.2304077148438
-576.4056396484375
-576.6641845703125
-576.8863525390625
-577.3358764648438
-577.7047119140625
-577.8317260742188
-575.4096069335938
-574.548828125
-574.5318603515625
-574.7217407226562
-574.9181518554688
-574.8348999023438
-574.6442260742188
-574.6060180664062
-575.31103515625
-575.6173706054688
-575.8989868164062
-576.1566162109375
-576.43603515625
-576.7534790039062
-576.8739013671875
-576.9401245117188
-577.2842407226562
-577.5670776367188
-577.8711547851562
-578.330322265625
-578.4239501953125
-577.2517700195312
-575.79052734375
-575.31884765625
-575.3325805664062
-575.2625732421875
-575.751220703125
-575.8560791015625
-575.383544921875
-575.4009399414062
-575.5359497070312
-575.7884521484375
-576.087890625
-576.3383178710938
-576.5715942382812
-576.7079467773438
-577.0048217773438
-577.249267578125
-577.4931640625
-578.0028076171875
-578.3196411132812
-578.8214111328125
-578.28857421875
-576.8074951171875
-575.8065795898438
-576.0081176757812
-576.19970703125
-576.1458129882812
-576.2529296875
-574.421630859375
-574.452392578125
-575.2139892578125
-575.234130859375
-575.8448486328125
-576.0432739257812
-576.5481567382812
-577.0703735351562
-577.3381958007812
-577.5418701171875
-578.2587890625
-578.60986328125
-577.5657348632812
-576.0559692382812
-576.5694580078125
-576.03271484375
-574.3213500976562
-574.3810424804688
-574.056640625
-573.6719360351562
-573.7706909179688
-574.0150756835938
-574.162109375
-574.616943359375
-574.9134521484375
-575.049072265625
-575.48974609375
-575.780029296875
-576.0103759765625
-574.970458984375
-573.3660888671875
-572.6028442382812
-572.8416137695312
-573.0157470703125
-573.2041625976562
-573.4383544921875
-573.1090087890625
-572.8124389648438
-572.7428588867188
-573.2149047851562
-573.510009765625
-573.711181640625
-574.24560546875
-574.6234741210938
-574.9010620117188
-574.9042358398438
-575.0404663085938
-574.8800659179688
-573.0659790039062
-571.886474609375
-571.7911987304688
-577.7116088867188
-577.7054443359375
-577.8132934570312
-577.7607421875
-575.8834838867188
-575.8842163085938
-576.169189453125
-576.5923461914062
-577.0078125
-577.487548828125
-577.7999877929688
-577.8428955078125
-572.6549682617188
-572.96142578125
-573.16015625
-573.3310546875
-574.8939208984375
-575.0640869140625
-574.8134765625
-573.1580200195312
-571.7518920898438
-571.408447265625
-576.9758911132812
-576.9171142578125
-575.4305419921875
-575.5963745117188
-575.5977783203125
-575.4325561523438
-575.4479370117188
-575.7762451171875
-576.0693969726562
-576.857177734375
-576.98974609375
-577.2830200195312
-577.4849243164062
-577.8717041015625
-573.2334594726562
-572.8074951171875
-572.5906982421875
-571.4935302734375
-571.1787109375
-576.5780639648438
-576.5008544921875
-575.0952758789062
-575.2286987304688
-575.4520874023438
-575.8214111328125
-576.3863525390625
-576.7030029296875
-576.86474609375
-577.0308227539062
-577.1572265625
-577.31591796875
-578.205322265625
-578.298583984375
-573.1490478515625
-573.4359130859375
-573.3876953125
-572.2015991210938
-570.5780639648438
-571.4257202148438
-571.6936645507812
-572.8714599609375
-577.9517822265625
-577.9973754882812
-578.1799926757812
-575.7808227539062
-575.8693237304688
-575.9143676757812
-576.0759887695312
-576.4168090820312
-576.8558349609375
-577.3187255859375
-577.59375
-578.1197509765625
-572.8853759765625
-575.1534423828125
-575.381103515625
-575.5291137695312
-576.2259521484375
-576.1897583007812
-575.2909545898438
-573.1077880859375
-573.0697631835938
-573.0943603515625
-573.029296875
-573.2036743164062
-573.2898559570312
-573.2017211914062
-573.1778564453125
-573.3402099609375
-573.6986694335938
-574.0501098632812
-574.5400390625
-574.8992309570312
-575.0489501953125
-575.3098754882812
-575.7001342773438
-575.9788818359375
-576.072021484375
-576.1165771484375
-576.3477783203125
-576.6767578125
-577.1831665039062
-574.6629028320312
-574.0259399414062
-573.6976318359375
-573.7294311523438
-573.7860107421875
-573.9270629882812
-573.8530883789062
-573.7395629882812
-573.763427734375
-574.0780029296875
-574.5040893554688
-574.84521484375
-575.0803833007812
-575.3677978515625
-575.8392333984375
-576.0654907226562
-576.5553588867188
-576.7933959960938
-576.9594116210938
-576.0564575195312
-574.81591796875
-574.0286865234375
-574.0806884765625
-574.1343383789062
-574.3662719726562
-574.531982421875
-574.7366333007812
-574.7699584960938
-574.7783813476562
-574.829833984375
-575.1478881835938
-575.5657348632812
-576.358154296875
-576.5939331054688
-576.802734375
-576.9780883789062
-577.2415771484375
-578.0087890625
-578.3052978515625
-578.635009765625
-578.2028198242188
-577.3546752929688
-576.152099609375
-575.8867797851562
-576.0418701171875
-575.3460693359375
-575.0565795898438
-575.1636352539062
-575.2285766601562
-575.1298217773438
-574.9650268554688
-575.10205078125
-575.3877563476562
-575.8104248046875
-576.1971435546875
-576.567626953125
-576.8150024414062
-577.0949096679688
-577.3849487304688
-577.6919555664062
-578.0431518554688
-578.3116455078125
-578.68017578125
-578.835693359375
-578.5716552734375
-576.7639770507812
-575.709228515625
-575.61279296875
-574.8499145507812
-574.9972534179688
-574.9324340820312
-574.700927734375
-574.5281372070312
-574.7494506835938
-575.208251953125
-575.6092529296875
-575.8804321289062
-576.1478881835938
-576.2818603515625
-576.48876953125
-576.5880126953125
-577.4590454101562
-577.1548461914062
-575.536865234375
-573.8477172851562
-573.9041137695312
-573.5106201171875
-573.6132202148438
-573.7960205078125
-573.7990112304688
-573.721435546875
-573.5877685546875
-573.6710815429688
-573.87646484375
-574.202392578125
-574.4268798828125
-574.7158813476562
-575.0292358398438
-575.3087768554688
-575.5720825195312
-575.820068359375
-576.089111328125
-576.3934936523438
-576.83056640625
-577.1311645507812
-576.1724243164062
-574.4490966796875
-573.8057250976562
-573.8125
-573.5409545898438
-573.6131591796875
-573.8142700195312
-574.0011596679688
-573.915771484375
-573.7943725585938
-573.7794189453125
-574.0149536132812
-574.4133911132812
-574.8447875976562
-575.2196655273438
-575.6865234375
-575.8983154296875
-576.1529541015625
-576.3925170898438
-576.6298217773438
-576.6837768554688
-576.9577026367188
-577.3541259765625
-577.5962524414062
-575.88671875
-574.4343872070312
-574.1297607421875
-574.2332763671875
-573.9384765625
-574.13818359375
-574.4207153320312
-574.3916625976562
-574.107177734375
-574.1365966796875
-574.232177734375
-574.587890625
-574.87744140625
-575.1640014648438
-575.53271484375
-575.8240356445312
-576.0845947265625
-576.408203125
-576.4660034179688
-576.5098876953125
-576.8065795898438
-577.3201904296875
-577.5691528320312
-576.7921752929688
-575.1216430664062
-574.113037109375
-573.8298950195312
-574.048828125
-574.0380859375
-574.4821166992188
-574.4226684570312
-574.125732421875
-574.1754150390625
-574.7162475585938
-575.0723876953125
-575.4415893554688
-575.6109619140625
-575.840576171875
-576.144287109375
-576.1790161132812
-576.2875366210938
-576.540771484375
-576.753173828125
-576.9639282226562
-575.792724609375
-573.89697265625
-572.9683837890625
-572.8816528320312
-572.5508422851562
-572.60009765625
-572.7762451171875
-572.8408813476562
-572.7471923828125
-572.3199462890625
-572.1756591796875
-572.3204956054688
-572.5611572265625
-578.2839965820312
-578.5421142578125
-577.1175537109375
-577.4445190429688
-577.6715698242188
-578.1546020507812
-572.9776611328125
-573.1563110351562
-573.5277099609375
-573.6695556640625
-573.8217163085938
-571.8773803710938
-571.923583984375
-571.7539672851562
-577.0911865234375
-577.203369140625
-574.7481689453125
-574.912109375
-574.4236450195312
-574.4725341796875
-575.1109008789062
-575.49609375
-575.906494140625
-576.2396850585938
-576.5327758789062
-576.7556762695312
-576.9412231445312
-577.4705810546875
-577.7813720703125
-578.0352783203125
-578.2927856445312
-572.6447143554688
-569.0978393554688
-569.9262084960938
-569.9580078125
-575.6506958007812
-575.8226928710938
-575.9176635742188
-574.2453002929688
-573.933837890625
-574.0702514648438
-574.3125
-575.0074462890625
-575.6752319335938
-576.2227172851562
-576.401611328125
-576.7224731445312
-576.9306640625
-577.199951171875
-577.64892578125
-577.29931640625
-575.6187133789062
-568.54833984375
-567.8699340820312
-567.9894409179688
-575.2788696289062
-572.903564453125
-573.95947265625
-573.6675415039062
-573.572265625
-574.1685791015625
-574.3910522460938
-574.7031860351562
-575.2639770507812
-575.5076904296875
-575.7013549804688
-575.7227172851562
-576.257080078125
-576.6879272460938
-576.4298095703125
-572.965576171875
-572.2557983398438
-572.470947265625
-572.7733764648438
-572.9430541992188
-573.0662841796875
-572.76220703125
-572.5543823242188
-572.91748046875
-573.9421997070312
-574.0317993164062
-574.3522338867188
-574.6442260742188
-574.860107421875
-575.0843505859375
-575.6652221679688
-576.0281982421875
-574.7269897460938
-572.8209838867188
-571.7193603515625
-572.0385131835938
-572.3846435546875
-572.7413330078125
-572.88525390625
-572.6700439453125
-573.0034790039062
-573.5011596679688
-573.9277954101562
-574.84716796875
-575.2119140625
-575.6082153320312
-575.8404541015625
-576.1190795898438
-576.3139038085938
-576.1826171875
-574.062255859375
-572.3779907226562
-571.9420166015625
-571.9163208007812
-572.1488647460938
-572.3973388671875
-572.4314575195312
-572.3935546875
-572.1011962890625
-571.9326171875
-572.2453002929688
-572.6556396484375
-572.950439453125
-573.0783081054688
-573.6378784179688
-573.7758178710938
-573.9905395507812
-574.39599609375
-575.1550903320312
-575.2380981445312
-571.5341186523438
-570.5
-570.2328491210938
-570.5014038085938
-575.9967651367188
-576.0171508789062
-575.7930297851562
-575.595947265625
-575.6535034179688
-576.076416015625
-576.4107055664062
-576.7526245117188
-577.3029174804688
-577.7422485351562
-572.7708129882812
-573.0526123046875
-573.365966796875
-572.6172485351562
-572.9033203125
-570.0643920898438
-567.9168090820312
-568.1097412109375
-573.686279296875
-573.5774536132812
-573.9635620117188
-573.7019653320312
-574.6727905273438
-575.2249145507812
-575.7164306640625
-576.139892578125
-576.7205200195312
-577.3773803710938
-577.6446533203125
-577.8056030273438
-572.6757202148438
-573.0332641601562
-573.3639526367188
-573.2432250976562
-572.9711303710938
-569.10205078125
-568.1598510742188
-573.819091796875
-573.9655151367188
-574.0697021484375
-575.0147705078125
-573.7719116210938
-574.3829956054688
-574.8461303710938
-575.3346557617188
-575.6432495117188
-576.2462768554688
-576.4136352539062
-576.6458129882812
-571.296875
-571.4952392578125
-571.870361328125
-572.1588134765625
-570.4080200195312
-568.1610107421875
-567.1669311523438
-573.0635986328125
-572.2608642578125
-572.414794921875
-573.3638305664062
-573.0867919921875
-573.2371215820312
-574.0152587890625
-574.9517211914062
-575.2904663085938
-575.8320922851562
-575.9674682617188
-576.1705932617188
-576.66943359375
-577.0172729492188
-571.5113525390625
-570.9325561523438
-566.5108032226562
-572.4547729492188
-573.18017578125
-574.3414306640625
-574.023681640625
-573.541015625
-574.342529296875
-575.1875610351562
-575.6122436523438
-576.2427978515625
-576.4541015625
-576.7564697265625
-577.2522583007812
-577.2612915039062
-575.823974609375
-568.3228759765625
-567.2276611328125
-573.02880859375
-572.103759765625
-572.3001098632812
-572.2654418945312
-572.934326171875
-573.0154418945312
-573.2944946289062
-573.7241821289062
-574.0538940429688
-574.3803100585938
-575.0478515625
-575.1441040039062
-575.1458129882812
-575.4716796875
-575.809326171875
-575.2002563476562
-573.0619506835938
-571.0322265625
-570.2425537109375
-570.5328369140625
-576.4794311523438
-576.7870483398438
-576.5474243164062
-575.9627685546875
-576.4036254882812
-576.8207397460938
-577.101318359375
-571.7391357421875
-572.0672607421875
-572.2847900390625
-572.4417724609375
-572.682373046875
-572.9891357421875
-573.3074340820312
-573.7346801757812
-573.7748413085938
-572.1304321289062
-569.9848022460938
-568.6442260742188
-568.8817138671875
-574.6807861328125
-574.796142578125
-574.9759521484375
-576.1249389648438
-576.0765380859375
-576.031982421875
-576.23828125
-576.6798706054688
-577.2540893554688
-577.5886840820312
-577.9268798828125
-578.2811889648438
-572.86962890625
-573.1415405273438
-573.5496826171875
-572.999267578125
-573.8658447265625
-572.88427734375
-569.3792114257812
-569.3712768554688
-575.3250122070312
-575.4963989257812
-576.48779296875
-576.9249267578125
-577.3561401367188
-577.916015625
-578.233154296875
-578.5490112304688
-573.2932739257812
-573.5885009765625
-572.6082153320312
-572.9254150390625
-573.6375732421875
-574.042724609375
-574.4797973632812
-574.4749145507812
-572.9274291992188
-571.0017700195312
-570.0455932617188
-570.423828125
-570.7276000976562
-570.9594116210938
-571.1150512695312
-571.074951171875
-570.9102172851562
-570.9784545898438
-571.2852783203125
-571.6832275390625
-571.909423828125
-572.2825927734375
-572.6832275390625
-573.088623046875
-573.2906494140625
-573.4281616210938
-573.80078125
-574.1705322265625
-574.5772705078125
-575.0733032226562
-574.7201538085938
-573.1177978515625
-571.7953491210938
-571.3922119140625
-571.6885375976562
-572.024169921875
-572.1903076171875
-572.343017578125
-572.2852172851562
-572.1790771484375
-572.0298461914062
-572.294677734375
-572.8076171875
-573.2200927734375
-573.5979614257812
-573.9754638671875
-574.253173828125
-574.3587036132812
-574.685302734375
-575.2124633789062
-575.6802978515625
-572.4268798828125
-571.3956909179688
-571.1166381835938
-571.2447509765625
-571.5020751953125
-571.7322387695312
-571.977783203125
-571.9674072265625
-572.0203247070312
-572.07568359375
-572.282470703125
-573.2611694335938
-573.6054077148438
-573.9301147460938
-574.25146484375
-574.5282592773438
-574.9097900390625
-575.111083984375
-575.3084716796875
-575.702392578125
-576.0735473632812
-576.4013671875
-576.4005126953125
-575.1058959960938
-567.5997314453125
-566.41552734375
-566.184326171875
-571.9722290039062
-572.2255249023438
-572.3072509765625
-572.453369140625
-573.5242309570312
-573.5150756835938
-573.4005737304688
-573.5204467773438
-573.952392578125
-574.4730224609375
-574.9151611328125
-575.1456298828125
-575.5475463867188
-575.8397827148438
-576.092529296875
-576.494873046875
-576.7090454101562
-576.8909301757812
-577.1594848632812
-577.551513671875
-577.882080078125
-570.5016479492188
-568.73828125
-568.0763549804688
-567.2589111328125
-573.0374755859375
-573.1653442382812
-573.5045166015625
-574.776123046875
-574.6417236328125
-574.5601806640625
-574.6912841796875
-575.0324096679688
-575.6223754882812
-576.3831176757812
-576.7163696289062
-576.978515625
-577.6571655273438
-572.6610107421875
-573.0530395507812
-573.4356689453125
-573.6719970703125
-571.7862548828125
-570.1338500976562
-568.8829345703125
-569.1401977539062
-575.0933837890625
-575.1446533203125
-575.2105102539062
-574.9832763671875
-575.7086791992188
-576.3386840820312
-576.7340087890625
-577.0488891601562
-571.9143676757812
-572.170654296875
-572.5656127929688
-572.7095336914062
-572.9376831054688
-573.3541870117188
-573.1695556640625
-571.3877563476562
-569.2059936523438
-569.5010375976562
-570.0191040039062
-575.8214111328125
-576.0452880859375
-576.2244262695312
-576.9862670898438
-570.4229736328125
-570.8290405273438
-571.2448120117188
-571.6431884765625
-571.958740234375
-572.1171875
-573.4631958007812
-573.7733764648438
-574.2119750976562
-574.4970092773438
-575.129150390625
-574.3778686523438
-572.2774658203125
-570.8666381835938
-570.4822387695312
-570.7901611328125
-570.7386474609375
-570.7396240234375
-570.5182495117188
-570.566650390625
-571.3497314453125
-571.7451171875
-572.0860595703125
-572.555419921875
-572.9825439453125
-573.393310546875
-573.8605346679688
-573.7376098632812
-572.0582275390625
-569.1398315429688
-569.248779296875
-575.0228271484375
-575.447509765625
-575.4425659179688
-575.3324584960938
-575.2994995117188
-575.9708251953125
-576.299072265625
-576.6322631835938
-576.9586791992188
-577.5227661132812
-577.6066284179688
-577.7252197265625
-572.9013061523438
-573.215087890625
-573.3834228515625
-571.0895385742188
-567.6694946289062
-567.446044921875
-573.15283203125
-573.4544677734375
-573.5996704101562
-574.4633178710938
-574.3101806640625
-574.5066528320312
-574.9674682617188
-575.6865234375
-576.033203125
-576.4242553710938
-576.7660522460938
-576.9231567382812
-576.9882202148438
-577.5398559570312
-577.8746948242188
-572.6165161132812
-568.612060546875
-566.392578125
-572.1934204101562
-572.4845581054688
-573.445068359375
-573.2932739257812
-573.655029296875
-574.4793090820312
-575.2647094726562
-575.4323120117188
-575.72119140625
-575.9314575195312
-576.2977294921875
-576.5882568359375
-576.804443359375
-576.9573974609375
-576.3250122070312
-574.207763671875
-571.7754516601562
-571.9660034179688
-572.3392333984375
-572.7449340820312
-572.50244140625
-572.3405151367188
-572.731201171875
-573.262451171875
-573.6674194335938
-574.5437622070312
-574.739013671875
-575.1002197265625
-575.5226440429688
-575.92529296875
-575.7658081054688
-571.6723022460938
-570.6689453125
-570.9532470703125
-571.8777465820312
-572.1826171875
-572.2886962890625
-572.1005249023438
-571.7454833984375
-572.1641235351562
-572.7604370117188
-573.525390625
-573.8500366210938
-574.5751953125
-574.793701171875
-574.92578125
-574.6112060546875
-570.5101928710938
-569.624267578125
-569.911376953125
-570.43408203125
-576.8460083007812
-576.9359741210938
-576.6884155273438
-576.5006103515625
-576.9398803710938
-577.7215576171875
-572.7334594726562
-573.28564453125
-573.4107666015625
-572.500732421875
-572.3441772460938
-570.1613159179688
-567.6463012695312
-567.8853149414062
-573.9757080078125
-574.07958984375
-574.3739013671875
-574.38134765625
-575.3641967773438
-575.7896728515625
-576.3717651367188
-576.6502685546875
-577.2274780273438
-577.637939453125
-572.4308471679688
-572.0859375
-571.2335815429688
-567.6979370117188
-567.5714111328125
-573.446533203125
-573.72705078125
-574.0112915039062
-575.3749389648438
-575.20458984375
-575.5377197265625
-575.9798583984375
-576.4846801757812
-576.9707641601562
-577.3638916015625
-577.7285766601562
-572.3617553710938
-572.7181396484375
-573.0018920898438
-572.4754028320312
-570.4883422851562
-569.4430541992188
-569.5803833007812
-575.4752197265625
-575.840576171875
-576.0079345703125
-576.0325317382812
-576.0205688476562
-575.6992797851562
-576.4100341796875
-576.7166748046875
-577.0228271484375
-571.8355102539062
-572.34521484375
-572.88818359375
-573.1403198242188
-573.609130859375
-573.1365966796875
-571.2710571289062
-569.901123046875
-569.9481201171875
-570.2282104492188
-570.4599609375
-570.4407958984375
-570.5888671875
-570.9063720703125
-571.6597900390625
-571.9620361328125
-572.318359375
-572.6205444335938
-573.1488037109375
-573.4598388671875
-574.0667724609375
-574.4381713867188
-571.9937133789062
-570.7298583984375
-570.4647827148438
-571.1863403320312
-571.6224975585938
-571.5930786132812
-571.4451904296875
-571.5725708007812
-572.470947265625
-573.1921997070312
-573.3452758789062
-573.8114013671875
-573.8711547851562
-574.6026611328125
-574.4480590820312
-570.736572265625
-570.2555541992188
-570.359130859375
-570.806396484375
-570.9073486328125
-570.79443359375
-570.814453125
-571.0435180664062
-571.9293212890625
-572.20068359375
-572.6676025390625
-573.2184448242188
-573.7623901367188
-574.3228149414062
-574.6668090820312
-574.768310546875
-572.7200317382812
-570.9398803710938
-570.7198486328125
-571.0035400390625
-571.0808715820312
-571.2821655273438
-571.50341796875
-571.627685546875
-571.7813110351562
-572.1599731445312
-572.541015625
-573.3926391601562
-573.953125
-574.0597534179688
-574.46728515625
-575.207275390625
-575.714111328125
-576.3084716796875
-575.770263671875
-573.765625
-566.896240234375
-567.03515625
-572.63427734375
-572.7294311523438
-573.2166748046875
-574.2869262695312
-574.1844482421875
-574.54248046875
-575.0128784179688
-575.5211181640625
-575.903564453125
-576.6541748046875
-576.8902587890625
-577.1502075195312
-577.414306640625
-572.6397094726562
-573.0941162109375
-568.677001953125
-567.87646484375
-573.8707275390625
-574.12939453125
-575.5025024414062
-575.4320068359375
-574.0298461914062
-574.0997924804688
-574.2940673828125
-574.5421752929688
-574.8970947265625
-575.6726684570312
-576.0121459960938
-576.25537109375
-571.0911254882812
-571.478515625
-571.1959228515625
-567.7406005859375
-567.7244873046875
-568.2555541992188
-574.269775390625
-574.5140380859375
-574.7076416015625
-575.4207153320312
-575.1884765625
-575.8194580078125
-576.1497192382812
-576.424072265625
-576.8670043945312
-577.0989990234375
-577.3247680664062
-572.1292724609375
-571.8884887695312
-569.0553588867188
-567.41943359375
-567.27001953125
-572.9434204101562
-572.9889526367188
-574.275634765625
-573.4021606445312
-573.2981567382812
-573.6862182617188
-574.4407348632812
-574.9427490234375
-575.0507202148438
-575.3843994140625
-575.5167236328125
-575.8663330078125
-576.266357421875
-573.9654541015625
-571.6983642578125
-570.6041259765625
-571.0477294921875
-571.0929565429688
-571.2661743164062
-571.4578857421875
-571.3773193359375
-571.2692260742188
-571.318359375
-571.5714721679688
-572.0955810546875
-572.6515502929688
-573.0023193359375
-573.2872314453125
-573.6122436523438
-573.7178344726562
-574.049072265625
-574.4173583984375
-574.6104125976562
-574.9902954101562
-574.3970336914062
-572.3369750976562
-570.4964599609375
-569.9185180664062
-570.5083618164062
-576.1740112304688
-576.12451171875
-576.2134399414062
-576.3561401367188
-576.198486328125
-575.4810791015625
-575.9876098632812
-576.7625732421875
-577.2622680664062
-572.2296142578125
-572.5457763671875
-573.0380249023438
-573.7022705078125
-570.3985595703125
-569.0928955078125
-568.94091796875
-569.3262329101562
-575.2404174804688
-575.3968505859375
-575.5460815429688
-575.4160766601562
-575.1995849609375
-575.230712890625
-575.4403076171875
-575.8906860351562
-576.2017211914062
-576.5665283203125
-571.127197265625
-571.240478515625
-571.42529296875
-571.8297729492188
-572.4138793945312
-572.7437744140625
-573.0834350585938
-573.4386596679688
-572.238037109375
-570.1519775390625
-568.8807983398438
-568.8438110351562
-569.2116088867188
-575.2118530273438
-574.2548828125
-575.4325561523438
-575.3496704101562
-575.0313110351562
-574.897216796875
-575.1465454101562
-575.528564453125
-575.9077758789062
-576.594482421875
-576.9232177734375
-577.1767578125
-573.1153564453125
-573.6642456054688
-571.774658203125
-569.7000732421875
-568.3114013671875
-568.1344604492188
-568.5262451171875
-574.5921020507812
-574.9532470703125
-575.93798828125
-575.654541015625
-575.656494140625
-575.8759765625
-576.3690185546875
-576.8915405273438
-577.72021484375
-577.927734375
-572.5460815429688
-572.7006225585938
-571.9418334960938
-572.0551147460938
-571.1705322265625
-569.1698608398438
-567.6387329101562
-567.3981323242188
-567.85693359375
-573.8189086914062
-573.9427490234375
-574.2928466796875
-574.0892333984375
-573.64306640625
-574.4238891601562
-574.5138549804688
-575.061767578125
-575.6481323242188
-576.0294799804688
-576.3024291992188
-576.691162109375
-576.9971923828125
-577.2676391601562
-577.4923706054688
-577.6972045898438
-572.5580444335938
-571.5286865234375
-569.099609375
-566.1123046875
-572.095703125
-572.5912475585938
-572.8206176757812
-573.7979125976562
-573.4974365234375
-573.3280639648438
-573.4600830078125
-573.7390747070312
-574.1908569335938
-575.1314086914062
-575.3630981445312
-575.9507446289062
-576.1758422851562
-576.6510620117188
-577.0169067382812
-577.0361328125
-575.6154174804688
-572.09765625
-572.0489501953125
-572.9420166015625
-573.2903442382812
-573.5880126953125
-573.4735717773438
-573.4404296875
-573.65869140625
-574.74169921875
-575.6881103515625
-575.9414672851562
-576.222412109375
-576.59814453125
-576.8603515625
-577.5498657226562
-572.3833618164062
-571.6345825195312
-569.44189453125
-566.6655883789062
-573.0848999023438
-573.5540771484375
-574.2926635742188
-574.4437866210938
-575.461181640625
-575.985107421875
-576.307861328125
-576.6480102539062
-576.9609375
-577.7322998046875
-577.9918823242188
-572.755126953125
-573.022705078125
-572.8291015625
-572.9171142578125
-571.3190307617188
-569.3480224609375
-568.5794677734375
-569.2257080078125
-575.9024658203125
-577.1492919921875
-576.8419189453125
-576.621826171875
-577.1652221679688
-577.5706176757812
-578.1690063476562
-573.2421264648438
-573.6964111328125
-573.9644775390625
-574.1170654296875
-573.7571411132812
-573.930419921875
-573.07080078125
-571.066162109375
-569.8814086914062
-571.0330200195312
-571.2124633789062
-571.4108276367188
-571.3804931640625
-571.0457763671875
-571.202392578125
-571.4913330078125
-571.9030151367188
-572.7793579101562
-573.1192626953125
-573.337158203125
-573.8534545898438
-574.2123413085938
-573.40283203125
-569.9744873046875
-569.804443359375
-570.328857421875
-570.9202270507812
-571.1608276367188
-571.3446655273438
-571.0889282226562
-571.2203979492188
-571.7330932617188
-572.5291748046875
-573.063720703125
-573.5661010742188
-573.8504638671875
-574.5317993164062
-573.6675415039062
-571.5608520507812
-569.6747436523438
-569.9984741210938
-570.4456176757812
-570.8184204101562
-570.7210693359375
-570.4074096679688
-570.5455932617188
-571.0891723632812
-572.0757446289062
-572.4263916015625
-572.5690307617188
-572.9005126953125
-573.1345825195312
-573.4993896484375
-573.977783203125
-571.8828125
-569.712158203125
-568.94775390625
-569.183837890625
-569.60791015625
-575.4686279296875
-575.9547729492188
-575.8871459960938
-575.7706909179688
-576.921875
-576.688232421875
-576.9786376953125
-571.9135131835938
-572.2599487304688
-573.0127563476562
-573.1956176757812
-573.3322143554688
-573.6299438476562
-573.962890625
-571.6025390625
-569.6553955078125
-569.102783203125
-569.799560546875
-569.8863525390625
-570.295654296875
-570.34228515625
-571.2274169921875
-571.5731811523438
-571.8633422851562
-572.5877075195312
-572.8480224609375
-572.9320068359375
-573.44384765625
-574.0673828125
-574.3934326171875
-573.8259887695312
-570.1940307617188
-569.9638671875
-570.1467895507812
-570.3383178710938
-570.5768432617188
-570.8844604492188
-570.589599609375
-570.7784423828125
-571.2920532226562
-571.6288452148438
-572.27880859375
-572.350830078125
-572.5760498046875
-572.79296875
-572.8564453125
-573.38671875
-573.9716186523438
-572.8470458984375
-570.7583618164062
-569.6183471679688
-571.2359008789062
-571.7327270507812
-571.95068359375
-571.6427612304688
-571.5776977539062
-571.5756225585938
-571.6649169921875
-571.8180541992188
-572.1012573242188
-572.2799682617188
-572.5418701171875
-572.6322021484375
-573.2798461914062
-573.5625610351562
-569.9373168945312
-569.2078857421875
-569.3228149414062
-569.7877197265625
-570.0784912109375
-570.4428100585938
-570.6309204101562
-570.4470825195312
-570.1947631835938
-570.3526000976562
-571.3577270507812
-571.9065551757812
-572.376220703125
-572.4603881835938
-572.9187622070312
-573.2127685546875
-573.47216796875
-572.55908203125
-568.3737182617188
-568.7435913085938
-574.7294921875
-576.4190673828125
-576.281982421875
-575.8753662109375
-575.995361328125
-576.4373168945312
-576.921875
-577.4419555664062
-577.97802734375
-572.8148193359375
-573.5086669921875
-572.9525756835938
-572.6023559570312
-569.3961181640625
-569.9900512695312
-576.2621459960938
-576.560791015625
-576.6031494140625
-576.400634765625
-576.7239990234375
-576.084228515625
-576.5951538085938
-577.1033935546875
-571.9019775390625
-571.1904907226562
-571.529541015625
-571.8250732421875
-572.0562744140625
-572.7093505859375
-572.9451293945312
-571.6913452148438
-569.3945922851562
-567.931396484375
-568.496826171875
-574.78173828125
-574.9009399414062
-575.0633544921875
-575.5505981445312
-575.9031372070312
-576.3636474609375
-577.0940551757812
-577.4304809570312
-572.1826171875
-572.25244140625
-572.4583129882812
-572.5652465820312
-572.79296875
-573.0189819335938
-572.15869140625
-569.9993286132812
-568.3290405273438
-568.821044921875
-574.5347900390625
-575.7996215820312
-575.606689453125
-575.4586181640625
-575.7264404296875
-576.275146484375
-576.7322998046875
-577.1400756835938
-571.7959594726562
-573.0400390625
-572.1471557617188
-572.4208984375
-572.2774047851562
-568.4364624023438
-568.1380615234375
-574.9945068359375
-574.8240356445312
-575.6051635742188
-575.348388671875
-575.5723266601562
-576.2352294921875
-577.0726928710938
-577.4171752929688
-572.375
-572.60107421875
-571.66552734375
-569.4591064453125
-566.3106689453125
-572.9004516601562
-573.4169311523438
-574.4285278320312
-574.3574829101562
-574.5371704101562
-574.9281005859375
-575.8574829101562
-576.2938232421875
-576.5577392578125
-576.7916259765625
-577.0090942382812
-577.219970703125
-576.6854858398438
-566.9688720703125
-566.6556396484375
-572.2088012695312
-572.5371704101562
-573.809326171875
-574.024169921875
-573.9921875
-574.1633911132812
-574.566162109375
-575.4895629882812
-576.0811767578125
-576.7398681640625
-577.0775146484375
-577.3584594726562
-577.9439086914062
-569.9682006835938
-566.3560180664062
-572.1392211914062
-572.4268188476562
-572.7060546875
-573.9686279296875
-573.8473510742188
-574.415771484375
-574.9869384765625
-575.4022827148438
-575.94384765625
-576.3236694335938
-576.6268310546875
-576.8171997070312
-577.3425903320312
-577.9843139648438
-570.8452758789062
-567.7110595703125
-566.9685668945312
-573.0568237304688
-573.427978515625
-574.730712890625
-574.723388671875
-574.9049682617188
-575.3377075195312
-575.951171875
-576.4373779296875
-576.8529663085938
-577.3827514648438
-577.7161865234375
-572.1638793945312
-571.3020629882812
-567.022216796875
-566.98486328125
-573.2410888671875
-573.6730346679688
-575.2750854492188
-575.1754760742188
-574.8770751953125
-575.2501831054688
-575.7550048828125
-575.9752197265625
-576.17333984375
-576.63134765625
-577.10546875
-577.382080078125
-577.6036987304688
-572.2590942382812
-572.5796508789062
-568.7134399414062
-566.6329956054688
-566.8298950195312
-574.3146362304688
-574.5718383789062
-574.8134765625
-574.8131713867188
-574.7534790039062
-575.0576171875
-575.8511962890625
-576.2422485351562
-576.764404296875
-576.9491577148438
-577.1318359375
-577.4699096679688
-577.6519165039062
-572.22216796875
-569.5082397460938
-567.5172729492188
-566.5567016601562
-566.5607299804688
-572.601806640625
-573.8978881835938
-574.3599853515625
-574.4318237304688
-575.16796875
-575.530517578125
-576.1295166015625
-576.3314819335938
-576.6978149414062
-577.0200805664062
-577.218994140625
-572.3272705078125
-572.7136840820312
-572.7195434570312
-570.7783813476562
-566.58056640625
-566.6055297851562
-573.7889404296875
-572.9021606445312
-573.23291015625
-573.1961669921875
-573.2810668945312
-573.586181640625
-573.9182739257812
-574.8291015625
-575.1939086914062
-576.0300903320312
-576.3873291015625
-576.7405395507812
-571.2913208007812
-571.8541259765625
-571.8939819335938
-570.2744750976562
-567.114501953125
-573.6619873046875
-574.0066528320312
-575.4698486328125
-575.3953857421875
-575.21484375
-575.8077392578125
-576.2696533203125
-576.7861938476562
-577.2462768554688
-577.7567138671875
-572.284912109375
-572.4645385742188
-572.6188354492188
-572.0441284179688
-572.3630981445312
-572.5617065429688
-569.46142578125
-567.8303833007812
-574.408447265625
-574.715087890625
-575.8397827148438
-574.6572265625
-574.8997802734375
-575.5087890625
-576.1925659179688
-571.0435180664062
-571.21826171875
-571.5892333984375
-571.83984375
-571.3643798828125
-569.5313720703125
-567.9298706054688
-574.7265625
-575.126953125
-575.2092895507812
-576.2194213867188
-576.25927734375
-575.711669921875
-576.5269165039062
-571.4247436523438
-572.0316162109375
-572.1839599609375
-572.4957275390625
-572.2616577148438
-568.3709716796875
-567.5701293945312
-574.0540161132812
-574.234130859375
-574.2764282226562
-575.326171875
-575.7456665039062
-576.7216186523438
-576.7091064453125
-577.3688354492188
-577.8123168945312
-572.4088745117188
-573.2030639648438
-573.183837890625
-568.0198364257812
-567.1326904296875
-573.5184326171875
-574.9790649414062
-575.2230224609375
-574.8990478515625
-574.9664306640625
-575.892578125
-576.298828125
-577.0982055664062
-577.6288452148438
-577.99951171875
-578.3443603515625
-573.1458740234375
-573.4563598632812
-573.9666137695312
-569.9827270507812
-568.4114379882812
-568.6917114257812
-573.64501953125
-573.84765625
-573.99951171875
-573.9671630859375
-573.6765747070312
-574.4189453125
-574.9931640625
-575.4991455078125
-575.9164428710938
-576.347412109375
-576.494384765625
-576.7174682617188
-571.4230346679688
-573.378173828125
-573.3190307617188
-569.3643188476562
-568.3231201171875
-568.4415893554688
-574.5053100585938
-574.7138061523438
-575.141357421875
-574.9578857421875
-574.5706176757812
-574.726318359375
-575.2438354492188
-576.1109008789062
-576.5946655273438
-577.0270385742188
-577.5283813476562
-571.995361328125
-570.3698120117188
-567.1383056640625
-566.1490478515625
-566.3591918945312
-572.5134887695312
-573.3156127929688
-574.3444213867188
-574.031005859375
-574.276611328125
-575.0982666015625
-575.6697998046875
-575.5604858398438
-575.7392578125
-576.017578125
-575.9369506835938
-571.604248046875
-570.9094848632812
-571.3046264648438
-571.7550659179688
-572.157470703125
-572.52685546875
-572.1074829101562
-571.9634399414062
-572.2886962890625
-573.0797119140625
-573.4268798828125
-573.8541259765625
-574.0443725585938
-574.6734008789062
-574.8621215820312
-575.0850830078125
-574.9063110351562
-573.0233764648438
-569.5198364257812
-569.62646484375
-570.059326171875
-575.6749267578125
-575.04736328125
-574.8839111328125
-574.7835693359375
-575.0888061523438
-576.2780151367188
-576.923583984375
-577.3306274414062
-572.345703125
-572.5431518554688
-572.0059814453125
-570.374755859375
-568.39501953125
-568.3884887695312
-574.29443359375
-575.3704223632812
-575.1666870117188
-575.364990234375
-575.39892578125
-575.659423828125
-576.6583251953125
-577.2115478515625
-577.6032104492188
-572.6471557617188
-572.2772827148438
-572.3104248046875
-572.4718627929688
-573.2195434570312
-569.5526123046875
-567.755126953125
-574.1570434570312
-574.9177856445312
-575.0300903320312
-574.8484497070312
-576.29248046875
-575.6317138671875
-576.0606079101562
-576.231201171875
-576.4583740234375
-571.6281127929688
-571.802734375
-572.4059448242188
-572.5530395507812
-568.9320678710938
-567.6847534179688
-567.6950073242188
-568.444091796875
-573.7154541015625
-574.7484130859375
-574.6567993164062
-574.6408081054688
-575.3304443359375
-575.803955078125
-576.0516357421875
-576.4161987304688
-571.552490234375
-573.172607421875
-572.5347900390625
-569.1636962890625
-568.7168579101562
-568.3992919921875
-574.5507202148438
-574.8858642578125
-575.2518310546875
-575.2612915039062
-574.7979125976562
-574.919677734375
-575.3275756835938
-576.3525390625
-576.6631469726562
-576.9519653320312
-577.2198486328125
-577.4175415039062
-572.1387939453125
-571.7716064453125
-571.1412353515625
-566.8562622070312
-566.2920532226562
-572.00830078125
-572.22509765625
-572.688720703125
-573.9008178710938
-573.4133911132812
-573.6619262695312
-574.1700439453125
-574.4974365234375
-575.3675537109375
-575.923583984375
-576.2424926757812
-576.3578491210938
-576.7133178710938
-577.4664916992188
-576.340087890625
-568.4009399414062
-566.7266845703125
-572.4747314453125
-572.0525512695312
-573.7256469726562
-573.6137084960938
-573.4873657226562
-574.038818359375
-574.5761108398438
-575.18359375
-575.6541137695312
-575.75830078125
-575.7993774414062
-575.7674560546875
-575.7196044921875
-576.4166870117188
-575.8632202148438
-573.4261474609375
-571.3726196289062
-570.9459838867188
-572.3191528320312
-572.6434936523438
-573.1254272460938
-573.2221069335938
-572.9554443359375
-572.984375
-573.9229736328125
-574.45654296875
-574.821044921875
-575.4043579101562
-575.7869262695312
-576.3461303710938
-576.5346069335938
-575.5625610351562
-573.4026489257812
-571.8345947265625
-572.3922119140625
-573.11376953125
-574.1929931640625
-574.0435180664062
-573.7596435546875
-573.913330078125
-574.3815307617188
-575.353515625
-576.062744140625
-576.56884765625
-576.8035278320312
-576.3875732421875
-573.7982177734375
-566.5504150390625
-566.0445556640625
-566.49755859375
-571.2343139648438
-571.6492919921875
-571.8663330078125
-571.6048583984375
-571.87939453125
-572.3740844726562
-573.3994750976562
-574.215087890625
-574.9368896484375
-575.1380004882812
-575.336669921875
-575.8065795898438
-574.7888793945312
-572.1265258789062
-570.2265014648438
-569.979736328125
-570.8563842773438
-571.498291015625
-571.6343383789062
-571.4649658203125
-571.7764282226562
-572.8176879882812
-573.6898193359375
-574.217529296875
-574.5638427734375
-574.8303833007812
-575.5313720703125
-575.857177734375
-576.1612548828125
-566.5205078125
-567.5579833984375
-573.50537109375
-573.7778930664062
-573.9632568359375
-573.7058715820312
-573.8074340820312
-574.6047973632812
-575.0302124023438
-575.737548828125
-576.0612182617188
-576.3673095703125
-576.723388671875
-577.044921875
-577.7545776367188
-577.6431274414062
-570.62939453125
-567.517578125
-566.6420288085938
-571.9652709960938
-574.9295654296875
-574.7852783203125
-574.5807495117188
-575.03662109375
-575.4818115234375
-575.997802734375
-576.7743530273438
-577.0514526367188
-577.30615234375
-577.94140625
-572.5836791992188
-571.345458984375
-568.1677856445312
-567.1851806640625
-573.1624755859375
-573.9229125976562
-574.0673828125
-573.725830078125
-573.1873779296875
-574.281005859375
-574.6640625
-575.4872436523438
-575.7952270507812
-576.2792358398438
-576.4952392578125
-571.3919677734375
-567.1520385742188
-566.510986328125
-573.72607421875
-574.2876586914062
-574.5310668945312
-574.4384155273438
-574.3715209960938
-574.672607421875
-575.609619140625
-576.3159790039062
-576.6008911132812
-577.105712890625
-577.2699584960938
-577.9058837890625
-571.632568359375
-569.254638671875
-566.7850341796875
-573.6263427734375
-574.0689086914062
-574.185546875
-574.1475219726562
-574.063232421875
-574.2682495117188
-574.6741333007812
-575.4803466796875
-575.6764526367188
-576.2651977539062
-576.6136474609375
-576.9187622070312
-577.1914672851562
-577.478515625
-578.213623046875
-572.2403564453125
-570.0343017578125
-567.1326904296875
-572.4613647460938
-572.017578125
-573.6465454101562
-573.4459228515625
-573.653076171875
-574.643310546875
-575.07568359375
-575.558837890625
-576.2866821289062
-576.7965698242188
-576.895751953125
-571.9158325195312
-573.410888671875
-572.6026611328125
-569.1575927734375
-567.8126831054688
-568.3457641601562
-574.2578735351562
-574.5554809570312
-574.1526489257812
-575.6721801757812
-576.083251953125
-576.9304809570312
-577.2184448242188
-577.5299072265625
-572.3292236328125
-572.5235595703125
-572.9356689453125
-571.5285034179688
-568.454833984375
-568.7034301757812
-574.0892944335938
-574.7230224609375
-574.4434204101562
-574.1886596679688
-574.2013549804688
-575.0439453125
-575.526123046875
-575.912109375
-576.5037231445312
-576.5425415039062
-571.5730590820312
-573.0104370117188
-573.0077514648438
-571.4197387695312
-568.0078125
-574.1654663085938
-574.6332397460938
-574.5607299804688
-574.2648315429688
-574.0715942382812
-574.565673828125
-575.5934448242188
-576.331787109375
-576.4113159179688
-576.8506469726562
-577.3321533203125
-576.3386840820312
-567.1032104492188
-572.974365234375
-573.4336547851562
-574.0218505859375
-574.2086181640625
-573.942138671875
-574.0435791015625
-574.557373046875
-575.1827392578125
-575.6522216796875
-576.1256713867188
-576.4754028320312
-577.027587890625
-577.4578857421875
-577.7890014648438
-572.1551513671875
-570.0331420898438
-567.0657958984375
-566.63818359375
-572.867919921875
-572.9031372070312
-574.4549560546875
-574.2593994140625
-574.2033081054688
-574.3176879882812
-575.436279296875
-576.2280883789062
-576.5975952148438
-576.8211669921875
-577.0905151367188
-577.5594482421875
-572.7285766601562
-569.2489013671875
-568.2310791015625
-573.0235595703125
-574.4180908203125
-574.8931274414062
-574.9818115234375
-574.7532958984375
-575.3601684570312
-576.2391357421875
-577.0667114257812
-577.333251953125
-577.852783203125
-572.6320190429688
-573.3995361328125
-573.021484375
-569.8157348632812
-569.3538818359375
-569.8165893554688
-575.7808837890625
-576.2517700195312
-575.8772583007812
-575.9638671875
-576.3411865234375
-576.7977905273438
-577.544189453125
-577.8436279296875
-572.7964477539062
-572.0409545898438
-572.3529663085938
-572.7958984375
-572.3302001953125
-568.5999145507812
-568.6912231445312
-574.5444946289062
-573.7683715820312
-574.2030029296875
-575.0386352539062
-574.9513549804688
-575.2069702148438
-576.0185546875
-576.4409790039062
-576.8173217773438
-577.03955078125
-571.9246215820312
-573.3743896484375
-573.899658203125
-573.057861328125
-570.8836059570312
-569.445068359375
-569.220947265625
-575.4512939453125
-575.5137939453125
-575.9855346679688
-575.7947387695312
-575.9799194335938
-576.8123779296875
-577.1348876953125
-577.6156616210938
-571.6444702148438
-571.9528198242188
-571.18115234375
-571.6259155273438
-570.4390258789062
-568.317626953125
-567.1968383789062
-567.7538452148438
-573.3140258789062
-574.7393188476562
-574.648681640625
-575.7828369140625
-575.9821166992188
-576.9258422851562
-577.7605590820312
-578.0588989257812
-572.9625854492188
-572.7078857421875
-572.5629272460938
-573.0038452148438
-573.6300659179688
-574.119384765625
-573.21826171875
-570.282958984375
-570.5306396484375
-571.2448120117188
-571.7660522460938
-571.921875
-572.4254760742188
-572.0321655273438
-572.8949584960938
-573.45263671875
-574.2410888671875
-575.0655517578125
-575.1488647460938
-575.0488891601562
-575.713134765625
-573.4371337890625
-571.9784545898438
-572.29443359375
-573.9534912109375
-574.5451049804688
-574.607421875
-574.53759765625
-574.4177856445312
-574.410888671875
-574.83544921875
-575.5009765625
-576.1686401367188
-576.7071533203125
-576.718505859375
-576.924072265625
-577.3300170898438
-577.0650024414062
-567.865478515625
-572.5516967773438
-573.0333862304688
-573.4179077148438
-573.9043579101562
-574.5159912109375
-574.4896850585938
-575.489013671875
-575.8262329101562
-576.1276245117188
-576.3662109375
-576.5921020507812
-576.835693359375
-577.2012329101562
-577.3853149414062
-576.2672729492188
-567.2158813476562
-567.0963745117188
-573.17236328125
-572.7086791992188
-574.0366821289062
-573.8880615234375
-573.8682250976562
-574.719970703125
-575.4424438476562
-575.77001953125
-576.373779296875
-576.6158447265625
-576.7594604492188
-577.42431640625
-574.8450927734375
-567.6824340820312
-567.353759765625
-567.572509765625
-573.5792236328125
-573.840576171875
-574.1146240234375
-573.8552856445312
-574.3672485351562
-575.2711181640625
-576.0526733398438
-576.0535888671875
-576.1394653320312
-576.6533813476562
-577.1453857421875
-576.3826904296875
-567.5789184570312
-567.4332275390625
-572.4341430664062
-573.0016479492188
-574.1229858398438
-573.8931274414062
-573.80908203125
-573.8806762695312
-574.5396728515625
-574.86669921875
-575.34375
-575.60302734375
-576.0803833007812
-576.365966796875
-576.6309814453125
-576.572998046875
-572.9248046875
-572.2266845703125
-572.6409912109375
-573.5289916992188
-573.8869018554688
-573.6077270507812
-573.3988037109375
-573.6651000976562
-573.9448852539062
-574.3584594726562
-574.7269287109375
-574.9256591796875
-575.0170288085938
-575.1746826171875
-575.7501220703125
-574.0913696289062
-571.5526733398438
-571.9191284179688
-572.4569702148438
-572.8342895507812
-573.1021118164062
-572.9254150390625
-572.9237670898438
-573.1670532226562
-573.5176391601562
-573.8154907226562
-574.2492065429688
-574.4718627929688
-574.5687866210938
-574.56982421875
-574.6137084960938
-574.4946899414062
-573.1069946289062
-571.00390625
-570.1829223632812
-570.5640869140625
-576.0396118164062
-575.3159790039062
-575.1913452148438
