-5.330520833333333
-4.685185546875
-4.6712044270833335
-4.7243033854166665
-4.716604817708333
-4.633385416666667
-4.6705533854166665
-4.690794270833333
-4.650719401041667
-4.76396484375
-4.836031901041666
-4.6224576822916665
-4.885979817708333
-4.770393880208333
-4.830120442708333
-4.884495442708333
-4.764482421875
-4.8118684895833335
-4.75857421875
-4.722386067708333
-4.796744791666667
-4.749576822916667
-4.861780598958333
-4.924212239583333
-4.636080729166666
-4.9125748697916665
-4.787981770833333
-4.756995442708333
-4.820384114583334
-4.73404296875
-4.728876953125
-4.971803385416667
-4.773421223958334
-4.732945963541667
-4.7151497395833335
-4.762516276041667
-4.86603515625
-4.827447916666666
-4.851412760416666
-4.81685546875
-4.878932291666667
-4.800113932291667
-4.693284505208333
-4.7718717447916665
-4.785797526041667
-4.910953776041667
-4.73349609375
-4.827649739583333
-4.699986979166667
-4.754641927083333
-4.666067708333333
-4.708330078125
-4.798336588541667
-4.908805338541667
-4.777858072916667
-4.694752604166666
-4.639593098958334
-4.841845703125
-4.581959635416666
-4.78810546875
-4.758391927083333
-4.795944010416667
-4.78814453125
-4.741494140625
-4.843668619791667
-4.721796875
-4.7052734375
-4.842607421875
-4.829306640625
-4.760501302083333
-4.668902994791667
-4.780436197916667
-4.758798828125
-4.784108072916666
-4.755787760416666
-4.654453125
-4.764329427083333
-4.705374348958333
-4.743024088541667
-4.651975911458333
-4.781031901041667
-4.735911458333334
-4.869563802083333
-4.691617838541666
-4.802412109375
-4.914143880208333
-4.772535807291667
-4.797802734375
-4.778518880208333
-4.8288671875
-4.743053385416666
-4.658372395833333
-4.8721875
-4.873079427083334
-4.700777994791666
-4.938258463541667
-4.937307942708333
-4.822825520833334
-4.800302734375
-4.77923828125
-4.860296223958334
-4.78607421875
-4.833811848958334
-4.783974609375
-4.8372591145833335
-4.880556640625
-4.691282552083333
-4.785914713541667
-4.776393229166667
-4.76591796875
-4.864283854166667
-4.771087239583333
-4.903346354166667
-4.904661458333333
-4.750533854166667
-4.79169921875
-4.705908203125
-4.799694010416666
-4.797184244791667
-4.800572916666667
-4.86814453125
-4.794407552083333
-4.808063151041667
-4.7931640625
-4.756940104166667
-4.862490234375
-4.970198567708334
-4.7735546875
-4.848971354166666
-4.824137369791667
-4.705608723958333
-4.879772135416666
-4.8300553385416665
-4.846686197916667
-4.776282552083333
-4.910862630208333
-4.812005208333333
-4.736080729166667
-4.74708984375
-4.735061848958333
-4.80974609375
-4.889560546875
-4.672747395833333
-4.906162109375
-4.852942708333333
-4.768990885416667
-4.998623046875
-4.93345703125
-4.809775390625
-4.902926432291666
-4.996959635416666
-4.695244140625
-4.937268880208333
-4.807887369791667
-4.837903645833333
-4.658017578125
-4.737389322916667
-5.02322265625
-4.821435546875
-4.8237923177083335
-4.8359765625
-4.886162109375
-4.896106770833334
-4.9196158854166665
-4.872932942708333
-4.819912109375
-4.7867578125
-4.824840494791666
-4.781604817708334
-4.81265625
-4.833310546875
-4.8758984375
-4.7963248697916665
-4.874742838541667
-4.7742708333333335
-4.770595703125
-4.838763020833333
-4.7362890625
-4.791142578125
-4.988863932291666
-4.768743489583334
-4.80861328125
-4.733899739583333
-4.814791666666666
-4.944625651041667
-4.76189453125
-4.771927083333333
-4.681305338541667
-4.771725260416667
-4.771305338541667
-4.739127604166667
-4.757376302083333
-4.772138671875
-4.885930989583334
-4.900400390625
-4.949248046875
-4.808841145833333
-4.844560546875
-4.903714192708334
-4.801731770833333
-4.901555989583334
-4.865628255208334
-4.920458984375
-4.7589453125
-4.755100911458333
-4.81103515625
-4.839065755208333
-4.889593098958334
-4.785045572916666
-4.7209765625
-4.919563802083333
-4.785426432291667
-4.674860026041666
-4.828736979166667
-4.865693359375
-4.691090494791666
-4.765377604166667
-4.8119921875
-4.7231217447916665
-4.832545572916667
-4.872294921875
-4.986158854166667
-4.9008170572916665
-4.829736328125
-4.84611328125
-4.9076171875
-4.921207682291667
-4.7168196614583335
-4.91900390625
-4.8775423177083335
-4.72119140625
-4.884850260416667
-4.795354817708334
-4.8006380208333335
-4.8368359375
-4.837395833333333
-4.8581315104166665
-4.701917317708333
-4.83712890625
-4.865250651041666
-4.844593098958334
-4.90216796875
-4.877770182291667
-4.861861979166667
-4.7828515625
-4.9578255208333335
-4.713095703125
-4.907333984375
-4.814680989583334
-4.683912760416667
-4.831614583333334
-4.952242838541666
-4.77076171875
-4.96166015625
-4.899235026041667
-4.807757161458333
-4.660953776041667
-4.810550130208333
-4.85513671875
-4.859541015625
-4.747096354166667
-4.7730501302083335
-5.032561848958333
-4.836070963541666
-4.872721354166667
-4.6996875
-4.766165364583333
-4.856985677083333
-4.827571614583333
-4.913873697916666
-4.813932291666666
-4.88595703125
-4.873772786458333
-4.838701171875
-4.843408203125
-4.785325520833333
-4.7114453125
-4.829016927083333
-4.814772135416667
