-0.0
-0.0
-0.0
-0.0230078125
-0.023776041666666668
-0.32919921875
-3.2552083333333335E-6
-1.034599609375
-9.765625E-6
-1.3020833333333334E-5
-3.580729166666667E-5
-1.953125E-5
-3.255208333333333E-5
-3.90625E-5
-3.90625E-5
-2.2786458333333334E-5
-6.510416666666667E-6
-1.953125E-5
-9.765625E-6
-1.6276041666666666E-5
-1.953125E-5
-3.580729166666667E-5
-3.90625E-5
-1.6276041666666666E-5
-1.953125E-5
-1.953125E-5
-2.2786458333333334E-5
-1.6276041666666666E-5
-6.510416666666667E-6
-2.604166666666667E-5
-2.2786458333333334E-5
-3.580729166666667E-5
-1.953125E-5
-1.953125E-5
-6.8359375E-5
-1.6276041666666666E-5
-3.255208333333333E-5
-2.2786458333333334E-5
-1.953125E-5
-2.604166666666667E-5
-1.3020833333333334E-5
-2.2786458333333334E-5
-2.9296875E-5
-9.765625E-6
-2.9296875E-5
-1.953125E-5
-1.6276041666666666E-5
-3.255208333333333E-5
-3.255208333333333E-5
-1.953125E-5
-4.2317708333333335E-5
-3.255208333333333E-5
-9.765625E-6
-2.9296875E-5
-3.90625E-5
-2.604166666666667E-5
-1.6276041666666666E-5
-6.510416666666667E-6
-9.765625E-6
-5.208333333333334E-5
-1.6276041666666666E-5
-1.6276041666666666E-5
-4.2317708333333335E-5
-2.9296875E-5
-2.604166666666667E-5
-9.765625E-6
-1.953125E-5
-1.953125E-5
-2.2786458333333334E-5
-3.580729166666667E-5
-3.255208333333333E-5
-1.6276041666666666E-5
-3.2552083333333335E-6
-2.9296875E-5
-1.3020833333333334E-5
-1.3020833333333334E-5
-4.557291666666667E-5
-1.6276041666666666E-5
-4.2317708333333335E-5
-3.580729166666667E-5
-4.557291666666667E-5
-1.953125E-5
-3.2552083333333335E-6
-1.953125E-5
-4.557291666666667E-5
-1.6276041666666666E-5
-9.765625E-6
-4.2317708333333335E-5
-3.580729166666667E-5
-3.90625E-5
-3.580729166666667E-5
-3.580729166666667E-5
-1.6276041666666666E-5
-2.2786458333333334E-5
-3.255208333333333E-5
-2.2786458333333334E-5
-4.557291666666667E-5
-5.5338541666666664E-5
-3.2552083333333335E-6
-6.510416666666667E-6
-1.953125E-5
-2.2786458333333334E-5
-1.6276041666666666E-5
-1.3020833333333334E-5
-1.3020833333333334E-5
-2.2786458333333334E-5
-2.604166666666667E-5
-1.3020833333333334E-5
-2.604166666666667E-5
-3.580729166666667E-5
-2.2786458333333334E-5
-3.255208333333333E-5
-3.255208333333333E-5
-3.580729166666667E-5
-4.557291666666667E-5
-3.255208333333333E-5
-3.580729166666667E-5
-3.255208333333333E-5
-1.953125E-5
-2.9296875E-5
-1.953125E-5
-1.953125E-5
-3.580729166666667E-5
-2.604166666666667E-5
-2.9296875E-5
-1.953125E-5
-3.580729166666667E-5
-3.580729166666667E-5
-2.2786458333333334E-5
-2.604166666666667E-5
-1.953125E-5
-1.3020833333333334E-5
-4.2317708333333335E-5
-9.765625E-6
-2.2786458333333334E-5
-3.90625E-5
-1.3020833333333334E-5
-3.255208333333333E-5
-1.953125E-5
-2.2786458333333334E-5
-2.9296875E-5
-5.208333333333334E-5
-9.765625E-6
-2.9296875E-5
-3.255208333333333E-5
-2.604166666666667E-5
-1.3020833333333334E-5
-1.953125E-5
-2.2786458333333334E-5
-1.953125E-5
-1.6276041666666666E-5
-1.6276041666666666E-5
-1.3020833333333334E-5
-9.765625E-6
-1.6276041666666666E-5
-2.604166666666667E-5
-2.2786458333333334E-5
-1.3020833333333334E-5
-1.6276041666666666E-5
-3.255208333333333E-5
-1.6276041666666666E-5
-1.3020833333333334E-5
-2.2786458333333334E-5
-3.580729166666667E-5
-1.953125E-5
-2.9296875E-5
-4.2317708333333335E-5
-2.604166666666667E-5
-2.2786458333333334E-5
-3.580729166666667E-5
-9.765625E-6
-4.557291666666667E-5
-1.6276041666666666E-5
-4.2317708333333335E-5
-2.2786458333333334E-5
-6.510416666666667E-6
-1.6276041666666666E-5
-1.6276041666666666E-5
-3.255208333333333E-5
-2.9296875E-5
-5.208333333333334E-5
-6.510416666666667E-6
-1.3020833333333334E-5
-2.604166666666667E-5
-6.510416666666667E-6
-1.953125E-5
-3.580729166666667E-5
-1.953125E-5
-6.510416666666667E-6
-4.2317708333333335E-5
-3.580729166666667E-5
-6.510416666666667E-6
-2.9296875E-5
-9.765625E-6
-1.953125E-5
-9.765625E-6
-1.3020833333333334E-5
-2.9296875E-5
-3.255208333333333E-5
-3.255208333333333E-5
-1.6276041666666666E-5
-2.2786458333333334E-5
-1.6276041666666666E-5
-4.8828125E-5
-4.557291666666667E-5
-2.2786458333333334E-5
-2.2786458333333334E-5
-2.604166666666667E-5
-2.604166666666667E-5
-3.580729166666667E-5
-1.953125E-5
-3.255208333333333E-5
-2.2786458333333334E-5
-2.2786458333333334E-5
-3.255208333333333E-5
-3.90625E-5
-1.953125E-5
-6.510416666666667E-6
-1.6276041666666666E-5
-2.604166666666667E-5
-4.557291666666667E-5
-2.9296875E-5
-4.557291666666667E-5
-3.90625E-5
-1.3020833333333334E-5
-3.580729166666667E-5
-2.604166666666667E-5
-9.765625E-6
-3.580729166666667E-5
-2.2786458333333334E-5
-3.255208333333333E-5
-2.2786458333333334E-5
-2.9296875E-5
-6.510416666666667E-6
-4.2317708333333335E-5
-3.90625E-5
-3.580729166666667E-5
-2.2786458333333334E-5
-1.6276041666666666E-5
-2.2786458333333334E-5
-5.5338541666666664E-5
-2.2786458333333334E-5
-2.2786458333333334E-5
-9.765625E-6
-2.604166666666667E-5
-5.208333333333334E-5
-3.90625E-5
-2.9296875E-5
-2.2786458333333334E-5
-2.2786458333333334E-5
-1.6276041666666666E-5
-1.953125E-5
-2.604166666666667E-5
-1.3020833333333334E-5
-3.2552083333333335E-6
-2.2786458333333334E-5
-3.580729166666667E-5
-1.6276041666666666E-5
-1.953125E-5
-1.953125E-5
-3.2552083333333335E-6
-2.604166666666667E-5
-2.2786458333333334E-5
-1.953125E-5
-2.9296875E-5
-1.953125E-5
-6.510416666666667E-6
-2.604166666666667E-5
-2.2786458333333334E-5
-2.2786458333333334E-5
-3.255208333333333E-5
-2.2786458333333334E-5
-3.580729166666667E-5
-1.953125E-5
-1.6276041666666666E-5
-1.953125E-5
-4.8828125E-5
-1.953125E-5
-2.604166666666667E-5
-2.9296875E-5
-2.2786458333333334E-5
-4.2317708333333335E-5
-1.6276041666666666E-5
-4.2317708333333335E-5
-1.3020833333333334E-5
-1.953125E-5
-3.255208333333333E-5
-3.255208333333333E-5
-3.90625E-5
-2.2786458333333334E-5
-1.6276041666666666E-5
-2.9296875E-5
-2.604166666666667E-5
-2.2786458333333334E-5
-2.2786458333333334E-5
-1.953125E-5
-1.953125E-5
-2.9296875E-5
-1.953125E-5
-2.604166666666667E-5
-2.2786458333333334E-5
-2.9296875E-5
-2.2786458333333334E-5
-2.9296875E-5
-2.9296875E-5
-2.604166666666667E-5
-2.604166666666667E-5
-3.255208333333333E-5
-9.765625E-6
-6.510416666666667E-6
-3.580729166666667E-5
-2.604166666666667E-5
-1.953125E-5
-6.510416666666667E-6
-9.765625E-6
-1.6276041666666666E-5
-9.765625E-6
-1.953125E-5
-3.255208333333333E-5
-1.953125E-5
-1.3020833333333334E-5
-0.0
-6.510416666666667E-6
-2.2786458333333334E-5
-6.510416666666667E-6
-1.6276041666666666E-5
-2.2786458333333334E-5
-3.255208333333333E-5
-9.765625E-6
-2.604166666666667E-5
-9.765625E-6
-1.3020833333333334E-5
-2.604166666666667E-5
-2.2786458333333334E-5
-1.953125E-5
-1.953125E-5
-2.2786458333333334E-5
-2.9296875E-5
-1.3020833333333334E-5
-2.2786458333333334E-5
-4.2317708333333335E-5
-3.90625E-5
-1.953125E-5
-2.604166666666667E-5
-2.2786458333333334E-5
-2.2786458333333334E-5
-1.3020833333333334E-5
-1.3020833333333334E-5
-2.2786458333333334E-5
-2.2786458333333334E-5
-3.255208333333333E-5
-1.6276041666666666E-5
-1.3020833333333334E-5
-2.604166666666667E-5
-1.3020833333333334E-5
-1.953125E-5
-1.953125E-5
-1.6276041666666666E-5
-9.765625E-6
-4.557291666666667E-5
-3.580729166666667E-5
-3.580729166666667E-5
-2.2786458333333334E-5
-1.6276041666666666E-5
-1.6276041666666666E-5
-2.9296875E-5
-2.2786458333333334E-5
-2.604166666666667E-5
-1.953125E-5
-2.2786458333333334E-5
-1.953125E-5
-3.580729166666667E-5
-6.510416666666667E-6
-3.580729166666667E-5
-1.6276041666666666E-5
-6.510416666666667E-6
-3.580729166666667E-5
-1.6276041666666666E-5
-9.765625E-6
-3.255208333333333E-5
-5.859375E-5
-1.6276041666666666E-5
-3.90625E-5
-2.2786458333333334E-5
-1.3020833333333334E-5
-9.765625E-6
-4.8828125E-5
-2.2786458333333334E-5
-1.3020833333333334E-5
-1.6276041666666666E-5
-3.90625E-5
-3.255208333333333E-5
-3.580729166666667E-5
-3.580729166666667E-5
-2.2786458333333334E-5
-1.6276041666666666E-5
-2.2786458333333334E-5
-2.9296875E-5
-4.557291666666667E-5
-1.3020833333333334E-5
-2.604166666666667E-5
-3.255208333333333E-5
-2.9296875E-5
-2.2786458333333334E-5
-9.765625E-6
-1.953125E-5
-2.604166666666667E-5
-2.2786458333333334E-5
-3.255208333333333E-5
-1.953125E-5
-3.255208333333333E-5
-2.9296875E-5
-3.255208333333333E-5
-4.557291666666667E-5
-9.765625E-6
-2.9296875E-5
-1.3020833333333334E-5
-3.255208333333333E-5
-1.953125E-5
-2.2786458333333334E-5
-6.510416666666667E-6
-2.9296875E-5
-2.9296875E-5
-4.2317708333333335E-5
-2.604166666666667E-5
-3.580729166666667E-5
-2.9296875E-5
-3.90625E-5
-2.9296875E-5
-2.9296875E-5
-3.255208333333333E-5
-2.604166666666667E-5
-2.9296875E-5
-2.9296875E-5
-3.255208333333333E-5
-1.953125E-5
-4.2317708333333335E-5
-9.765625E-6
-9.765625E-6
-9.765625E-6
-1.6276041666666666E-5
-9.765625E-6
-3.90625E-5
-4.557291666666667E-5
-2.604166666666667E-5
-1.6276041666666666E-5
-1.3020833333333334E-5
-2.9296875E-5
-6.510416666666667E-6
-1.6276041666666666E-5
-4.2317708333333335E-5
-6.510416666666667E-6
-1.6276041666666666E-5
-9.765625E-6
-9.765625E-6
-2.9296875E-5
-1.953125E-5
-4.8828125E-5
-6.510416666666667E-6
-6.510416666666667E-6
-1.6276041666666666E-5
-2.2786458333333334E-5
-1.6276041666666666E-5
-3.580729166666667E-5
-3.2552083333333335E-6
-4.2317708333333335E-5
-3.580729166666667E-5
-3.90625E-5
-3.90625E-5
-1.953125E-5
-2.9296875E-5
-6.510416666666667E-6
-1.3020833333333334E-5
-1.3020833333333334E-5
-1.6276041666666666E-5
-1.3020833333333334E-5
-1.953125E-5
-2.9296875E-5
-2.9296875E-5
-2.604166666666667E-5
-1.6276041666666666E-5
-1.6276041666666666E-5
-2.9296875E-5
-1.953125E-5
-6.510416666666667E-6
-3.580729166666667E-5
-6.184895833333334E-5
-3.2552083333333335E-6
-2.9296875E-5
-3.255208333333333E-5
-2.604166666666667E-5
-1.6276041666666666E-5
-1.6276041666666666E-5
-2.604166666666667E-5
-1.3020833333333334E-5
-3.580729166666667E-5
-1.6276041666666666E-5
-1.953125E-5
-1.6276041666666666E-5
-2.2786458333333334E-5
-2.604166666666667E-5
-2.604166666666667E-5
-1.953125E-5
-3.90625E-5
-3.255208333333333E-5
-2.604166666666667E-5
-6.510416666666667E-6
-2.2786458333333334E-5
-1.953125E-5
-1.953125E-5
-2.9296875E-5
-2.9296875E-5
-2.2786458333333334E-5
-1.953125E-5
-6.510416666666667E-6
-1.3020833333333334E-5
-2.9296875E-5
-2.9296875E-5
-2.9296875E-5
-9.765625E-6
-3.255208333333333E-5
-1.6276041666666666E-5
-2.604166666666667E-5
-2.9296875E-5
-2.9296875E-5
-3.90625E-5
-1.6276041666666666E-5
-1.6276041666666666E-5
-1.953125E-5
-3.255208333333333E-5
-5.208333333333334E-5
-3.580729166666667E-5
-1.953125E-5
-1.6276041666666666E-5
-3.580729166666667E-5
-3.255208333333333E-5
-2.2786458333333334E-5
-4.2317708333333335E-5
-3.255208333333333E-5
-2.604166666666667E-5
-2.2786458333333334E-5
-1.953125E-5
-2.9296875E-5
-1.3020833333333334E-5
-2.604166666666667E-5
-2.2786458333333334E-5
-9.765625E-6
-1.3020833333333334E-5
-1.3020833333333334E-5
-9.765625E-6
-1.6276041666666666E-5
