-5.436184895833334
-5.0927734375
-5.791376953125
-5.981067708333334
-7.07611328125
-7.418391927083333
-7.65203125
-7.681184895833334
-7.752145182291667
-7.759007161458333
-7.7661328125
-7.744296875
-7.743004557291667
-7.742438151041667
-7.7342317708333335
-7.706878255208333
-7.741839192708333
-7.719446614583333
-7.719765625
-7.704501953125
-7.711988932291667
-7.726064453125
-7.700872395833334
-7.6980859375
-7.713014322916667
-7.690891927083333
-7.684544270833333
-7.69474609375
-7.701907552083333
-7.708268229166666
-7.71533203125
-7.716533203125
-7.695576171875
-7.699837239583333
-7.69625
-7.6866796875
-7.694541015625
-7.68109375
-7.676722005208333
-7.6729134114583335
-7.698408203125
-7.694534505208333
-7.678580729166667
-7.683134765625
-7.665133463541666
-7.665791015625
-7.658541666666666
-7.6600553385416665
-7.664485677083333
-7.650485026041666
-7.660367838541666
-7.662972005208333
-7.6663216145833335
-7.653776041666666
-7.655257161458334
-7.656611328125
-7.666061197916667
-7.6589973958333335
-7.6572493489583335
-7.661695963541667
-7.637086588541667
-7.635543619791667
-7.651845703125
-7.647415364583333
-7.670400390625
-7.625859375
-7.629606119791666
-7.639287109375
-7.634599609375
-7.6400358072916665
-7.6389388020833335
-7.6469108072916665
-7.6572265625
-7.643369140625
-7.632802734375
-7.641044921875
-7.647405598958334
-7.64095703125
-7.64306640625
-7.628606770833334
-7.644182942708333
-7.642333984375
-7.632880859375
-7.645524088541666
-7.617584635416667
-7.611875
-7.6129361979166665
-7.637610677083333
-7.630032552083334
-7.615696614583333
-7.620071614583333
-7.627434895833333
-7.63462890625
-7.6386946614583335
-7.623850911458334
-7.6244921875
-7.611357421875
-7.628880208333333
-7.610660807291667
-7.612659505208334
-7.626943359375
-7.612858072916667
-7.637096354166666
-7.619417317708334
-7.62513671875
-7.618860677083333
-7.611393229166667
-7.601806640625
-7.593655598958334
-7.594303385416667
-7.602239583333334
-7.593356119791666
-7.5879915364583335
-7.538912760416666
-7.600771484375
-7.598968098958333
-7.587926432291667
-7.590491536458333
-7.597630208333333
-7.607138671875
-7.59658203125
-7.610042317708333
-7.604811197916667
-7.614615885416667
-7.589993489583334
-7.600774739583334
-7.612926432291666
-7.600901692708334
-7.5978385416666665
-7.602666015625
-7.588636067708333
-7.608037109375
-7.583430989583333
-7.608264973958334
-7.595143229166666
-7.582005208333333
-7.598111979166666
-7.5980013020833335
-7.596357421875
-7.597708333333333
-7.587809244791667
-7.563492838541666
-7.584212239583334
-7.584072265625
-7.581868489583333
-7.565354817708333
-7.543753255208333
-7.585149739583334
-7.602581380208333
-7.587744140625
-7.571891276041667
-7.589169921875
-7.594020182291667
-7.586572265625
-7.579599609375
-7.565846354166666
-7.51544921875
-7.5853515625
-7.58236328125
-7.579264322916667
-7.597428385416666
-7.579508463541667
-7.58064453125
-7.555895182291667
-7.589469401041667
-7.578343098958333
-7.584619140625
-7.594527994791667
-7.583424479166666
-7.555774739583334
-7.567646484375
-7.489072265625
-7.510380859375
-7.583837890625
-7.559749348958333
-7.583287760416667
-7.554293619791666
-7.529267578125
-7.551474609375
-7.53025390625
-7.5765169270833335
-7.57611328125
-7.55958984375
-7.532887369791666
-7.476780598958333
-7.48541015625
-7.507522786458333
-7.580677083333334
-7.54123046875
-7.552692057291667
-7.50720703125
-7.56345703125
-7.58748046875
-7.525738932291667
-7.574495442708334
-7.476129557291666
-7.54650390625
-7.5071875
-7.563206380208333
-7.526412760416667
-7.507659505208333
-7.554254557291666
-7.535052083333333
-7.521298828125
-7.566630859375
-7.543776041666667
-7.508736979166667
-7.547210286458333
-7.519700520833333
-7.579671223958333
-7.530166015625
-7.522545572916667
-7.535016276041667
-7.468375651041667
-7.48671875
-7.561497395833333
-7.532102864583333
-7.531165364583333
-7.477119140625
-7.462102864583334
-7.473857421875
-7.503759765625
-7.465625
-7.459072265625
-7.47470703125
-7.5424576822916665
-7.494635416666667
-7.574505208333333
-7.500751953125
-7.448541666666666
-7.464830729166667
-7.5214453125
-7.53732421875
-7.526669921875
-7.536529947916667
-7.45515625
-7.46400390625
-7.534251302083334
-7.4587109375
-7.474720052083334
-7.461689453125
-7.464527994791666
-7.456552734375
-7.450032552083333
-7.4540787760416665
-7.463860677083333
-7.449908854166667
-7.497194010416667
-7.5344010416666665
-7.484993489583333
-7.462688802083333
-7.46033203125
-7.458001302083333
-7.461246744791667
-7.443818359375
-7.486363932291667
-7.461617838541667
-7.476197916666667
-7.470817057291667
-7.436904296875
-7.464228515625
-7.457086588541666
-7.46763671875
-7.4490364583333335
-7.483525390625
-7.519583333333333
-7.450423177083334
-7.448499348958333
-7.440335286458334
-7.438154296875
-7.45845703125
-7.455475260416667
-7.454817708333334
-7.488929036458333
-7.529947916666667
-7.5300065104166665
-7.451302083333333
-7.444765625
-7.44029296875
-7.463167317708334
-7.464104817708333
-7.48537109375
-7.528359375
-7.451591796875
-7.454436848958333
-7.447444661458333
-7.460377604166666
-7.454524739583333
-7.434407552083333
-7.452799479166667
-7.4548828125
-7.423802083333333
-7.444225260416666
-7.436686197916667
-7.464697265625
-7.471181640625
-7.449244791666667
-7.451796875
-7.4582421875
-7.45193359375
-7.445712890625
-7.447057291666667
-7.441940104166667
-7.445696614583333
-7.444563802083334
-7.425540364583333
-7.397672526041666
-7.4037890625
-7.387376302083333
-7.390875651041667
-7.387353515625
-7.382477213541667
-7.385690104166667
-7.382721354166667
-7.383509114583333
-7.400550130208333
-7.385387369791666
-7.382737630208333
-7.368942057291667
-7.375218098958333
-7.383922526041666
-7.3801041666666665
-7.385328776041667
-7.38669921875
-7.392522786458334
-7.37845703125
-7.39462890625
-7.404654947916667
-7.406097005208333
-7.3986328125
-7.400930989583333
-7.39408203125
-7.430458984375
-7.3957291666666665
-7.423958333333333
-7.408450520833333
-7.42056640625
-7.396393229166667
-7.394729817708333
-7.403430989583334
-7.414007161458334
-7.402861328125
-7.3853971354166665
-7.390094401041667
-7.41123046875
-7.414641927083333
-7.406009114583333
-7.39578125
-7.415641276041667
-7.388277994791666
-7.407698567708334
-7.405836588541667
-7.410221354166667
-7.405836588541667
-7.397659505208333
-7.406979166666667
-7.416350911458333
-7.388505859375
-7.383173828125
-7.420224609375
-7.41451171875
-7.398684895833333
-7.4083854166666665
-7.411787109375
-7.402119140625
-7.405517578125
-7.38712890625
-7.41201171875
-7.404938151041667
-7.401764322916667
-7.405426432291667
-7.39880859375
-7.3793326822916665
-7.3821875
-7.398118489583333
-7.388020833333333
-7.381829427083333
-7.39484375
-7.3994368489583335
-7.406416015625
-7.3901595052083335
-7.402115885416666
-7.401930338541667
-7.401005859375
-7.377317708333333
-7.390445963541667
-7.401204427083333
-7.4004915364583335
-7.380628255208333
-7.399195963541667
-7.402972005208333
-7.41259765625
-7.380986328125
-7.388336588541667
-7.404010416666667
-7.400846354166666
-7.412613932291666
-7.393590494791667
-7.4056640625
-7.390625
-7.393304036458333
-7.382822265625
-7.404781901041667
-7.367584635416667
-7.386822916666667
-7.400439453125
-7.39828125
-7.377194010416667
-7.3937890625
-7.395618489583334
-7.395169270833334
-7.377724609375
-7.400091145833334
-7.398870442708334
-7.380709635416666
-7.408382161458333
-7.388037109375
-7.380856119791667
-7.384020182291667
-7.394944661458333
-7.4031640625
-7.394651692708333
-7.40037109375
-7.393548177083333
-7.40013671875
-7.383759765625
-7.3792578125
-7.407434895833333
-7.395185546875
-7.381087239583334
-7.402034505208333
-7.387688802083333
-7.3868196614583335
-7.377350260416667
-7.401227213541667
-7.389475911458334
-7.380556640625
-7.373994140625
-7.378323567708334
-7.3810807291666665
-7.389615885416666
-7.3969954427083335
-7.393408203125
-7.397216796875
-7.3996809895833335
-7.383294270833333
-7.3851171875
-7.397685546875
-7.382486979166667
-7.377421875
-7.37916015625
-7.383658854166667
-7.398404947916666
-7.391490885416666
-7.367779947916667
-7.368121744791667
-7.387613932291667
-7.384189453125
-7.405719401041667
-7.398020833333334
-7.378785807291667
-7.387770182291667
-7.398541666666667
-7.395218098958333
-7.374742838541667
-7.387415364583333
-7.371442057291667
-7.389147135416667
-7.384856770833333
-7.390758463541666
-7.389817708333333
-7.377083333333333
-7.3899544270833335
-7.384231770833333
-7.378206380208334
-7.388238932291666
-7.389938151041667
-7.3745703125
-7.376429036458333
-7.393873697916667
-7.3631380208333335
-7.387047526041667
-7.394391276041667
-7.395732421875
-7.391790364583334
-7.407057291666667
-7.379850260416666
-7.384983723958333
-7.371813151041667
-7.376901041666667
-7.393994140625
-7.369768880208333
-7.387366536458333
-7.381829427083333
-7.387978515625
-7.374895833333333
-7.381920572916667
-7.379837239583333
-7.3814908854166665
-7.385472005208333
-7.38279296875
-7.3932421875
-7.3894921875
-7.365582682291667
-7.39736328125
-7.395084635416667
-7.366455078125
-7.381868489583334
-7.377770182291667
-7.379485677083333
-7.394274088541667
-7.392906901041667
-7.3838118489583335
-7.385940755208333
-7.390716145833333
-7.38572265625
