58.33995768229167
58.403154296875
58.42558919270834
58.613704427083334
102.21317708333333
98.90093424479167
114.5354296875
112.06689778645833
111.77650065104167
113.72667643229167
113.37292643229166
112.29115885416667
112.62662760416667
112.914296875
113.09449544270834
112.849033203125
111.46895833333333
110.84118489583334
111.07739908854167
113.454033203125
114.18753255208334
114.563740234375
114.87005208333333
113.61263671875
113.49988606770833
113.39727864583334
113.465556640625
113.67183919270833
113.97856770833333
114.21406901041667
114.33629557291667
114.42325520833333
114.50615885416667
114.64263020833333
114.81260091145833
114.929326171875
114.67611002604167
111.28847981770834
109.85403645833334
109.72047526041666
112.15396809895833
112.59997721354166
113.03232421875
113.441162109375
113.62904296875
113.668232421875
113.61275716145833
113.77448567708333
114.01892578125
114.221962890625
114.42726236979166
114.558095703125
114.6714453125
114.74654296875
114.8564453125
114.98515299479166
114.83764322916667
111.662919921875
110.47921875
110.33308268229166
112.67890299479167
113.06989908854166
113.32577799479166
113.69071940104166
113.950068359375
114.16565104166666
114.200771484375
114.43989908854167
114.682236328125
114.81330403645833
115.01684895833333
115.16473307291666
115.315146484375
115.441572265625
115.51893880208333
115.61200846354167
113.74232096354167
113.61904622395834
112.28537760416667
111.31574544270833
111.33152669270834
113.75867838541667
114.22371419270833
114.58027994791667
114.886669921875
115.074560546875
115.17251953125
115.300947265625
115.41744140625
115.50677734375
115.63510416666666
115.77267578125
115.90516276041667
116.00946940104167
116.05707682291667
116.12774739583334
116.21669596354167
116.30110026041666
116.33966796875
113.78680989583333
112.35733072916666
111.88148111979167
114.0282421875
114.38440104166666
114.75339518229167
115.09862630208333
115.301748046875
115.42336588541667
115.49712890625
115.60884114583334
115.68015299479167
115.82415690104166
115.944150390625
116.04275065104167
116.10798828125
116.20404296875
116.257490234375
116.34347005208333
116.46303059895833
116.519609375
116.48223958333334
115.60635091145834
114.13860026041667
113.79855143229166
114.13061848958333
116.798837890625
117.24952799479166
117.59815104166667
117.82017252604167
115.71380859375
115.772177734375
115.80059244791667
115.92361002604167
116.11294596354166
116.26751302083333
116.386015625
116.445166015625
116.61970052083333
116.64634114583333
116.69484700520833
116.73410481770833
116.78441731770833
116.83759765625
116.389267578125
114.92206705729167
114.13407877604166
114.27545572916667
117.00218424479166
117.40116861979166
117.56496744791667
117.69709635416666
115.50872395833333
115.49029622395834
115.65619791666667
115.86206705729167
115.94521484375
116.10923828125
116.29630208333333
116.40166341145833
116.48459309895833
116.55347330729167
116.623056640625
116.670615234375
116.75037109375
116.83525065104166
116.68242513020833
115.78800130208333
114.98587239583334
115.08990885416667
115.67235677083333
118.34408203125
118.53104817708333
118.64830078125
116.50565755208333
116.60054036458334
116.71173828125
116.79369140625
116.93204752604167
116.96892252604167
117.08192708333333
117.18429036458333
117.24111979166666
117.29853841145834
117.34886393229166
117.37135416666666
117.365009765625
117.40228515625
117.34268229166666
116.71617513020833
115.88234049479166
115.99140950520834
116.480029296875
119.06652669270834
119.24166666666666
119.36844401041667
117.18833333333333
117.18546223958333
117.12680013020834
117.18689127604166
117.30682291666666
117.473896484375
117.495244140625
117.54256184895833
117.59056315104166
117.64735677083333
117.65360677083333
117.73182942708333
117.72358072916667
117.343603515625
116.42792643229167
116.10642252604167
116.451259765625
116.86504557291667
119.3601953125
119.50688802083333
119.5765625
117.3332421875
117.32908854166666
117.35785807291667
117.42714518229167
117.50549479166666
117.569189453125
117.65434244791666
117.67628255208334
117.708916015625
117.74374674479166
117.81037760416666
117.79546223958333
117.23720377604167
116.25763020833334
116.13195963541666
116.528505859375
119.08376953125
119.23943033854167
119.40517578125
117.262177734375
117.32595052083333
117.33541015625
117.357880859375
117.36780924479167
117.49507486979167
117.60715494791667
117.70077799479166
117.77261393229166
117.78369140625
117.78043619791667
117.83014322916667
117.77387369791667
117.192451171875
116.18810546875
115.99875325520833
116.30400065104166
118.97485677083333
119.149140625
119.359326171875
119.46963216145834
119.501318359375
117.15400065104167
117.21437825520833
117.31444661458333
117.39210286458334
117.51700846354167
117.585205078125
117.7281640625
117.86012044270834
117.903935546875
117.91371419270833
117.9823046875
117.82391927083333
117.18578125
116.55228515625
116.65632486979166
119.30677083333333
119.55478190104166
119.68545572916666
119.84292317708334
119.90139322916667
117.61844075520834
117.596005859375
117.63968424479167
117.72598958333333
117.81939127604167
117.90285481770833
117.96152669270833
117.97565104166667
118.04416015625
118.16010091145833
118.20613932291667
118.20469401041667
117.816552734375
116.83775716145833
116.458359375
116.73796223958334
119.40267252604167
119.565966796875
119.603515625
119.53568033854167
119.5115234375
119.47327799479167
119.45173828125
119.61846028645833
119.81265625
119.84967447916667
119.84072265625
119.90873697916666
119.97821940104167
120.100263671875
117.84301432291667
117.89021158854166
117.952275390625
117.01976236979166
115.15513671875
113.90340494791667
116.11138671875
116.5557421875
116.991162109375
119.58286783854167
119.84955078125
119.95203125
119.93240885416667
117.90145833333334
118.265615234375
118.677470703125
118.985263671875
119.25220377604167
119.43969401041667
119.59683919270833
119.71949869791666
119.86325520833333
119.92921223958334
119.628642578125
118.26736328125
117.4635546875
117.52748697916667
117.91748697916667
120.580732421875
120.99201171875
121.302060546875
119.18713541666666
119.232109375
119.28444010416666
119.38361653645833
119.54950846354167
119.74836263020833
119.924443359375
120.076083984375
120.19672200520833
120.25249674479167
120.36304036458333
120.34669270833334
119.57567057291666
115.8940234375
115.53529296875
115.70736653645834
118.38573567708333
118.744345703125
119.09540690104167
119.29949869791666
119.38684895833333
119.36884765625
119.44705403645834
119.65660481770833
119.87654947916667
120.06097005208333
120.1812890625
120.24516927083333
120.30671223958333
120.42739583333334
120.483701171875
120.31527994791666
119.09323893229167
117.98832356770833
117.72323893229166
118.048798828125
120.53598307291666
120.801455078125
121.18091145833333
121.428681640625
119.315361328125
119.32451822916667
119.33458333333333
119.525986328125
119.765146484375
119.97426106770833
120.150986328125
120.25017903645833
120.29075846354166
120.36213216145833
120.41720052083333
120.40050455729167
119.53818684895833
118.04378580729167
117.41102213541667
117.51537760416667
120.10194010416667
120.89897786458333
121.25127604166667
121.560556640625
121.70903971354167
121.68997395833334
119.50619791666666
119.243193359375
119.50755208333334
119.748154296875
119.83229817708333
119.94048502604167
120.07223958333333
120.15661783854166
120.27452799479167
120.35299479166666
120.32529947916667
119.30900716145834
117.96378580729167
117.52103190104167
117.72661458333333
120.28002278645833
120.50081705729167
120.75884114583333
121.00150716145833
121.123134765625
121.10722005208333
118.94161783854166
119.17634765625
119.44145833333333
119.62437825520833
119.78508463541667
119.94138020833333
120.06920572916667
120.17824544270833
120.28717447916667
120.37508463541667
120.32079752604167
119.50240559895833
118.0895703125
117.59716471354167
117.77448567708333
120.37791015625
120.64623372395833
120.95959635416666
121.25329752604166
121.401337890625
121.405126953125
119.299658203125
119.61235026041666
119.86093424479166
120.028603515625
120.171220703125
120.29861653645834
120.40904947916667
120.50154296875
120.53248372395834
120.59659830729167
120.65439778645833
120.35609375
118.951748046875
118.05981119791667
117.98135416666666
118.38705078125
120.995859375
121.323076171875
121.66598307291666
121.84356119791667
119.67488606770833
119.768232421875
119.85451171875
120.04033203125
120.20061197916667
120.35637044270834
120.46701497395833
120.5891796875
120.699970703125
120.73206705729167
120.77107421875
120.77682942708333
120.46202799479167
119.143251953125
118.359970703125
118.363505859375
118.7693359375
121.41310872395833
121.76142903645834
122.071005859375
122.13951171875
119.90609375
119.90185872395833
120.079375
120.25332682291666
120.42395833333333
120.54597330729166
120.62072916666666
120.67245768229166
120.7117578125
120.79314453125
120.86325520833333
120.56908854166667
119.232607421875
118.25584635416666
118.24040364583334
120.90037760416666
121.43058919270834
121.811884765625
122.016162109375
122.12181966145833
119.88458333333334
119.87693033854167
119.959365234375
120.115791015625
120.27885091145833
120.44210611979166
120.52542643229167
120.58369140625
120.65369791666667
120.72190104166667
120.60277018229166
119.55978841145833
118.18375
117.668701171875
117.95125651041667
120.608759765625
121.42389973958333
121.83306966145834
122.06427408854167
122.098974609375
122.07487955729167
122.126953125
122.31126953125
122.48216145833334
122.632490234375
122.78695963541666
122.905361328125
120.77662760416666
120.46400065104167
120.434111328125
119.758359375
118.10529296875
116.94399088541667
116.92596028645833
119.55413736979166
119.9023046875
119.9635546875
120.30044270833334
120.85101888020833
120.88293619791666
120.86126953125
120.99888671875
121.27616536458333
121.55461263020834
121.76834309895834
121.88573567708333
122.01786458333333
122.08187174479167
119.98625
120.08870768229167
119.7915234375
118.18597005208333
116.57771158854166
116.24251627604167
118.80056966145834
119.153369140625
118.933916015625
121.22284830729167
121.60480794270833
121.99789388020834
118.538408203125
118.65933268229166
118.81419596354166
120.79324544270834
121.0391796875
121.26396158854166
121.405126953125
121.538017578125
121.67673502604167
121.75290364583333
121.85322916666667
121.74318359375
120.38175130208333
118.335126953125
117.404345703125
117.74015950520834
120.27182942708333
119.912109375
118.47446614583333
118.885693359375
119.098369140625
119.14115885416666
119.304990234375
119.55056640625
120.11064127604166
120.47655924479167
120.74508463541666
119.2086328125
119.41446940104167
119.55689127604167
121.38612630208333
121.557568359375
121.68254557291667
121.5798828125
120.16748372395833
117.91513020833334
117.18875651041667
117.746220703125
120.33678059895833
119.982705078125
120.38544921875
120.73451171875
119.21329427083333
119.30509114583333
119.44998697916667
119.68224609375
120.25658203125
120.57484049479167
120.87624348958333
119.37697591145833
119.55720052083333
121.41700520833334
121.4946484375
121.63326822916666
121.78022786458334
121.85693684895833
121.32414388020834
119.420546875
117.968154296875
117.89522135416667
120.3501953125
120.35625651041667
120.50640299479167
119.21880208333333
119.66671223958333
119.884462890625
120.04397786458334
120.23634765625
119.00761067708333
119.336376953125
119.57940104166667
119.65844075520833
121.56845052083334
121.698154296875
121.81764322916666
121.86453776041667
121.9521875
122.02575520833334
121.37391276041667
119.795625
118.763828125
118.88013997395834
121.44319010416666
121.69107096354166
121.77502604166666
122.04715169270834
122.254208984375
118.71388671875
119.08486328125
119.34685872395833
121.320302734375
121.533564453125
121.647763671875
121.778681640625
121.89189127604166
121.971845703125
122.05666666666667
122.122509765625
121.86755859375
120.43029622395834
119.02783528645833
118.773955078125
119.28896484375
121.86132486979167
121.59356770833334
120.19705729166667
120.60625
120.63972330729166
119.15436197916667
119.299765625
119.555146484375
121.43832682291666
121.67698893229166
121.78808268229167
121.84798828125
121.97760091145834
122.10132161458333
122.14833984375
121.65220703125
120.03342122395833
118.661904296875
118.65946614583333
121.27993815104166
121.44412109375
121.52685221354167
121.875283203125
120.371083984375
120.50882161458334
118.81323893229167
119.28177734375
119.51125
119.76476236979167
121.61934895833333
121.765244140625
121.89548177083333
121.92557291666667
122.04775065104167
122.01783528645834
120.904873046875
118.955078125
118.047041015625
118.30791666666667
120.817734375
120.52651692708334
119.13802734375
119.541962890625
119.80935872395834
119.85817057291666
119.933486328125
120.27076822916666
120.559296875
120.79862955729166
121.28259114583334
119.42583658854167
119.88594075520834
120.03981770833333
121.87779947916667
121.93135416666667
121.08498046875
118.82327473958334
117.318779296875
117.550859375
120.18510416666666
119.856875
120.13919270833334
121.10491861979166
121.352373046875
121.36305338541666
118.10817708333333
118.414248046875
118.76500651041667
120.05616536458334
120.36458658854167
120.599521484375
120.89518880208334
121.30334309895834
119.74525716145833
119.90220377604167
119.98383138020833
119.22669596354167
118.55524088541667
116.97220377604167
117.23222005208333
119.79199869791667
119.91834309895833
120.18555338541667
121.169931640625
121.07530924479167
121.10949869791666
117.78561197916666
118.02628580729167
118.35027018229167
119.71804036458333
120.03492513020834
120.29592122395833
120.53161783854166
120.84319661458333
120.994306640625
121.64905924479167
119.76806315104167
119.8665625
120.47478841145833
117.97954752604167
116.87072916666666
119.35806966145833
119.38647786458333
119.647509765625
120.60812825520833
120.96114583333333
121.17148763020833
117.882490234375
117.96869140625
118.21921223958333
119.55126627604167
119.952978515625
120.30386393229166
120.52848958333334
120.83137044270833
121.0011328125
121.40571940104167
119.7858203125
119.95167317708334
121.68584635416667
120.71655598958333
118.5415625
117.42035807291667
119.93878580729167
120.312373046875
120.38330729166667
123.14728841145833
123.89824544270833
122.34018229166666
119.99140625
119.68978841145834
119.93331380208333
120.30106119791667
120.59145182291667
120.8332421875
121.069189453125
121.47459635416666
119.88597005208334
120.04060872395833
120.14650390625
121.80955403645834
120.74747721354167
118.799228515625
117.984443359375
120.48083984375
120.72770182291667
119.19204427083334
121.89748372395833
122.58760416666667
121.72318359375
119.44515299479167
119.33474609375
120.607216796875
120.92029296875
121.04021158854167
121.328564453125
121.68782552083333
120.11114583333334
120.26811197916666
120.35014973958333
120.449482421875
121.57727213541666
119.808095703125
118.44949869791667
118.504052734375
121.12169596354167
120.96506510416667
119.6032421875
119.97977213541667
120.270234375
120.42642903645833
120.51054036458333
120.85283528645833
121.05591471354167
121.33657877604166
121.54055013020833
121.907939453125
120.290595703125
120.43978841145834
122.222958984375
122.29540364583333
122.34501302083333
121.53055989583333
119.84137369791667
118.91742838541667
119.11533854166667
121.70094075520834
121.48447265625
120.119482421875
120.48192057291666
120.71959635416667
120.83311848958333
121.04545572916666
121.198759765625
121.65862630208333
121.86811848958334
122.38415364583334
120.50085611979166
120.61472005208333
120.72515299479167
122.49665690104166
122.58440104166667
122.67427734375
122.51903645833333
121.24314778645834
119.77881510416667
119.35217122395834
121.80238932291667
122.007744140625
120.30502278645834
120.568388671875
120.90533854166667
121.043369140625
121.20807291666667
121.33013346354167
121.76872721354167
121.93539713541666
122.111669921875
120.53737955729167
120.68898763020833
120.79775065104167
122.56918294270834
122.65775390625
122.76805989583333
122.82815104166667
122.74508463541666
121.67999348958334
120.18457356770833
119.656220703125
119.988564453125
122.58285807291666
122.29825520833333
122.59771158854167
121.21626627604167
121.36943684895833
121.5381640625
121.66335286458333
122.04021158854167
122.51228841145833
120.61542317708333
120.785419921875
120.87689778645833
122.65029622395834
122.78224934895833
122.83046549479167
122.89986328125
122.96568684895833
122.909287109375
121.97347005208333
120.63189778645834
120.33795247395834
120.80321940104167
123.44727213541667
123.14159505208333
121.74154622395834
121.95804361979167
122.07923502604167
120.54189127604167
120.587490234375
120.743603515625
122.524453125
122.65331380208333
122.72601888020833
122.84553059895833
122.96781575520833
123.015849609375
123.05884440104167
123.113740234375
123.13510091145834
122.839697265625
121.56843098958333
120.64505208333334
120.69569986979167
123.35744140625
123.25366861979167
121.72322265625
121.98856770833333
122.14423177083333
122.39975260416666
120.69583333333334
120.791376953125
122.59794270833333
122.7566796875
122.88082682291666
122.98439127604166
123.09580078125
123.14199869791666
123.20012369791667
123.28536458333333
123.096904296875
121.88516276041666
120.74023111979167
120.607041015625
123.14398111979166
123.38745442708333
123.36668619791666
122.00947591145834
122.12828776041667
122.24091471354167
120.656591796875
120.833125
121.04237955729167
122.85983723958333
123.021728515625
123.10172200520833
123.16154947916667
123.22800455729167
123.326318359375
123.339560546875
122.81564453125
121.20955078125
120.06333658854167
119.88953125
122.27376953125
122.41265950520834
122.600693359375
122.786484375
121.18002278645834
121.04060872395833
120.87902994791666
120.925419921875
121.15875651041667
121.40558919270833
121.693125
121.910234375
122.09951822916666
122.27560546875
122.35600260416666
122.56761393229166
122.11271484375
120.073369140625
118.06844075520833
118.00254231770833
120.644091796875
120.55292317708333
120.80500325520833
121.23047526041667
121.7966796875
121.100712890625
121.163955078125
119.03607096354166
119.38028645833333
119.87235677083333
120.27385416666667
121.51872395833334
121.798623046875
122.16030598958334
122.37655924479166
122.80379557291667
121.13652669270833
119.96234049479166
117.565595703125
116.26352864583333
120.14275390625
120.15025716145833
120.3943359375
121.337568359375
121.65484375
121.87069661458334
120.938271484375
118.73336588541666
118.93319661458334
119.31095703125
119.59412760416667
119.89904296875
121.14082682291667
121.534228515625
121.81450520833333
122.01466145833334
122.322578125
122.67965494791666
119.84495768229166
117.54056966145833
116.30609700520833
120.21395833333334
120.28067057291666
120.52430013020833
121.51306315104166
122.261865234375
122.45254231770834
121.41571614583333
121.457001953125
121.62922526041666
121.94871419270834
122.349404296875
120.395830078125
120.37283203125
120.637060546875
120.79437825520833
121.88386067708333
122.11784830729167
122.54289388020834
122.54211588541666
120.654453125
116.518955078125
116.35119791666666
117.031513671875
118.98205403645834
120.983642578125
121.40365559895834
123.88842447916667
122.05959635416667
121.98294270833334
119.85906575520833
119.32187825520833
119.69472981770834
120.05280598958333
121.2412890625
121.46935546875
121.63998046875
121.87092447916666
122.050263671875
122.164072265625
121.68703125
119.82215494791667
118.76140950520833
118.986376953125
121.43066080729167
121.81338541666666
121.29559244791666
121.71530924479167
119.59693033854167
119.55437174479167
119.60138997395833
119.82878255208334
121.0937890625
121.335458984375
121.56222005208333
121.784755859375
122.06077473958334
122.2174609375
122.34222005208333
122.68853515625
122.95512044270833
119.74996744791666
117.58426106770834
116.473330078125
120.51650065104167
120.57731119791667
120.80213216145833
121.7677734375
122.5590625
122.759560546875
121.739228515625
121.80053059895833
119.70200846354167
119.69096028645833
120.12135416666666
120.415888671875
121.5941796875
121.818818359375
122.10955729166666
122.16126627604167
122.33052734375
122.67966145833333
122.26974283854166
118.12299153645833
116.50311848958333
118.26173177083334
120.316708984375
120.58877278645834
120.92342122395833
123.61897135416666
123.86679361979166
121.35544596354167
119.07032877604166
119.27045572916667
119.60332682291667
120.01515950520833
120.32144205729166
121.49767252604167
121.680341796875
121.85293619791666
122.07565755208333
122.22570963541666
122.38035807291666
122.66720052083333
122.02701822916667
120.25553059895833
118.63241536458334
118.76026692708334
121.16123046875
121.417978515625
121.72210611979166
122.1283984375
121.43224934895834
121.57516927083333
119.36488606770833
119.53285481770833
119.85060221354166
120.15232096354167
121.31593098958334
121.624267578125
121.79256184895833
121.95877278645834
122.19776692708334
122.31890299479167
122.39951171875
122.76396158854166
122.77344075520833
122.02205729166667
118.17486328125
117.31852213541667
117.63343424479167
119.64243815104167
120.0108984375
120.35227864583334
122.99362630208333
123.15414713541666
123.18615885416666
120.91708333333334
121.22567057291667
121.463828125
121.68951171875
121.90765299479166
122.01009765625
122.401630859375
122.52178385416667
122.612080078125
122.71655598958333
123.36545247395833
121.43069661458334
121.35146158854167
120.052265625
120.13690755208333
119.54144205729166
122.02852864583333
121.950400390625
122.363720703125
125.066884765625
123.63115234375
123.71958658854167
121.44227213541667
120.63991536458333
120.9812890625
121.25178059895833
122.31463541666666
122.549814453125
122.69600260416667
122.78487630208333
123.179990234375
121.55134440104166
121.75302408854166
121.78037760416667
121.53969401041667
121.74334635416666
120.58449544270833
120.39642252604166
122.956484375
122.88710286458333
123.305107421875
122.017080078125
122.13504231770834
122.111435546875
122.107734375
122.28349934895833
122.48731770833334
122.73908528645833
122.88021158854167
123.05947265625
123.429775390625
121.81772786458333
122.00344075520833
123.7053125
123.70160807291667
123.06286783854166
121.49969401041666
120.65273111979167
120.81743815104167
123.43532877604167
123.23615885416666
123.60482096354167
122.29293619791666
122.441005859375
122.44001953125
122.54857421875
122.90440755208333
123.055595703125
123.26779296875
123.51544596354167
123.76010091145834
122.20582356770834
122.32404947916666
122.404892578125
124.0612890625
123.83819661458334
122.48239908854167
121.36531901041667
121.20749348958333
123.73657877604167
123.71425455729167
123.99868815104166
124.33012044270833
123.00294270833334
123.27873372395834
123.4005078125
121.981259765625
122.19361002604167
122.386591796875
124.12679361979167
124.27173177083333
124.38752604166666
124.41271809895834
124.45259114583334
124.50294921875
124.51343424479167
123.79115234375
122.25603841145833
121.50724283854167
121.643515625
124.17831705729166
123.89004231770834
124.19472981770834
124.45729166666666
122.96817708333333
123.066416015625
123.0990234375
123.524365234375
123.97974934895834
124.17770833333333
122.29362630208334
122.44859049479167
122.55794596354167
124.25765299479167
124.31441080729167
124.37483723958333
124.40653971354166
124.01916666666666
122.487685546875
121.23900390625
120.96024088541667
123.425
123.27267578125
123.40450846354166
123.738701171875
122.36472330729167
122.44701171875
122.42327473958333
122.577998046875
122.81876302083333
123.13149088541667
123.31830403645833
123.48152669270833
123.60384114583333
122.214990234375
122.29087239583333
122.367919921875
124.09264322916667
124.030283203125
122.92027994791667
121.22765950520834
120.30685221354166
122.55741536458333
122.37754557291667
122.550556640625
125.14441080729166
124.24181315104167
124.41815104166666
122.05721028645833
120.808193359375
121.01524739583333
121.338134765625
122.55099283854166
122.77244466145834
122.91075846354167
123.18488932291666
123.31877604166667
123.72299479166666
123.83411458333333
122.20282877604167
122.2472265625
123.02244140625
121.44048502604167
120.43637369791666
122.61131510416666
122.44037434895833
122.544384765625
123.50475911458334
123.78669921875
124.000341796875
120.72097330729167
120.82293294270833
120.99749674479166
122.21
122.503291015625
122.74810872395834
122.96009440104167
123.263203125
123.39035807291667
123.51954427083334
122.13196940104167
122.28560872395833
124.0585546875
123.94282552083334
122.65103515625
121.28905924479167
120.837724609375
123.18849934895833
123.04319986979166
123.19726236979167
123.4540625
122.101845703125
122.19637369791667
122.11025390625
122.25936848958334
122.46757161458333
122.71406575520834
122.93676432291667
123.15747395833333
123.399736328125
123.54655598958334
123.935771484375
122.23917643229167
122.33189453125
122.451123046875
122.499169921875
123.40939453125
121.92414713541666
121.173388671875
121.33660807291666
123.53028645833334
123.53194661458333
122.22902994791667
122.54626953125
122.66620768229167
122.684921875
122.68847005208333
122.95989908854166
123.21991536458333
123.42804036458334
123.57827473958334
123.70683268229166
124.12546875
122.48003255208333
122.60542317708334
122.68992513020834
122.72416015625
124.43548828125
124.06291015625
122.67315104166667
121.74747721354167
121.765048828125
124.252216796875
124.018115234375
124.3363671875
124.64284505208333
123.1432421875
123.11666666666666
123.133115234375
123.39167317708333
123.57115885416667
123.83806966145833
123.80243489583333
123.97378580729166
122.28427408854166
122.687080078125
122.75660481770834
122.827802734375
124.53029947916667
124.00887369791667
122.54486979166667
121.81965494791666
121.92184244791666
124.47652018229167
124.29220703125
124.58251953125
124.80963216145834
123.23428059895834
123.22326497395834
123.19119140625
123.62201171875
123.83848307291667
123.78215494791667
123.98341796875
124.42199869791666
122.77076171875
122.893623046875
122.99023111979167
122.98621419270833
124.004853515625
122.440693359375
121.60671223958333
121.58845052083333
124.05411783854167
123.76593424479167
122.40514973958334
122.71685221354167
122.84329427083334
122.86366861979167
122.7946484375
122.99542643229167
123.23184895833333
123.44206380208334
123.64193684895834
123.756875
123.90377278645833
122.20845052083334
122.71683268229167
122.71875651041667
122.07456705729167
121.85712239583333
120.39940104166666
120.16133463541667
122.15578776041667
121.968388671875
122.15769205729167
123.07684895833333
123.2084375
123.08888020833334
122.016279296875
119.84365234375
120.09718424479166
121.32502604166666
121.59451171875
121.82473307291667
121.94689127604167
122.07318684895833
122.28101236979167
122.38353190104166
122.18364583333333
120.4365625
118.14790690104167
117.37713216145833
120.064619140625
120.502431640625
120.70222005208333
122.91038411458334
122.98845703125
123.215068359375
121.05807291666666
118.86847005208334
119.12472330729166
119.53255859375
121.715361328125
122.1061328125
122.394892578125
122.63146158854167
120.51666666666667
120.71736979166667
121.81234700520834
121.728369140625
120.27904947916667
118.11240234375
117.228505859375
119.945078125
120.83542643229167
121.04433268229167
123.21890299479166
122.96512369791667
123.26848307291667
121.090234375
118.90607421875
119.23340494791667
119.57977213541666
121.85154296875
122.17149088541667
122.45712890625
122.69288736979166
120.58106119791667
121.17010416666666
122.290615234375
122.505810546875
122.41368815104167
120.654462890625
118.32066080729167
117.549375
120.21306966145833
120.37143880208333
120.255849609375
121.54637369791666
122.57321940104167
123.043291015625
118.82498372395834
118.71408854166667
118.962900390625
121.15451171875
121.61581380208334
121.841103515625
122.06365885416666
122.31060221354167
122.41514973958333
122.488818359375
120.36381184895833
120.44455403645833
120.85042317708333
118.94370442708333
116.97599934895834
116.67816731770833
119.55456705729166
119.9385546875
121.02388671875
121.78331705729167
122.3506640625
120.65967447916667
120.56646484375
118.49557291666666
118.563017578125
118.899423828125
119.14873697916667
121.22844075520834
121.56884765625
121.7407421875
121.849521484375
122.02471354166667
122.0182421875
120.63770182291667
118.19064453125
117.05677734375
117.38931966145833
120.276044921875
120.52955078125
119.04949869791666
119.503212890625
119.92918619791666
119.83690104166666
119.859599609375
120.44644205729166
120.820869140625
121.21422526041667
121.579931640625
119.66266927083333
119.64254231770833
119.92779296875
121.881748046875
121.94248046875
121.332900390625
119.04318033854166
117.06465494791667
117.07626953125
119.88616861979166
120.69664713541667
120.43198567708333
118.97624348958334
119.36512044270833
119.4658203125
119.755849609375
119.86777994791667
120.49687174479166
120.95432291666667
121.33909830729166
121.67447265625
119.72578450520834
119.691943359375
119.81193359375
121.81568359375
121.94722005208334
121.70132486979166
119.91478841145833
117.43611328125
116.85659830729166
117.47740234375
120.13394856770833
120.377607421875
118.84708333333333
119.33781575520834
119.658095703125
119.69841145833334
120.00947591145834
120.529462890625
120.877373046875
121.28770833333333
121.63878580729167
119.68430013020833
119.5541796875
119.74927408854167
121.729697265625
121.86146158854167
122.03519205729167
122.19813151041667
121.92643880208334
120.120908203125
117.83103841145834
117.38220703125
118.03097981770833
120.66733072916666
120.89583333333333
121.28282552083333
119.78837239583333
120.267216796875
120.37875651041666
120.77128255208333
121.08636393229166
121.54337239583333
121.96168619791666
120.01437825520833
119.96754557291666
122.09201822916667
122.24203776041666
122.41694986979167
122.64347005208333
122.7686328125
120.654072265625
120.26962890625
118.41095703125
116.60147135416666
117.34516276041667
120.260380859375
120.76664713541666
120.91263346354167
123.53855794270834
124.53296223958333
121.81328450520833
119.73399088541667
119.57721354166667
121.70135091145833
121.98152669270833
122.17164713541666
122.37883463541667
122.59405598958334
122.79951171875
122.93025065104166
120.72737630208333
120.82478841145833
120.94946614583333
121.040390625
120.35047200520833
119.49188802083333
118.39277994791667
118.533369140625
121.49562174479166
122.053212890625
122.36638671875
121.70713541666667
121.99082356770833
122.10588216145834
122.15123697916667
122.25233723958333
122.45532877604167
122.635673828125
122.87751953125
122.99639973958334
120.82326497395833
120.981513671875
121.09134440104167
122.14737955729167
122.23069661458334
122.17356119791667
121.12607747395833
119.61110677083333
119.19325846354167
121.93645182291667
122.59860026041666
123.0891015625
122.41506510416667
122.78291015625
122.87425130208334
122.890615234375
120.62258138020833
120.850478515625
121.95739583333334
122.06662109375
122.142021484375
122.3075
122.35067057291667
122.47155598958334
122.57638671875
122.60846028645834
122.096357421875
120.635478515625
119.77862955729167
119.988095703125
122.98600260416667
123.523955078125
123.91796223958333
123.19137369791666
123.29267252604167
120.98161458333334
121.03364908854167
121.14370442708334
121.33470052083334
122.42730794270834
122.61462239583334
122.741865234375
122.81675455729167
122.92100260416667
123.007685546875
123.0009375
122.12115559895834
120.51490559895834
119.83804036458334
120.24181966145834
123.10091796875
124.02156575520833
124.349638671875
124.55572916666667
123.740419921875
123.6932421875
123.69222005208333
121.489697265625
121.31217122395833
121.42697916666667
122.49689453125
122.60892903645833
122.72839192708334
122.81305989583333
122.87070638020833
122.57416015625
121.032763671875
119.64378255208334
119.21689127604166
121.97091796875
122.93871744791667
123.31967122395834
122.75850911458333
123.09734375
123.18052408854167
123.19527994791666
123.3281640625
123.48454427083334
123.69490885416667
123.86728190104166
124.00373046875
124.1487890625
121.969052734375
121.644912109375
121.645263671875
121.35175130208333
119.68931966145833
118.881416015625
118.478095703125
121.19102864583333
121.65430338541667
121.90318359375
124.14460286458333
124.27193359375
124.47026041666666
122.19095377604167
120.00613606770834
120.34682291666667
120.624873046875
122.632998046875
122.86375651041666
123.03531575520833
123.14093098958334
123.29701171875
121.06216145833334
121.14935221354166
121.25074544270834
120.78073893229167
119.87972981770834
118.17805338541666
118.00611979166666
120.752724609375
121.46734375
121.53715169270833
123.17505859375
123.822451171875
123.97197591145833
119.837548828125
120.03615885416667
120.4420703125
122.66845052083333
122.912021484375
123.10841471354166
123.22897786458333
123.37401692708333
123.50623046875
123.54110026041667
123.62078450520833
123.69592122395834
123.79580078125
123.72157552083333
122.36418619791667
120.468525390625
119.84776692708333
120.29030924479167
122.97609049479166
122.96098958333333
123.03205403645833
121.73629557291666
122.23563151041667
120.063515625
119.7949609375
120.10722330729166
120.41091796875
122.55271484375
122.722666015625
122.86523763020833
123.02157877604166
123.176640625
123.30795247395834
123.3921484375
121.14870768229167
121.28351236979167
122.27122395833334
121.62024088541666
119.90200520833334
118.848330078125
121.36062174479167
121.89248046875
121.33262044270833
123.65951171875
124.674013671875
122.94550455729167
120.77207682291667
120.548505859375
120.681357421875
120.90380859375
121.1626171875
123.151845703125
123.28365885416666
123.39392252604166
123.52223307291666
121.327734375
121.44625651041666
122.469423828125
122.58960611979167
122.33637369791667
120.99056966145834
119.95317057291666
119.89231119791667
122.735537109375
123.249462890625
123.59099283854167
122.89930013020833
123.06027994791667
123.044365234375
123.02759114583333
123.181455078125
123.35231770833333
123.54344401041666
123.72455729166667
121.53825520833334
121.64454427083334
121.750654296875
121.81657877604167
122.81859049479166
122.884365234375
122.44315755208333
120.9362890625
120.03783528645833
120.127412109375
122.94810546875
123.89544596354166
124.19947916666666
123.5155078125
123.72079427083334
123.68324544270833
123.67857747395833
123.807353515625
124.01182291666667
124.16226236979166
124.34887044270833
124.44463216145833
124.52169596354166
122.224248046875
122.289423828125
123.2992578125
123.33260416666667
122.88472981770833
121.37346354166667
120.45437825520834
120.49404622395834
123.342802734375
123.42003580729167
123.67875325520833
123.01046875
123.22989583333333
123.28508463541667
123.28221028645834
123.14500651041666
123.13976888020834
123.57958984375
123.94288411458334
123.86639973958333
121.16640299479167
120.71355794270833
120.40652994791667
120.95349934895833
122.996435546875
123.01552734375
120.29277018229166
116.67110026041667
114.69843424479167
115.17348307291667
114.35550130208334
115.91513671875
113.64408854166666
116.03380208333333
115.75508138020834
112.18296223958333
114.06682942708333
114.19237955729167
114.06881184895833
114.38325520833334
114.89795572916667
114.57509440104167
115.00386393229167
115.161494140625
113.33994140625
113.40320963541667
113.79275716145834
114.17268229166666
111.53481770833334
108.676513671875
106.89751627604167
108.26412434895833
107.73757161458333
108.62310221354167
108.375576171875
108.512841796875
107.93070638020833
107.40794921875
107.04366861979166
106.19351888020833
106.5481640625
106.86785481770833
107.09436197916666
107.64375
108.00798828125
108.28616536458334
108.60620768229167
108.52890299479166
106.53482747395833
101.612841796875
99.59306315104166
99.63879557291666
101.21154296875
101.00935872395833
102.92501627604166
102.80480143229167
102.43196614583333
100.13419921875
99.90515950520833
99.78397135416667
98.64217122395833
98.94755859375
99.58197916666667
100.22477213541667
100.778056640625
101.31730794270834
102.00950846354166
101.78301432291667
97.34482421875
94.659609375
92.55470377604166
93.67943033854166
93.983125
95.834013671875
96.14068359375
93.02934244791666
94.9742578125
94.74881184895834
94.50710286458333
94.48614908854167
94.78136067708333
94.20350260416667
94.639755859375
95.17862630208333
93.7735546875
94.30832356770833
94.858212890625
96.23493815104166
95.28416015625
92.38675130208334
89.31906901041667
87.56146158854166
88.93222005208334
89.04999674479167
90.825029296875
91.01285481770833
90.28384440104166
90.52500325520833
90.35950520833333
86.25663736979166
86.46247395833333
86.78759114583333
87.27382161458333
87.866171875
88.533125
89.31755533854167
89.88130208333334
88.81878580729166
89.096787109375
89.688837890625
89.96335611979167
89.95287109375
86.65804036458333
83.90684244791667
85.72783528645833
85.66142578125
87.24939453125
86.51101888020834
86.81736328125
88.79392578125
84.706787109375
84.55120442708333
84.632197265625
83.20455078125
83.71005533854166
84.314833984375
84.937548828125
85.55581705729166
86.18553059895834
85.04541341145833
85.484052734375
85.97597005208333
88.30268880208334
88.73267252604167
87.5788671875
86.151259765625
83.03198567708333
79.88038411458334
82.38619791666666
83.86160807291667
84.00288411458334
81.71736653645833
82.11984375
82.45110677083333
82.4313671875
82.38326497395833
82.27216471354167
79.761455078125
80.13900390625
80.70693033854167
81.25138997395834
80.28694010416666
81.31531575520833
84.62934244791667
85.204384765625
85.76847330729167
84.49357421875
84.96825520833333
85.65619791666667
87.611083984375
85.54570963541667
80.56329752604167
78.22973958333333
77.59040690104166
79.15359700520834
83.40912434895833
85.68859375
86.249541015625
82.49399739583333
84.16568359375
84.20292317708333
82.71266927083333
83.152578125
83.801953125
80.30977864583333
81.18158528645833
82.35580078125
85.76222005208334
84.70783203125
85.253623046875
87.45830078125
88.00900065104166
86.912451171875
87.113388671875
85.34299479166667
82.45602864583333
84.19829427083333
83.420234375
85.15974934895833
85.41214192708334
87.73557942708334
87.93762044270834
82.60365234375
82.6488671875
82.8608984375
82.89270833333333
83.16868815104166
83.694736328125
84.34928385416667
85.08763020833334
85.80024088541667
84.72463541666667
85.30555338541667
85.83146158854167
88.097705078125
86.93996419270833
87.30451497395833
91.385673828125
89.17214518229167
86.29233723958333
84.705234375
86.00289713541666
86.22403971354167
84.23552734375
84.80941731770834
85.47658203125
83.77162434895833
84.01602213541666
83.78810221354166
83.82818684895834
84.196630859375
84.71918619791667
85.40348958333334
86.16869791666667
86.84250325520833
85.74049479166666
86.38177083333333
86.93469075520834
87.45573567708334
87.75078776041667
86.847021484375
87.757373046875
85.8148828125
85.01178385416667
86.7635546875
87.07654947916667
89.46600260416666
86.01495768229167
86.50415364583333
86.512294921875
84.42738932291667
84.28528971354167
84.41686848958334
84.861748046875
85.445693359375
86.13599283854167
86.709541015625
85.51504557291666
85.969990234375
88.19998697916667
88.50977213541667
86.84510091145833
82.25441731770833
80.444228515625
79.96938151041667
85.408935546875
85.97830078125
88.01114908854167
84.52343098958333
84.71976888020833
84.52806640625
82.97762044270833
83.00475911458334
83.28227213541666
83.71723958333334
84.32043619791666
84.89734375
85.43943684895834
85.897109375
86.36762044270833
84.69195963541667
82.7676953125
80.13586263020834
79.81687174479167
80.38918294270833
80.17577799479167
81.65659505208333
82.0563671875
82.35749674479166
79.75532877604167
79.65285481770833
79.54910807291667
76.58472005208333
76.90496744791666
77.40759114583334
79.41992838541667
80.07054361979166
80.56691080729166
81.01748372395834
81.53452799479167
81.67557942708333
78.476318359375
76.253720703125
74.18804361979167
77.50208984375
77.22244466145834
79.02597330729166
77.03306966145833
77.56889322916666
76.65284505208334
75.15741861979167
75.44805989583334
75.87226236979167
78.347705078125
79.11655598958333
79.86761393229166
78.99051106770834
79.671240234375
80.15375651041667
82.36688802083333
81.441708984375
81.26496419270833
82.01922526041666
79.6993359375
78.12806640625
79.27215494791666
79.09578776041667
79.261259765625
77.83043619791667
78.59859700520833
78.825849609375
77.23286458333334
77.364091796875
77.82158854166667
78.372158203125
79.05686197916667
79.891298828125
80.69886067708333
79.99100911458333
80.56840169270833
82.75282552083333
81.82572591145833
81.994150390625
84.42593098958334
82.26919270833334
78.51977864583333
75.77283854166667
76.18054036458334
75.964638671875
75.21794596354167
75.74790364583333
76.29212890625
76.1039453125
76.375751953125
76.44244140625
73.05873372395833
71.892470703125
72.59190755208333
73.34314127604166
73.99791341145833
74.797138671875
79.00708333333333
78.0384765625
78.554169921875
81.38483723958333
81.91177083333334
82.82233072916667
83.34156901041666
82.15465494791667
82.04531901041666
80.77331705729166
77.462861328125
75.66566080729167
76.54059895833333
76.143544921875
77.69954427083333
76.05458333333333
76.53253255208334
78.37781901041667
75.99513671875
76.07759440104167
74.92124348958333
71.96079752604167
72.583330078125
73.23263671875
77.379951171875
77.82161458333333
78.35255859375
77.34847005208333
77.888955078125
78.43261067708333
81.6024609375
82.769384765625
84.36969401041667
83.26553385416666
82.26814127604166
81.598017578125
83.18670247395833
84.82886393229167
85.94384440104167
90.42777994791666
91.07556966145833
91.42423502604167
87.62291666666667
87.785205078125
88.281865234375
88.84115234375
89.19890299479167
89.45785807291666
93.02188802083333
93.49615559895834
91.998154296875
92.19317708333334
92.30833333333334
92.53442708333333
94.68323893229167
94.71493489583334
93.97144205729167
92.888837890625
93.15550455729166
94.15008463541666
96.62395182291667
97.02983723958333
97.53252278645833
94.10598958333334
94.41538411458333
94.54600260416667
94.655732421875
95.07895182291666
95.553837890625
97.50603190104167
97.7011328125
97.97522135416666
98.17036458333334
98.48297200520834
98.57688151041667
98.78410481770834
98.94416666666666
98.64956705729166
95.01576497395833
93.78572591145833
93.86948567708333
98.18603515625
98.83495442708333
99.0455078125
99.5603515625
100.07693033854167
100.207626953125
96.72938802083333
96.87043619791666
97.289208984375
99.25676106770834
99.54220377604166
99.730458984375
99.982744140625
100.11205403645833
98.29999674479167
98.604111328125
98.72287434895833
98.93390299479167
100.83282552083334
100.75593098958333
99.56741536458334
97.61028645833333
97.11633463541666
99.62960286458333
100.051025390625
100.51980794270834
102.71971354166666
101.5283984375
101.67277994791667
99.920654296875
98.43168294270833
98.82233072916667
97.11730143229167
99.021630859375
99.15735026041666
99.51568684895834
101.44335286458333
101.57544921875
101.83228841145834
101.96438802083334
102.06888346354167
102.198779296875
102.37472330729166
102.245048828125
100.8498828125
99.11841471354167
98.76848307291667
99.448935546875
101.88368489583333
102.266748046875
102.64326497395834
101.22309895833334
99.44795247395834
99.636953125
101.53084635416667
101.75217122395833
101.98251627604166
102.235322265625
102.419951171875
102.602880859375
102.76216796875
102.911640625
103.0779296875
103.25343