56.20439453125
56.06620768229167
56.316162109375
56.47705729166667
101.16580729166667
96.99595377604167
115.45869791666667
114.598876953125
112.38172526041667
114.521826171875
114.52548177083334
114.71865559895834
113.33779296875
113.63759765625
113.527880859375
113.643291015625
113.72893880208333
113.80386393229166
114.05595377604166
114.13034830729167
114.19433268229167
114.197802734375
114.17884765625
114.15529622395833
113.76555989583333
112.12713541666666
111.886650390625
112.69411458333333
114.88890625
114.59319010416667
114.6865234375
114.94944010416667
109.69576822916666
109.85003255208333
109.76337890625
111.987041015625
112.10561848958334
112.235361328125
112.32001302083333
112.384462890625
112.43446614583333
112.60916666666667
112.60882161458333
112.84816080729166
112.84633463541667
112.87178059895834
112.94505208333334
112.94228841145834
112.95198893229167
112.97341145833333
112.69517578125
110.6851953125
109.05466145833333
108.63597981770833
110.98599609375
111.491611328125
110.05706705729166
112.482685546875
112.75623697916667
111.46094401041667
108.928583984375
108.92930338541667
110.22481119791667
110.52806315104166
110.70131510416667
110.8256640625
110.92014973958334
110.99154947916666
111.01978190104167
111.11134114583334
111.12502278645833
111.13484700520833
111.17710611979167
111.220126953125
111.25558268229166
111.24446940104167
111.28708984375
110.670439453125
107.36420247395833
104.69486328125
104.11560546875
107.13795572916666
107.64375325520834
109.07369466145833
110.10692057291666
110.85470052083333
108.674814453125
106.40927083333334
106.33041341145834
106.720546875
107.25130533854167
107.64665364583334
110.41234700520833
110.572373046875
110.7226171875
108.66238606770834
108.73814453125
108.79545247395833
110.07193359375
110.15172526041667
110.21263997395833
110.28701822916666
110.34650716145833
110.40411783854167
109.85924153645833
106.832939453125
104.04151041666667
103.23481119791667
106.18751627604166
106.94906901041666
108.46305013020833
109.54580078125
110.34068033854167
108.12654296875
107.78073567708333
105.60239908854167
105.93485026041667
106.4340625
108.66605794270833
111.38550130208333
112.064716796875
110.10027018229167
107.84922200520833
107.9369140625
108.182119140625
110.58282877604167
110.63934244791666
110.767822265625
110.81508138020833
110.88745768229167
111.02201497395833
110.98104166666667
108.94326822916666
105.3912109375
103.33354166666666
105.36189453125
106.061865234375
106.306103515625
106.86378580729166
107.51991861979167
106.85455078125
106.59497395833333
106.42951171875
104.69896809895833
105.26305338541667
106.01884765625
107.76517252604167
108.23583333333333
108.72277994791666
109.00189127604166
107.22828450520834
107.24247395833333
109.68654947916667
109.78578776041667
109.91927408854167
110.210107421875
110.35492513020833
110.50445638020834
110.02591145833334
106.848681640625
103.99029296875
103.08645833333334
105.89669270833333
106.98917643229167
107.253837890625
107.82227213541667
108.70899739583334
107.599150390625
107.40193033854166
105.45892252604166
105.761796875
106.41230794270834
107.00093098958334
108.661826171875
108.87929036458333
109.02508463541666
107.13979166666667
107.43754557291666
107.45734375
109.95272135416667
110.04280924479167
110.18785481770833
110.29836263020833
110.28696940104167
108.88700520833333
105.760380859375
103.88878580729167
106.17979166666667
106.97888020833334
109.90914713541666
110.74462565104167
107.86742513020833
108.30128255208334
106.24179036458334
106.1122265625
106.26804036458333
106.74943684895834
108.45223958333334
108.78879231770833
108.99932942708334
109.09424153645833
109.31916341145833
107.31951171875
107.38375651041666
107.42501302083333
107.51830078125
110.000361328125
109.983046875
108.61705403645833
105.73543294270833
104.17140950520833
106.589892578125
107.816728515625
110.48419921875
111.24707682291667
108.26474934895833
108.42876627604167
106.36018229166666
106.09267903645834
106.24492513020833
106.805810546875
108.54756510416667
108.817392578125
108.99857747395833
109.15062825520833
109.26817708333333
109.452119140625
109.49548177083334
107.49464192708334
107.52344401041667
109.889365234375
108.9769921875
105.72423502604167
103.356923828125
105.22993489583334
106.08941731770834
106.30861002604166
106.71680013020833
107.31193684895834
108.68329752604167
108.86887369791667
108.54723307291667
104.07075846354167
104.79127278645834
105.45949544270833
108.2145703125
108.60474934895834
107.01429036458333
107.31174153645833
107.39075846354167
107.48994140625
108.81464192708333
108.914794921875
109.05377604166667
109.17782877604166
108.92817708333334
106.42172526041666
103.21362630208333
101.70305338541667
103.7278515625
104.26641276041667
106.58200520833333
106.90363932291666
103.89546875
104.24691731770834
104.22038411458334
104.12750651041667
104.480703125
105.33197265625
106.07129557291667
106.81681966145834
105.340556640625
105.7445703125
106.11774088541667
104.30768229166667
106.99697265625
107.16405924479167
107.28342122395833
108.65170247395834
108.853447265625
108.41195638020834
105.32311848958334
101.99149739583333
100.47523763020833
102.77724609375
103.25501627604167
105.52785481770833
104.3107421875
105.18322591145834
107.53666666666666
105.09851888020833
105.087890625
103.44908203125
103.29410481770833
104.28197916666667
105.00023763020833
106.65486653645833
104.887646484375
105.40740559895833
108.12712565104167
108.21700846354166
108.31167317708334
108.48893880208334
106.87480794270833
107.116220703125
107.290849609375
107.14769856770833
104.63615234375
102.21163736979166
100.115419921875
102.20410807291667
102.70361979166667
105.111806640625
105.09151692708333
104.26467122395833
104.95555989583333
105.029384765625
103.35348307291666
103.667587890625
104.32967447916667
105.25693359375
104.13723958333334
104.73278971354166
106.92652669270834
105.29898763020833
105.49735677083333
107.29975911458334
107.52011393229166
107.7109765625
107.79627604166667
107.9256640625
106.1548828125
106.49814127604166
105.742421875
102.34107096354167
101.775546875
100.65714518229167
103.06841145833333
103.44318033854167
107.76521809895833
108.09940104166667
102.90476236979167
103.42546223958334
103.38388346354166
103.46225260416666
104.0044140625
104.8269921875
105.67252604166667
104.36328125
104.96876302083334
107.08511393229166
105.46465169270833
105.72348307291666
106.02936848958333
106.14957356770833
106.30671875
107.93791341145834
108.140947265625
108.33249674479167
106.11756510416667
103.76544921875
100.51562174479167
101.40906575520833
103.62349609375
104.24467447916666
104.13501953125
104.493154296875
107.14692057291667
106.302021484375
106.23460286458334
104.08678385416667
102.94088216145833
103.62558268229166
104.42584635416667
106.66936848958333
107.02357096354167
105.376572265625
105.69146809895834
105.87546223958333
106.22882161458334
107.80324544270833
107.91862955729167
108.06041666666667
108.15236002604166
108.12720377604167
104.618505859375
101.61527018229167
99.574150390625
101.5884375
104.95516276041667
107.77870442708333
108.64289713541666
106.84537109375
107.19732747395834
106.96516927083333
105.35599934895833
105.80912760416666
106.48104817708334
107.02822265625
107.49833658854166
105.65718098958334
105.9286328125
106.03301432291667
106.32279296875
107.89989583333333
108.05685546875
108.22700520833334
108.158916015625
106.279501953125
103.06106119791667
101.20375
101.51173502604166
104.64299479166667
105.23272135416667
107.90121744791666
108.695947265625
106.14508463541667
103.9639453125
103.89990234375
104.341201171875
105.14110026041666
105.66033203125
107.50527669270834
105.810234375
106.134638671875
107.72384114583333
107.94583658854167
108.019677734375
108.154541015625
108.17112630208334
106.63247721354166
103.04292643229167
100.49811197916667
100.30350911458333
103.19861653645833
103.80372721354166
106.109873046875
105.436328125
106.15305989583334
106.38160481770834
104.57252278645834
102.71458658854166
103.32951171875
105.73638997395834
106.43974283854166
106.99418619791666
107.46392903645834
105.71512044270834
105.98299479166667
107.55058919270833
107.68265625
107.84509765625
107.95693684895834
105.78558919270833
101.66829427083333
99.19944010416667
101.464013671875
101.986279296875
104.91680989583334
105.07052734375
105.74671223958333
104.025859375
104.2414453125
104.18975260416667
101.74316080729167
102.41303059895833
103.232939453125
105.07628255208333
105.68459635416667
104.10608072916666
104.609619140625
104.821279296875
103.07485026041667
106.03989908854167
106.24599283854167
106.50555989583333
107.95654947916667
105.054990234375
100.824462890625
99.00361979166667
101.37015625
101.904833984375
104.244130859375
104.349384765625
105.158955078125
101.92033203125
102.012060546875
102.08959309895833
102.50289713541666
103.43833333333333
104.11443359375
103.02915364583333
103.96109049479166
104.43651041666666
103.777880859375
104.165478515625
104.362177734375
107.62310872395834
107.94774739583333
105.95930338541666
105.81377604166667
103.09361002604167
98.91073893229166
98.45013020833333
100.96000651041666
101.47357096354166
103.91921549479167
104.06532552083333
104.778544921875
101.74319986979167
101.873427734375
101.77295572916667
102.25821940104167
102.99907552083333
103.93767578125
104.85938151041667
103.62340169270833
104.29711588541667
105.68025716145833
103.94056966145833
104.26728515625
107.3412109375
107.72097981770834
107.95630208333333
105.97582356770833
106.05748046875
104.62471354166667
102.24064127604167
98.97759440104167
100.72557291666666
101.35223958333333
105.84201171875
105.84834635416667
100.99838541666666
101.730244140625
101.92190755208334
101.92998046875
102.29535481770833
102.92421875
103.83306315104167
104.70951822916666
103.41974609375
104.114296875
104.45777018229167
102.698955078125
104.09738606770833
104.23226236979167
104.39196614583334
107.71791341145833
107.998798828125
108.169326171875
104.84990885416667
101.03864583333333
97.98283528645834
101.431884765625
102.22611653645833
106.91930338541667
105.38921875
106.13986328125
106.99719075520834
103.49722330729166
101.40224609375
101.827568359375
103.413505859375
104.1783203125
104.8748046875
105.36369466145834
105.71669270833333
103.929716796875
104.17458984375
104.501328125
104.70620768229166
107.77671875
107.97944986979167
108.21516927083333
105.23992838541666
101.88959309895833
99.00733723958334
102.34746744791667
103.25001953125
106.50919596354167
105.384755859375
106.31404622395833
106.88299153645833
104.33597005208334
103.89530598958333
101.98905598958333
102.63648763020834
103.28236653645833
105.80296223958334
108.95539388020833
109.20595703125
107.44047200520833
104.782431640625
105.10155924479167
105.37650716145833
108.34236979166667
105.58882161458334
102.35220377604166
100.79559244791666
102.11451497395834
103.00981770833333
104.43264322916667
104.96495768229167
107.72315104166667
105.62046875
105.88849283854167
103.70279296875
102.73203450520833
103.356884765625
104.16044596354166
105.76541666666667
106.13920572916666
104.42789713541667
104.76979817708333
104.90982747395833
105.236611328125
108.34720052083334
108.246748046875
103.82265625
99.856689453125
97.72912760416666
100.30224283854167
102.84931315104167
107.41805989583334
107.8259375
107.14577473958333
107.80112955729167
108.01155598958333
102.06724609375
102.63702473958334
103.38357747395834
105.191533203125
105.73015625
106.13985677083333
104.37699869791666
104.71140299479167
104.86126302083333
107.76613606770833
108.12013346354166
108.357626953125
107.57622395833333
103.89599283854167
98.28446940104166
97.4608984375
98.09227864583333
102.96901041666666
104.69138997395834
107.106298828125
108.02555338541667
102.99259114583333
102.95529622395833
103.2184375
103.78695638020834
104.67114908854167
105.492451171875
104.12619791666667
104.74390299479167
105.015068359375
104.16384765625
104.46272135416666
104.64360026041666
107.55609049479166
107.7063671875
107.88596028645833
108.19517252604167
106.70166341145833
102.50088216145834
99.27041666666666
99.15101888020833
101.9022265625
102.41555013020833
104.40902018229167
104.99642578125
101.852060546875
102.15684895833333
102.05178385416667
102.42697265625
103.36584309895834
104.27285481770834
105.09347330729166
105.72353841145834
104.24463541666667
104.7629296875
104.96260416666667
103.08484049479166
104.40552408854167
104.53889973958333
104.706181640625
107.680771484375
107.86033854166666
107.7602734375
105.33119466145833
101.2094921875
98.86534505208333
101.353671875
102.22498697916667
104.4841796875
102.04638346354167
102.70756184895833
105.33282877604167
104.35723307291667
104.39605794270834
102.98239908854167
100.9162890625
101.84166666666667
102.63326171875
104.08890950520833
104.67642903645833
104.95015299479167
104.08655598958333
104.32677083333333
104.6476171875
107.628955078125
107.84088541666667
107.997783203125
108.16348307291666
108.24097981770834
107.96176432291666
104.586865234375
101.07441731770834
100.02355794270834
102.77276041666667
103.99213216145833
106.27025390625
104.02431640625
105.03236979166667
105.57848307291667
104.67535481770834
102.75813151041666
103.535341796875
104.26005533854166
104.80787109375
105.22285481770834
106.571162109375
104.72856119791666
105.07515299479167
108.03129557291666
108.20453776041667
108.37539713541666
108.48197591145833
108.843037109375
109.007236328125
109.14935546875
108.366943359375
102.95875325520834
100.30326822916666
99.996142578125
103.10956705729167
105.99084635416666
108.64247395833333
109.413720703125
105.54682291666667
105.5150390625
105.0246484375
103.13861328125
103.74734375
104.347265625
109.58311848958333
109.840673828125
110.089404296875
105.519599609375
105.63749348958333
105.693759765625
108.829970703125
108.97651041666667
109.19116536458333
108.83693684895833
106.26641276041667
103.34630533854167
102.45278645833334
105.48708984375
106.572666015625
109.29436197916667
110.02775390625
110.74763020833333
105.07319010416667
104.69134440104166
104.48520182291666
103.97100911458334
104.54207356770833
104.91773111979167
107.95901692708334
108.18357421875
108.44355794270834
108.60361653645833
108.67888671875
109.01436197916667
109.14695963541666
109.06220703125
106.817216796875
103.49994466145833
101.96452473958334
104.68543294270833
105.56965169270833
108.27030924479166
108.86532877604166
105.89163411458334
104.409384765625
104.34948567708334
104.099208984375
104.48228190104167
105.11323893229167
106.62236002604166
106.93385416666666
105.13866536458333
105.34064778645833
105.58904947916666
105.70621419270833
108.57897135416667
108.67888997395833
108.75526041666667
108.36120442708334
105.093798828125
102.00530924479166
101.163974609375
103.89151692708333
104.99873046875
104.24362630208333
104.63597330729166
105.623955078125
104.97071614583334
105.00626953125
103.102333984375
103.85563151041667
104.535498046875
105.12726888020833
106.524052734375
106.79696940104166
104.921494140625
105.07543619791667
105.32685546875
105.42965494791666
108.30560221354166
108.44830078125
108.65675130208334
108.42297200520834
105.48016276041666
101.86220377604167
100.42177734375
102.797177734375
103.72225260416667
102.97718098958333
103.097587890625
103.87365885416666
103.6142578125
103.66475911458333
103.79402994791667
104.39576171875
105.15309895833333
105.8669140625
106.44671875
104.85768229166666
105.35632486979166
105.58884440104167
105.81228190104167
103.94137044270833
105.15017903645834
105.32557942708333
105.60992513020834
108.53994466145834
108.70939453125
108.43854166666667
105.595791015625
102.04802408854167
100.40106770833333
102.972646484375
103.966015625
106.03306966145833
103.37785481770834
104.14138346354167
104.89819010416667
103.96416341145833
104.19646158854167
104.92953450520834
105.731875
106.40845377604167
104.89605143229167
105.43643229166666
105.68192057291667
105.70759114583333
104.594814453125
104.63264973958333
104.58148111979166
107.30654296875
107.39804361979166
107.4883984375
107.57074869791667
107.575185546875
106.39013346354167
102.53083333333333
99.88173177083333
101.80121744791667
102.88381184895833
105.58749674479166
105.90618815104166
102.73473958333334
103.42886067708334
103.83608072916667
103.80773111979167
104.10473307291667
104.54045247395834
105.09750651041666
105.5526171875
103.98355143229166
104.52748046875
104.70664388020833
104.92945638020834
106.28671549479166
106.893388671875
107.33657877604166
105.53392252604166
105.78500651041666
106.02321614583333
108.87962890625
108.66161458333333
106.70483723958333
103.797392578125
102.61485026041667
105.39508138020834
106.87463216145834
109.41788736979167
109.81523111979166
106.43747721354167
104.931396484375
104.77948567708333
105.797998046875
106.090341796875
106.41477864583334
106.75638671875
107.090283203125
107.31811848958333
105.42886067708334
105.62945963541667
105.85555013020833
108.75049153645833
108.82758463541667
108.98421875
109.14736002604167
109.20947916666667
108.123671875
105.22621419270833
104.21076171875
104.510458984375
107.6184765625
108.28384114583334
108.40533854166667
106.23064778645833
106.48391927083334
106.35537434895834
106.32400390625
106.58421875
106.90754231770833
107.1811328125
107.41724283854167
105.55560872395833
105.69436197916667
105.91639973958333
105.961279296875
108.841513671875
108.87436197916666
108.88763997395833
108.42344401041667
105.92038411458333
103.70003255208333
103.02460286458333
106.219755859375
107.41532552083333
106.91473958333333
107.31716796875
107.87823567708334
105.06920247395833
104.93221354166667
104.938134765625
106.273447265625
106.64009765625
106.932958984375
107.1804296875
107.32767252604167
105.35690104166666
105.45104817708334
105.53625651041666
105.74170572916667
108.63035807291666
108.72216145833333
108.66644856770833
106.94138671875
103.80374348958334
102.19814778645834
104.67446614583334
105.80610026041667
108.30001953125
105.822236328125
106.48161783854167
106.86078776041667
106.060908203125
104.3462890625
104.57443684895833
105.95142903645834
106.25310872395833
106.512822265625
106.661796875
106.814990234375
106.95083658854166
107.00930013020833
107.01714518229167
105.02865885416666
105.15310872395834
105.31185221354167
105.45031575520834
108.193095703125
106.28673177083333
103.08536458333333
101.30178385416667
103.81179036458333
105.07154622395834
104.81031901041666
105.04734375
105.59441731770833
105.16769856770833
105.39310872395833
105.30019856770834
103.50613606770834
104.21339192708334
104.53577473958333
105.60121744791667
106.08277669270834
106.2670703125
106.404833984375
106.55365559895833
106.650205078125
106.73666666666666
106.81544921875
106.99683919270834
107.13728190104166
107.19914388020834
106.7498046875
101.864189453125
99.22654947916666
98.36022135416667
103.98356119791667
105.07038411458333
107.35451171875
105.0498828125
105.69823893229167
106.15288411458333
105.37823893229167
105.499111328125
105.7688671875
106.29351236979167
106.40539713541666
104.884052734375
105.11412109375
105.235498046875
105.28593424479166
106.39887369791667
106.48072265625
106.59743489583333
106.71962565104167
106.861474609375
106.934697265625
107.03955078125
107.17729817708333
106.6485546875
103.91341471354167
99.58935872395833
98.99720377604167
102.75386393229167
105.98985026041667
106.1618359375
105.72758138020833
106.23720703125
106.5818359375
105.45504231770833
105.59817057291667
106.03494140625
106.35765950520833
106.49168294270834
104.96060872395833
105.14471354166666
105.24157877604166
105.26166666666667
106.34105794270833
106.39888020833334
106.436005859375
106.495751953125
106.56057291666667
106.62787760416667
106.652080078125
106.73200520833333
106.14161783854166
103.6460546875
102.30978841145833
102.86185221354167
105.8629296875
106.009794921875
106.12587565104167
105.155595703125
105.364541015625
105.15986328125
105.08649088541667
105.2590625
105.42618489583333
105.7356640625
106.03833984375
106.341279296875
104.627197265625
104.97371419270833
104.937392578125
105.92084635416667
105.92770833333333
105.90033854166667
105.93513020833333
105.97683919270834
106.012333984375
105.51291015625
103.355166015625
101.49242513020833
101.42125651041667
104.13350260416667
104.22228515625
102.984423828125
105.088857421875
105.10824544270834
101.96287434895834
99.64119791666667
99.76812825520834
102.63985026041667
104.84401041666666
104.931962890625
102.23073893229167
102.36986979166667
100.56243815104166
100.69904296875
100.710859375
100.681083984375
103.53619466145834
103.62310546875
103.73233072916666
103.0823828125
100.57592122395833
98.84002278645833
98.72246744791667
101.643564453125
102.415966796875
102.12368489583334
102.51020182291667
102.98492513020834
99.35641276041666
99.27444661458334
99.66184244791667
101.62756184895834
101.89645833333333
102.181484375
102.44358072916667
100.63263020833334
100.96702799479166
103.91552083333333
103.87921223958334
103.73034830729166
103.618408203125
103.61086588541667
103.62721028645834
103.63430013020833
103.19611002604167
101.41965494791667
99.36474609375
99.25103190104167
102.099755859375
102.43913411458334
102.573681640625
104.71141927083333
101.93935546875
101.90249348958334
99.87283854166667
98.33757161458334
98.47430013020833
98.73951497395834
100.76666341145834
100.93996744791667
101.11546875
101.35369466145833
101.63140950520834
101.70909505208333
101.76971354166666
101.96741536458333
102.16112630208333
102.58420247395833
102.90323567708333
103.29022135416666
101.39305338541666
100.362060546875
98.6980078125
101.393857421875
104.13374348958334
104.27404296875
101.451923828125
101.58746744791667
101.863857421875
102.00687825520833
101.91177408854166
102.11700846354167
102.319775390625
102.65170247395834
102.939775390625
103.24013671875
101.671181640625
101.92289388020833
104.80986653645833
104.921220703125
105.23437825520833
105.38083333333333
105.45101236979167
105.53128255208334
105.58264973958333
105.74835611979167
105.865615234375
105.81605143229167
104.845009765625
103.33562174479167
102.81162109375
103.340498046875
105.6373046875
105.71777018229167
105.82061848958334
106.002392578125
101.176689453125
101.21347330729166
101.49912434895833
104.42290690104167
104.66169270833333
104.94095703125
105.04859375
105.177607421875
105.53644856770833
105.60962239583333
105.64631184895833
105.714189453125
105.82711263020833
105.99697916666666
106.099365234375
106.085751953125
106.11367838541666
106.13458984375
105.24104166666666
104.16977864583333
104.11253580729166
104.66077799479167
105.015517578125
104.9026953125
105.15408203125
105.38853841145833
105.38326497395833
105.55118489583333
105.61693684895833
105.88754231770834
106.14909830729167
106.38881510416667
106.58353515625
106.85446614583333
107.066220703125
107.1404296875
105.1903125
105.53572591145833
105.536201171875
106.70549153645834
106.85256510416667
106.26205403645834
104.972470703125
104.28380208333333
104.57794270833334
106.97373697916667
107.04405598958333
107.00901041666667
106.1420703125
106.31640625
106.16814127604167
106.17243489583333
106.36107747395833
106.57122721354166
106.681865234375
106.80056966145834
106.92876953125
106.97258138020834
107.031220703125
105.145888671875
105.44720703125
105.480048828125
105.55612630208333
106.60372395833333
105.791123046875
103.92266927083334
103.15991536458333
105.76505533854167
106.213017578125
105.19423177083333
105.17400716145833
105.437138671875
105.57914388020833
105.61745442708333
105.79531575520834
105.90806640625
106.05005533854167
106.21309895833333
106.30468424479167
106.38849609375
106.48529296875
106.51291341145833
106.614150390625
106.74233072916667
106.79823893229167
106.79903971354166
106.89525716145833
107.039599609375
106.87266927083333
105.299951171875
103.03369466145833
102.83405924479166
103.30726888020833
105.87450846354167
105.87447265625
105.95005533854167
103.51397135416667
103.873662109375
103.88134114583333
103.84550455729166
101.92193684895834
102.15551432291667
105.09826171875
105.310888671875
105.45078125
105.61884765625
105.65108072916667
105.65169270833333
105.87373372395834
105.94033528645834
106.0998828125
106.210068359375
106.29018229166667
106.349248046875
105.60555989583334
103.15087890625
101.55430989583333
101.50513020833333
104.2646875
104.688349609375
102.25907877604166
102.579365234375
102.87515299479166
103.03076171875
103.158173828125
103.29604817708334
103.507529296875
103.90603190104167
104.15796549479167
104.31983072916667
102.49576171875
102.61527994791666
105.26390625
105.36442708333334
105.53818684895833
105.64710286458333
105.83518880208334
105.95283854166667
106.08414388020833
106.38994466145833
105.32337565104167
102.641494140625
101.44595377604166
101.74185221354166
104.65807291666667
105.13888020833333
105.50444010416666
103.12429361979167
103.32237630208333
103.443291015625
103.419140625
103.70499348958333
104.01145182291667
104.3322265625
104.5281640625
104.684697265625
102.80128255208334
102.91156901041667
103.109326171875
105.790107421875
105.8959375
106.0885546875
106.29812174479167
106.39361328125
106.582255859375
105.52570963541666
102.97443359375
101.93293619791666
102.37746744791667
105.166787109375
105.4051171875
102.98493489583333
103.31740234375
103.44310546875
103.44616861979166
103.41797526041667
103.762587890625
104.003134765625
104.343837890625
104.53652018229167
104.69615234375
102.77720377604167
102.86244140625
105.57931640625
105.60470377604166
105.77901692708333
105.91586588541666
105.86712565104166
104.80368489583333
102.17799153645834
101.305966796875
103.54666341145834
104.54901041666666
107.06467447916667
107.48587565104167
103.372490234375
101.3806640625
101.43499348958333
103.1934375
103.44127278645833
103.71984700520834
104.001552734375
104.23287760416666
104.48213216145834
104.58459635416666
102.70510416666667
102.780751953125
102.87845703125
103.0748828125
103.16977213541666
105.539560546875
103.69205403645833
101.50818684895833
100.88494140625
103.65964518229167
104.36517903645833
104.31013997395833
104.63376302083333
104.818232421875
101.09076497395833
101.29961263020833
101.51094075520834
103.492001953125
103.785146484375
103.92719401041667
104.05526692708334
104.19084309895834
104.43175130208333
104.49605143229167
104.56703450520833
102.60826171875
102.68880533854167
102.750400390625
102.59925455729167
103.68180338541667
100.99968098958334
99.68607096354167
102.09479166666667
102.82934895833333
105.52270182291667
102.88803385416666
103.522060546875
104.14901041666667
102.58212565104166
100.65207682291667
101.05396809895834
102.93942057291666
103.34233072916666
103.61131510416666
103.64421223958334
103.89557291666667
104.02444986979167
104.26105143229167
104.41529622395834
104.56636393229167
104.68421875
104.852822265625
102.9791796875
102.95847005208333
101.65892252604166
98.700439453125
99.37996744791667
101.68045247395834
102.51841796875
102.5053125
102.53988932291666
103.07025065104166
102.16092447916667
102.31193359375
100.324375
100.67659830729167
101.026611328125
101.31523763020833
103.12533528645834
103.25801432291667
103.48659830729167
103.777509765625
103.89906575520833
104.03381184895834
104.32677734375
104.56426432291667
104.726748046875
104.84164713541666
105.01369140625
103.14706705729166
102.51505208333333
99.55792317708334
97.28263997395834
99.69501302083333
102.76380859375
103.45007486979166
105.69436848958334
106.007138671875
106.563447265625
102.66803059895834
100.64369791666667
100.97342122395834
102.91891927083333
103.202919921875
103.495322265625
103.72255533854167
103.915947265625
104.20115559895834
104.29748372395834
104.51549479166667
104.59837565104166
104.74069010416666
104.88281575520833
105.01278645833334
103.10652994791667
103.21113606770834
102.22870442708333
102.02828776041666
100.40942057291667
102.843916015625
104.12629557291666
106.88707356770833
107.033388671875
103.32021158854167
101.61149739583334
101.68505208333333
101.702109375
102.00438802083333
102.27742838541667
104.16640299479167
104.36553059895833
104.58489908854166
104.8398828125
105.22206380208333
105.34823893229166
103.37655598958334
103.46612630208334
103.62854817708333
106.386962890625
106.51433268229167
106.56178059895834
105.60693684895833
103.08034505208333
102.27191731770833
102.95324544270834
105.896806640625
106.21438151041667
103.88822265625
104.18821614583334
104.29560872395834
104.24140950520834
104.34531575520833
104.52422200520833
104.81380533854167
105.07681640625
105.28797200520833
105.48434895833333
103.589677734375
103.73762044270833
106.614482421875
106.71535481770833
106.78260091145833
106.91356770833333
107.11450846354167
105.74310221354166
103.25161783854166
102.68545572916666
105.596611328125
106.354609375
106.58953450520833
106.92777669270833
104.50750651041666
104.7254296875
104.622421875
104.76064127604167
104.96821940104167
105.232763671875
105.44387044270833
105.666787109375
103.78408203125
103.94470052083334
104.15976888020833
104.22976888020834
106.9701171875
107.28943684895833
107.3938671875
107.37237630208334
106.26955403645833
103.6694140625
102.70063802083334
103.22671549479166
106.17133463541667
106.50663736979166
106.78771484375
107.11679036458334
104.61442708333334
104.75188802083333
104.88595052083333
105.01871419270833
105.24837239583333
105.55490234375
105.76744791666667
103.89004231770834
104.0171875
106.84614583333334
106.90689127604166
106.94634765625
107.25483723958334
107.32717447916667
107.406220703125
107.4612890625
106.54584309895833
103.83011067708334
102.43684895833333
102.62012369791667
105.53867838541667
106.06892903645833
106.44794596354167
106.738095703125
104.269697265625
104.3516796875
104.46990885416666
104.61379231770833
104.993759765625
105.25656575520833
105.42104817708334
105.62458658854166
103.752802734375
103.864287109375
103.94352864583334
104.08013997395834
106.794541015625
106.86452473958333
106.94302734375
107.050849609375
107.112646484375
106.75276692708333
104.77498372395833
102.7521875
102.62265625
105.48522786458334
106.10696940104167
106.43017903645833
106.14515299479167
106.23192057291666
106.36658854166667
102.7721484375
102.95477864583333
103.35093098958333
105.26832356770834
105.527783203125
105.69648111979167
105.838994140625
103.921201171875
104.03146809895833
106.855791015625
106.92410807291667
106.94264322916666
107.01059244791666
107.145205078125
107.24444010416667
107.316923828125
107.248740234375
105.18044270833333
103.19986979166667
103.31497395833334
106.32781901041666
106.80328776041667
107.10128255208333
107.36129557291666
104.99742513020833
105.08502604166667
105.146162109375
105.18613606770833
105.44082356770834
105.6841796875
105.888056640625
106.0362890625
104.12761067708334
104.25552408854166
104.438681640625
104.45916015625
107.10373046875
107.25293619791667
107.633447265625
107.677392578125
106.846455078125
104.55375
103.65436197916667
104.39746744791667
107.2258984375
107.56764973958333
107.82578125
108.08724283854167
105.5277734375
105.55311197916667
103.528193359375
103.72765950520834
103.98602864583333
104.18983723958333
107.03405924479166
107.25834309895833
107.45635091145833
107.54520833333333
107.59277994791667
107.88835286458334
107.87189127604167
107.82329752604167
107.59556315104167
106.20060872395834
104.04399739583333
103.82474609375
106.82685872395834
107.44875325520833
107.52662760416666
105.13121744791667
105.41001302083333
105.47198567708334
105.52732096354167
105.56373697916666
105.776396484375
106.07064127604167
106.27630208333333
104.37044270833333
104.53556640625
104.76994791666667
104.820869140625
107.47573893229166
107.53277669270834
107.8466796875
107.8775390625
107.92813802083333
108.00600911458334
107.209208984375
104.60126302083333
103.38126302083333
103.73537434895833
106.74700520833333
107.08830729166667
104.74462239583333
105.00423828125
105.22782552083333
105.33908854166667
105.45254557291666
105.573955078125
105.82099934895834
106.02830078125
106.241650390625
106.41073567708334
104.47646158854167
104.55295572916667
104.77277994791666
104.82816731770833
104.886298828125
107.55567057291667
107.68250325520833
107.966787109375
108.10834309895833
107.92111002604166
106.089814453125
103.496220703125
102.76126302083334
105.52399739583333
106.21855794270833
108.83298177083333
108.9262109375
104.86555338541666
102.90208658854166
102.987509765625
103.30521809895833
103.5097265625
103.76837565104167
105.48040364583333
105.7229296875
106.04521158854166
106.13186848958334
106.25611979166666
104.29357421875
104.366796875
104.549580078125
104.676728515625
107.32739583333333
107.43262369791667
107.55987630208334
107.304599609375
105.526669921875
103.04672200520834
102.64246744791667
105.23044270833333
106.081708984375
108.60648763020833
108.73354166666667
109.00811848958334
102.69036783854166
102.85227864583334
102.99689778645833
104.94368815104167
105.16363932291667
105.232626953125
105.43678385416666
105.64077799479166
105.87954752604166
105.95227213541666
106.028212890625
106.106259765625
106.19229166666666
104.22002604166667
104.35758463541667
107.06990234375
107.15355794270833
107.07076497395833
105.349599609375
103.16538736979167
103.053759765625
106.08835286458333
106.51371419270833
106.848232421875
106.61094401041667
106.59733072916667
106.54833984375
102.70478841145834
103.013388671875
103.35876627604166
105.21700846354166
105.318056640625
105.51420572916666
105.67694010416666
105.81287760416667
106.00244466145833
106.026396484375
106.04299479166667
106.08336588541667
106.166025390625
106.285263671875
104.19229817708333
102.95931966145834
100.67109375
100.26537760416667
105.80272135416666
106.48646158854167
106.68034505208334
106.35223307291666
106.34601236979167
106.33400065104166
102.48034830729166
102.69255533854167
102.91789713541667
104.80384440104167
105.02874348958333
105.13054361979167
105.28178385416666
105.53728515625
105.56284505208333
105.74322591145834
105.80156575520833
105.8930859375
105.980595703125
105.96473307291667
105.13876953125
102.67526692708333
101.53939778645834
102.000947265625
104.98793619791667
105.24050455729167
105.32533528645833
104.183232421875
102.30921875
102.40082682291667
103.930947265625
104.08060221354167
104.471416015625
104.68755533854167
104.802236328125
105.11141276041667
105.17187174479167
105.39906901041667
105.517431640625
105.60690755208333
105.71582682291667
105.781357421875
105.88443684895833
103.911904296875
103.283251953125
103.39256184895834
102.28089518229167
104.55920247395834
105.45567057291667
108.061640625
107.89985677083334
104.17288411458334
104.35566080729167
102.265546875
102.45259765625
102.59735677083333
102.95138997395833
104.71921875
104.97291015625
105.13286458333333
105.27597981770833
105.459482421875
105.528828125
105.62564778645833
105.86947916666666
105.92787760416667
106.00975911458333
106.14474934895833
106.25924479166666
106.35724283854167
105.64416015625
102.992236328125
99.49388997395833
99.6203515625
100.58969401041666
105.83571614583333
105.64526041666667
106.05223958333333
105.950087890625
105.96705729166666
106.0073828125
102.40731770833334
102.75061848958333
103.04719075520833
104.93708658854166
105.122275390625
105.30814127604167
105.422607421875
105.60830403645834
105.69145182291666
105.76776692708333
106.02287434895834
106.130498046875
106.24354166666667
106.341728515625
106.428291015625
106.13543294270833
104.01149739583333
101.90758138020833
101.62222981770833
104.64132486979166
105.209736328125
103.8154296875
103.85646484375
102.31493815104167
102.48685546875
102.477666015625
102.559072265625
104.42382486979167
104.61964518229166
104.83490559895833
105.05909830729166
105.236904296875
105.37008463541666
105.55782552083333
105.611259765625
105.68150065104167
105.75922526041667
106.006318359375
106.16422526041667
106.25915364583334
106.379970703125
106.23059244791666
104.50858072916667
102.23064453125
101.9244921875
102.76101888020834
105.55638997395833
105.8040234375
104.179345703125
104.61650716145833
102.59516927083334
102.7066796875
102.74954752604167
102.94267578125
104.82703125
105.06494466145833
105.301103515625
105.45152669270833
105.57729817708334
105.792568359375
105.857451171875
105.89851236979166
106.14291015625
106.217431640625
106.378056640625
106.529609375
106.62048828125
106.67694010416666
105.91643880208333
101.54154622395833
100.477099609375
101.09504557291666
106.565908203125
106.87297526041667
107.080205078125
104.690673828125
104.73152018229166
104.71622721354167
104.66678385416667
104.77974609375
104.978583984375
105.22442057291667
105.45568684895834
105.63353190104166
105.85749348958333
105.952158203125
106.02205729166667
106.20515950520833
106.26901692708333
106.34590169270834
106.40921875
106.4371484375
106.48656901041667
106.39332682291666
105.1474609375
103.07266276041666
102.88453776041666
103.77329427083333
106.35164388020833
106.659638671875
106.85304036458334
104.856884765625
103.206142578125
103.03872721354166
103.08020833333333
104.93483723958333
105.20466145833333
105.4637109375
105.68634114583334
105.82683268229167
106.02893229166666
106.099033203125
106.26254231770834
106.31660807291667
106.364638671875
106.48990559895833
106.51930989583333
105.87396809895833
103.81208658854166
102.59857096354166
103.0905859375
105.9555859375
106.114072265625
104.70490885416666
104.83673502604167
102.75521484375
102.81477213541666
102.70845052083334
102.75775390625
104.63273763020834
104.88715169270833
105.16568033854166
105.43655924479167
105.58874348958334
105.66670572916667
105.836044921875
105.92665364583333
106.03479166666666
106.13852864583333
106.21630859375
106.21138671875
104.6558203125
102.49000651041666
102.13102864583334
102.86089192708333
105.52578776041666
105.90904296875
104.47870768229167
104.65661783854166
104.67394205729167
104.578779296875
102.463759765625
102.70460611979166
102.93306966145833
103.07747721354167
103.26568684895834
105.063740234375
105.145751953125
105.25160807291667
105.32224934895834
105.364609375
105.53628580729166
105.67575846354167
105.78291015625
105.64325846354167
104.182490234375
101.69377278645834
100.88916015625
103.39735026041667
104.18668294270833
104.448017578125
105.084375
105.41996744791666
105.88856770833333
102.32391927083333
102.40388346354166
102.55186197916667
104.35098307291666
104.61312174479167
104.8394140625
105.02363932291667
103.061591796875
103.24691731770834
104.91476888020833
105.03481770833334
105.14332682291666
105.26144205729166
105.36712239583333
105.43823893229167
105.558642578125
105.578447265625
103.91656901041667
101.25345703125
100.08990885416667
102.58025390625
103.344755859375
105.59528645833333
105.64399739583334
103.05062825520834
101.2864453125
101.74365559895833
103.24985026041666
103.485126953125
103.74361328125
104.040556640625
104.30280924479166
104.50258463541667
104.64594401041667
104.76947265625
102.78642578125
102.937314453125
103.172119140625
103.32515625
105.08727864583334
105.27064453125
105.398544921875
105.556962890625
105.41383138020834
103.57574869791667
101.15443684895833
100.15560221354167
102.790947265625
103.56881184895833
105.94776692708334
106.17088541666666
105.09452473958333
103.62469075520833
103.639140625
103.71334309895833
103.9739453125
104.28789713541667
104.63016927083333
104.92069986979166
103.03745442708333
103.3854296875
103.56895182291667
103.73482421875
105.42551106770833
105.55637369791667
105.67688802083333
105.80039388020833
106.050107421875
106.25288411458334
106.408349609375
106.09757161458333
103.97349934895833
102.31903971354167
102.24150390625
105.23619140625
105.89472005208333
105.978857421875
106.263017578125
103.11202473958333
103.37701497395834
103.45265299479166
105.18070963541666
105.45140299479166
105.822314453125
106.24463216145833
106.65180013020833
106.97264322916666
107.398525390625
107.73507161458333
105.60803385416666
105.53770833333333
105.51916666666666
105.27624348958334
107.43427083333333
107.02268229166667
106.59043294270833
105.37757161458333
104.90523763020833
103.49325520833334
101.36369466145834
104.38181966145834
104.49701171875
104.610673828125
105.230029296875
105.76476888020834
104.08629557291667
103.93277994791667
104.01010091145834
104.354560546875
104.59389973958334
104.61391276041667
104.699228515625
102.833017578125
103.025791015625
104.66119466145834
104.65869791666667
104.72268229166667
104.776640625
104.71883463541667
104.3346875
103.03923502604167
101.82398111979167
101.76501627604166
104.341923828125
104.81925455729167
104.73607421875
103.13856770833333
103.26814453125
103.27549153645833
103.30931315104166
103.412890625
103.69000325520834
104.079931640625
104.38893229166666
104.60622395833333
104.75119791666667
105.030830078125
103.262939453125
103.62308919270833
103.9798046875
104.38330078125
106.3887109375
106.64330729166667
105.94658203125
104.46750325520833
104.948662109375
105.98828125
108.740634765625
109.11168294270833
109.48847330729167
106.14842122395834
106.4050390625
106.52118815104167
106.29604166666667
106.45648111979166
106.63478515625
109.48259765625
109.68333658854166
109.898525390625
110.3931640625
110.58603190104166
110.890654296875
110.99859700520834
111.121875
111.25887044270833
109.523291015625
109.43009765625
107.874560546875
106.70082356770833
105.73530598958334
107.97073567708334
108.27080403645833
110.844326171875
111.11786458333333
110.40269856770833
110.65609049479167
110.91223307291666
106.409248046875
106.83724283854167
107.1079296875
109.92841471354167
110.232822265625
110.77700520833334
111.06744140625
111.2040625
111.284150390625
111.38443359375
109.64831380208334
109.72416015625
110.907119140625
111.00109049479167
111.07959635416667
110.68589518229167
108.84783528645833
107.800634765625
108.08701497395833
110.85242513020833
110.79451497395833
109.77439453125
109.90520182291667
110.05773111979167
110.298408203125
110.20146158854166
110.24226236979166
110.395029296875
110.656328125
110.81079752604167
110.88994791666667
110.974921875
111.01188802083334
111.02004231770833
111.080888671875
111.06935872395833
111.09697916666667
111.06259114583334
111.1209765625
111.18554361979167
111.18695638020833
110.94928385416667
109.46424153645833
107.657587890625
107.72905924479167
108.38305013020833
110.66177734375
110.455078125
108.00015950520833
108.127998046875
106.03191080729167
106.043486328125
106.06534505208333
106.18194010416667
108.95569010416666
109.127666015625
109.186904296875
109.40882486979167
109.5765234375
109.740166015625
109.83469401041667
110.22959635416667
110.32242838541667
110.35621419270834
110.32005859375
110.30035807291667
110.32774739583333
110.37559895833333
110.272119140625
109.10305338541667
106.676162109375
105.8503515625
106.24715169270833
108.89097330729167
109.15113606770834
106.81166015625
107.05287760416667
107.25281901041667
107.23306315104166
107.35855794270833
107.52018229166667
107.90099283854167
108.172880859375
108.41085611979166
106.47920247395834
106.55736653645833
106.90802083333334
109.65249348958334
109.760908203125
109.83932291666666
109.940595703125
110.34803385416667
110.39739583333333
110.34374348958333
110.263623046875
110.18947591145833
109.35256184895833
107.33058268229166
106.70304361979167
107.362978515625
109.77072916666667
109.754755859375
107.29739908854167
107.34565104166667
107.4287109375
107.25727213541667
107.11083984375
107.05951171875
107.20891927083333
107.36336588541667
107.35987630208334
107.368759765625
107.40529622395833
107.58585286458333
107.72893880208333
107.78149088541667
107.92786458333333
108.13087890625
106.2565625
106.69931640625
109.64685872395833
109.767275390625
108.46498697916667
106.22779296875
105.556318359375
106.27222330729167
109.22057291666667
109.61773763020834
110.00376953125
107.74342447916666
107.87331380208333
107.85498046875
105.78531901041667
105.92350260416667
106.16380859375
109.029189453125
109.23472005208333
109.423095703125
109.62742513020834
109.72330729166667
109.74550455729167
110.11306640625
110.22075520833333
110.2824609375
110.108115234375
108.60404947916666
105.79203450520833
104.46443684895833
106.72111653645834
107.50636067708334
107.86904947916666
108.47069986979167
108.90026692708334
105.20204427083333
105.05519205729166
105.10995768229166
106.91171549479166
107.182177734375
107.342685546875
107.57680338541667
107.745537109375
107.85159505208334
108.02500325520833
108.0547265625
108.12583984375
108.25068684895834
105.17659830729167
102.09217122395833
102.52676432291666
104.34442708333333
104.706513671875
105.04555338541667
105.201591796875
105.865185546875
104.75258463541667
105.035576171875
104.48122721354167
104.436240234375
104.94350260416667
105.515732421875
105.94361979166666
106.31297526041666
104.340078125
104.597998046875
104.70599609375
104.896435546875
106.66146484375
106.2435546875
103.40640950520833
99.83771809895833
97.77815755208333
100.01714518229167
100.88671223958333
102.956494140625
103.23892903645833
100.83642578125
102.97930989583334
102.622646484375
102.43448893229167
100.87693684895834
101.63085611979167
102.421240234375
103.14861328125
103.73434895833333
104.20326497395833
102.62080403645834
102.88101236979166
102.98216796875
103.16545572916667
103.36586588541667
104.790361328125
102.05737630208333
97.5440625
94.89539388020833
96.68232096354167
97.14008463541667
99.43032877604166
99.357119140625
99.90382161458334
99.43091471354167
99.3382421875
99.12400390625
94.88694661458334
95.659384765625
96.60388346354166
99.93249674479166
100.62407552083333
101.28715169270833
99.70376953125
100.18721028645834
100.67015299479166
102.63771158854166
102.95525390625
101.38641927083333
101.82322591145834
102.13282877604166
102.28465494791666
102.16982096354167
97.15696940104166
92.98972330729167
92.31431315104167
94.9255078125
95.26004231770834
97.50889322916667
97.88844401041666
98.54965169270834
94.63953450520833
94.58621419270834
94.65899088541667
95.29505533854167
96.15163736979167
96.96239908854167
97.65770833333333
98.27064453125
96.856083984375
97.26543619791667
97.66192057291667
96.16470377604166
99.13916666666667
99.64898111979167
99.92265950520833
101.73764322916666
101.969775390625
102.26370442708334
102.73838541666667
100.89511067708334
98.23680338541666
94.44824544270833
91.6886328125
93.89495442708333
94.526982421875
98.6005859375
98.92646158854167
93.85445638020833
94.37556315104166
94.584609375
94.74623046875
95.04586263020833
95.8995703125
96.86352213541667
97.71790690104167
98.454384765625
97.25720052083334
97.82494466145833
98.19860677083334
99.23085286458333
99.678056640625
99.948994140625
101.922939453125
102.3072265625
102.58575846354167
102.88249674479167
101.53944010416667
102.09503580729167
102.30369466145834
100.81408203125
96.63436848958334
94.888857421875
94.90904947916667
98.09709309895834
98.66883463541667
100.98943684895833
101.60551106770833
99.27648111979167
99.639111328125
99.63187825520833
99.93864908854167
100.75882486979167
101.80498046875
102.59483072916667
101.3382421875
102.16273763020833
104.22851888020833
102.86706705729166
103.06715494791666
104.64590169270834
104.80812174479166
102.95665364583333
103.386044921875
103.58699869791667
103.77737630208334
105.505078125
105.70970377604166
105.42119791666667
102.52732096354167
98.69134440104166
96.72050130208333
98.86276692708333
99.11799153645833
101.15474609375
99.68978515625
100.225703125
102.15866861979167
100.15702473958333
100.03074869791666
100.32498697916667
99.41636393229167
99.93821940104166
100.086396484375
98.261435546875
98.204111328125
98.19655924479167
99.44804361979166
98.79448893229167
98.484228515625
98.40944986979167
98.42120768229167
98.35124348958334
98.44249348958333
98.56273763020833
98.735576171875
98.891669921875
96.92222981770833
92.37443359375
89.69234375
92.14656575520833
93.582509765625
94.86705078125
95.536904296875
96.02640950520833
93.608515625
93.76471028645834
93.50514973958333
91.801552734375
92.32489908854167
92.85734049479167
97.93876627604166
98.37259440104167
98.788046875
94.38848307291667
94.54390625
94.58912434895834
97.48941731770833
97.62660807291667
97.78926432291667
97.97375651041666
98.13590169270833
96.09813151041666
94.15042643229167
90.400849609375
89.03626953125
93.70692708333333
95.39984700520833
97.95680338541666
96.76593098958334
97.11162760416667
95.336015625
92.45535481770834
92.3359765625
92.58170572916667
95.77119791666667
96.13885091145833
96.320712890625
96.206904296875
95.28246419270833
92.992021484375
90.92253580729167
89.92634114583333
91.40099609375
91.31785481770834
91.4946875
93.75975911458333
89.72205078125
85.43600911458333
81.026572265625
80.74712565104167
83.06037760416666
86.01146484375
88.702373046875
89.890537109375
90.71588216145834
88.715576171875
88.518896484375
88.72827799479167
89.50046223958333
90.328037109375
90.93220377604166
89.67192057291666
90.297060546875
90.85872395833333
93.15943684895834
91.59876302083333
92.19525390625
95.24942708333333
95.514599609375
95.80067708333333
96.180283203125
95.93724283854166
92.74931315104166
89.59755533854167
89.91027994791666
94.40472981770833
96.90850260416667
100.11046875
101.839501953125
98.962763671875
98.2093359375
98.85285807291666
99.08175130208333
99.57794596354167
98.39348958333333
101.42135416666666
101.67858072916667
99.95260091145833
101.88386067708333
102.17643880208334
100.33611328125
102.255556640625
102.47845052083333
102.737548828125
104.65265625
104.92084309895833
105.1018359375
105.02539713541667
104.50029622395833
104.09816080729166
104.28447265625
104.648876953125
104.697919921875
104.75309895833334
105.040166015625
105.15558268229167
105.20231119791667
105.17384114583334
105.267353515625
105.39652018229167
105.47147786458333
105.52428385416667
105.51302083333333
105.55712890625
105.61919270833333
105.68041015625
105.769140625
105.84881184895833
105.88745442708333
105.87636067708333
105.89170247395833
105.931669921875
105.92826822916666
105.30740559895834
104.03372721354167
103.710458984375
104.11691731770833
106.53359049479167
106.475986328125
106.54906575520833
102.9479296875
103.16331705729166
103.15840169270834
104.730810546875
104.74094401041667
104.91912760416666
105.04694986979166
105.14950846354166
105.29283528645833
105.352392578125
105.37031575520834
105.42402018229167
105.43052408854167
105.51792317708333
105.666865234375
105.74650390625
105.79500325520833
105.93050130208333
105.99027018229167
105.99073567708334
105.06541666666666
103.6315234375
103.30747395833333
103.81782552083334
106.33567708333334
106.41251953125
106.57648111979167
105.178857421875
103.11134440104166
103.046201171875
103.01161783854167
103.08828125
103.3376171875
105.13615885416667
105.25662109375
105.31377604166667
105.43437825520833
105.63383463541666
105.67488606770833
105.72679361979166
105.75770833333333
105.84862630208333
105.935107421875
106.04548177083333
106.063154296875
105.37719401041667
104.041787109375
103.75722981770834
104.20439453125
106.52548828125
106.77011067708334
106.99511393229167
105.00985026041667
105.14238606770833
103.36666341145833
103.42049479166667
103.56873697916667
105.29099934895834
105.47201497395834
105.585576171875
105.673212890625
105.80537434895834
105.88864908854167
105.914521484375
105.956796875
106.0739453125
106.12201822916667
106.16855794270833
105.50745442708333
103.87503255208334
103.01916666666666
103.59575846354167
106.20322916666667
106.28206705729167
106.44567708333334
105.05576822916667
102.95944986979167
103.03093424479167
104.63664713541667
104.7441015625
104.957548828125
105.155439453125
105.32222330729167
105.39650390625
105.58846028645833
105.710908203125
105.77004557291667
105.82220377604166
105.87593424479167
105.90055989583334
105.94445638020834
106.00281901041667
105.97448567708334
104.81193684895834
102.69171549479167
101.95375651041667
104.77072916666667
105.33025390625
105.35538736979167
103.768955078125
104.337939453125
104.43996744791667
104.37140299479167
104.390869140625
104.540546875
104.8283984375
105.061220703125
105.243564453125
105.33425455729167
103.31088216145834
103.51666666666667
105.30775390625
105.36470052083334
105.432880859375
105.48993815104167
105.56459635416667
105.748994140625
105.86876627604167
105.95769856770833
105.57916341145834
103.77434244791667
102.12194661458334
102.54744466145833
105.45306640625
105.642314453125
105.44092122395833
104.24163411458333
104.66673502604166
104.62438151041667
104.609912109375
104.70649088541667
104.882724609375
105.10952473958334
105.33485677083333
103.396376953125
103.753486328125
103.92584309895834
103.96357747395834
105.54230143229167
105.623076171875
105.79525390625
105.93868815104166
106.05009440104166
106.20723958333333
106.31970703125
106.38671875
106.104384765625
104.35293294270834
102.69322916666667
103.05043619791667
105.82472981770833
106.23926106770833
106.2494921875
105.070517578125
105.20859700520833
105.19285481770834
105.14836263020834
105.22746744791667
105.3963671875
105.60075846354167
105.86788411458333
103.88238606770834
104.10383138020833
104.226884765625
104.305087890625
105.96955078125
106.05361653645834
106.14223958333334
106.2830078125
106.39628580729166
106.50439778645833
106.696884765625
106.824755859375
106.82873697916666
105.85458984375
104.36674479166666
103.91812825520833
104.40980794270833
107.06769205729167
107.17783203125
105.651669921875
103.466962890625
103.40750325520834
104.751171875
104.43173502604166
104.00135091145833
103.696337890625
105.37471354166667
104.950615234375
103.199189453125
103.06328450520833
103.131513671875
103.58744466145833
103.67546549479167
103.688173828125
103.69529296875
103.65769205729167
103.7712109375
103.54352213541667
102.39450520833333
100.90543619791667
100.42301432291667
100.65169921875
102.76421549479167
102.67826171875
102.81685221354167
102.82052734375
101.33988932291666
101.4460546875
101.58007486979167
101.85429036458333
102.16832356770833
102.76315104166666
101.34300455729166
102.34387044270834
103.111171875
105.025068359375
105.33862630208333
103.49277994791667
103.81435221354167
104.14546223958334
104.04290364583333
104.74051432291667
104.67502278645833
105.15019205729166
105.59361979166667
105.639658203125
105.674326171875
105.738662109375
105.77400716145833
105.627021484375
105.45107747395834
105.552578125
105.70443033854167
105.71000325520833
105.58433919270833
105.64661458333333
105.87181640625
105.976845703125
105.88443684895833
105.846474609375
105.90892578125
105.52155598958333
104.57371744791666
104.333173828125
104.573349609375
106.87354817708334
106.96653645833334
107.17157877604167
103.58239908854166
103.77385091145834
103.75663736979166
105.35455403645834
105.38045572916667
105.401708984375
105.52240559895833
105.67292643229166
105.770166015625
105.80231119791667
105.81711588541667
105.947607421875
106.00282552083333
106.05290364583334
105.72921875
104.59441080729167
104.00408203125
104.20607096354166
106.70158203125
106.8726953125
106.91555013020833
105.29857747395833
105.38388997395833
105.37358072916666
105.369794921875
105.44401041666667
105.50815755208333
105.58951822916667
105.699375
105.80606119791666
105.97565104166667
106.08694661458334
106.19770182291667
104.101455078125
104.13297526041667
104.32087890625
105.99576171875
105.60723307291667
104.33567057291667
103.63516276041666
103.83585611979167
106.27157552083334
106.27376302083333
106.31990234375
106.51519856770834
105.08652994791667
105.05800455729167
105.03056640625
105.12262044270834
105.27905598958333
105.42896158854167
105.53723307291666
105.55558919270834
103.443525390625
103.72587239583333
103.83784505208334
103.92698567708334
107.69998046875
107.56279947916667
107.630029296875
104.0032421875
104.188154296875
104.11009765625
104.46674153645833
103.19405924479166
103.27534830729167
105.97289388020833
106.27238932291667
106.389169921875
104.97376953125
105.17908528645833
105.23033528645833
105.18224609375
105.26343424479167
105.469697265625
105.65946614583333
105.83571940104167
106.03115885416666
104.08289388020833
104.29702799479166
104.424482421875
106.11154947916667
106.23356770833334
106.30975260416666
106.38294921875
106.455673828125
106.52528971354167
106.64891927083333
106.79454427083333
106.8061328125
105.97431640625
104.25893229166667
103.61431315104167
104.18477213541667
106.7707421875
107.03108723958333
105.46437174479166
105.65850911458334
105.79615885416666
105.76589518229167
105.80836263020834
105.92229817708333
106.09196614583334
106.26926106770833
106.40934895833334
104.34655598958334
104.42459635416667
104.64614908854166
106.34382161458333
106.39098958333334
106.47358723958334
106.61904622395834
106.71655598958333
106.83208658854167
106.931357421875
107.00152018229167
107.07869140625
107.09716145833333
107.08126953125
106.18390625
104.95186848958333
104.87443033854167
105.30276041666667
107.50596028645833
107.18700846354167
106.90555338541667
104.90939778645833
102.16683268229167
101.64829752604167
101.20910807291666
103.27607096354167
103.13289713541667
102.95602213541666
102.5908984375
102.63714192708333
102.95118815104166
103.21691731770834
103.46721354166667
103.69351236979166
103.880869140625
103.97684244791667
104.19442057291667
104.55715494791667
104.83306966145834
104.96947916666667
105.06035481770833
105.06275065104167
104.33897135416667
102.04883463541667
100.670361328125
101.02163411458334
103.67265299479166
103.56031575520834
102.02252604166667
102.25608723958334
102.30104166666666
102.07840169270834
101.870537109375
101.8194140625
101.68947916666667
101.54094401041667
101.48595703125
101.5513671875
101.690546875
101.79722981770833
101.92545572916667
101.97844075520834
102.03520182291666
102.07189127604167
102.121572265625
102.16105143229167
102.3108984375
102.40375325520833
102.37101236979167
101.54258138020833
100.21865559895834
99.87474609375
100.14612630208333
100.340966796875
102.33893229166667
102.41421549479166
102.50291666666666
100.435888671875
98.96889322916667
98.96302083333333
99.00664388020833
100.55970377604167
100.66744140625
100.80807942708333
100.97571614583333
101.11847981770833
101.27310221354166
101.45616861979167
101.65015950520834
101.72921875
101.76799153645834
101.83197265625
101.89686848958333
101.9931640625
102.06111653645833
101.819091796875
100.61810546875
99.76152018229166
99.89396809895834
100.29044270833333
102.543388671875
102.71346354166667
101.25260416666667
99.33080729166667
99.484931640625
100.95994466145834
100.94612955729167
100.942080078125
100.99552734375
101.165986328125
101.39654622395834
101.59048828125
101.69986328125
101.79642903645833
101.84534505208333
101.90855794270833
101.98431640625
102.05341796875
102.13452473958333
102.21839192708333
102.30239908854166
102.052744140625
100.979521484375
100.09787760416667
100.22374348958333
100.75926432291666
103.12295247395834
103.15339192708333
103.31591145833333
99.96321614583333
100.007431640625
99.93802408854167
101.44851236979167
101.4848828125
101.57408203125
101.78265299479166
101.97914713541667
102.14611653645834
102.27322591145834
102.49112955729167
102.641474609375
102.72185221354167
102.857275390625
102.944912109375
102.93525716145834
102.327158203125
101.54012044270833
101.36953776041666
101.64076171875
101.68901041666666
101.89691080729166
102.10668294270833
102.21931966145833
102.22171875
102.13843424479167
102.06838541666667
102.10148763020834
102.18139322916667
102.33792643229167
102.464375
102.60002604166667
102.68864583333334
102.800078125
102.84933919270833
102.91589518229166
102.98609049479167
102.78773111979167
101.836484375
101.18606119791667
101.20338216145834
101.356474609375
101.60183268229167
101.656162109375
101.967001953125
102.09618489583333
102.04682291666667
101.9159375
101.841298828125
101.861875
101.98041015625
102.12888671875
102.209169921875
102.3476953125
102.496025390625
102.62902018229167
102.67462239583334
102.795146484375
102.57357421875
101.40423177083333
100.51478841145833
100.541474609375
100.91759440104167
101.21958984375
101.261572265625
101.38954752604167
101.588798828125
101.57815104166667
101.48254231770834
101.503876953125
101.598466796875
101.73034830729166
101.78022786458334
101.79139973958333
101.854013671875
101.949912109375
102.01063802083333
102.05530924479167
102.04068359375
101.620126953125
100.25500325520834
99.38626627604167
99.41155924479166
101.72328125
101.81001627604167
101.8639453125
102.00473958333333
100.65165690104166
100.62419596354167
98.55501627604167
98.539140625
98.60299153645833
98.74773763020833
100.46455403645834
100.55097330729167
100.62087239583333
100.66038736979166
100.69089518229167
100.883740234375
100.887578125
100.84147786458334
100.26342122395833
98.775751953125
97.745390625
97.91156901041667
100.204755859375
100.36087565104167
100.50697265625
99.04367838541667
99.21867513020834
99.24111979166666
99.25848958333333
99.35078125
99.5728125
99.7996484375
100.03259765625
100.23835286458333
100.41073893229166
100.69335611979167
100.78865559895833
98.82128580729167
98.957724609375
99.09239908854167
100.77207356770833
100.90331705729167
101.03698567708334
100.9478515625
99.40858072916667
97.68007486979167
97.48064453125
100.094013671875
100.224423828125
98.75578776041667
98.97490885416667
99.206669921875
99.272099609375
99.27178059895833
99.31754231770833
99.435048828125
99.60716796875
99.834140625
99.92583333333333
100.01267252604167
100.11789388020833
100.31277669270834
100.44978515625
100.58768880208333
100.70399739583333
100.80660481770833
98.84725260416667
98.89523111979166
99.02815104166666
99.22702799479167
100.874833984375
100.32595052083333
98.71054036458334
97.47759765625
97.762958984375
100.223173828125
100.48433268229167
100.7362890625
101.01410807291667
99.61389973958333
99.66964192708333
99.655908203125
99.730166015625
100.00520182291666
100.23142903645834
100.411826171875
100.65734049479167
100.805234375
98.94060872395833
99.11597981770834
99.204140625
100.86696940104167
101.15628255208334
101.25252604166667
101.37453450520833
101.50092447916667
101.639619140625
101.75364908854166
101.75372395833334
100.87558919270833
99.19755859375
98.57657552083333
98.95432291666667
101.26673828125
101.41513020833334
101.642216796875
100.36056315104166
100.56822916666667
100.65208333333334
100.64975911458333
98.931669921875
99.2721484375
101.20736979166666
101.69643229166667
102.27374674479167
102.68329427083333
102.75578125
102.75838216145833
102.917490234375
103.13477213541667
103.51029296875
103.65153971354167
101.63523763020834
101.802998046875
103.31111653645833
103.32008463541666
102.8012109375
100.78404296875
98.957412109375
98.833642578125
101.28226236979167
101.21399739583333
101.230263671875
101.82895833333333
101.78525065104166
101.73708658854167
100.011416015625
99.96544596354167
100.019443359375
100.23426106770833
100.48706705729167
100.546455078125
100.57050130208333
98.56950520833334
98.81861979166666
100.52613932291666
100.54072591145834
100.56572591145833
100.8179296875
101.02046875
101.15734375
101.180888671875
100.37288411458333
100.13324544270833
100.70957682291667
101.30412109375
101.33451497395833
101.32234700520833
101.48569010416666
101.68834309895833
101.671376953125
101.55578776041666
101.62116861979166
101.878193359375
102.29302734375
102.673349609375
103.074814453125
103.41597981770833
103.68345052083333
103.85908203125
102.302197265625
102.46881184895834
104.10243489583333
104.1396484375
103.58971028645833
101.97105794270833
100.761328125
100.8