33.93357096354167
33.915729166666665
33.826770833333335
33.735592447916666
52.08177083333333
77.85738606770833
49.61702799479167
48.2556640625
45.107783203125
46.04947265625
46.828968098958335
45.38442057291667
45.52732421875
45.81961588541667
45.962513020833335
46.100576171875
46.24769856770833
46.34619791666667
46.144612630208336
45.65065755208333
45.23371744791667
45.10679036458333
45.14595052083333
45.51384114583333
46.092731119791665
46.129755859375
44.77277994791667
44.7826953125
44.76119140625
44.885400390625
44.974208984375
45.05299479166667
45.14076497395833
45.24476888020833
44.853408203125
44.993235677083334
45.101484375
45.182688802083334
45.21955078125
45.32613606770833
45.49451497395833
47.33945963541667
47.306246744791665
46.285944010416664
45.86838541666667
45.63349934895833
46.209498697916665
47.23180989583334
47.34048502604167
47.47435872395833
46.520947265625
46.51207682291667
46.43365234375
46.44227864583333
46.53428059895833
46.687825520833336
46.813037109375
46.9596875
47.11409830729167
47.25583984375
47.33044270833334
47.34525390625
47.420725911458334
46.90412760416667
47.09765625
47.046197916666664
46.6130859375
46.15429036458333
46.911005859375
47.50968098958333
47.50435872395833
47.61387369791667
47.721842447916664
47.78098307291667
46.65217447916667
46.61587890625
46.626328125
46.70005859375
46.84513997395833
46.94602213541667
47.028577473958336
47.151529947916664
47.299235026041664
47.4004296875
47.50935546875
47.57708984375
47.72823893229167
47.893323567708336
47.07339518229167
46.559970703125
46.08396484375
45.848629557291666
47.48105794270833
47.527392578125
47.55216145833333
46.542763671875
46.61005533854166
46.55935546875
46.496959635416665
46.514619140625
46.6001171875
46.71741536458333
46.85914713541667
47.021731770833334
47.153362630208335
47.27889322916667
47.39787434895833
47.49130859375
47.552041015625
47.69367838541667
47.86048177083333
47.984482421875
47.770390625
46.452952473958334
45.97875325520833
45.723782552083335
47.28259440104166
47.27143229166666
47.23771809895833
46.858821614583334
46.847591145833334
46.8567578125
45.22165690104167
45.21522786458333
45.22055989583333
45.29404947916667
45.42513346354167
45.508541666666666
45.617255859375
45.73525065104167
45.800302734375
45.27415364583333
45.386204427083335
45.64750651041667
48.008854166666666
47.84197265625
47.569264322916666
46.76666341145833
46.22748697916666
45.62658854166666
46.99768229166666
46.87155924479167
46.674319661458334
46.16957356770833
46.148128255208334
45.86548828125
44.42357747395833
44.406552734375
44.4021484375
44.41595703125
44.502428385416664
44.55112955729167
44.60978841145833
44.68062825520833
44.78084635416667
44.9064453125
44.979886067708335
45.06842122395833
45.111097005208336
45.192630208333334
45.288157552083334
44.81859375
44.381298828125
44.17314778645834
44.09537109375
44.44643229166667
44.377360026041664
44.445423177083335
44.447574869791666
44.399768880208335
43.68182291666667
43.69435872395833
43.75039713541667
43.810804036458336
43.88220377604166
43.954791666666665
44.00078450520834
44.040133463541665
44.059765625
44.0955078125
44.18208333333333
44.270908203125
44.33294596354167
44.15736979166667
43.807972005208335
43.590891927083334
43.522421875
43.529459635416664
44.697864583333335
44.638251953125
44.68576822916667
43.906002604166666
43.891087239583335
43.87319986979167
43.8927734375
43.95404296875
44.01780598958333
44.065494791666666
44.161875
44.21443359375
44.26087890625
43.801806640625
43.92920572916667
43.988095703125
43.97300455729167
43.80650390625
43.6130078125
43.437542317708335
43.40172526041667
44.580563151041666
44.51704427083333
44.563649088541666
43.853896484375
43.88073567708334
43.857408854166664
43.82480794270833
43.85805338541667
43.930380859375
43.99443033854167
44.06362955729167
44.1297265625
44.173854166666665
44.2287109375
44.28989583333333
43.834293619791666
43.94875325520833
43.896416015625
43.683349609375
43.405927734375
43.387027994791666
44.593098958333336
44.49394856770834
44.51544270833333
43.785556640625
43.85048502604167
43.813994140625
43.78569661458334
43.794833984375
43.836962890625
43.89489583333334
43.970986328125
44.023098958333335
44.07541666666667
44.105498046875
44.145182291666664
44.17445638020833
44.234765625
44.32267578125
44.48668619791667
44.28390625
43.449150390625
43.31252278645833
43.31796875
43.836552734375
44.11267578125
44.045107421875
44.07948893229167
43.13366861979166
43.156305338541664
43.149410807291666
43.27029947916667
43.31419270833333
43.3719921875
43.436442057291664
43.496282552083336
43.56450520833334
43.610651041666664
43.641087239583335
43.698238932291666
43.74435221354167
43.803291015625
43.8845703125
43.975390625
43.8044140625
43.435654296875
42.713092447916665
43.219443359375
43.25352213541667
44.45073567708334
44.000315755208334
44.002119140625
43.22731770833333
43.233828125
43.181614583333335
43.21456705729167
43.26515299479167
43.34394856770833
43.42505533854167
43.50248697916667
43.559244791666664
43.609765625
43.667060546875
43.717265625
43.750419921875
43.814560546875
43.93626302083333
44.034488932291666
44.084622395833335
43.868798828125
43.01785481770833
43.33643229166667
43.347643229166664
44.56793294270833
44.48939778645833
44.48153645833333
43.69731119791667
43.75315104166667
43.757311197916664
43.750299479166664
43.784908854166666
43.83705729166667
43.914348958333335
43.98314778645833
44.027529296875
44.07769856770833
44.11697265625
44.16192708333333
44.338056640625
44.37265950520833
44.43867513020833
44.539501953125
44.63633463541667
44.711490885416666
44.55828776041667
43.694013671875
43.51215494791666
44.192815755208336
44.695729166666666
44.646181640625
44.64048828125
44.659443359375
44.682591145833335
43.76439778645833
43.77693033854167
43.77883138020833
43.95238606770833
43.9993359375
44.06970052083334
44.13870768229167
44.220758463541664
44.282184244791665
44.34875
44.398857421875
44.45360677083333
44.525364583333335
44.61411783854167
44.70716145833333
44.80697591145833
44.308362630208336
44.083935546875
44.62492513020833
44.40220703125
44.34862630208333
44.90254231770833
44.8648828125
44.90023111979167
44.104166666666664
44.1081640625
44.09318359375
44.093411458333335
44.13404947916667
44.196666666666665
44.2810546875
44.35915364583333
44.43431640625
44.510888671875
44.590673828125
44.667805989583336
44.71569986979166
44.274860026041665
44.42344401041667
44.548759765625
44.62735677083333
44.49840494791667
45.09084309895833
44.783466796875
44.707630208333335
44.727779947916666
45.30808268229167
45.33375651041667
44.480716145833334
44.48532877604167
44.460260416666664
44.416591796875
44.438876953125
44.507350260416665
44.589137369791665
44.669215494791665
44.768743489583336
44.327952473958334
44.441028645833335
44.50587565104167
45.55498046875
45.6466796875
45.75280924479166
45.63082356770833
45.230634765625
44.89467447916667
44.74228841145833
44.741236979166665
45.31326822916667
44.98895182291667
45.02556640625
45.03021158854167
43.936240234375
43.90419596354167
43.90596028645833
43.970791015625
44.059557291666664
44.135426432291666
44.229303385416664
44.29913411458333
43.84492513020833
44.344729817708334
44.440686848958336
44.49404947916667
45.493463541666664
45.13978515625
44.66635091145833
44.35677734375
44.26070638020833
44.75945963541667
44.392428385416665
44.371334635416666
44.394544270833336
43.29232421875
43.28744466145833
43.245361328125
43.4276171875
43.458033854166665
43.53270833333333
43.61697265625
43.703684895833334
43.76507486979167
43.820611979166664
43.884541015625
43.94374674479167
44.00810221354167
43.87576822916667
43.483125
43.160494791666665
43.035755208333335
43.00134114583334
42.99259765625
43.48049153645833
43.45432291666667
43.345035807291666
43.332858072916665
43.3103515625
43.32095377604167
43.380045572916664
43.466715494791664
43.54430338541667
43.60485026041667
43.682421875
43.737750651041665
43.305729166666666
43.380712890625
43.452571614583334
43.54253255208334
43.60762044270833
43.651988932291665
43.260081380208334
42.935390625
42.821490885416665
42.78545247395834
43.280667317708335
43.64056315104167
43.70612955729167
43.69771809895833
43.55467122395833
43.574420572916665
43.59351236979167
43.64917643229167
43.71212565104167
43.80015625
43.84728190104167
43.912298177083336
43.959677734375
44.01689127604167
44.056057942708335
44.178753255208335
44.238642578125
43.819361979166665
43.39302083333333
43.158258463541664
42.856868489583334
42.673649088541666
42.859661458333335
43.30647135416667
43.27697265625
43.1144921875
43.18149739583333
43.1742578125
43.061484375
43.085436197916664
43.122639973958336
43.15910481770833
43.22280924479167
43.277060546875
43.33252604166667
43.398369140625
43.50969075520833
43.54736979166667
43.604518229166665
43.65110677083333
43.347262369791665
43.43466796875
43.53873372395833
43.68347005208334
43.336848958333334
43.058352864583334
42.95136393229166
42.94857421875
43.482356770833334
43.45302083333333
43.43171549479167
43.45919596354167
43.325830078125
43.38831380208333
43.397418619791665
43.43841471354167
43.48412434895833
43.557369791666666
43.611865234375
43.67979166666667
43.73106119791667
43.787662760416666
43.329195963541665
43.434453125
43.675709635416666
43.73680989583333
43.84427083333333
43.929020182291666
43.8237109375
43.461103515625
43.22903645833333
43.16769205729167
43.20796875
43.746136067708335
43.761500651041665
43.80369466145833
43.610608723958336
43.56986328125
43.53039388020834
43.532887369791666
43.612141927083336
43.6752734375
43.760022786458336
43.82080729166667
43.86363932291667
43.38309244791667
43.46283854166666
43.497421875
43.755139973958336
43.80125
43.86404622395833
43.71569661458334
43.35357421875
43.114163411458335
43.05455078125
43.048828125
43.585185546875
43.56376627604167
43.537265625
43.51484049479166
43.357366536458336
43.31624674479167
43.33076497395833
43.385914713541666
43.44013346354166
43.438831380208335
43.510888671875
43.61870442708334
43.648014322916666
43.673427734375
43.70407877604167
43.758600260416664
43.808564453125
43.61716471354167
42.762890625
42.57099609375
42.49779296875
43.01490234375
42.97916341145833
42.9478125
42.932919921875
42.7326953125
42.724111328125
42.68300130208333
42.74126302083334
42.74509440104167
43.343821614583334
43.345052083333336
43.381839192708334
43.44205078125
42.98490234375
43.089016927083335
43.10555338541667
43.18835611979166
43.226565755208334
43.262288411458336
43.158001302083335
42.77623046875
42.55175130208333
42.55599283854167
42.988834635416666
42.878193359375
42.848173828125
42.932932942708334
42.92556640625
42.82947591145833
42.85169921875
42.86696614583333
42.921451822916666
42.98087890625
43.048518880208334
43.10873046875
43.14859700520833
43.180852864583336
43.13953450520833
43.17659830729167
43.24941080729167
43.312923177083334
43.2351171875
42.92992513020833
42.67044270833333
42.605631510416664
42.57063151041667
42.599514973958335
43.23353515625
43.18304361979167
43.220784505208336
43.210393880208336
43.163740234375
43.181302083333335
43.23312174479167
43.315947265625
43.39747721354167
43.445354817708335
43.51240559895833
43.025517578125
43.1229296875
43.16262044270833
43.210139973958334
43.16734049479167
43.150159505208336
42.8815625
42.579970703125
42.458603515625
42.448971354166666
42.46329427083333
43.07695638020834
43.011051432291666
43.02984375
43.004205729166664
42.986259765625
43.017444661458335
43.06720052083333
43.148678385416666
43.211155598958335
43.28015299479166
43.354557291666666
43.408505859375
43.45391927083333
42.93675130208333
43.048212890625
43.09938802083333
43.149713541666664
43.1433984375
42.885035807291665
42.4728125
42.27752604166667
42.223212890625
42.865029296875
42.78554036458333
42.7415625
42.70152018229167
42.812662760416664
42.75888020833333
42.743219401041664
42.761051432291666
42.75398111979167
42.848623046875
42.89646484375
42.977294921875
43.10334635416667
43.143001302083334
43.188951822916664
43.24302083333333
43.297392578125
43.36888997395833
43.458408203125
43.480654296875
42.67470703125
42.39376953125
42.245751953125
42.23053059895833
42.792425130208336
42.644951171875
42.57211263020833
42.601956380208335
42.635791015625
42.60833658854167
42.591796875
42.64714192708333
42.74452473958333
42.80334309895834
42.8759375
42.96740234375
43.04609375
43.165172526041665
43.2219921875
43.26830403645833
43.34890950520833
43.4156640625
43.525172526041665
43.001162109375
42.816448567708335
42.483427734375
42.305263671875
42.21856770833333
42.88545247395833
42.81332356770833
42.84233723958334
42.81974934895833
42.92232747395833
42.87999674479167
42.86526692708333
42.89265299479167
42.94978190104167
43.02244140625
43.095647786458336
43.183232421875
43.240651041666666
43.30222330729167
43.33399088541667
43.39613606770833
43.428544921875
42.948430989583336
43.09301106770833
43.02932942708333
42.70604817708333
42.4737109375
42.309703776041665
42.96625
42.93711588541667
42.956988932291665
43.02760416666667
43.07753580729167
43.05154622395833
43.01212890625
43.03622395833333
43.12250651041666
43.183076171875
43.25605143229166
43.342431640625
43.41719075520833
43.479736328125
42.950927734375
43.050784505208334
43.089052734375
43.13144856770833
43.05305338541667
42.69724609375
42.46130533854166
42.382783203125
42.423167317708334
43.105458984375
43.058466796875
43.118935546875
43.139078776041664
43.079563802083335
43.075670572916664
43.11699544270834
43.1716796875
43.26796223958333
43.348199869791664
43.43602864583333
43.53583984375
43.58070963541667
43.054970703125
43.1593359375
43.15735026041666
43.22608072916667
43.109186197916664
42.724283854166664
42.4809375
42.448160807291664
42.46525716145833
43.14076822916667
43.101025390625
43.17498697916667
43.2118359375
43.19766276041667
43.204807942708335
43.23538411458333
43.3218359375
43.41503255208333
43.53015950520833
43.609104817708335
43.137314453125
43.226474609375
43.211416015625
43.22146809895833
43.2819921875
43.327161458333336
43.19790690104167
42.84819010416667
42.65526692708333
42.54546875
42.515354817708335
43.15345703125
43.08923502604166
43.10887044270833
43.158108723958335
43.200494791666664
43.17126302083334
43.20966471354166
43.26296223958333
43.349010416666665
43.410986328125
43.48205729166666
43.537294921875
43.05135416666667
43.140706380208336
43.195582682291665
43.189697265625
43.15564453125
42.91538736979167
42.62884440104167
42.49158528645833
42.495319010416665
43.047060546875
43.024228515625
43.0128125
43.078287760416664
43.12290690104167
43.094807942708336
43.090533854166665
43.13618489583333
43.199274088541664
43.29049153645833
43.38091796875
43.453173828125
43.501979166666665
43.54559244791667
43.032457682291664
43.13630859375
43.200442708333334
43.218014322916666
43.109661458333335
42.76340494791667
42.50681640625
42.414404296875
42.429036458333336
43.052151692708335
42.94849283854167
42.948994140625
42.975384114583335
42.98606119791667
42.98322265625
42.992958984375
43.03499674479167
43.103291015625
43.18235026041667
43.26042317708333
43.31337565104167
43.366207682291666
43.43735677083333
43.469130859375
43.56012044270833
43.025791015625
43.17484375
43.223873697916666
43.01026041666667
42.556949869791666
42.33124674479166
42.274404296875
42.919788411458335
42.82822265625
42.835826822916665
42.82359049479167
42.91593098958333
42.861552734375
42.839244791666665
42.90359375
42.97561848958333
43.0387890625
43.117451171875
43.17897786458333
43.25693684895833
43.311982421875
43.36263671875
43.442125651041664
43.47530924479167
43.57138671875
43.10443359375
43.254938151041664
43.1853125
42.78430989583333
42.470296223958336
42.355319010416665
42.298802083333335
42.961940104166665
42.84804036458333
42.846448567708336
42.874716796875
42.89548502604167
42.91468098958333
42.91979166666667
42.97611002604167
43.057626953125
43.16162760416667
43.248896484375
43.32555338541667
43.40842447916667
43.48627604166666
43.542900390625
43.03951171875
43.144658203125
43.22700520833333
43.35511067708333
43.301585286458334
42.932522786458335
42.596585286458335
42.44915690104167
42.42034830729167
43.011233723958334
43.0405859375
43.076064453125
43.109482421875
43.11754557291667
43.141917317708334
43.14339518229167
43.173232421875
43.25605143229166
43.346936848958336
43.43833333333333
43.495751953125
43.577731119791665
43.06970703125
43.172809244791665
43.23141276041667
43.25550130208333
43.274508463541665
43.215777994791665
42.921389973958334
42.620592447916664
42.523154296875
42.530244140625
43.18580078125
43.1847265625
43.27494791666667
43.35099934895833
43.30836588541667
43.244723307291665
43.27017578125
43.33587565104167
43.40401692708333
43.472529296875
43.570485026041666
43.653499348958334
43.133037109375
43.234361979166664
43.22903645833333
43.28941080729167
43.28977213541667
43.007451171875
42.659069010416665
42.495807291666665
42.422236328125
42.96809244791667
42.964462890625
42.97974609375
43.026409505208335
43.000712890625
43.0104296875
43.04886393229167
43.08798177083333
43.16922200520833
43.2565234375
43.35372395833333
43.427503255208336
43.50631184895833
43.566731770833336
43.046429036458335
43.160481770833336
43.23494140625
43.080989583333334
42.702822265625
42.38491861979167
42.23631184895833
42.218515625
42.87477864583333
42.75658528645833
42.70806640625
42.745029296875
42.750354817708335
42.766819661458335
42.847584635416666
42.89271809895833
42.98081705729167
42.99372721354167
43.10617838541667
43.270045572916665
43.32353190104167
43.397431640625
43.44373046875
43.502509765625
43.032281901041664
43.10292643229167
42.77819010416667
42.41904622395833
42.140400390625
42.09806640625
42.72908203125
42.633583984375
42.54222005208333
42.58809895833333
42.638046875
42.604033203125
42.610852864583336
42.664521484375
42.781002604166666
42.86183919270833
42.967421875
43.089166666666664
43.25158528645834
43.310550130208334
43.37819010416667
43.43901692708334
43.5194921875
43.62186197916667
43.091725260416666
42.87285481770834
42.51601236979167
42.232854817708336
42.14652018229167
42.792887369791664
42.71494466145833
42.627903645833335
42.64208984375
42.657376302083335
42.66787109375
42.64910807291667
42.706487630208336
42.782320963541665
42.886907552083336
42.943876953125
43.052356770833335
43.191800130208335
43.2306640625
43.275768229166665
43.329036458333334
43.408932291666666
43.492662760416664
43.44286458333333
42.554622395833334
42.28927083333333
42.156695963541665
42.72297526041667
42.633557942708336
42.563763020833335
43.14498697916667
43.139384765625
43.10022786458333
43.160146484375
43.200947265625
43.27288736979167
43.37106119791667
43.431708984375
43.52944010416667
43.064345703125
43.224554036458336
43.329990234375
43.245602213541666
43.290013020833335
43.387278645833334
43.390139973958334
43.11871419270833
42.737939453125
41.96345377604167
41.97003255208333
41.98359700520833
42.45651041666667
42.33522786458333
42.38204752604167
42.9251953125
42.839466145833335
42.51065104166667
42.658717447916665
42.78033203125
43.20837239583334
43.34256184895833
43.42501953125
43.493330078125
43.02973307291666
43.18951171875
43.321220703125
43.273798828125
43.346637369791665
43.451061197916665
43.367626953125
42.95986002604167
42.07224283854167
42.002626953125
42.00402018229167
42.568561197916665
42.36341796875
42.37244140625
42.9558984375
42.893131510416666
42.55974609375
42.53595703125
42.73598307291667
43.174625651041666
43.308404947916664
43.417399088541664
43.4901171875
43.01347981770834
43.182529296875
43.31239583333333
43.362666015625
43.319130859375
43.372220052083335
43.46993489583333
43.56649088541667
42.89474609375
42.54627278645833
42.201917317708336
41.970439453125
42.591487630208334
42.53216471354167
42.4444140625
43.02063151041666
43.00872721354167
42.683291015625
42.61408854166667
42.757080078125
43.17397135416667
43.286800130208334
43.38286458333334
43.478583984375
43.54581380208333
43.109241536458335
43.30743489583333
43.35017578125
43.30938802083333
43.3416796875
43.425029296875
43.507379557291664
43.613486328125
43.02363606770833
42.670611979166665
42.29347330729167
42.060546875
42.593486328125
42.5701171875
42.510188802083334
43.05514322916667
43.064807942708335
43.03099609375
43.098701171875
43.126263020833335
43.1934375
43.276337890625
43.39936848958333
43.494615885416664
43.58052734375
43.16840494791666
43.3649609375
43.31741861979167
43.339833984375
43.4174609375
43.488704427083334
43.60501953125
43.15050455729167
42.989095052083336
42.52623697916667
42.18510416666667
42.08613606770833
42.72228515625
42.7055859375
42.695501302083336
42.756962890625
42.75730794270833
42.7296875
42.681722005208336
42.765719401041665
42.84509765625
42.868388671875
42.967828776041664
43.06109375
43.2294140625
43.284977213541666
43.315823567708335
43.35863606770833
43.405764973958334
43.485078125
43.5883984375
42.987819010416665
42.681585286458336
42.31017252604167
42.095631510416666
42.645709635416665
42.664768880208335
42.64838541666666
43.26944661458333
43.268795572916666
43.202447916666664
42.728024088541666
42.88490234375
42.94453450520833
42.951565755208335
42.959716796875
43.065670572916666
43.14068359375
43.2711328125
43.31277994791667
43.35764973958333
43.448544921875
43.593206380208336
43.53659830729167
42.54470703125
42.24881184895833
42.077890625
42.73638020833334
42.73107747395834
42.638919270833334
42.69796223958333
42.763577473958335
42.7777734375
42.7694921875
42.793681640625
42.93163411458333
43.04532552083333
43.16666015625
43.284420572916666
43.38892252604167
43.48391927083333
43.51088216145833
42.931813151041666
43.039417317708335
43.12953450520833
43.21498372395833
43.06042317708334
42.62748697916667
42.258671875
42.135234375
42.679752604166666
42.706546223958334
42.703356119791664
42.691487630208336
42.767783203125
42.76877604166667
42.718287760416665
42.746959635416665
42.88807942708333
42.986155598958334
43.02204752604167
43.140872395833334
43.27532877604167
43.342571614583335
43.39980143229167
43.432789713541666
42.921429036458335
43.0937109375
43.184856770833335
43.039729817708334
42.631748046875
42.25034505208333
42.12641276041666
42.678141276041664
42.65041015625
42.61929361979167
42.556790364583335
42.576373697916665
42.591025390625
42.546399739583336
42.564029947916666
42.64677408854167
42.702392578125
42.802060546875
42.912054036458336
42.991588541666665
43.094280598958335
43.218258463541666
43.268216145833335
43.30995768229167
43.39072916666667
43.498681640625
43.61119140625
43.080146484375
42.808336588541664
42.35171875
42.021243489583334
41.95431640625
42.59020182291667
42.490888671875
42.366627604166666
42.98638020833334
42.923017578125
42.552734375
42.620852864583334
42.68176432291666
43.091295572916664
43.214853515625
43.311650390625
43.39470052083333
43.45610026041667
43.53713216145833
43.11906575520833
43.329723307291665
43.42825846354167
43.53900065104167
43.55671549479167
43.69611328125
43.13482421875
42.72344075520834
42.264781901041665
42.033564453125
42.602376302083336
42.600963541666665
42.605227864583334
43.26927083333333
43.29865885416667
43.23032877604167
42.74304361979166
42.88071940104167
42.948359375
42.955797526041664
42.989261067708334
43.100654296875
43.22911783854167
43.38457356770834
43.391201171875
43.469713541666664
43.601565755208334
43.76598307291667
43.22248046875
42.875638020833335
42.39294270833334
42.183056640625
42.138876953125
42.80450520833333
42.77771158854166
42.838076171875
42.948024088541665
42.901875
42.88171223958334
42.965703125
43.029951171875
43.16770182291667
43.31648111979167
43.47726236979167
43.63585611979167
43.75810221354167
43.2878515625
43.438450520833335
43.529296875
43.486015625
42.95120442708333
42.013561197916665
41.869033203125
41.801611328125
42.22590494791667
42.25943033854167
42.798785807291665
42.76595703125
42.725400390625
42.46857421875
42.710498046875
42.85748046875
42.93445638020833
43.044541015625
43.167630208333335
43.24936848958333
43.35517903645833
43.44387044270833
43.56465169270833
43.662425130208334
43.064443359375
42.720944010416666
42.260983072916666
42.112805989583336
42.60273111979166
42.627451171875
42.642893880208334
43.099124348958334
43.06875
43.088671875
43.08596028645833
43.03009765625
43.189143880208334
43.183427734375
43.41133138020833
43.44892903645833
43.410618489583335
42.830419921875
43.05279622395833
43.047294921875
43.11033203125
42.971298828125
42.59166015625
42.315625
42.26302408854167
42.81154296875
42.626875
42.81190755208333
42.91905924479167
42.95778645833333
43.02540690104167
43.16596354166666
43.114189453125
43.123531901041666
43.137874348958334
43.215794270833335
43.27973958333333
43.28504231770833
43.29548502604167
43.321337890625
43.30642903645833
43.27411783854166
43.19583984375
42.83376953125
42.543444010416664
42.450504557291666
42.392998046875
42.921689453125
42.76212890625
42.786946614583336
42.80253580729167
42.808388671875
42.82593424479167
42.84595703125
42.877506510416666
42.903317057291666
42.91954752604167
42.93978190104167
42.979261067708336
43.02098958333333
43.042005208333336
43.06666666666667
43.03463216145833
42.81873372395833
42.537281901041666
42.455166015625
42.48044596354167
43.078082682291665
43.01185546875
43.02168294270833
43.0287890625
43.018564453125
42.97482421875
42.976634114583334
43.03267578125
43.11242513020834
43.16622395833333
43.22069661458333
43.26386393229166
43.268626302083334
43.315625
42.80595703125
42.854085286458336
42.605185546875
42.44896809895833
42.43552408854167
43.1158984375
43.11342122395833
43.15439778645833
43.244085286458336
43.342447916666664
43.370888671875
43.409108072916666
42.93874348958333
43.111246744791664
43.20321614583333
43.32857747395833
43.408994140625
43.48564778645834
43.540934244791664
43.03890625
43.189807942708335
43.23089518229167
42.93420572916666
42.606708984375
42.51049153645833
42.55880533854167
43.1706640625
43.165582682291664
43.211858723958336
43.28052734375
43.35488932291667
43.399417317708334
43.38234700520833
43.40103190104167
43.47785807291667
43.59626953125
43.701891276041664
43.261966145833334
43.424876302083334
43.45442057291667
43.47573893229167
43.594241536458334
43.52262044270833
42.752711588541665
42.649599609375
42.5490234375
43.08916341145834
42.955348307291665
43.121416015625
43.22722005208333
43.279345703125
43.3042578125
43.311236979166665
43.336083984375
43.436279296875
43.52921875
43.6298046875
43.73072265625
43.32478190104167
43.422542317708334
43.401875
43.464287109375
43.52528971354167
43.33480143229167
43.05926432291667
42.35455078125
42.42271158854167
42.4689453125
43.081796875
43.021663411458334
42.95096028645833
43.089853515625
43.11451822916667
43.178759765625
43.231311848958335
43.32115234375
43.40572265625
43.49443684895834
43.58767903645833
43.64611979166666
43.714830729166664
43.19853515625
43.321002604166665
43.320009765625
43.16408203125
42.773291015625
42.60867513020833
42.60730143229166
42.647802734375
43.34352864583333
43.329791666666665
43.424130859375
43.470462239583334
43.49589518229167
43.56303385416667
42.995029296875
43.120921223958334
43.206015625
43.295322265625
43.39852864583333
43.471380208333336
43.507265625
43.578258463541665
43.6559375
43.73684895833333
43.074222005208334
42.713818359375
42.494326171875
42.592135416666665
43.149775390625
43.109606119791664
43.163343098958336
43.270807291666664
43.307958984375
43.183681640625
43.168037109375
43.19541666666667
43.28761393229167
43.392154947916666
43.51428059895834
43.625325520833336
43.743092447916666
43.81748697916667
43.41701497395833
43.568525390625
43.48734375
43.245647786458335
42.88534505208333
42.78211263020833
42.84873697916667
43.37451171875
43.34484700520834
43.35339192708334
43.40672200520833
43.34931966145833
43.29648763020833
43.28528645833333
43.37976236979166
43.431559244791664
43.578557942708336
43.73551106770833
43.880302734375
43.486246744791664
43.63654296875
43.864446614583336
43.726611328125
43.140003255208335
42.76712239583333
42.63998046875
42.70664713541667
43.2259375
43.224365234375
43.42452473958333
43.37500651041667
43.350582682291666
43.25864583333333
43.29794921875
43.34166015625
43.478177083333335
43.63579427083334
43.77041015625
43.891285807291666
43.4995703125
43.6680078125
43.75451497395834
43.7433984375
43.108154296875
42.718916015625
42.62111653645833
43.21244140625
43.1475390625
43.198857421875
43.38629231770833
43.44057291666667
43.16371744791667
43.14361328125
43.159697265625
43.258043619791664
43.33546549479167
43.46056966145834
43.59806640625
43.719208984375
43.80943033854167
43.388333333333335
43.525416666666665
43.40970377604167
43.0018359375
42.644586588541664
42.509166666666665
43.0230859375
42.90823567708333
43.019306640625
42.998017578125
43.081813151041665
43.033955078125
42.973675130208335
42.987835286458335
43.04056315104167
43.129560546875
43.23284830729167
43.34581705729167
43.43064127604167
43.454111328125
43.509287109375
43.603173828125
43.66338216145834
43.660361328125
42.694326171875
42.30837239583333
42.136790364583334
42.705455729166665
42.54855143229167
42.635563151041666
43.15956380208333
43.191298828125
42.89322265625
42.82701171875
42.855465494791666
43.21665364583333
43.313203125
43.40306640625
43.50521809895833
43.61903645833333
43.68338541666667
43.74874348958333
43.20431640625
43.328642578125
43.362102864583335
43.35695638020833
42.971516927083336
42.52051432291667
42.24744466145833
42.194020182291666
42.8216015625
42.732666015625
42.662516276041664
42.68351888020833
42.761461588541664
42.78000651041667
42.78585611979167
42.82034830729167
42.90279622395833
42.99516927083334
43.085869140625
43.198388671875
43.360634765625
43.419130859375
43.457001953125
43.52789388020833
43.58164388020833
43.702822265625
43.20633138020833
43.04814778645834
42.54494466145833
42.17362955729167
42.06878580729167
42.66980143229166
42.60537109375
42.49475260416666
43.16774088541667
43.10332356770834
42.844684244791665
42.8101953125
42.819189453125
42.893056640625
42.992822265625
43.089733072916665
43.17507161458333
43.23771484375
43.322115885416665
42.85194986979167
43.043590494791665
43.090152994791666
43.37548828125
43.474619140625
43.466982421875
42.90315104166667
42.209833984375
41.81166666666667
41.68850911458333
42.197626953125
42.06419270833333
42.82031901041667
42.85763671875
42.89692057291666
42.62438802083334
42.633984375
42.718486328125
42.84266927083333
43.056927083333335
43.27560221354167
43.456259765625
43.60426432291667
43.165065104166665
43.3100390625
43.35990885416667
42.91470703125
43.46329427083333
43.60710286458333
43.640234375
43.049375
42.522333984375
41.766474609375
41.83322265625
41.87987630208333
42.40068033854167
42.4271875
42.99046223958333
42.551419270833335
42.53096028645833
42.56292643229167
42.628323567708335
42.739964192708335
42.858681640625
42.9563671875
43.05111653645833
43.138427734375
43.184580078125
43.228932291666666
42.7282421875
42.964290364583334
43.232652994791664
42.947330729166666
42.434625651041664
42.171015625
42.14532552083333
42.751637369791666
42.607958984375
42.703030598958335
43.35231119791667
43.06520182291667
42.9621875
42.36705078125
42.499020182291666
42.976865234375
43.14244140625
43.222294921875
42.96270833333333
43.332347005208334
43.41069010416667
43.446712239583334
43.51353515625
43.65796549479167
43.07897786458334
42.67599283854167
42.19494466145834
41.98836588541667
42.53216796875
42.39196940104166
42.466458333333335
43.095283203125
42.880374348958334
42.83577799479167
42.754436848958335
42.79415690104167
43.208385416666665
43.33613606770833
43.45070638020833
43.566663411458336
43.687962239583335
43.219632161458335
43.32237955729167
43.34381184895833
43.378642578125
43.418688151041664
43.32036458333334
42.810833333333335
42.43671875
42.3025
42.31017252604167
42.85299153645833
42.799749348958336
42.8842578125
42.9741015625
42.96046875
42.913876953125
42.916240234375
42.98470377604167
43.091572265625
43.190966796875
43.301689453125
43.405380859375
43.490475260416666
43.540455729166666
43.57286783854167
43.078779296875
43.24884114583333
43.33330403645834
43.18841471354167
42.65467122395833
42.2401953125
42.084964192708334
42.091591796875
42.67669596354167
42.57655924479167
42.59216471354166
43.221829427083335
42.86900065104167
42.81368815104167
42.800625
42.858082682291666
43.270849609375
43.406559244791666
43.484501953125
43.55439778645833
43.065849609375
43.21855794270834
43.27771809895833
43.34312174479167
43.40206705729167
43.48131510416667
43.603115234375
43.61751953125
42.645436197916666
42.19918619791667
41.990390625
42.49576497395833
42.393489583333334
42.35888020833333
42.92853515625
42.61847005208333
42.636256510416665
42.57578776041667
42.54967447916667
42.92799479166667
43.04788411458333
43.1439453125
43.23880533854167
43.326630859375
43.398870442708336
43.47495442708333
42.96410481770833
43.06044921875
43.122639973958336
43.210299479166665
43.35005859375
43.44434244791667
43.26225260416667
42.698177083333334
41.78791666666667
41.73827473958333
41.74159505208333
42.291790364583335
42.21716796875
42.820270182291665
42.7880078125
42.766103515625
42.448603515625
42.470218098958334
42.858616536458335
43.002734375
43.132333984375
43.237005208333336
43.342975260416665
43.424114583333335
43.48459635416667
42.97375651041666
43.11279947916667
43.17884114583333
43.308863932291665
43.411129557291666
43.2071484375
42.623447265625
42.267490234375
42.162594401041666
42.74649739583333
42.71449869791667
42.77365234375
42.866181640625
42.901705729166665
42.512652994791665
42.415026041666664
42.426669921875
42.52205729166667
42.65644856770833
42.77725260416667
42.877333984375
42.973310546875
43.064495442708335
43.13548828125
43.18909505208333
42.709404296875
42.893251953125
43.324541015625
43.199801432291665
42.632587890625
42.29721028645833
42.247965494791664
42.29466796875
42.96309895833333
42.959300130208334
43.05875
42.7792578125
42.97818033854167
42.89780598958333
42.899563802083335
42.99481119791667
43.110751953125
43.248141276041665
43.372613932291664
43.50193359375
43.583727213541664
43.07677408854167
43.18056315104167
43.25126953125
43.34138346354167
43.1963671875
42.673570963541664
42.36586588541667
42.32359375
42.3879296875
43.0394140625
43.025524088541665
43.142783203125
43.151311848958336
43.053056640625
42.95924479166667
42.985582682291664
43.0975390625
43.217731119791665
43.33853841145833
43.45971028645833
43.569309895833335
43.076142578125
43.194609375
43.24233072916667
43.31668619791667
43.358463541666666
43.061344401041666
42.537298177083336
42.317021484375
42.30310546875
42.939762369791666
42.912975260416665
42.961337890625
43.03691731770834
43.05169921875
42.9722265625
42.92208333333333
42.951429036458336
43.02045572916666
43.155436197916664
43.29318359375
43.43205403645833
43.55659505208333
43.61072591145833
43.02879231770833
43.073154296875
43.109690755208334
43.20796875
43.01803059895833
42.516168619791664
42.233141276041664
42.19888671875
42.812236328125
42.780693359375
42.785686848958335
42.85428059895833
42.898248697916664
42.83872721354167
42.79268880208333
42.796344401041665
42.87439127604166
43.00199869791667
43.12013997395833
43.223095703125
43.316663411458336
43.349345703125
43.381617838541665
43.42211263020833
42.956845703125
43.02368815104167
42.64335611979167
42.178544921875
41.97002278645834
42.495999348958335
42.417275390625
42.446018880208335
42.967828776041664
42.93536458333333
42.96271484375
42.58944661458333
42.830693359375
42.87778645833333
42.94705403645833
43.043131510416664
43.14684895833334
43.235400390625
43.30100260416667
43.381754557291664
42.90049479166667
43.012220052083336
43.098704427083334
43.18594401041667
42.968828125
42.44623697916666
42.11953776041667
42.013004557291666
42.54032877604167
43.04329752604167
43.049739583333334
43.597034505208335
42.97908203125
42.604791666666664
42.55326171875
42.557574869791665
42.615651041666666
42.70715169270834
42.82880859375
42.91927734375
43.042958984375
42.62989908854167
42.75814453125
42.8462890625
42.91102864583333
43.30457356770833
43.429156901041665
43.05424479166667
43.26791341145833
43.143268229166665
42.51652669270833
42.08215494791666
41.963597005208335
42.51517252604167
42.465589192708336
42.49566731770833
43.053899739583336
43.045094401041666
42.710247395833335
42.63176106770833
42.61781575520833
43.021416015625
43.163317057291664
43.262018229166664
43.3737890625
42.96345703125
43.124248046875
43.187054036458335
43.234169921875
43.2842578125
43.399830729166666
43.54745442708333
43.11402994791667
42.92688802083333
42.39046875
42.10410807291667
42.055830078125
42.62913411458333
43.203531901041664
43.313662109375
43.401311848958336
43.396197916666665
42.99176106770833
42.906031901041665
42.941796875
43.039225260416664
43.17317057291667
43.30181966145833
43.41387044270834
43.5148046875
43.588203125
43.64232747395833
43.685504557291665
43.257666015625
42.85061848958333
42.83675455729167
42.75056640625
42.306044921875
42.111722005208335
42.11689778645833
42.72458658854167
43.27989908854167
43.408518880208334
43.52196614583333
43.1859375
43.063818359375
43.02073567708333
43.06262044270834
43.18084635416667
43.3171875
43.45609049479167
43.59322916666667
43.70242838541667
43.770009765625
43.282197265625
42.824453125
42.90124674479166
43.291393229166665
43.082194010416664
42.4945703125
42.16982096354167
42.09752604166667
42.6752734375
42.63359375
42.68224934895834
42.791422526041664
42.828798828125
42.428151041666666
42.66516276041666
42.702320963541666
42.777470703125
42.866741536458335
42.984713541666665
43.13760416666667
43.29202473958333
43.39552408854167
43.442789713541664
42.979853515625
43.13406901041667
43.175
42.79849609375
42.20841145833333
41.90540364583333
41.878837890625
42.47312174479167
42.426363932291665
42.457607421875
43.035374348958335
43.572483723958335
43.243518880208335
43.17373046875
43.19951497395834
43.63511393229167
43.820559895833334
43.97099934895834
44.1049609375
43.69831705729167
43.881588541666666
43.97245768229167
44.00546223958333
44.06034830729167
43.645930989583334
43.140615234375
42.55138346354167
41.97640950520833
41.725071614583335
42.229130859375
42.19889973958333
42.253603515625
42.8028125
43.0342578125
43.0720703125
43.022770182291666
42.992705078125
43.05918619791667
43.1771484375
43.34075846354167
43.499345703125
43.63024088541667
43.76112955729167
43.369456380208334
42.965732421875
43.012135416666666
43.392373046875
43.00258138020833
43.15309895833333
43.246419270833336
43.370403645833335
43.03466145833333
42.27805989583333
41.87625
41.788720703125
42.3942578125
42.959635416666664
43.05819010416667
43.649677734375
43.039309895833334
42.664876302083336
42.594931640625
42.59947265625
43.030338541666666
43.201953125
43.36434895833333
43.529361979166666
43.168102213541665
43.95352864583333
44.107434895833336
44.16910481770833
43.71908203125
43.857356770833334
43.953694661458336
44.081298828125
44.26538736979167
44.394169921875
43.430110677083334
42.09419270833333
41.70730794270833
41.661175130208335
42.3062109375
42.898395182291665
43.527096354166666
42.94919921875
42.964169921875
42.60423828125
42.8429296875
42.88974934895833
42.98850911458333
43.144680989583335
43.312509765625
43.48138346354167
43.629599609375
43.23325520833333
43.39631510416667
43.4545703125
43.53338541666667
43.046861979166664
43.22615885416667
43.340328776041666
43.51197265625
43.611490885416664
43.07765625
41.70681966145833
41.43717122395833
41.405026041666666
41.988798828125
41.98849609375
42.64494140625
42.70515299479167
42.73289388020833
42.863544921875
42.63855143229166
42.66532877604167
42.75913736979167
42.900699869791666
43.059742838541666
43.220966796875
43.35853515625
43.00388997395833
43.148854166666666
43.222096354166666
42.72774739583333
43.200986328125
43.314765625
43.43941731770833
43.430950520833335
42.743909505208336
42.08110677083334
41.87270182291667
41.88501953125
42.54722005208333
42.55062174479167
42.67455403645833
43.29142903645833
42.856930338541666
42.678134765625
42.59181315104167
42.646077473958336
42.753473307291664
43.220472005208336
43.41320638020834
43.569446614583335
43.732434895833336
43.32272135416667
43.43988932291666
43.484918619791664
43.54117513020833
43.10180013020833
43.221201171875
42.7673046875
42.080126953125
41.766357421875
41.7296484375
42.39324869791667
42.433932291666665
43.109348958333335
43.449521484375
43.42215169270833
43.2481640625
43.132565104166666
43.50125
43.650745442708335
43.813815104166665
43.990693359375
44.142470703125
44.293942057291666
43.90315104166667
43.437428385416666
43.42984700520833
43.47251302083333
43.54831705729167
42.872897135416665
42.267444661458335
41.716669921875
41.52063151041666
42.104641927083335
42.095950520833334
42.716549479166666
42.717542317708336
42.79972005208333
42.40921223958333
42.24997721354167
42.206126302083334
42.251083984375
42.37468098958333
43.057978515625
43.13708658854166
43.259521484375
42.86610677083333
42.998180338541665
43.02182942708333
43.36746744791667
42.974680989583334
43.720774739583334
43.49417317708333
42.840107421875
42.42250651041667
42.29527018229167
42.871416015625
42.26611328125
42.83436848958333
43.40918619791667
43.15552734375
43.047529296875
42.95568033854167
43.309651692708336
43.444189453125
43.598544921875
43.73521484375
43.887044270833336
44.01253580729167
44.117763671875
43.66822916666667
43.20088216145833
43.223942057291666
43.324638671875
43.37101888020833
42.94935872395833
41.83328125
41.580865885416664
41.54795572916667
42.158990885416664
42.7155859375
43.369329427083336
43.389475911458334
43.394847005208334
42.97277994791666
42.89466145833333
42.95504557291667
43.40208333333333
43.58181966145833
43.727132161458336
43.881617838541665
44.013929036458336
44.11902669270833
43.63872395833334
43.133951822916664
43.171572265625
43.27947916666667
43.37341145833334
42.997073567708334
42.34640299479167
41.476376953125
41.47238932291667
41.554661458333335
42.154361979166666
42.12686848958333
42.740712890625
42.65837890625
42.26476888020834
42.17545247395833
42.213173828125
42.651455078125
42.8073046875
42.950504557291666
43.095188802083335
43.21513671875
43.31264322916667
43.381015625
42.913359375
43.621455078125
43.73973958333333
43.88182942708333
43.977037760416664
43.67347981770833
42.98779947916667
42.10239583333333
41.501070963541665
41.506962890625
42.109684244791666
42.04961263020834
42.66541341145833
42.297779947916666
42.219928385416665
42.151722005208335
42.15955403645833
42.23763997395833
42.391354166666666
42.52453776041666
42.678072916666665
42.801097005208334
42.891529947916666
42.9615625
43.01826171875
42.55944986979166
42.691455078125
42.807506510416665
43.269954427083334
43.420152994791664
43.14360026041667
41.936292317708336
41.53238606770833
41.41721354166667
41.97454752604167
41.980768229166664
42.554765625
42.5242578125
42.260904947916664
42.181722005208336
42.116031901041666
42.134736328125
42.221025390625
42.345732421875
42.499130859375
42.64392578125
42.777737630208335
42.894244791666665
42.96074544270834
43.018063151041666
42.55429036458333
42.69430338541667
42.802721354166664
42.960185546875
43.10753580729167
43.31690104166667
42.114794921875
41.59598307291667
41.417125651041665
41.97375
42.544772135416665
43.166767578125
43.136435546875
42.90662434895833
43.40966145833333
43.28865885416667
43.254329427083334
42.773876953125
42.96319661458333
43.453447265625
43.65030598958333
43.816907552083336
43.93296549479167
44.0125
44.06756510416667
43.61880533854167
43.168525390625
43.24103515625
43.335895182291665
43.493030598958335
43.644886067708335
42.901630859375
42.15450520833333
41.659853515625
41.51377604166667
42.088701171875
42.07320963541667
42.659501953125
42.673447265625
42.430556640625
42.365231119791666
42.629635416666666
42.619944661458334
42.67680338541667
42.7914453125
42.970904947916665
43.141031901041664
43.303997395833335
43.43772786458333
43.520234375
43.06084309895834
43.205133463541664
43.29651692708333
43.41038411458333
43.526448567708336
43.17312825520833
43.423291015625
43.30477213541667
42.47735677083333
41.335804036458335
41.176988932291664
41.19134765625
41.86735677083333
41.851591796875
42.474430338541666
43.060693359375
42.73847981770833
43.15728841145833
43.04365234375
43.096318359375
43.22849609375
43.375849609375
43.56533854166667
44.081800130208336
44.27607421875
43.841481119791666
43.38460611979167
43.42294270833333
43.512509765625
43.08931640625
43.269990234375
43.4118359375
43.608570963541666
43.667216796875
42.4566796875
41.682903645833335
41.36423502604167
41.876376953125
41.850966796875
42.47130859375
42.46110677083333
42.576572265625
42.84447265625
43.22498372395833
43.19223958333333
43.201806640625
43.28625651041666
43.441328125
43.64798502604167
43.854664713541666
44.044993489583334
43.67761067708334
43.80345052083333
43.87430013020833
43.75947265625
43.347858072916665
43.409723307291664
43.51275716145833
43.65788411458333
43.10144205729166
42.41666015625
41.652477213541665
41.36825520833333
41.928942057291664
41.91899088541667
42.55880859375
42.560276692708335
42.681728515625
42.92873372395833
43.27896158854167
43.20642903645833
42.69679361979167
42.328388671875
42.468333333333334
43.50458984375
43.344560546875
43.494814453125
43.125361328125
43.58818359375
43.682171223958335
43.21540690104167
43.332926432291664
43.414593098958335
43.577486979166665
43.74934244791667
43.08434244791667
42.24336263020833
41.54673828125
41.30788411458333
41.85880208333333
41.84681966145833
42.44203776041667
42.400279947916665
42.1855859375
42.686510416666664
43.114703776041665
43.094088541666665
43.12707356770834
43.25213541666667
43.42381184895833
43.63084309895833
43.846591796875
44.028811848958334
43.661647135416665
43.25161783854167
43.62949544270833
43.21219075520833
43.3581640625
43.489609375
43.63697265625
43.774388020833335
43.38814778645833
43.59274088541667
43.08909505208333
42.00015950520833
40.909244791666666
40.85081380208333
40.88442057291667
41.47837239583333
41.42552083333333
42.559977213541664
42.51005859375
42.2415625
42.677763671875
43.138033854166665
43.22624348958333
43.375735677083334
43.568736979166665
43.762369791666664
43.969736328125
43.63279622395833
43.27212890625
43.656985677083334
43.245693359375
43.99694661458334
44.14894205729167
44.296728515625
44.44936197916667
44.018177083333335
43.66830078125
43.804781901041665
43.902392578125
42.70125
41.612958984375
41.115979817708336
41.5783984375
41.516982421875
42.2087109375
42.182698567708336
42.77236979166667
42.48396484375
42.424892578125
42.347125651041665
42.319606119791665
42.39611653645834
42.526744791666665
42.71463541666667
42.93502604166667
43.166393229166665
43.3309765625
43.45620768229167
43.01850260416666
43.14982747395833
43.24513671875
42.81104166666667
43.336884765625
43.473225911458336
43.612021484375
43.80157552083333
43.92729166666667
42.8516796875
41.78535481770833
41.23228515625
41.132900390625
41.781168619791664
41.79343424479167
42.48596354166666
42.56724609375
42.92564453125
43.297825520833335
43.180188802083336
43.11828125
43.19019205729167
43.369873046875
43.584446614583335
43.81498046875
44.037786458333336
44.209225260416666
43.80116536458333
43.356839192708335
43.3776171875
42.90588541666666
43.36331705729167
43.500283203125
43.68611002604167
43.843912760416664
43.54479817708334
41.96533854166667
41.3799609375
41.21041015625
41.85880208333333
41.91639973958333
42.59693359375
42.68734375
42.86261067708333
43.023310546875
42.72009440104166
42.650126953125
42.71676106770833
43.19866861979167
43.45579427083333
43.69368815104167
43.923274739583334
43.590380859375
43.793470052083336
43.873798828125
43.3711328125
43.50556966145833
43.59480143229167
43.72748697916666
43.88861002604167
43.34576497395833
42.75904296875
41.72560546875
41.336455078125
41.866468098958336
41.82198893229167
42.60796875
42.78936848958333
43.62693684895833
43.8675390625
43.65294921875
42.92164713541667
42.65642578125
42.76462565104167
42.968860677083335
43.71959635416667
43.859453125
44.0628125
43.7115625
44.466123046875
44.523707682291665
43.968753255208334
43.519544270833336
43.609267578125
43.72470703125
43.596653645833335
42.1980859375
41.481920572916664
41.22802083333333
41.748616536458336
41.80107421875
42.549518229166665
43.248515625
43.642314453125
42.88712890625
42.672041015625
42.565693359375
42.595257161458335
42.71724934895833
43.228473307291665
43.469736328125
43.723063151041664
43.899166666666666
43.489026692708336
43.615397135416664
43.63370442708333
43.14106119791666
43.314912109375
43.41094075520834
43.168606770833335
42.28033528645833
41.694156901041666
41.525690104166664
42.148896484375
42.16972330729167
42.80774739583333
43.420559895833335
43.210966796875
43.09125
42.96865885416667
42.91061197916667
42.951106770833334
43.07647786458333
43.27763997395834
43.499270833333334
43.68346354166667
43.838447265625
43.90609375
43.415615234375
42.93060221354167
43.296809895833334
43.455625
43.49752604166667
43.00008463541667
41.68116861979167
41.34633138020833
41.249677734375
41.891630859375
41.90493815104167
42.494137369791666
42.52032552083333
42.24849609375
42.632542317708335
43.022867838541664
43.04197591145833
43.14740885416666
43.30867838541667
43.47890299479167
43.668603515625
43.82544921875
43.95438151041667
43.4965234375
43.603701171875
43.655205078125
44.062932942708336
44.22140625
43.614482421875
42.398382161458336
41.7565234375
41.49696614583333
42.021539713541664
42.57780598958333
43.23010416666666
43.186038411458334
42.94940104166667
42.928196614583335
42.846028645833336
42.8033984375
42.83442057291666
42.94724283854167
43.11832356770833
43.30536783854166
43.46055338541667
43.614514973958336
43.70968098958333
43.77939453125
43.347669270833336
43.47182291666667
43.88056640625
44.057783203125
44.158053385416665
43.68604166666667
42.37901041666667
41.41361979166667
41.23176432291667
41.77027018229167
42.30763346354167
42.87294270833333
42.82398111979167
42.595540364583336
43.10370768229166
42.96104166666667
42.963955078125
43.04398111979167
43.18826822916667
43.32951497395833
43.810849609375
43.97349609375
44.08473958333333
43.6184375
43.790166015625
43.923291015625
44.042805989583336
44.152529296875
43.877626953125
43.698430989583336
43.97920247395833
43.992900390625
42.676578776041666
42.553671875
42.27020182291667
42.150472005208336
42.63632161458333
41.941201171875
42.362431640625
42.787425130208334
42.818294270833334
43.01852213541667
42.81970052083334
42.789241536458334
42.896090494791665
43.04536458333333
43.22228841145834
43.349697265625
43.50595052083333
43.6170703125
43.137942708333334
43.26158854166667
43.33661783854166
43.762669270833335
43.90097005208333
43.95740234375
43.534482421875
43.179375
43.244944661458334
42.833919270833334
42.03849609375
41.56091145833334
41.33791015625
41.82717122395833
41.778753255208336
42.35287434895833
42.8501953125
42.948935546875
43.19072591145834
43.117825520833335
43.157109375
43.28633138020833
43.54779947916666
43.779742838541665
43.552561848958334
43.938557942708336
44.161796875
44.09810872395833
44.30439778645833
44.4618359375
44.079290364583336
44.23328450520833
44.39582682291667
44.141484375
43.82896484375
43.29606770833333
41.67379231770833
41.173798828125
41.0711328125
41.74218098958333
41.799365234375
42.47000325520833
42.524319661458335
43.12697265625
43.2187109375
43.137236328125
43.15522135416666
43.307262369791665
43.54297526041667
44.14474609375
44.389970703125
44.07491861979167
43.74091471354166
43.8174609375
43.297360026041666
43.36063151041667
43.45118815104167
43.604586588541665
43.58680013020833
42.30125325520833
41.565380859375
41.310712890625
41.919130859375
41.96697265625
42.637454427083334
43.33212239583333
43.23860026041667
43.691328125
43.44853841145834
43.341702473958335
43.19578125
42.82429361979167
42.92810221354166
43.0842578125
43.23927408854167
43.41795247395833
43.53750651041667
43.62036783854167
43.14676106770833
43.311305338541665
43.37337565104167
43.075
42.263919270833334
41.88356770833333
41.818004557291665
42.421764322916665
43.02684895833333
43.13739908854166
43.79615885416667
43.4354296875
43.31050130208333
43.210963541666665
43.186985677083335
43.249498697916664
43.383326822916665
43.53827799479166
43.70741536458333
43.87405924479167
43.46892578125
43.5831640625
43.60503255208334
43.636455078125
44.04041341145833
43.99674153645833
42.892848307291665
41.87277994791667
41.70501953125
42.254267578125
42.24503255208333
42.870074869791665
43.484661458333335
43.31188151041667
43.24279296875
43.46031901041667
43.430377604166665
43.474378255208336
43.58241861979167
43.714527994791666
43.84560546875
44.005299479166666
44.158935546875
44.26430338541667
43.76408528645833
43.885771484375
43.968642578125
43.99271158854167
43.582926432291664
42.89123697916666
42.07384440104167
41.535345052083336
41.529541015625
42.10193684895833
42.596455078125
43.21960286458334
43.132389322916666
42.73621419270833
43.19297200520833
43.111559244791664
43.158798828125
43.25936848958333
43.34662109375
43.46864908854167
43.586842447916666
43.713063151041666
43.2382421875
43.30203776041667
43.31973307291667
43.736422526041665
43.862613932291666
43.676923828125
43.057057291666666
42.669583333333335
42.567203776041666
43.11708333333333
43.070810546875
43.08330078125
43.642633463541664
43.29041015625
43.223225911458336
43.13001302083333
43.08305338541667
43.43589192708333
43.5433984375
43.59016276041667
43.63736653645833
43.715891927083334
43.75616536458333
43.764010416666665
43.25764322916667
43.34262044270833
43.417223307291664
43.481389973958336
43.380576171875
42.824208984375
42.33658528645833
42.09893880208333
42.549671223958335
42.450537109375
42.962399088541666
42.8077734375
42.77128580729167
42.986572265625
42.733343098958336
42.64208333333333
42.66831380208333
42.79484700520833
42.941204427083335
43.095201822916664
43.217265625
43.32833333333333
43.44965494791666
43.57128255208333
43.122867838541666
43.323779296875
43.414563802083336
43.83788411458333
43.480712890625
43.722099609375
43.5997265625
42.887692057291666
41.849498697916665
41.699244791666665
41.68176106770834
42.262073567708335
42.18287760416667
42.77063802083333
42.738623046875
42.46022786458333
42.986126302083335
42.894153645833335
42.93625651041667
43.04569010416667
43.160319010416664
43.281194661458336
43.40033203125
43.51363932291667
43.0131640625
43.15750651041667
43.197685546875
43.61732421875
43.773883463541665
43.90231119791667
43.49502604166667
43.105458984375
43.20383463541667
43.350345052083334
42.706272786458335
42.54679036458333
41.98318359375
41.7919140625
42.31865559895834
42.299410807291665
42.91968424479167
42.8851171875
42.97060221354167
43.31146158854167
43.15332682291667
43.103121744791665
43.148759765625
43.283382161458334
43.452666015625
43.96130859375
43.551868489583335
43.734755859375
43.831982421875
43.918636067708334
43.44327473958333
43.60482096354167
43.711279296875
43.81752278645833
43.936494140625
43.59109700520833
43.82729166666667
44.01776041666667
43.886516927083335
42.50486653645833
41.328603515625
41.09462239583333
41.66116861979167
42.26182291666667
42.920859375
42.928531901041666
43.03953125
43.30336588541667
43.09455078125
43.04685221354167
43.10585611979167
43.2221484375
43.39373046875
43.891360677083334
44.0803515625
43.692884114583336
43.86576171875
43.938193359375
43.484905598958335
43.633473307291666
43.715817057291666
43.824091796875
43.936184895833335
44.07672200520833
43.66763997395833
43.49866536458333
42.588079427083336
42.04593098958333
41.899967447916666
42.516774088541666
42.567600911458335
43.224866536458336
43.29853190104166
43.428291015625
43.0369921875
42.86083333333333
42.825641276041665
43.243798828125
43.44737955729167
43.63939778645833
43.833743489583334
44.01854817708333
44.19355794270833
43.855322265625
43.948186848958336
43.86190104166667
43.30522135416667
42.839505208333335
42.97392252604167
43.189599609375
43.1305859375
42.320973307291666
41.65115885416667
41.45352213541667
42.04053385416667
42.656416015625
43.36580078125
43.426813151041664
43.498359375
43.09406901041667
42.939384765625
43.19241861979167
43.25757486979167
43.40501302083333
43.596416015625
43.765406901041665
43.93632486979167
44.075709635416665
43.6610546875
43.81877278645833
43.901422526041664
43.95867838541667
43.52472005208333
43.720677083333335
43.31314778645833
42.490084635416665
42.06070638020833
41.993245442708336
42.609833984375
42.60810872395833
43.19933268229167
43.217353515625
43.321689453125
42.935927734375
42.79453125
42.76279622395833
42.82542317708333
42.98115559895833
43.17846028645833
43.33827799479167
43.474192708333334
43.557001953125
43.658994140625
43.237138671875
43.35265625
43.73706705729167
43.87754557291667
43.96234375
43.614833984375
42.30687825520833
41.91494140625
41.79905598958333
42.42191080729167
42.407578125
42.978938802083334
42.968082682291666
43.048818359375
43.24101236979167
43.06737630208333
43.019114583333334
43.07708658854167
43.201796875
43.37408528645833
43.524427083333336
43.637750651041664
43.210856119791664
43.35513671875
43.42703450520833
43.4663671875
43.34385416666667
43.498834635416664
43.63398763020833
43.755794270833334
43.475654296875
42.691487630208336
42.261243489583336
42.148017578125
42.75203125
42.766354166666666
43.40810221354167
43.41044596354167
43.130885416666665
43.00476236979166
43.24308919270833
43.27283203125
43.40103515625
43.5271484375
43.67297200520834
43.780185546875
43.90857421875
43.464182942708334
43.611178385416665
43.630615234375
43.644599609375
43.681171875
43.75605794270833
43.901875
44.04861653645833
43.34012044270833
42.139033203125
41.61078776041666
41.505139973958336
42.08349609375
42.660419921875
43.334541015625
43.356067708333335
43.3991796875
43.00551432291667
43.21814778645833
43.231181640625
43.321630859375
43.462955729166666
43.59682291666667
43.719524739583335
43.826962890625
43.918818359375
43.43451171875
43.531536458333335
43.53184244791667
43.584111328125
43.682421875
43.829814453125
43.820380859375
43.29712565104167
42.20328125
42.005055338541666
42.003414713541666
42.63085286458333
42.651380208333336
43.289697265625
43.28247721354167
43.286865234375
42.88793294270833
43.1374609375
43.213271484375
43.319309895833335
43.4508984375
43.581474609375
43.6756640625
43.73478515625
43.807099609375
43.33041015625
43.436009114583335
43.52111002604167
43.60506510416667
43.67502604166667
43.486298828125
42.821513671875
42.36318359375
42.231731770833335
42.831298828125
42.82644856770833
42.9058984375
43.597835286458334
43.563365885416665
43.16853190104167
43.064013671875
43.041354166666665
43.456083984375
43.64228190104166
43.83910481770833
43.993502604166665
43.4912109375
43.6380859375
43.716845703125
43.751194661458335
43.259348958333334
43.421184895833335
43.46957356770833
43.18681966145834
42.492268880208336
42.110029296875
42.035859375
42.66172200520833
42.649713541666664
43.287897135416664
43.28111979166667
43.31819010416667
42.92775390625
43.129501953125
43.13639973958333
43.207734375
43.36081705729167
43.49944986979167
43.60124348958333
43.678525390625
43.769560546875
43.820475260416664
43.29408203125
43.406087239583336
43.498792317708336
43.591793619791666
43.4244140625
42.84695963541667
42.471233723958335
42.388483072916664
43.034261067708336
43.03260091145833
43.071875
43.13539388020833
42.85958333333333
42.78035807291667
42.73646484375
42.744700520833334
42.83106119791667
42.935546875
43.06799153645834
43.177434895833336
43.274729817708334
43.36107421875
43.434267578125
43.46429361979167
42.91263346354167
43.033994140625
43.118326822916664
43.259967447916665
43.67739908854167
43.38359375
42.76888671875
41.93991861979167
41.975657552083334
42.036051432291664
42.65208333333333
42.559772135416665
43.19642578125
43.14827799479167
42.79952473958333
42.75777994791667
42.78656901041666
43.175341796875
43.306263020833335
43.41313802083334
43.50501302083333
43.607913411458334
43.67091471354167
43.723095703125
43.787897135416664
43.255299479166666
43.397106119791665
43.48010091145834
43.582470703125
43.682796223958334
43.785618489583335
43.90994791666667
43.208658854166664
42.63544596354166
42.24491861979167
42.152874348958335
42.76326822916667
42.74459635416667
42.750205078125
43.374332682291666
42.76953125
42.40567708333333
42.34587239583333
42.321787109375
42.68333984375
42.80495442708333
42.92151041666666
43.01263671875
43.111171875
43.18588216145833
42.65538736979167
43.37515950520833
43.464915364583334
43.533557942708335
43.6165234375
43.71938151041667
43.83157552083333
43.921494140625
43.478046875
43.63870442708333
43.65835611979167
43.18808919270833
42.550709635416666
42.34242838541667
42.36254231770833
42.99134765625
42.95567057291667
42.977535807291666
43.64246419270833
43.580068359375
43.219921875
43.13645182291667
43.145657552083335
43.229235026041664
43.33420572916667
43.43346354166667
43.55561197916666
43.06263997395833
43.20878580729167
43.254449869791664
43.297809244791665
43.38111979166667
43.81708658854166
43.934137369791664
