49.890384114583334
49.86650065104167
49.618095703125
49.06313151041667
89.293046875
83.33398763020833
101.653486328125
99.87720703125
90.84840169270834
99.67888997395833
99.95200846354167
101.50454427083334
96.99620442708333
100.84475911458334
98.82748046875
97.27896158854166
98.76315104166666
101.88529622395833
102.62979817708333
101.00778645833333
100.33689127604167
100.85056640625
101.61170572916667
101.14597330729167
99.28751627604167
94.68476236979167
93.160703125
93.122392578125
95.533291015625
96.14222330729167
97.639892578125
97.641806640625
97.33045247395833
98.83935221354167
98.21969401041666
95.262666015625
95.35946614583334
95.37451171875
93.70306966145833
94.19560546875
94.55345377604166
95.12909505208333
95.418408203125
93.72489908854166
93.25098958333334
90.72393880208334
89.06681315104167
90.34683268229166
92.4417578125
92.49907552083333
90.55674479166667
92.19468424479167
92.25037760416667
91.89267578125
91.580224609375
91.64377604166667
88.85089518229167
89.14383463541667
89.47378580729166
88.756826171875
89.2070703125
89.32750651041667
89.39087565104167
89.35413411458333
88.9781640625
86.667451171875
84.61353515625
84.0712109375
85.90373372395834
85.98434895833333
85.7047265625
82.50630533854167
82.60162109375
82.601220703125
82.4197265625
82.40156575520834
82.63370442708333
82.66513997395833
82.88701171875
83.23254231770834
83.48441731770833
83.91689453125
84.08373372395833
83.981455078125
82.668876953125
80.42916666666666
79.29484700520834
79.39238606770833
81.053798828125
81.188984375
81.31287434895833
81.66367513020833
79.84837239583334
79.62049479166667
79.615712890625
79.79547526041667
80.09426432291667
80.396708984375
80.631513671875
80.9446875
81.1855859375
81.34222005208333
81.48534505208333
81.64725260416667
81.81499348958333
81.10717447916667
78.729248046875
76.904912109375
76.61072265625
78.62285807291667
78.85861979166667
78.835576171875
79.08197916666667
77.30231770833333
77.15882161458333
77.12596354166666
77.28530924479166
77.57981119791667
77.92771484375
78.239755859375
78.51466471354166
78.68316080729167
78.84271484375
78.99881510416667
79.07599283854167
79.23394856770834
79.50240885416666
79.80040364583333
80.07263346354166
79.24055013020833
76.509638671875
72.90046223958333
72.77480143229167
73.26426432291667
76.920517578125
76.985595703125
77.17799153645834
76.66808919270834
76.52580729166667
76.44890625
74.81389322916667
75.09323893229167
75.424345703125
75.72934244791666
75.99069986979167
76.17697916666667
76.27791341145833
76.39129231770833
76.53653971354167
76.73681315104167
76.97857421875
75.61611002604167
75.78980143229167
76.118935546875
76.36094075520833
77.71988932291667
75.14534505208333
72.734287109375
72.23003255208333
74.20967122395834
74.59165364583333
72.84094401041666
74.47224609375
74.60641276041666
74.543056640625
74.4709375
74.766005859375
71.59828125
72.01052734375
72.393134765625
72.69413411458333
71.58581380208334
71.79767578125
72.02106770833333
72.224921875
72.460283203125
76.22305338541666
76.625166015625
76.910263671875
77.13254557291667
77.429775390625
77.26265625
73.85947916666667
71.584931640625
70.97707356770833
74.73058919270834
75.27302083333333
75.330087890625
75.155927734375
75.37581380208333
75.35396809895833
71.97149739583334
72.06962565104166
72.37092122395833
72.74807942708334
73.07520182291667
72.03487955729166
72.357734375
72.67749674479167
72.91623697916667
76.54881184895834
76.83458658854167
77.07165690104166
77.351220703125
77.75916666666667
78.10457682291667
77.043837890625
76.88781575520834
74.710048828125
74.45524088541667
73.93252604166666
75.881865234375
76.29409505208334
76.399580078125
78.184013671875
76.74318033854166
76.7975390625
75.194052734375
71.942197265625
72.26966471354167
72.68785807291667
76.52928059895834
76.906650390625
77.26956705729167
77.57199544270833
77.71703776041667
77.91371419270833
78.102412109375
78.319013671875
77.068818359375
77.2884765625
77.49646484375
77.64864583333333
79.74546549479167
79.78626302083333
78.10570638020833
75.25765625
74.04001302083333
75.66359375
76.14489583333334
76.47793294270834
77.968076171875
76.30743815104167
76.300390625
76.24107747395833
72.6988671875
72.81448893229167
73.14001627604166
73.49318684895833
73.82617838541667
74.12842122395833
74.38763671875
73.09855143229167
73.12425455729166
73.26390299479166
73.41655598958333
73.605556640625
77.179658203125
77.39590169270834
77.63622721354167
77.92588216145833
77.98630208333333
76.22674479166666
73.60173828125
72.51212565104167
74.10822591145833
74.60874348958333
74.82986979166667
76.61198893229167
73.52544921875
73.53014322916667
71.80666666666667
69.69413411458333
69.88218098958333
70.172822265625
72.551015625
72.90980143229167
73.169365234375
73.44276692708333
73.59638020833333
73.81684895833334
73.97209635416667
74.17381184895834
74.36497395833334
74.64210611979166
74.867197265625
75.158017578125
73.96018880208334
73.9476953125
72.00080403645833
72.90439453125
72.04067057291667
73.73229817708334
74.11263346354167
74.51244791666667
76.38361979166666
73.25099934895833
73.12646484375
71.24952799479166
69.16779622395833
69.3262890625
71.14344401041667
73.6090234375
73.98462565104167
72.78393880208333
71.07602213541666
71.36833658854167
71.59858072916667
73.73798828125
73.916630859375
74.122646484375
74.53837239583333
74.83573567708333
75.13798177083333
75.42904947916666
74.78631184895833
72.15017903645834
68.89429361979167
68.44547526041667
68.77843098958333
73.90782552083333
74.35949869791666
74.21707356770834
73.07265299479167
72.72235026041666
72.33626302083333
70.27170247395833
70.57096028645833
70.98652018229167
71.69766927083333
72.478505859375
72.96799479166667
71.80970052083333
72.00658203125
72.12024739583333
74.13389322916667
74.310859375
74.51172526041667
74.716044921875
74.6698828125
72.96137369791667
70.53873372395833
69.59916341145833
71.26480794270833
71.847890625
72.072392578125
74.00747721354166
72.284560546875
72.6421875
70.58412760416667
68.48975911458334
68.51647135416667
68.79843098958334
71.13268880208334
71.59064127604167
72.015966796875
72.30473958333333
72.50427734375
72.5987109375
72.67626627604167
72.852900390625
72.76621419270833
71.1137890625
69.06260091145833
68.34050455729167
68.54118815104167
70.36715169270833
70.22515299479167
68.695546875
69.02408854166667
68.7971875
68.194345703125
67.81190104166667
67.90771484375
68.24668294270833
68.689150390625
69.21613932291666
69.651630859375
69.965791015625
70.12189453125
70.19134114583333
69.26863606770833
68.12909505208333
67.656787109375
66.27861653645833
67.47203125
67.23499348958333
67.618935546875
69.27455078125
67.51524088541667
67.4544921875
67.06837239583334
64.38317708333334
64.45524088541667
64.78080078125
64.46908854166666
64.83264322916666
65.20265299479166
60.521168619791666
60.746787109375
60.86974283854167
63.700983072916664
61.33142252604166
59.339313151041665
60.90023111979167
62.26035807291667
62.41951171875
56.733505859375
57.899837239583334
58.00280924479166
57.725826822916666
57.590322265625
57.619658203125
57.86068033854167
58.174130859375
58.546181640625
58.88095703125
58.10582682291667
58.299641927083336
58.633828125
58.773544921875
58.97125
59.192822265625
58.613037109375
56.441484375
54.51085611979167
53.88580403645833
54.882099609375
54.976708984375
54.89689778645833
55.96991861979166
56.035084635416666
56.11263671875
56.12529296875
52.612861328125
52.846220703125
53.11779622395834
52.539007161458336
52.89795572916667
53.126220703125
57.06246419270833
57.26709635416667
57.48861328125
57.740361328125
57.98652018229166
58.278346354166665
58.53994791666667
58.8171875
59.06003580729167
58.25181640625
58.53687174479167
58.17653645833333
56.144039713541666
53.85863606770833
53.02500651041667
54.007607421875
54.1694921875
55.119684244791664
54.978938802083334
55.1577734375
55.174384765625
51.634059244791665
51.77228515625
52.03806966145833
52.35333333333333
52.648128255208334
52.92645182291667
53.1490625
53.318629557291665
52.670224609375
52.863336588541664
53.052923177083336
53.287314453125
57.249873046875
57.5016796875
57.741321614583335
57.955250651041666
58.23599934895833
58.460162760416665
57.798291015625
55.594928385416665
53.82522786458333
53.40915690104167
54.63271484375
54.7234375
51.29369466145833
51.433782552083336
51.55749348958334
51.510081380208334
51.49775716145833
51.65603515625
51.914547526041666
52.20528971354167
52.489475911458335
52.74037760416667
52.941477864583334
53.13469075520833
53.265087890625
53.43884440104166
53.65646158854167
53.911959635416665
54.134671223958335
53.455068359375
53.70271484375
53.92395833333333
54.174915364583335
57.81426106770834
56.14678059895834
54.070107421875
53.1669921875
54.29976888020833
54.508802083333336
51.26723307291667
52.26423502604167
52.363720703125
52.33458658854167
52.260198567708336
51.483388671875
50.176572265625
50.452822265625
50.74338541666667
52.646318359375
52.86515625
53.07160807291667
53.220576171875
53.35923828125
53.56275065104167
53.74376953125
53.940455729166665
54.13172200520833
54.400729166666665
53.700696614583336
53.61979817708333
55.86543294270833
53.99424153645833
53.22944661458333
54.416064453125
54.75585286458333
55.15364908854167
52.81480143229167
52.944697265625
52.75794921875
50.18518880208333
50.34908528645833
50.64786458333333
52.5849609375
52.899521484375
53.195537109375
53.60763346354167
53.89999348958333
54.03067057291667
54.12115234375
54.49661458333333
54.85445638020833
55.17923502604167
54.02
52.600162760416666
51.264332682291666
50.982623697916665
52.13046223958333
55.95619791666667
56.27335286458333
57.82185546875
54.193668619791666
54.05153645833333
53.03197591145833
51.40626953125
51.6358203125
51.9247265625
53.966363932291664
54.39082356770833
54.727054036458334
54.92498697916667
54.16470703125
54.316692708333335
58.38080078125
58.564384765625
57.68232096354166
55.684811197916666
54.32201171875
55.03411783854167
55.1271875
55.200400390625
56.228828125
52.749430338541664
52.885172526041664
52.833486328125
51.153050130208335
51.25985026041667
51.485911458333334
51.80550455729167
52.169163411458335
52.49012044270833
51.88298177083333
52.11040364583334
52.264759114583335
54.13368489583333
54.336181640625
54.568317057291665
53.98397135416667
52.23244466145833
50.89576171875
50.575709635416665
51.57416666666666
51.779111328125
51.86592122395833
52.04193359375
52.184856770833335
50.554951171875
50.551715494791665
50.74297200520834
50.97659505208333
51.25577473958333
51.52386393229167
51.783046875
51.99118815104167
52.19228190104167
51.52579427083333
51.69634114583334
51.828935546875
53.747815755208336
54.036188151041664
53.74903971354167
52.10685872395833
50.510670572916666
50.01517578125
51.01013020833334
51.269677734375
51.367649739583335
50.76183919270834
50.8821484375
50.887845052083335
47.57732421875
47.691005859375
47.810087890625
50.588932291666666
50.850804036458335
51.100791015625
51.325380859375
51.537890625
51.73886067708333
51.84916666666667
52.00125325520833
52.16756510416667
52.41165364583333
52.66174153645834
51.64367838541666
50.30572265625
48.83975260416667
48.37149088541667
50.75765625
50.99030924479167
51.17471354166667
50.60373046875
50.723115234375
50.69541015625
48.06935872395833
47.45908854166667
47.678486328125
50.488024088541664
50.758053385416666
51.028551432291664
51.21870442708333
51.388203125
51.53567708333333
51.70407877604167
51.80575520833333
51.973414713541665
52.151396484375
52.36591796875
52.62267578125
52.65017903645833
51.493046875
49.039235026041666
48.34280598958333
48.37764973958333
49.455608723958335
51.067692057291666
50.80431640625
51.83339518229167
50.596324869791665
50.55721354166667
50.6144921875
48.15798828125
48.407076822916665
48.649729817708334
48.866022135416664
49.054970703125
48.530123697916665
48.70303385416667
48.81241536458333
48.950869140625
51.89327799479167
52.05183268229167
52.26279296875
52.48302734375
52.41454427083333
51.21126627604167
49.736279296875
49.224443359375
49.40111328125
50.56996419270833
50.766005859375
50.55527994791667
48.108395182291666
48.366702473958334
48.24423177083333
48.290240885416665
48.446774088541666
48.66463541666667
48.923824869791666
49.18258138020833
49.38859700520833
48.829075520833335
48.9673046875
49.053684895833335
51.97630859375
52.08876627604167
52.290048828125
52.490787760416666
52.306637369791666
51.055852864583336
49.74158203125
49.385250651041666
50.45744466145833
50.78601236979166
50.683772786458334
50.96755208333333
48.384658203125
48.617786458333335
48.496770833333336
48.54238932291667
48.71671875
48.959469401041666
49.242958984375
49.457845052083336
49.63684244791666
49.036702473958336
49.171917317708335
49.22438151041667
52.118662109375
52.25834635416667
52.34056966145833
51.64001953125
50.121813151041664
49.166279296875
49.135341796875
50.222955729166664
50.087552083333335
47.78757486979167
47.97169921875
47.9678125
47.818362630208334
48.071611328125
48.17365234375
48.389052734375
48.63315755208333
48.873505859375
49.118785807291665
49.305625
49.4305078125
48.78969401041667
48.910546875
49.053209635416664
51.9153125
51.11462239583334
49.461015625
48.514248046875
49.19567057291667
49.41928059895833
46.94143880208333
47.787900390625
47.91802734375
46.110625
45.44720703125
45.441243489583336
47.04701497395833
47.207900390625
47.456614583333334
47.659892578125
47.87752604166667
48.077379557291664
48.521884765625
48.6074609375
48.69029296875
48.944521484375
49.00729166666667
48.42197265625
47.2041796875
46.30829752604166
46.179912109375
47.035686848958335
46.896800130208334
47.017958984375
45.556422526041665
45.611256510416666
45.581435546875
45.565419921875
45.612822265625
45.757861328125
45.95623046875
46.12116861979167
46.284518229166665
45.82037434895833
45.99178385416667
46.06185546875
47.85759765625
47.959729817708336
48.45537109375
48.21389973958333
47.02873046875
45.85662760416667
45.48796875
46.16793619791667
45.86715494791667
44.50376953125
44.630693359375
44.734820963541665
44.7578125
44.724772135416664
44.750543619791664
44.909296875
45.08605143229167
45.26798828125
45.44516927083333
45.639475911458334
45.780162760416665
45.30584635416667
45.71025390625
45.81358072916667
47.561181640625
47.68759114583333
47.913655598958336
48.06522135416667
47.70052734375
46.202333984375
45.30947265625
45.14920247395833
45.68091471354167
45.59812825520833
45.68690755208333
46.44607421875
44.91816731770833
44.938258463541665
44.37731119791667
44.525797526041664
44.71034830729167
44.863720703125
45.39125325520833
45.525439453125
45.660712890625
45.77522135416667
45.92318033854167
46.02181315104167
45.513994140625
45.705250651041666
45.83173502604166
47.662216796875
47.85236328125
48.036350911458335
47.813896484375
46.81283528645833
45.550087890625
45.118518880208335
45.866116536458335
45.781357421875
44.67359375
45.363375651041665
45.068740234375
45.049013671875
44.474482421875
44.88299479166667
45.034479166666664
45.20703776041667
45.411669921875
45.598011067708335
45.73787109375
45.86982747395833
45.99915364583333
46.100107421875
45.574033203125
45.738974609375
45.83596028645833
45.94815104166667
47.826943359375
48.0158984375
47.93236653645833
47.025325520833334
45.8813671875
45.319065755208335
46.070315755208334
45.85978841145833
46.063287760416664
45.18247395833333
45.30062825520833
45.302301432291664
44.23505533854166
44.68251953125
44.81795572916667
45.3778125
45.566142578125
45.75966796875
45.913037109375
46.06009114583333
46.16873372395833
46.240611979166665
45.71460611979167
45.84059244791667
47.68503580729167
47.82701171875
48.007542317708335
48.213147786458336
48.163235677083335
47.03608723958333
45.974775390625
45.2953125
45.9723828125
45.88971028645833
46.765423177083335
46.81433268229166
44.79150390625
44.80092447916667
44.176022135416666
44.596119791666666
44.69632486979167
44.869345703125
45.47181966145833
45.618473307291666
45.806689453125
45.93098307291667
46.038951822916665
46.169970703125
46.261800130208336
46.367216796875
45.8530859375
46.070406901041665
46.23477864583333
46.04072265625
46.533229166666665
45.331640625
45.23525390625
45.84105794270833
46.021595052083335
46.90426106770833
45.237249348958336
45.37205078125
45.31655924479167
44.21915364583333
44.30119466145833
44.39652018229167
45.053128255208335
45.240559895833336
45.455364583333335
45.631181640625
45.757080078125
45.901097005208335
45.973216145833334
46.051569010416664
46.13294270833333
45.59875
45.98784505208334
46.11284505208334
47.41886067708333
46.0204296875
45.165774739583334
45.615559895833336
45.832845052083336
46.705631510416666
46.78170247395833
46.985341796875
47.01822591145833
44.699993489583335
44.08996744791666
44.52160807291666
45.085703125
45.80937825520834
45.686901041666665
45.794091796875
45.94425130208333
45.461331380208335
45.242998046875
45.308704427083335
45.359837239583335
47.70804361979167
47.436373697916665
46.312786458333335
43.98080078125
43.751552734375
44.385244140625
44.225634765625
44.368701171875
45.14431966145833
44.82110677083333
44.756969401041665
44.131396484375
43.80095703125
43.92555338541667
44.10086263020833
44.64222005208333
44.823955078125
44.994287109375
45.11421875
45.19341145833334
44.68474609375
44.833645833333335
44.79958984375
44.110126953125
43.51416015625
43.08018229166667
43.60654622395833
43.748118489583334
44.450139973958336
44.49551432291667
43.977158203125
44.05532877604167
43.990283203125
43.95785481770833
44.0134375
44.147578125
44.313388671875
44.48651041666667
44.108958333333334
44.36430989583334
44.46408203125
44.52029622395833
44.9801953125
45.050983072916665
44.57998697916667
44.3053125
43.337649739583334
42.699560546875
42.79106770833334
43.407473958333334
43.468525390625
44.079853515625
44.12662109375
44.1962109375
43.577353515625
43.586666666666666
43.68195963541667
43.79808919270833
43.9544921875
44.10763020833333
44.254599609375
44.38486979166667
43.94640950520834
44.14924479166667
44.19919921875
44.25359375
44.703616536458334
44.813059895833334
44.91981770833333
44.457574869791664
43.432682291666666
42.857639973958335
42.80904296875
43.464091796875
43.45185221354166
43.40522135416666
44.10581380208333
44.11294921875
43.80509765625
43.24873372395833
43.368082682291664
43.69079427083334
43.84093424479167
44.007099609375
44.14817057291667
44.30721354166667
44.412486979166665
43.93301432291667
44.12827473958333
44.19006184895834
44.62365234375
44.68133463541667
44.820826822916665
44.98083984375
44.976767578125
44.180286458333335
43.171253255208335
42.79789713541667
42.834560546875
43.549306640625
43.47855143229167
43.656643880208335
43.517802734375
43.464873046875
43.40429036458333
43.37944661458334
43.4682421875
43.598701171875
43.73329752604167
43.898095703125
44.062880859375
44.17762044270833
44.31716796875
44.39235677083333
43.925045572916666
44.112236328125
44.199619140625
44.708294270833335
44.85076171875
45.008798828125
44.911634114583336
44.03308919270833
43.089140625
42.806083984375
43.41519856770833
43.50341145833333
43.35270833333333
44.181370442708335
44.22783203125
43.863987630208335
43.25853515625
43.32208984375
43.441487630208336
43.575940755208336
43.68172526041667
44.14765299479166
44.27052734375
44.40298828125
44.452294921875
44.002265625
44.130862630208334
44.64640625
44.769625651041665
44.964658203125
45.162516276041664
45.345966796875
45.059254557291666
43.513424479166666
42.82283854166667
42.644921875
43.67134765625
43.76088541666667
44.47940104166667
44.22556640625
44.307643229166665
44.228763020833334
43.86395182291667
43.908841145833335
44.02802408854166
44.22508138020833
44.42127278645833
44.633258463541665
44.876259765625
44.65056640625
44.801526692708336
45.276630859375
44.63226236979167
45.12284830729167
46.12435221354167
46.35162109375
45.642900390625
44.77863932291667
44.635791015625
44.952457682291666
45.936429036458335
46.01529622395833
46.39530924479167
46.01370768229167
45.36486328125
45.241725260416665
45.82727213541666
45.814775390625
45.965387369791664
48.310869140625
48.689762369791666
48.991344401041665
49.201458333333335
49.2996875
48.55082682291667
48.71059244791667
49.18757486979167
48.50750651041667
47.132421875
45.810966796875
46.303740234375
46.51599609375
47.50510416666667
47.71767578125
45.929986979166664
46.16568684895833
45.989970703125
45.08920247395833
45.04875
45.062213541666665
45.895595703125
46.147861328125
46.434108072916665
46.80354166666667
47.12655598958333
47.31506184895834
46.676591796875
45.81171875
44.434541015625
45.30567057291667
45.833889973958335
45.973011067708335
45.125888671875
45.40874348958334
45.738896484375
44.70830403645834
44.56797200520833
43.903984375
43.960393880208336
44.12946940104167
44.92737630208333
46.268154296875
46.456302083333334
45.95846028645833
45.237392578125
44.471015625
43.200380859375
42.824772135416666
43.15755859375
43.194280598958336
43.5407421875
43.57847330729167
43.71185221354167
43.762301432291665
43.70234375
43.668414713541665
43.07550130208333
43.26615234375
43.3967578125
43.67373046875
43.81785481770833
43.999169921875
44.093828125
43.594739583333336
42.21439127604167
41.844547526041666
41.76612955729167
42.346787109375
42.49861002604167
42.96353515625
43.027386067708335
42.67875651041667
43.26940104166667
43.41554361979167
43.458063151041664
42.9741015625
43.161806640625
43.32719401041667
43.5001953125
43.664739583333336
43.77029296875
43.92876302083334
43.451090494791664
43.53548828125
43.11258463541667
42.351123046875
42.00190755208333
41.906549479166664
42.52775390625
42.35250651041667
42.938857421875
42.973948567708334
42.922421875
43.350390625
43.352236328125
43.38936848958333
43.462392578125
43.48392252604167
43.58271158854166
43.71474609375
43.804130859375
43.41123046875
43.55995442708333
43.72933268229167
43.79483072916667
43.875791015625
44.019534505208334
43.54692708333334
43.69536458333334
43.81452799479167
44.018994140625
44.022083333333335
43.570826822916665
42.04747721354167
41.693714192708335
41.6768359375
42.42136393229167
42.32221354166666
42.945341796875
42.692164713541665
42.78824544270833
43.19007161458333
43.18235026041667
43.26205403645833
43.35833658854167
43.47639322916667
43.6260546875
43.7209765625
43.809970703125
43.332646484375
43.47810546875
43.606516927083334
43.62674479166667
43.70668294270833
43.793199869791664
43.92124674479167
44.0234375
43.570283203125
43.788196614583335
43.90587890625
44.12103190104167
43.73934895833333
42.81753580729167
41.783486328125
41.831806640625
41.82527018229167
42.742513020833336
42.521416015625
43.15083984375
42.873141276041665
42.888255208333334
43.24681966145833
43.23657877604167
43.3975390625
43.5333203125
43.616214192708334
43.784541015625
43.89315104166667
43.41622721354167
43.620498046875
43.666298828125
43.73890950520833
43.78998046875
43.88962565104167
43.96746744791667
44.038095703125
43.56874348958333
43.681279296875
43.738170572916665
43.72450520833333
43.59893880208333
42.744609375
42.256875
42.193720703125
42.87553385416667
42.89854166666667
42.84819661458334
43.4908203125
43.487779947916664
43.37999674479167
43.36022786458334
43.34641276041667
43.4038671875
43.464931640625
43.56572265625
43.677099609375
43.78492838541667
43.88346028645833
43.413098958333336
43.569391276041664
43.58653971354167
43.65414388020833
43.679508463541666
43.75675130208333
43.83919921875
43.93274739583333
44.03001302083333
44.07373046875
43.15280924479167
42.43446940104167
42.07903971354167
42.038518880208336
42.723538411458335
42.69081380208333
43.364069010416664
43.43830729166667
43.454189453125
43.46454752604166
43.39909505208333
43.38047200520833
43.44665364583334
43.580751953125
43.725758463541666
43.865735677083336
43.97546875
43.535087890625
43.719931640625
43.75388997395833
43.83680013020833
43.85433919270833
43.85265950520834
43.82273763020833
43.2681640625
43.36387044270833
43.59380859375
43.37918294270833
42.56870768229167
42.003268229166665
41.92150390625
42.561429036458335
42.50309895833333
43.275335286458336
43.885511067708336
44.04525716145833
44.23735677083334
44.3415234375
44.63173502604167
44.16909830729167
44.162838541666666
44.252115885416664
44.328128255208334
44.50802083333333
44.593466796875
44.089443359375
44.164127604166666
44.19264973958333
44.150729166666665
44.19363932291667
44.2480078125
44.369091796875
44.45251953125
44.09130859375
43.23431640625
42.17331705729167
42.170192057291665
42.27702473958333
42.789173177083335
42.89081705729166
43.536435546875
43.537652994791664
43.185009765625
43.15763997395833
43.115048828125
43.171865234375
43.28105794270834
43.99900716145833
44.06180338541667
44.18292317708333
43.73558919270833
43.875218098958335
43.98886067708333
44.03099934895833
44.41509114583334
43.94266276041667
44.09288736979167
44.19745768229166
44.260703125
44.14235026041667
43.37812174479166
42.7376953125
42.590947265625
43.18275716145833
43.07681315104167
43.7542578125
43.781220703125
43.95975260416667
44.00619140625
44.093450520833336
44.121676432291665
44.14244140625
44.24454427083333
44.382633463541666
44.51632161458333
44.04931640625
44.250231119791664
44.31997721354167
44.33615885416667
44.456598307291664
43.92258463541667
43.99802408854167
44.016689453125
44.12228515625
44.235553385416665
44.2683984375
43.990234375
43.109775390625
42.60097330729167
42.47786783854167
43.1540234375
43.05284830729167
43.769222005208334
43.94876953125
44.097584635416666
44.07236653645833
44.03926106770833
44.05941731770833
44.116129557291664
44.240657552083334
44.402171223958334
44.52861002604167
44.65700520833333
44.16944986979167
44.31848307291666
44.276097005208335
44.33595377604167
43.79834635416667
43.92576171875
43.98435872395833
44.076253255208336
44.229654947916664
44.13815104166667
43.441227213541666
42.683564453125
42.48138671875
43.04539388020833
42.93099934895833
43.604358723958335
44.20095703125
44.479869791666665
44.57141276041666
44.485419921875
44.4863671875
44.502578125
44.60490234375
44.74822916666667
44.89048502604167
45.00011393229167
45.099951171875
44.576982421875
44.172024739583335
44.06774739583334
44.048922526041665
44.111279296875
44.22625651041667
44.320231119791664
44.504137369791664
44.45814778645833
43.367916666666666
42.63734700520833
42.378323567708335
42.89466145833333
42.7794921875
43.42103841145833
43.499729817708335
43.609791666666666
43.736455078125
43.74048502604167
43.68147135416667
43.68631184895833
43.76870768229167
43.89099934895833
44.041735026041664
44.174375
44.29770833333333
44.39563151041666
44.444736328125
43.88953450520833
43.995576171875
44.03520833333334
44.103177083333335
44.10121744791667
44.15763671875
44.221380208333336
43.73146158854167
42.968196614583334
42.10408854166667
42.13905598958333
42.04837565104167
42.792080078125
42.817623697916666
43.50550130208333
43.450084635416665
43.15493815104167
43.092044270833334
43.1044921875
43.56398763020833
43.77482421875
43.904850260416666
44.02525065104167
44.08404622395833
44.09311848958333
44.071057942708336
44.079677734375
44.13296875
44.138873697916665
44.121142578125
44.1173828125
44.14739908854167
44.19338216145833
43.845693359375
43.022503255208335
42.64711263020833
42.653714192708335
43.35693359375
43.368916015625
43.46389973958333
44.153125
44.153736979166666
44.099755859375
43.51447265625
43.589443359375
43.6894921875
43.803193359375
43.92169270833333
44.01216145833333
44.102783203125
44.17464518229167
44.20386393229167
44.20944986979167
43.63276692708333
43.75776692708333
43.821490885416665
43.91573893229167
43.862223307291664
43.272734375
42.699801432291665
42.550009765625
43.20371744791667
43.213863932291666
43.870631510416665
44.43924153645833
44.542314453125
44.16154622395833
44.3198046875
44.292652994791666
44.35050130208333
44.5109765625
44.66055989583333
44.81024088541667
44.906223958333335
44.96929036458334
44.45342122395834
43.97955078125
43.971585286458335
44.0262109375
44.103069661458335
43.993388671875
43.40775390625
42.922216796875
42.80873697916667
42.86470052083333
43.50419596354167
44.03820638020834
44.150052083333335
44.19598307291667
44.14768229166667
44.067799479166666
44.033505859375
44.123157552083335
44.24852864583333
44.37814453125
44.49172200520833
44.618297526041665
44.697529296875
44.74346028645834
44.76180989583333
44.26815755208333
44.40688151041667
44.35957356770833
43.82767252604167
43.29271809895833
43.12767578125
43.688343098958335
43.143971354166666
43.159358723958334
43.74541015625
43.375299479166664
43.299046223958335
43.20479817708333
43.18486328125
43.580751953125
43.711123046875
43.841630859375
43.974798177083336
44.08999674479167
44.17326497395833
44.221181640625
43.729059244791664
44.36110677083333
44.45313151041667
44.490725911458334
44.17190755208333
43.544759114583336
43.25119791666667
43.219033203125
43.827464192708334
43.253147786458335
43.243076171875
43.8623828125
44.028063151041664
43.97810546875
43.93338541666667
43.98400716145834
44.0790625
44.19860026041667
44.31970703125
44.44179036458333
43.99912760416667
43.56058268229167
43.560791015625
43.610582682291664
44.02
44.15005859375
44.234036458333335
43.43915690104166
42.8037109375
42.40576822916667
42.31046875
42.88228841145833
43.37823567708333
44.00136393229167
43.640611979166664
43.660426432291665
43.64392252604166
43.645625
43.67726236979167
43.776220703125
43.890133463541666
44.020087890625
44.12435872395833
44.24291015625
44.310641276041665
44.38415690104166
43.905299479166665
43.480211588541664
43.88287434895833
44.0278515625
44.16912109375
44.311741536458335
43.504326171875
42.754482421875
42.281305338541664
42.130953776041665
42.692080078125
43.189033203125
43.786624348958334
43.742825520833335
43.49177408854167
43.976435546875
43.948040364583335
44.018610026041664
44.15205403645833
44.32261067708333
44.46828450520833
44.138844401041666
44.313427734375
44.71443359375
44.2764453125
44.404541015625
44.494638671875
44.5983984375
44.66367838541667
44.778131510416664
44.871884765625
44.427060546875
44.00685221354167
43.40635091145833
42.623277994791664
42.30095052083333
42.2633203125
42.86486653645834
42.80300130208333
43.393382161458334
43.91403971354167
43.61804361979166
43.53104166666667
43.502021484375
43.5462890625
43.635263671875
43.760494791666666
43.9019140625
44.04555338541667
44.173779296875
44.256100260416666
44.322591145833336
44.390947265625
43.918209635416666
43.49832682291667
43.552392578125
44.00044270833333
44.174967447916664
44.296861979166664
43.65451822916667
42.99673828125
42.444853515625
42.309827473958336
42.91036783854167
42.902766927083334
43.541953125
43.194850260416665
43.23838541666667
43.18251627604167
43.108470052083334
43.12912109375
43.225693359375
43.365439453125
43.510517578125
43.65638997395833
43.792249348958336
43.88642903645833
43.410908203125
44.12401692708333
44.20552734375
44.597399088541664
44.73194010416667
44.509853515625
44.493671875
43.49395833333333
42.239765625
42.225559895833335
42.73496744791667
42.659267578125
43.261044921875
43.4573828125
43.552529296875
43.55619791666667
43.462581380208334
43.445963541666664
43.50030598958333
43.61933919270833
43.81765950520833
44.012897135416665
44.179143880208336
44.33077473958333
44.42751302083333
44.471692708333336
43.95617513020834
43.496402994791666
43.89562174479167
44.043756510416664
43.913193359375
42.92720052083333
42.24473307291667
42.21060546875
42.241481119791665
42.898056640625
43.125774739583335
43.78040364583333
43.748408203125
43.69451171875
43.61907877604167
43.61692057291667
43.702421875
43.83833984375
44.020091145833334
44.17323567708333
44.32004557291667
44.450068359375
44.50746419270833
44.00377604166667
44.10681640625
44.484833984375
44.646220703125
44.819147135416664
44.533854166666664
43.71139322916667
42.755804036458336
42.724951171875
42.745126953125
43.34630533854167
43.249482421875
43.886012369791665
43.554345703125
43.51228515625
43.50547200520833
43.533863932291666
43.64402669270833
43.829915364583336
44.017490234375
44.180966796875
44.348362630208335
44.47202799479167
44.561334635416664
44.07507161458334
43.63976888020834
44.02939778645833
44.146591796875
44.253349609375
43.856865234375
44.593922526041666
44.30103515625
43.33242838541667
42.83512044270833
42.72701822916667
43.323177083333334
43.28736979166667
43.89204427083333
43.846637369791665
43.615992838541665
43.63859375
43.64751953125
43.716861979166666
43.87631184895833
44.126018880208335
44.365478515625
44.568942057291665
44.73611328125
44.30573893229167
43.89047200520833
43.924912109375
43.80571614583334
43.953935546875
44.02785481770833
44.097340494791666
44.194833984375
44.324710286458334
44.429189453125
43.55349934895833
42.606539713541665
42.06679036458333
41.99930338541667
42.61113606770834
43.15486979166667
43.55976236979166
43.533876953125
43.62678385416667
44.209417317708336
44.08803059895833
44.104274088541665
44.18447916666667
44.341875
44.547620442708336
44.724293619791666
44.3405859375
43.97751627604167
44.0247265625
43.913684895833335
44.556409505208336
44.53494466145833
44.492649739583335
44.56831380208333
44.743092447916666
44.81877278645833
44.8578125
44.829638671875
43.54847005208333
42.22946940104167
41.984755859375
42.600042317708336
42.65576822916667
43.284274088541665
43.80436848958333
43.60513671875
44.172568359375
44.06190755208333
44.064547526041665
44.17022786458333
44.39750651041667
44.625247395833334
45.130543619791666
44.78055013020833
44.991673177083335
45.100979817708335
44.621829427083334
44.21583984375
44.27502278645834
44.35794921875
43.93041015625
44.12251302083333
44.280530598958336
44.299807942708334
43.60437174479166
42.125309244791666
41.86915690104167
41.91762369791667
42.652845052083336
42.7336328125
43.43404947916667
43.726494140625
43.757076822916666
44.200234375
44.05640625
44.099134114583336
44.227783203125
44.40286458333333
44.607906901041666
44.772936197916664
44.375188802083336
43.981845703125
44.014583333333334
43.86007486979167
44.00892578125
44.075696614583336
44.16432291666667
44.264306640625
44.40595703125
44.549801432291666
44.267841796875
42.7183984375
42.08824869791667
41.99109700520833
42.701959635416664
42.82021484375
43.54902669270833
43.64090169270833
43.410875651041664
43.31506184895834
43.198011067708336
43.16296223958334
43.27363606770833
43.431953125
43.612734375
43.79041015625
43.93095377604167
44.0622265625
44.16058268229167
43.695595703125
43.80295572916667
43.84725260416667
43.911083984375
44.330660807291665
44.47312174479167
44.617115885416666
44.12299479166666
43.619697265625
42.595361328125
42.15337890625
42.19594401041667
42.98230143229166
43.12712239583333
43.88146158854167
43.994501953125
43.692783203125
43.529117838541666
43.72784505208333
43.72945963541667
43.80123046875
43.920397135416664
44.06758138020833
44.206012369791665
44.31463541666667
44.40541341145833
43.9031640625
43.98646809895833
43.998440755208335
44.02348307291667
44.13140950520833
44.263805338541665
44.16641927083333
43.404391276041665
42.63626953125
42.44387044270833
43.064143880208334
43.132405598958336
43.869306640625
44.517093098958334
44.36595052083333
44.236669921875
44.049860026041664
43.410930989583335
42.94638997395833
43.01991861979167
44.064342447916665
44.728717447916665
44.921087239583336
44.745732421875
44.57186197916667
44.16662434895834
44.1580859375
44.19159830729166
44.24649088541667
44.0913671875
42.855113932291665
42.78198893229167
42.64538411458334
43.278154296875
42.80204752604167
43.4580859375
44.067561848958334
43.897799479166665
43.79945963541667
43.64277018229166
43.566705729166664
43.62446614583333
43.76210286458333
44.503984375
44.61665364583333
44.78171875
44.3319140625
44.45511067708333
44.46817057291667
43.97659830729167
43.863125
43.71515625
42.977958984375
42.37765299479167
42.24973958333333
42.87249674479167
42.88417643229167
43.558076171875
43.580592447916665
43.345771484375
43.267021484375
43.144384765625
43.10556640625
43.17352213541667
43.31045572916667
43.50548502604167
43.69028645833333
43.85317057291667
43.98507161458333
43.50174153645833
44.168466796875
44.579182942708336
44.66224934895833
44.5849609375
43.84537109375
42.65662109375
41.95626302083333
41.899251302083336
42.51126302083333
42.99301106770833
43.619029947916665
43.26448893229167
43.24486328125
43.734866536458334
43.662884114583335
43.721181640625
43.84984375
44.012548828125
44.15767578125
44.32255859375
44.439153645833336
44.01419921875
44.44845377604167
44.549609375
44.61704752604167
44.699306640625
44.827294921875
44.4112109375
44.588203125
44.15091796875
43.213138020833334
42.76919596354167
42.668811848958335
43.265927734375
43.208186848958334
43.752535807291665
43.70322265625
43.42684244791667
43.926875
43.824375
43.866796875
43.95021809895833
44.074527994791666
44.215563151041664
44.3593359375
43.93358723958333
44.091455078125
44.17396484375
44.2464453125
44.63645182291667
44.21525716145833
44.402643229166664
44.527994791666664
44.633984375
44.75044270833333
44.8747265625
44.42620768229167
43.7626171875
42.789622395833334
42.1185546875
41.93776041666667
42.503310546875
43.00533528645833
43.61997395833333
43.5565625
43.316005859375
43.83086263020834
43.141774088541666
43.133922526041665
43.20244140625
43.295651041666666
43.443232421875
43.58679036458334
43.717119140625
43.29646158854167
44.02748046875
44.108583984375
44.48935872395833
44.60805013020833
44.703463541666665
44.31442057291667
44.500126953125
44.609375
44.73610026041667
44.860654296875
44.390732421875
43.485592447916666
42.51722981770833
42.03279947916667
41.96154947916666
42.61747721354167
43.174586588541665
43.851087239583336
43.90623372395833
43.62328125
43.50992513020833
43.40239583333334
43.407412109375
43.547054036458334
43.73206380208333
43.9416796875
44.076412760416666
44.1859375
44.27904296875
44.336826171875
43.87789713541667
43.46789713541666
43.86540364583333
43.955065104166664
44.02880859375
44.16654947916667
44.322809244791664
43.786022135416665
43.773678385416666
42.95169596354167
42.65195963541667
43.218876953125
43.23399088541667
43.92649739583333
43.684345703125
43.81044921875
43.82173177083333
43.71252278645834
43.636907552083336
43.65240234375
43.790944010416666
43.99815104166667
44.21360677083333
44.395208333333336
44.54892903645833
44.13085286458333
44.269794921875
44.315078125
44.68189127604167
44.217679036458335
44.414807942708336
44.553671875
44.428701171875
43.63010416666667
42.93275390625
42.77234375
43.42180013020833
43.482965494791664
44.190524088541665
44.30209309895833
44.12401692708333
44.0391796875
43.92923502604167
43.876536458333334
43.938190104166665
44.4169921875
44.63331705729167
44.847005208333336
45.02753580729166
44.64450846354167
44.819052734375
44.85883463541666
44.30520833333333
44.426920572916664
44.52857096354167
44.642177734375
44.412747395833335
43.500188802083336
42.83074869791667
42.675305989583336
43.317109375
43.32609700520833
43.981298828125
44.011432291666665
43.811123046875
43.78136393229167
43.71456705729167
43.675755208333335
43.75473958333333
43.91256510416667
44.113216145833334
44.31253255208333
44.49863932291667
44.642294921875
44.21937825520833
44.35444661458333
44.731162109375
44.25124348958333
43.873102213541664
43.963733723958335
44.106494140625
44.22825520833333
43.711513671875
42.64486328125
41.624322916666664
41.620524088541664
41.67657552083333
42.338271484375
42.55748697916667
43.21592122395833
43.22861979166667
43.71911458333334
43.57907877604167
43.602900390625
43.695126953125
43.865725911458334
44.07008463541667
44.247369791666664
44.403115234375
44.53019856770833
44.094052734375
44.22041341145833
44.296337890625
44.69626953125
44.81370442708333
44.36480794270833
44.041217447916665
44.145374348958335
44.281263020833336
43.946025390625
42.338212890625
42.21974283854167
42.10703776041667
42.72534830729167
42.72392578125
43.946979166666665
43.829404296875
43.63284505208333
44.127369791666666
43.97056640625
43.96360026041667
44.04422200520833
44.182779947916664
44.37516927083333
44.55134440104167
44.178173828125
44.37221354166667
44.79559244791667
44.353671875
43.93575520833333
43.976767578125
44.092135416666665
44.19868489583333
44.305791015625
43.878268229166665
44.10262369791667
44.24439127604167
44.04995768229167
42.985797526041665
41.62881510416667
41.483600260416665
41.526845703125
42.21060546875
42.755367838541666
44.02833984375
43.62124674479167
43.581370442708334
43.51585286458333
43.46772135416666
43.51283854166667
43.652766927083334
43.837649739583334
44.005419921875
44.17251627604167
44.309625651041664
44.400185546875
44.465205078125
43.99276692708333
44.13603515625
44.23225260416667
44.629423828125
44.77951822916667
44.90061197916667
44.500354817708335
44.661295572916664
44.099827473958335
43.0108203125
42.492373046875
42.43105143229167
43.09866536458333
43.14266927083333
43.80323893229167
43.545725911458334
43.572890625
44.06939778645833
43.902119140625
43.89702473958334
43.991416015625
44.15767903645833
44.341458333333335
44.52345377604167
44.1228125
44.311943359375
44.392727864583335
44.22790690104166
43.83801432291666
43.878473307291664
43.985654296875
44.106822916666665
44.219807942708336
44.360325520833335
43.94613606770833
44.406708984375
43.431142578125
42.580615234375
42.370061848958336
42.98944010416667
43.034287109375
43.719453125
42.888974609375
42.96033203125
43.51466471354167
43.91009440104167
43.88587890625
43.9546484375
44.09609049479167
44.29061197916667
44.48595377604167
44.6553515625
44.24765950520833
44.405498046875
44.78731770833333
44.304752604166666
44.42995442708333
44.5121875
44.608818359375
44.743408203125
44.933040364583334
45.13111328125
44.511907552083336
43.05260416666667
42.133076171875
41.878245442708334
42.473759765625
43.054440104166666
43.771318359375
43.82897786458334
43.656236979166664
44.16076822916666
43.98215494791667
43.91355143229167
43.956982421875
44.092802734375
44.25933919270833
44.79109375
44.973818359375
44.530345052083334
44.702395833333334
44.74955078125
44.244892578125
44.35964192708333
44.42851888020834
44.53300455729167
44.663720703125
44.82131184895833
44.843548177083335
43.60931640625
42.13162434895833
41.77660481770833
42.33865885416667
42.90369140625
43.62717447916667
43.671809895833334
44.05412109375
43.94608072916667
43.857623697916665
43.77662760416667
43.7959765625
43.90964518229167
44.079599609375
44.258258463541665
44.39666666666667
44.522119140625
44.0645703125
44.18868815104167
44.539990234375
44.624554036458335
44.15419921875
44.311458333333334
44.46058919270833
44.5848046875
44.54055989583333
43.77888671875
42.98265625
42.794716796875
43.40555013020833
43.472652994791666
44.23451171875
44.36890299479167
44.229248046875
44.16181640625
44.026110026041664
43.45722330729166
43.559947916666665
43.708408203125
43.93975911458333
44.41103515625
44.30586263020833
44.4312890625
44.456279296875
43.9815234375
44.066555989583335
44.42321940104166
44.55765625
44.66118489583334
44.48056966145833
43.645234375
42.472330729166664
42.43452473958333
42.53072265625
43.29021484375
42.820299479166664
43.492389322916665
43.73107421875
43.62810546875
43.467229817708336
43.4238671875
43.50639973958334
43.678304036458336
44.442112630208335
44.56425455729167
44.7423828125
44.30596028645834
44.41666015625
44.44314778645833
43.970234375
44.41229166666667
44.37709635416667
43.6976953125
42.973193359375
42.77466471354167
43.353199869791666
43.426611328125
44.16171223958333
44.217054036458336
44.053128255208335
43.97905598958334
43.84280924479167
43.76492838541667
43.81970377604166
43.957493489583335
44.47529296875
44.37912109375
44.52832682291667
44.12849609375
44.25981119791667
44.287366536458336
44.66199544270833
44.226070963541666
44.215048828125
43.51454752604167
42.77588541666667
42.56093098958333
43.141354166666666
43.14392903645833
43.798701171875
43.82732421875
43.61402994791667
43.56848307291666
43.47824869791667
43.443671875
43.5021484375
43.65095377604167
43.847451171875
44.060045572916664
44.23129231770833
44.371715494791665
44.45353841145833
43.937799479166664
43.48510091145833
43.53642903645834
43.88290364583333
43.3719921875
42.52289713541666
41.664833984375
42.19429036458333
42.27603841145833
42.870608723958334
42.468805338541664
43.050537109375
43.011455078125
43.607734375
43.50940104166666
43.53892252604167
43.63611328125
43.759944661458334
43.92890625
44.080595703125
44.231162109375
44.337607421875
43.778525390625
43.90910481770833
43.96951822916667
44.38836588541667
44.25305338541666
44.08650065104167
43.285732421875
42.15484700520833
42.30021484375
42.314059244791665
42.92271484375
42.831920572916665
43.482255859375
43.465777994791665
43.177600911458335
43.773662109375
43.704264322916664
43.78050130208333
43.906940104166665
44.03871744791667
44.19163411458333
44.35387369791667
43.8641015625
44.056513671875
44.13949544270833
44.228909505208335
44.66956380208333
44.210748697916664
44.44080403645833
44.61385416666667
44.54943359375
43.71414713541667
42.44412760416667
42.269420572916665
42.257197265625
42.883235677083334
42.843671875
43.4958984375
43.169541015625
43.15563151041667
43.748466796875
43.673977864583335
43.733714192708334
43.83805013020833
43.97860026041667
44.11973307291667
44.28244140625
44.437724609375
43.91663411458333
44.05487955729166
44.126217447916666
44.52977864583333
44.663447265625
44.165485026041665
44.40958333333333
44.55618815104167
44.171331380208336
43.24887044270833
42.22464192708333
42.17851236979167
42.197467447916665
42.83527994791667
42.827067057291664
43.53681640625
43.4965625
43.176829427083334
43.74896158854167
43.1565234375
43.2160546875
43.36841796875
43.55641927083333
43.74333333333333
43.911318359375
43.393795572916666
43.544423828125
43.614407552083335
43.106806640625
44.16056966145833
44.32181315104167
44.464778645833334
44.64220377604167
44.78158528645833
44.45345703125
42.92307942708333
42.4271875
42.31802408854167
42.980576171875
42.99135416666667
43.70595377604167
43.4466015625
43.5104296875
44.11319010416667
43.980641276041666
44.00572916666667
43.469645182291664
43.750826822916665
43.966608072916664
44.50762044270834
44.37920247395834
44.49106770833333
43.986858723958335
44.10825520833333
44.19521484375
44.302477213541664
44.74135416666667
44.39150390625
44.66041015625
44.72366861979167
44.119518229166665
42.587102864583336
42.25764322916667
42.25961263020833
42.938518880208335
43.08001953125
43.7962890625
43.59850260416667
43.625416666666666
44.135087890625
43.95368815104167
43.93902669270833
44.090498046875
44.33461263020833
44.57455403645833
44.825520833333336
44.37953776041667
44.592594401041666
44.73170572916667
44.228610026041665
44.67192708333334
44.7601953125
44.347314453125
44.54275716145833
44.436982421875
43.57796549479167
42.697568359375
42.46784830729167
43.05568684895833
43.10166666666667
43.855237630208336
43.98517578125
43.80247395833333
43.711650390625
43.567180989583335
43.47740234375
43.541015625
43.69119791666667
43.88142252604167
44.088580729166665
44.29034505208333
44.415081380208335
44.493824869791666
43.97583658854167
44.09335286458333
44.128619791666665
44.400052083333335
43.4889453125
43.003772786458335
42.77687825520833
42.833889973958335
43.543779296875
43.63556640625
44.15482421875
44.205439453125
44.16412109375
44.024189453125
43.29209309895833
43.37140625
43.83034505208333
44.70003580729167
44.877698567708336
44.752705078125
44.296070963541666
44.456966145833334
44.86121419270833
44.381917317708336
44.52717447916667
44.14107747395833
43.17653645833333
42.145846354166665
42.114375
42.1744921875
42.82828125
42.82138020833333
43.19336588541667
43.1419140625
43.703681640625
43.548544921875
43.55860026041667
43.679876302083336
43.845485026041665
44.05422200520833
44.281044921875
44.473505859375
44.61738606770833
44.078518880208335
44.1922265625
44.274495442708336
44.12769205729167
43.927333984375
42.99103515625
42.46186848958333
42.34377278645833
42.94467122395833
42.92415690104167
43.59990559895834
43.58133463541667
43.361490885416664
43.96517578125
43.30129231770833
43.300107421875
43.392483723958335
43.537897135416664
43.745927734375
43.94515950520833
43.475504557291664
44.24485677083333
44.37529296875
43.81734375
44.251233723958336
44.37223958333333
44.537845052083334
44.595677083333335
44.00727864583333
42.59055989583333
42.32243489583333
42.293375651041664
42.925846354166666
42.90174153645833
43.576129557291665
42.724462890625
42.6778125
43.28428059895833
43.74776692708333
43.83363606770833
43.94844075520833
44.105380859375
44.285126953125
44.45432942708333
43.95718424479167
44.145169270833335
44.21273763020833
44.27379557291667
44.08569986979167
44.256266276041664
44.375706380208335
44.506416015625
44.666995442708334
44.68547200520833
43.390185546875
42.56659830729166
42.28087565104167
42.845478515625
42.82734049479166
43.51666341145833
43.519475911458336
43.93600260416667
43.816988932291665
43.75351888020833
43.713193359375
43.77683268229167
43.89880208333334
44.06138346354167
44.259449869791666
44.409140625
44.520341796875
43.98522135416667
44.11846028645834
44.19185872395833
44.290732421875
44.11743815104167
44.297607421875
44.43926106770834
44.597386067708335
44.581829427083335
43.82814778645833
42.48208658854167
42.315358072916666
42.315166015625
42.978671875
43.000107421875
43.430325520833335
43.409892578125
43.37390625
43.89646809895833
43.77633463541667
43.805423177083334
43.88928385416666
43.99587890625
44.11879557291667
44.30005859375
44.460185546875
43.9358984375
44.11440104166667
44.20490885416667
44.2906640625
43.86722330729167
44.483740234375
44.684912109375
44.21143229166667
42.8051171875
42.572255859375
42.58769205729167
43.324488932291665
43.40986653645833
44.230305989583336
44.01116861979167
43.94240559895833
43.76451822916667
43.651285807291664
43.667897135416666
43.82882161458333
44.08671549479167
44.312565104166666
44.529306640625
44.672604166666666
44.13690104166667
44.257054036458335
44.63736002604167
44.174541015625
44.275966796875
43.72444986979167
42.85851888020834
42.58726236979167
43.18736002604167
43.26920247395833
44.078111979166664
43.85093424479167
44.00310546875
43.981686197916666
43.81979166666667
43.73778645833333
43.78927083333333
43.978580729166666
44.23232421875
44.473984375
44.692760416666665
44.27435546875
44.42454427083333
44.80583333333333
44.31017903645834
44.46534830729167
44.23350260416667
43.270185546875
42.56947265625
42.41579427083333
43.007294921875
43.0122265625
43.70829752604167
43.68728841145833
43.502102864583335
44.10833984375
43.947835286458336
43.940250651041666
44.02809895833333
44.178701171875
44.38322591145833
44.58362630208333
44.11308919270834
44.335338541666665
44.392568359375
43.83264973958333
43.965891927083334
44.37625
44.5182421875
44.19400390625
43.253102213541666
42.189762369791666
42.15142903645833
42.19395182291667
42.832141927083335
42.776705729166665
43.44771809895833
42.59546875
43.17245442708333
43.6080859375
43.661321614583336
43.75361328125
43.911181640625
44.09017903645833
44.28306315104167
44.470172526041665
43.97023763020833
44.158193359375
44.231389973958336
44.30615234375
44.11488606770833
44.33484375
44.505520833333335
44.49387369791667
43.668551432291665
42.325725911458335
42.14932942708333
42.14337239583333
42.791591796875
42.75978515625
43.15178059895833
43.138388671875
43.827978515625
43.69993489583333
43.70108072916667
43.78792643229167
43.942369791666664
44.12884440104167
44.344716796875
44.53650390625
44.07337890625
44.288623046875
44.34934895833333
43.847408854166666
44.322093098958334
44.422587890625
44.54222005208333
44.72975911458333
44.88017578125
43.868313802083335
42.80904296875
42.36286783854167
42.32625651041667
42.986142578125
43.016162109375
43.7341796875
43.80404622395833
43.55466796875
44.07557942708333
43.939384765625
43.970729166666665
44.118190104166665
44.335393880208336
44.560953776041664
44.12339192708333
44.354586588541665
44.79427408854167
44.26532877604166
44.36723307291667
44.43099283854167
44.536376953125
44.668759765625
44.77528645833333
43.770029296875
42.84029296875
42.4215625
42.407587890625
43.097158203125
43.144534505208334
43.917591145833335
44.009375
43.70875
43.54132161458333
43.43395182291667
43.49237955729166
43.652584635416666
43.90548502604167
44.153850911458335
44.36495442708333
44.556103515625
44.043889973958336
44.127080078125
44.15662434895833
44.22298828125
44.086708984375
44.117581380208335
43.35001302083333
42.5323828125
42.3090625
42.923518880208334
42.95825846354167
43.70065104166667
43.462333984375
43.59358072916667
44.21675130208333
44.034111328125
43.9793359375
43.45335286458333
43.722454427083335
43.94937174479167
44.180485026041666
44.377415364583335
44.53474283854167
44.02706705729167
44.14487630208333
44.184140625
44.232464192708335
44.125904947916666
44.223310546875
43.397060546875
42.47754557291667
42.168798828125
42.728671875
42.68335611979167
43.36060221354167
43.340647786458334
43.79351888020833
43.713131510416666
43.68806315104167
43.65595377604166
43.74649739583333
43.89503580729167
44.06107096354167
44.30240234375
44.49281901041667
44.64927734375
44.14350911458333
44.28147786458333
44.3733203125
43.84987630208333
43.995009765625
44.453779296875
44.63349283854166
44.77526692708334
44.30995442708333
42.631708984375
42.207652994791665
42.147490234375
42.785146484375
42.78484375
43.450374348958334
43.48515950520834
43.88180338541667
43.708050130208335
43.72055989583333
43.726484375
43.849117838541666
44.04815755208333
44.2387890625
44.466624348958334
44.66993815104167
44.184124348958335
44.373837890625
44.447565104166664
43.9387890625
44.383860677083334
44.52115234375
44.675289713541666
44.84361979166667
44.293040364583334
43.49099609375
42.518193359375
42.275966796875
42.852535807291666
42.846337890625
43.57121419270833
43.585029296875
44.06600260416667
43.948212890625
43.885166015625
43.856162109375
43.9193359375
44.07235677083333
44.26216796875
44.47711263020833
44.01975911458333
44.214124348958336
44.32494466145833
44.39746744791667
44.19233072916666
44.39098307291667
44.46993489583333
44.591539713541664
44.74460611979167
44.904254557291665
44.363310546875
43.649739583333336
42.633717447916666
42.32769856770833
42.88745768229167
42.884111328125
43.61578450520833
43.64501953125
43.805348307291666
44.176829427083334
43.98378580729167
43.960071614583335
43.40904296875
43.621432291666665
43.85157877604167
44.40072591145833
44.28174479166667
44.407412109375
44.524501953125
43.99935872395833
44.125325520833336
44.50255859375
44.64235026041667
44.76692057291667
44.306126302083335
44.52070638020833
44.593746744791666
43.96364583333333
42.864733072916664
41.926328125
41.945270182291665
42.57745442708333
42.60625
43.90609700520833
43.5737890625
43.62068033854167
43.521005859375
43.458225911458335
43.47367838541667
43.600625
43.81650716145833
44.03986979166667
44.24538411458333
44.420615234375
44.54084635416667
43.982080078125
44.10750651041667
44.162838541666666
44.58193033854167
44.779134114583336
44.38725911458334
44.48810546875
43.843486328125
42.863528645833334
42.543974609375
42.579833984375
43.29579752604167
43.37920247395834
44.18950520833334
44.262112630208335
43.931041666666665
43.73263020833333
43.592041015625
43.61013671875
43.74130208333333
43.94349609375
44.14255533854167
44.3334375
44.516982421875
44.049358723958335
44.19849283854167
44.2605859375
44.66869140625
44.217027994791664
44.317001953125
43.785221354166666
42.83731119791667
42.482216796875
42.44142903645833
43.11274088541666
43.14615559895833
43.91435546875
43.6785546875
43.642115885416665
43.485406901041664
43.374501953125
43.402141927083335
43.50847005208333
43.66313151041667
43.864208984375
44.02762369791667
44.170439453125
44.24826171875
44.262919921875
43.69048177083334
43.826025390625
43.866181640625
43.835680338541664
42.706611328125
42.278619791666664
42.215686848958335
42.912379557291665
42.92947591145833
43.685970052083334
43.76332356770833
43.82728515625
43.732802734375
43.66329427083333
43.735377604166665
43.89414388020833
44.091549479166666
44.288411458333336
44.487275390625
44.013600260416666
44.18623372395833
44.24588541666667
44.28855143229167
44.104296875
44.27347330729167
43.98322265625
43.01552083333333
42.48229817708334
42.40442057291666
43.077014973958335
42.75832356770833
43.41923828125
43.436376953125
43.565426432291666
43.551090494791666
43.536220703125
43.54765299479167
43.63115234375
43.78009765625
43.956936848958335
44.15787109375
44.35969401041667
44.534423828125
43.951630859375
44.025146484375
44.06233072916667
44.19741861979167
44.73319986979167
44.605960286458334
43.065283203125
42.425755208333335
42.239759114583336
42.87878255208334
42.34931640625
43.04501302083333
42.68787434895833
42.744573567708336
43.31955078125
43.77111002604167
43.8424609375
43.99294270833333
44.173069661458335
44.328870442708336
44.49112630208333
44.09733723958333
43.740735677083336
43.867255859375
43.33551106770833
44.334225260416666
44.44392252604167
44.52580403645833
44.70935221354166
44.85081380208333
43.60581705729167
42.631806640625
42.25052734375
42.80799153645833
42.780345052083334
43.52313151041667
42.98074544270833
43.25367838541667
43.72945963541667
43.71179036458334
43.68643880208333
43.82185546875
44.016865234375
44.196520182291664
44.369794921875
44.523434244791666
44.10921875
44.32730794270833
44.44819661458333
44.196031901041664
44.3491015625
44.420475260416666
44.51146809895833
44.69104166666666
44.878857421875
43.8875
42.838486328125
42.243968098958334
42.13931640625
42.841481119791666
42.86180989583333
43.57631510416667
42.734189453125
42.717900390625
43.19850260416667
43.08241536458333
43.113727213541665
43.24158203125
43.40914388020833
43.60434895833333
43.790029296875
43.38921875
44.145107421875
44.24384765625
43.66688802083333
43.80923502604167
44.210338541666665
44.37353515625
44.44668619791667
43.575224609375
42.691025390625
41.785130208333335
41.84865559895833
41.945628255208334
42.675130208333336
42.712294921875
43.506647135416664
43.421025390625
43.310696614583335
43.280263671875
43.318912760416666
43.44907552083333
44.176552734375
43.72956705729167
43.88767578125
43.474140625
44.18808919270833
44.28798502604167
43.722913411458336
43.87850911458333
44.340849609375
44.272649739583336
43.473391927083334
42.891416015625
42.780758463541666
43.51968424479167
43.55326171875
44.243434244791665
44.35813151041667
44.15708333333333
44.03525716145833
43.916819661458334
43.3673828125
43.56751953125
43.73296875
44.27975260416667
44.519580078125
44.38623046875
44.47216145833333
43.935302734375
43.46594075520834
43.830999348958336
43.95771158854166
43.77195638020833
42.3270703125
42.33244140625
42.26412109375
42.95482421875
42.42160807291667
43.128841145833334
43.712213541666664
43.55210286458333
44.04472330729167
43.90464518229167
43.917330729166665
44.034375
44.20777994791667
44.42044596354167
44.40200846354167
44.137682291666664
44.24935221354167
43.69469401041667
44.37948567708333
44.48863932291667
44.61428059895833
44.603069661458335
43.24291341145833
42.52222330729167
42.32756184895833
42.95287434895833
42.92005859375
43.629931640625
43.608333333333334
43.413629557291664
44.001806640625
43.332272135416666
43.29814127604167
43.379931640625
43.52886067708334
43.718125
43.93844075520833
43.580755208333336
44.36581380208333
44.84626953125
44.323580729166665
44.45798502604167
44.556181640625
44.66916015625
44.23258138020833
44.2244140625
43.319814453125
42.630504557291665
42.469088541666665
43.10872721354167
43.120836588541664
43.826549479166665
43.824970703125
43.63256184895833
43.63878580729167
43.618639322916664
43.607109375
43.708291015625
43.86400390625
44.064563802083335
44.267734375
44.45291341145833
44.61201171875
44.098701171875
44.253186848958336
44.338759765625
44.14593424479167
44.340322265625
44.48628255208333
44.656305338541664
44.524970703125
43.535602213541665
42.299547526041664
42.209117838541665
42.238375651041665
42.93556640625
42.91872395833333
43.338756510416665
42.78140950520833
42.75045247395833
43.34061197916667
43.255693359375
43.34975260416667
43.54691080729167
43.768375651041666
43.98538411458333
43.54148111979167
44.33465494791667
44.474690755208336
43.96883463541667
44.435341796875
44.54844401041667
44.68235026041667
44.828951822916665
44.41345703125
44.18852864583334
43.10713216145833
42.516259765625
42.44078776041667
43.07936848958333
43.123203125
43.870908203125
43.625934244791665
43.72609700520833
43.698916015625
43.615406901041666
43.629501953125
43.75638020833333
43.968411458333335
44.189524739583334
44.409541015625
44.58177734375
44.10890950520833
44.27553385416667
44.32785807291667
43.833974609375
44.2894140625
44.39938151041667
44.551647135416665
44.677991536458336
44.2281640625
43.14310546875
42.139853515625
42.154853515625
42.228330078125
42.922337239583335
42.966197916666665
43.39181640625
43.337509765625
43.293330078125
