35.04384114583333
34.430582682291664
33.662275390625
77.527998046875
75.81608723958334
49.47345703125
48.36794270833333
46.34598307291667
48.56539388020833
49.80813802083333
51.68711588541667
51.121484375
49.961298828125
48.89186197916667
47.540944010416666
47.272014973958335
47.28995442708333
48.530856119791665
48.575494791666664
53.49753580729167
54.091106770833335
53.37853515625
48.41177408854167
48.54462890625
49.47748697916666
50.416982421875
50.955172526041665
50.663639322916666
51.11549479166667
51.40027018229166
50.764147135416664
54.21177734375
54.78585611979167
55.051028645833334
55.168255208333335
53.60712565104166
53.385807291666666
57.333186848958334
57.846585286458335
58.07462890625
57.98310872395833
58.061861979166665
58.395859375
60.738453776041666
61.016533203125
61.18163411458333
61.220592447916665
61.585576171875
61.70674153645833
62.06051106770833
62.39161783854167
62.537923177083336
62.763623046875
61.66020833333334
61.82559244791667
63.749169921875
63.33759765625
62.13971028645833
61.84030924479167
62.21479166666666
63.63211263020833
64.08270833333333
64.425361328125
64.68530598958333
62.78051106770833
62.75849609375
62.72491536458333
62.935859375
63.18649088541667
63.40820963541667
63.59291341145833
63.670384114583335
62.54413736979166
62.63005859375
63.123479817708336
63.216754557291665
65.181767578125
64.86161458333333
63.98734375
63.57020833333333
64.151728515625
65.66949544270834
66.109453125
66.36361979166666
66.35333984375
62.905201822916666
63.051585286458334
62.78015625
64.64594075520833
66.03453776041667
65.79859700520834
64.07493489583334
64.30447265625
64.54230794270833
64.63087890625
64.709638671875
64.62024739583333
63.02631510416666
61.96763020833333
61.87449544270833
65.70419921875
65.739609375
65.94228515625
63.985081380208335
63.996282552083336
63.865927734375
63.62901041666667
63.53453125
63.651188151041666
64.00923177083334
64.326953125
64.39974934895834
64.48265950520833
64.44299153645834
64.35658854166667
64.32975911458334
63.394964192708336
61.616484375
60.967392578125
61.447685546875
63.31220703125
63.75687174479167
64.01336588541666
64.22630208333334
61.64999348958333
61.31400065104167
61.26423828125
61.346744791666666
61.678876953125
62.105999348958335
62.31435546875
62.42251953125
62.523004557291664
62.60081380208333
62.516656901041664
61.32483072916666
59.57582682291667
59.215830078125
59.9078125
61.59418619791666
61.903720703125
62.110065104166665
58.3991796875
58.24326497395833
58.07342447916667
58.062503255208334
58.24131184895833
58.468089192708334
58.708264973958336
58.884098307291666
58.97742513020833
59.07759765625
59.088818359375
58.65799153645833
55.391360677083334
52.074208984375
50.988932291666664
55.479694010416665
56.341162109375
59.035169270833336
56.202395833333334
56.739879557291665
59.070478515625
53.11595703125
53.176025390625
53.40042317708333
53.75763671875
53.974925130208334
53.268662109375
53.516982421875
53.65587565104167
53.68836263020833
57.077542317708335
57.10758138020833
56.85982747395833
54.376982421875
50.786373697916666
49.52042317708333
50.361201171875
50.7341796875
52.69792317708333
48.75998697916667
49.38186848958333
49.630107421875
47.148616536458334
47.031331380208336
46.819049479166665
47.187822265625
47.504443359375
47.76047526041667
48.026800130208336
48.218326822916666
48.35583658854166
48.486904296875
48.5359765625
47.996936848958335
50.754921875
50.908961588541665
50.76103190104167
50.136552734375
47.40807942708334
46.56677734375
47.527613932291665
48.169514973958336
49.93370768229167
46.75763671875
47.24498046875
47.348782552083335
45.13573567708333
45.144482421875
45.426158854166665
47.19760091145833
47.199205729166664
47.523610026041666
47.785403645833334
48.278629557291666
47.745794270833336
47.928486328125
48.049427083333335
48.180950520833335
50.905693359375
50.96326171875
51.116038411458334
50.49039388020833
49.987796223958334
47.349873046875
46.49853515625
46.11444986979166
47.28875651041667
47.616865234375
49.68528645833333
50.173857421875
46.94955078125
48.032076822916665
46.138662109375
44.83119466145833
45.080660807291665
45.37960611979167
47.142184244791665
47.37014973958333
47.57955729166667
48.02454427083333
47.45240885416667
47.63133138020833
47.759615885416665
47.83688151041667
47.95172200520833
48.04255533854167
48.17660481770833
48.31462890625
50.34048502604167
47.755712890625
45.757825520833336
45.506549479166665
46.76386393229166
47.162408854166664
46.37234700520833
46.61321940104167
46.845120442708335
45.126298828125
44.4312890625
44.778759765625
46.35458984375
46.61928059895833
46.90620442708333
47.174632161458334
47.383203125
47.521962890625
47.87797526041667
47.88619140625
47.184641927083334
47.263362630208334
47.338147786458336
47.484537760416664
50.26435221354166
50.314899088541665
49.24416015625
46.68626302083333
45.62683268229166
46.677763671875
47.67548828125
48.892216796875
49.29322265625
45.51521158854167
45.60059244791667
44.71984375
45.076240234375
45.4494140625
45.68374674479167
47.41964518229167
47.700494791666664
47.94427408854167
47.744899088541665
48.00085286458334
48.167438151041665
48.347109375
48.45211263020833
47.779811197916665
50.429560546875
50.3060546875
49.25853841145833
48.77457356770833
48.177978515625
49.59509114583334
50.46317057291667
51.49407877604167
51.90755859375
48.0378515625
47.728352864583336
47.63642252604166
47.550442708333335
47.574039713541666
47.73963216145833
48.01350260416667
48.179156901041665
48.390774739583335
47.829983723958335
47.96202799479167
48.06029622395833
50.78669921875
50.837607421875
50.415172526041665
50.46699544270833
49.172822265625
49.51925130208333
51.19630533854167
51.89376953125
52.037802734375
48.589602864583334
48.73010416666666
47.935559895833336
47.753909505208334
47.763349609375
47.901826171875
52.27681640625
52.50832356770833
52.739313151041664
52.924951171875
53.09218424479167
53.18898111979167
53.06106770833333
51.812473958333335
49.62347330729167
48.92072265625
50.472125651041665
51.357138671875
50.78504231770833
51.17998046875
51.822819010416666
48.279580078125
48.192626953125
48.08027018229166
50.89534830729167
51.11830729166667
51.420849609375
51.66192708333333
51.84080078125
51.1293359375
51.24546875
51.30261067708334
51.3712890625
52.705234375
50.811253255208335
48.314524739583334
47.72445638020833
49.06369791666667
49.83633463541667
49.23892252604167
49.601708984375
49.922779947916666
48.58019205729167
47.23594075520833
47.51542643229167
47.65267903645833
47.920087890625
48.181529947916665
48.411402994791665
48.599873046875
48.04621744791667
48.171767578125
48.23222330729167
48.277141927083335
51.080065104166664
50.55088541666667
48.33736979166667
46.56850260416667
46.427952473958335
47.68638671875
47.90416666666667
49.02275390625
49.25581380208333
45.63453125
46.317926432291664
45.00294921875
45.083811848958334
45.22697591145833
45.44341145833334
47.246754557291666
47.442317708333334
47.623834635416664
47.75338216145833
48.164134114583334
47.554453125
47.666979166666664
47.72359375
47.810953776041664
48.03274739583333
47.91515299479167
46.510592447916665
46.427906901041666
45.725009765625
46.716962890625
46.937932942708336
48.04555338541667
48.26479166666667
45.07725260416667
45.743056640625
44.939755859375
44.563408203125
44.516328125
44.790849609375
44.975719401041665
45.72985026041667
45.545888671875
45.105930989583335
44.67335611979167
45.238040364583334
45.818834635416664
45.875185546875
45.376666666666665
45.508121744791666
45.618408203125
45.726223958333335
47.49830729166667
47.571041666666666
47.32927734375
45.18719401041667
43.86385416666667
43.73986002604167
44.46468424479167
44.554241536458335
45.39252604166666
44.259593098958334
44.41091796875
44.950139973958336
43.679928385416666
43.69091145833333
43.840673828125
44.089287109375
44.325703125
44.51074869791667
44.67721354166667
44.390556640625
44.61435546875
45.19146809895833
45.26159505208334
44.710146484375
45.0769140625
45.209378255208335
45.35359375
47.017278645833336
46.17859375
44.41024088541667
43.73817708333333
44.508125
44.944781901041665
44.70455729166667
44.57023763020833
44.832548828125
44.954820963541664
44.36456380208333
43.7023046875
44.171481119791665
44.36736979166667
44.54495768229167
45.098505859375
45.26385416666667
45.47418294270833
45.64418294270833
45.74851236979167
45.87492513020833
45.36184895833333
45.509576822916664
45.592190755208335
47.33374674479167
47.446689453125
47.24691731770833
45.9476953125
44.396474609375
44.180478515625
45.31872395833334
45.628486328125
46.632177734375
45.15138997395833
45.46373697916667
45.58667643229167
44.26815104166667
44.316920572916665
44.43783203125
45.1352734375
45.374443359375
45.57950520833333
45.75615559895834
45.290768229166666
45.691865234375
47.44150716145833
47.80789388020833
47.86165690104167
47.988147786458335
48.088597005208335
48.251263020833335
48.27730794270833
47.49720052083333
45.624912109375
44.762705078125
44.98848958333333
46.05515625
46.484599609375
46.80430338541667
47.17327799479167
45.60626302083333
45.469632161458335
44.73048502604167
44.82287760416666
44.98085286458333
45.773854166666666
47.52390950520833
47.71769856770833
47.899280598958335
45.500162760416664
45.862900390625
46.162815755208335
48.114306640625
48.16747395833333
48.110166015625
47.09837890625
45.33069661458333
44.69846354166667
44.998492838541665
46.056341145833336
46.46695638020833
46.73766927083334
47.098369140625
47.0784375
45.252496744791664
45.1464453125
45.229296875
45.429661458333335
45.662975260416665
45.84039388020833
46.049033203125
46.201878255208335
45.705813802083334
45.80724609375
45.85428059895833
45.87789713541667
47.39345052083333
45.52773111979167
44.33821940104167
44.278997395833336
45.16097330729167
45.50361653645833
44.898059895833335
45.153486328125
45.41330729166667
44.22984375
44.100498046875
44.0825390625
44.713642578125
44.95044921875
45.17703776041667
45.40410481770834
45.59341796875
45.758896484375
45.843548177083335
45.28276692708334
45.64097330729167
47.43672200520833
47.05722981770833
45.04822265625
43.68541666666667
44.26352864583333
44.444990234375
44.20798828125
44.39508138020833
44.656194661458336
44.8393359375
44.37213216145833
44.24556966145833
43.69859375
44.29834635416667
44.558414713541666
45.73819010416667
45.60134765625
45.77150390625
44.7987109375
45.28421549479167
45.40033203125
47.687854817708335
47.778447265625
47.199108072916665
45.28070963541666
43.91908854166667
42.83470703125
43.669921875
44.666767578125
44.878740234375
44.324153645833334
44.547314453125
45.436940104166666
44.774970703125
44.20708984375
44.19351236979167
44.32907877604167
44.520126953125
44.74554361979167
44.93113606770833
44.55829752604166
44.74301106770833
45.43229817708333
45.50966471354167
45.57972981770833
47.5163671875
47.60885416666667
47.04084635416667
47.33852213541667
47.389775390625
46.426435546875
44.41200846354167
43.586399739583335
44.33052083333333
44.800364583333334
45.85734700520833
45.920520833333335
44.173310546875
44.36859375
44.3284375
44.217350260416666
44.271686197916665
44.452578125
44.63952799479166
44.834309895833336
45.003720703125
44.610257161458335
45.09957682291667
45.212939453125
45.75273111979167
45.78968098958333
45.85146158854167
45.90959309895833
46.02423177083333
46.142581380208334
46.184641927083334
44.95573567708333
43.417102864583335
43.581904296875
44.18016927083333
44.57978190104166
44.398922526041666
44.363232421875
44.519290364583334
44.23699869791667
44.25552408854167
44.14221028645834
44.16145182291667
44.319078776041664
44.50898111979166
44.6996484375
44.86547200520833
44.977779947916666
44.54129557291667
44.66008138020833
44.73375651041667
45.36551432291667
45.430895182291664
45.498369140625
47.44178059895833
47.559111328125
47.687327473958334
47.36076171875
45.510849609375
43.8671484375
43.552451171875
44.509326171875
44.94725911458333
45.899645182291664
46.2275
46.38649739583333
44.103623046875
43.500543619791664
43.448818359375
43.820231119791664
43.991725260416665
44.209892578125
44.380358072916664
44.535944010416664
44.663385416666664
44.749091796875
44.81575846354167
44.883557942708336
44.38888346354167
44.816158854166666
44.91890950520833
47.13417317708333
47.25475911458334
46.88121744791667
43.85589518229167
42.7705859375
42.624332682291666
43.40603515625
43.323473307291664
44.23796223958333
44.053662109375
44.25783203125
44.564697265625
43.733076171875
43.76448893229167
43.84664388020833
44.031484375
44.14251953125
44.334300130208334
44.485934244791665
44.14231770833333
44.257786458333335
44.757451171875
44.774248046875
44.84608723958333
44.354505208333336
44.81211263020833
44.93733072916667
47.09529296875
46.215517578125
44.31078125
42.47770833333333
43.08663736979167
42.962444661458335
43.808232421875
44.13270833333333
44.38551432291667
43.774401041666664
43.67986979166667
43.57399739583333
43.58361002604167
43.817698567708334
43.925725911458336
44.10795572916667
44.281070963541666
44.401624348958336
44.03920247395833
44.14043294270834
44.172434895833334
44.64198567708333
44.67122721354167
44.748857421875
44.85634440104167
44.966123046875
44.6402734375
43.156809895833334
42.09974609375
41.942340494791665
43.7830859375
44.0261328125
45.0362890625
43.643024088541665
43.823512369791665
44.09493815104167
43.14992513020833
43.15509765625
43.28666015625
43.530201822916666
43.69834635416667
43.849544270833334
43.994375
44.12479166666667
44.18420247395834
43.734326171875
43.791845703125
43.845387369791666
44.28345703125
44.34451497395833
44.39149739583333
43.779713541666666
42.461888020833335
41.87032877604167
42.469293619791664
42.77790690104167
43.64266276041667
43.54399088541667
43.86333984375
43.88577473958333
43.423528645833336
42.6584375
42.76055989583333
43.13674153645833
43.896458333333335
44.10669921875
44.266552734375
43.766360677083334
43.91665690104167
44.00052083333333
44.0386328125
44.139576822916666
44.200361328125
44.15220377604167
42.91457356770833
41.931240234375
41.627376302083334
42.31303385416667
42.643717447916664
43.55020833333333
43.656015625
43.21720703125
43.25149739583333
43.053401692708334
42.83891927083334
42.90677408854167
43.098955078125
43.378727213541666
43.554026692708334
43.68972981770833
43.710094401041665
43.224619140625
43.35810221354166
43.38380859375
43.423759765625
43.13071614583333
42.456142578125
41.67729817708334
41.56261393229167
42.32659830729167
42.56921875
43.21909830729167
43.20150716145833
43.138115234375
43.002620442708334
42.850276692708334
42.56272786458333
42.80149739583333
43.040087890625
43.7204296875
43.634466145833336
43.67794596354167
43.29126953125
43.435205078125
43.39566080729167
42.85767578125
42.974124348958334
43.60662109375
43.07969075520833
41.89580078125
41.31290364583333
41.85829427083333
41.95455078125
42.62758138020833
42.706572265625
42.87144205729167
43.093583984375
42.947197265625
42.84513020833333
42.385143229166665
42.67337239583333
42.83061197916667
43.008938802083335
43.133776041666664
43.271549479166666
43.461871744791665
42.97865234375
43.087578125
43.145533854166665
43.196070963541665
43.281422526041666
43.616116536458335
43.609599609375
42.815511067708336
40.964397786458335
41.033365885416664
41.077353515625
42.331767578125
41.530315755208335
42.69669270833333
42.94478841145833
43.067353515625
42.97281575520833
43.057535807291664
43.175836588541664
43.352076822916665
43.551676432291664
43.73983723958333
43.928059895833336
44.089283854166666
43.637880859375
43.23111653645833
43.23970052083333
43.59740234375
43.17752604166667
43.91900716145833
44.059599609375
44.161484375
44.24166015625
44.14298177083333
43.306559244791664
41.791829427083336
41.024921875
41.118310546875
41.696494140625
41.74909830729167
42.36171875
42.144534505208334
42.691705729166664
42.504853515625
42.52466471354167
42.61752278645833
42.792887369791664
43.045657552083334
43.28955078125
43.46280598958333
43.045354817708336
43.216969401041666
43.273746744791666
43.264332682291666
43.03908528645833
43.189166666666665
43.30973958333333
43.370022786458335
43.51991861979167
43.510738932291666
43.573255208333336
43.312503255208334
42.23238932291667
41.00224283854167
40.979046223958335
41.205234375
41.77235677083333
41.8975
42.308987630208335
42.3491796875
42.284482421875
42.7439453125
42.64563151041666
42.73008463541667
42.967861328125
43.222561848958335
43.413134765625
43.56477213541667
43.14354817708333
43.285481770833336
43.305065104166665
43.07142578125
43.20797200520833
43.22236328125
43.27595377604167
43.444361979166665
43.54288411458333
43.588489583333335
43.13036458333333
41.54278645833333
41.059886067708334
41.116009114583335
41.885930989583336
41.863470052083336
42.334889322916666
42.361689453125
42.473232421875
42.885159505208335
43.361559244791664
43.42319986979167
43.57146484375
43.842906901041665
44.0828125
44.25157877604167
43.817783203125
43.395966796875
43.434664713541665
43.19818359375
43.28629231770833
43.469417317708334
43.436214192708334
43.481839192708335
43.59484049479167
43.64830078125
43.23203776041667
41.6605078125
41.160126953125
41.2146875
41.99612955729167
42.03023763020833
42.4895703125
42.576708984375
42.719837239583335
42.63735026041667
42.469427083333336
42.434248046875
42.558512369791664
42.759710286458336
42.97513020833333
43.15521484375
43.306650390625
43.3880859375
42.900081380208334
43.026341145833335
43.17733072916667
43.19828776041667
43.25063151041667
43.53211263020833
43.63611653645833
43.62366536458333
42.34722981770833
41.43462890625
41.178916015625
41.90889973958333
41.85996419270833
42.701494140625
42.842705078125
42.79480143229166
42.73117838541667
42.57410481770833
42.48604817708333
42.52845052083333
42.68420247395834
42.90946940104167
43.093072916666664
43.2716796875
43.39198567708333
43.4738671875
42.973333333333336
43.1140234375
43.224065755208336
43.497180989583335
43.57791341145833
43.49381184895833
42.761256510416665
41.38135416666667
41.20449869791667
41.409778645833335
41.990833333333335
42.179837239583335
42.93038736979167
42.783177083333335
42.655094401041666
42.45443359375
42.34999348958333
42.411435546875
42.578655598958335
43.30064453125
44.01453450520833
44.27828776041667
43.87645833333333
43.42287109375
43.40806315104167
42.867405598958335
43.0046484375
43.386572265625
42.915341796875
41.95022786458333
41.18171549479167
41.17471354166667
41.837848307291665
42.039088541666665
42.75661458333333
42.86025065104167
42.96385091145833
42.805009765625
42.62732096354166
42.63458984375
42.80247395833333
42.997259114583336
43.181982421875
43.384127604166665
43.5133984375
43.04318033854167
43.13921875
43.171617838541664
43.48968424479167
43.42630859375
42.65876627604167
41.26071940104167
41.0241796875
41.112835286458335
41.81764973958333
41.83564127604166
42.15672200520833
42.261653645833334
42.281910807291666
42.63874674479167
43.135419921875
43.297216796875
43.470227864583336
43.64195963541667
43.799541015625
43.946123046875
43.544544270833335
43.099798177083336
43.09459635416667
43.11047526041666
43.476103515625
43.039645182291665
43.18974934895834
42.70595052083333
41.69513020833333
41.179853515625
41.67063151041667
41.45962565104167
42.093206380208336
42.699423828125
43.3585546875
43.36084635416667
43.27917317708334
43.20485026041667
43.22103190104167
43.370289713541666
43.567867838541666
43.741276041666666
43.894710286458334
43.52066080729167
43.102080078125
43.11255859375
43.16587239583333
43.01946940104167
43.174775390625
43.257783203125
43.409462890625
43.555911458333334
43.38118815104167
42.36113606770834
41.047945963541665
40.91281901041667
41.09589518229166
41.800185546875
41.488987630208335
42.04838541666667
42.66443359375
43.193684895833336
42.431910807291665
42.372356770833335
42.47337239583333
42.640751953125
42.8471484375
42.994423828125
43.11320638020833
43.20181966145833
42.74089192708333
43.441272786458335
43.530791015625
43.60373046875
43.672360026041666
43.77819986979166
43.929117838541664
43.8875390625
42.95349609375
41.84309244791667
41.249690755208334
41.203876953125
41.9074609375
41.977333984375
42.5951171875
42.604182942708334
42.39107747395833
42.80670247395833
43.2182421875
43.26500651041667
43.361751302083334
43.51350260416667
43.68710286458333
43.85345377604167
43.46471354166667
43.6333203125
43.69322265625
43.23677083333333
43.080074869791666
43.14559244791667
43.220166015625
43.305703125
43.423173828125
43.25826171875
43.305146484375
42.23943359375
41.513798828125
40.99433919270833
41.509235026041665
41.650537109375
42.085615234375
42.605823567708335
43.296630859375
43.29945638020833
43.23240559895833
43.13652669270834
43.16944010416667
43.31641276041667
43.52396484375
43.736171875
43.914134114583334
43.5117578125
43.66477864583333
43.73021484375
43.26052734375
43.701103515625
43.80191080729167
43.90839518229166
44.02213216145833
43.842900390625
43.98278971354166
43.550709635416666
42.465953776041665
41.33518880208333
41.06252278645833
41.09436197916666
41.840891927083334
41.881982421875
42.53266927083333
43.16320963541666
42.92463541666667
43.32359375
43.09072916666667
43.04342122395833
43.117565104166665
43.27474934895833
43.42111979166667
43.57916341145833
43.712197265625
43.83705403645833
43.434000651041664
42.95771809895833
42.961982421875
43.089423828125
42.65808268229166
43.77597005208333
44.024371744791665
43.941897786458334
43.13494791666667
41.987848307291664
41.368717447916666
41.567340494791665
42.3744921875
42.200771484375
42.875065104166666
42.86682942708333
42.686578776041664
42.352998046875
42.17963541666666
42.245250651041665
42.414928385416665
43.117177734375
43.79384765625
43.996402994791666
43.60775065104167
43.747311197916666
43.81675130208333
43.33481770833333
43.157255859375
42.91963216145833
42.09846354166667
41.36777994791667
40.87068359375
41.556962890625
41.73967122395833
42.47668294270834
43.214039713541666
43.39411783854167
43.20572265625
42.96669596354167
42.910100911458336
43.011513671875
43.228040364583336
43.445611979166664
43.628307291666665
43.77602213541667
43.899899088541666
43.4837109375
43.647220052083334
43.49740559895833
42.92236979166667
41.618961588541666
40.83792643229167
40.941435546875
41.73310546875
42.433919270833336
43.15019856770834
43.19546549479167
43.1753515625
43.21681315104167
43.027005208333335
43.091728515625
43.23935872395833
43.40611002604167
43.598333333333336
43.775244140625
43.443385416666665
43.62477864583333
43.657783203125
43.185533854166664
43.634931640625
43.441591796875
42.54083333333333
41.80181966145833
41.618505859375
42.29034505208333
42.36877278645834
42.693981119791665
42.668391927083334
42.787897135416664
43.37024088541666
43.228024088541666
43.212080078125
42.777897135416666
43.033922526041664
43.192965494791665
43.358463541666666
43.524794921875
43.64836263020833
43.25906901041667
43.373209635416664
43.421865234375
43.46182942708333
43.53558268229167
43.66208984375
43.19873697916667
42.15758463541667
41.159423828125
41.00915364583334
41.614742838541666
41.951630859375
42.63477213541667
42.65552408854167
42.770006510416664
43.3671484375
43.211399739583335
43.09365234375
42.568369140625
42.74228841145833
42.91467122395834
43.625927734375
43.6816796875
43.81393229166667
43.351604817708335
43.468193359375
43.49818684895833
43.03489583333333
43.47525716145833
43.575641276041665
43.69226888020833
43.7878125
43.12064127604167
42.16359700520833
41.576975911458334
41.51629557291667
42.19627278645833
42.289970703125
42.95341471354167
42.99744140625
43.0825390625
43.026435546875
42.92909505208333
42.92523111979167
43.00968098958333
43.144801432291665
43.29965169270833
43.441653645833334
43.5589453125
43.115657552083334
43.23896484375
43.290377604166665
43.335234375
43.373317057291665
43.43358723958333
43.50501953125
43.1335546875
43.281689453125
42.77343098958333
41.856689453125
41.736461588541665
41.47812825520833
42.147021484375
42.25061197916666
42.93819661458333
42.97979817708333
43.03448567708333
42.95526041666667
42.849248046875
42.85880859375
42.99182291666666
43.15830078125
43.327216796875
43.456256510416665
43.575862630208334
43.14556966145833
43.2747265625
43.3248828125
43.37380859375
43.42957356770833
43.518681640625
43.141220703125
43.340846354166665
43.408375651041666
43.19750325520833
42.274609375
41.53178385416667
41.57225911458333
42.350032552083334
42.493343098958334
43.20005533854167
43.27816080729167
43.340006510416664
43.23216145833333
43.12158854166667
42.62782552083333
42.852809244791665
43.023098958333335
43.20024088541667
43.361552734375
43.495442708333336
43.589365234375
43.61610677083333
43.17444661458333
43.279794921875
43.3216015625
43.398981119791664
43.535266927083335
43.494482421875
42.7824609375
41.49755208333333
41.316162109375
41.522822265625
42.3764453125
42.513857421875
43.22177083333333
43.2726953125
43.16341796875
42.96422526041667
42.88361979166667
42.9498046875
43.09931966145833
43.300703125
43.496357421875
43.677802734375
43.812923177083334
43.416796875
43.52430013020833
43.54984375
43.09777994791666
43.35017578125
42.609401041666665
41.87232421875
41.69252278645833
42.14309895833333
42.297880859375
42.9892578125
43.10659830729167
43.236943359375
43.13138671875
42.929456380208336
42.87447265625
42.97892903645833
43.17884765625
43.38234049479167
43.57736328125
43.74642252604167
43.39107421875
43.52949544270833
43.55873046875
43.588216145833336
43.45688802083333
43.486044921875
42.773037109375
41.894602864583334
41.592255859375
42.28733072916667
42.445133463541666
43.118479817708334
42.80832682291667
42.91165690104167
43.4612109375
43.29691080729167
43.23093424479167
42.772379557291664
42.997265625
43.179580078125
43.33624348958333
43.48941080729167
43.604261067708336
43.673160807291666
43.222171223958334
43.33685546875
43.384296875
43.449938151041664
43.565458984375
43.65927083333333
43.232731119791666
41.74736328125
40.66486979166667
40.93874348958333
41.41938151041666
42.028984375
42.709567057291665
42.732135416666665
42.805712890625
43.284833984375
43.127682291666666
43.1434375
43.29835611979167
43.465426432291665
43.60841471354167
43.22873697916667
43.427174479166666
43.52266927083333
43.575755208333334
43.12462890625
43.25035807291667
43.327962239583336
43.418512369791664
43.508854166666666
43.63051432291667
43.768681640625
43.28691080729167
42.12873697916667
41.06233072916667
40.621083984375
41.55165690104167
41.967281901041666
42.67296875
42.705149739583334
42.845432942708335
43.430188802083336
43.280611979166665
43.21068359375
42.72956705729167
42.963271484375
43.142825520833334
43.320693359375
43.477685546875
43.60707682291667
43.683564453125
43.242470703125
43.346324869791665
43.4121484375
43.471858723958334
43.559765625
43.667903645833334
43.2609375
43.483385416666664
43.538623046875
43.21911783854166
41.834130859375
41.310771484375
41.38744140625
42.178707682291666
42.31286783854166
42.948430989583336
42.9960546875
43.04199869791667
42.931018880208335
42.865719401041666
42.895550130208335
43.03478515625
43.216142578125
43.39172200520834
43.546549479166664
43.66638997395833
43.272906901041665
43.391962890625
43.430973307291666
43.490651041666666
43.55664713541667
43.64411783854167
43.23129231770833
42.824033203125
42.912503255208335
43.03852864583333
43.13211263020833
41.818984375
40.77848958333333
40.66190104166667
40.90757486979167
41.43092447916667
42.04553059895834
42.74707682291667
42.75051106770833
42.69132161458333
43.069622395833335
42.950833333333335
43.054860026041666
43.24253580729167
43.431871744791664
43.613369140625
43.760087890625
43.391774088541666
43.538014322916666
43.578304036458334
43.10111002604167
42.963206380208334
43.03514973958333
43.12602864583334
43.23441080729167
43.044111328125
43.162180989583334
43.2187109375
42.04978841145833
41.00025065104167
40.51446614583333
41.44627278645833
41.966708984375
42.76405924479167
42.826904296875
43.49082682291667
43.43295247395833
43.286158854166665
42.65965169270833
42.740556640625
42.910615234375
43.61859049479167
43.75005208333334
43.930537109375
43.61350911458333
43.8028125
43.83690755208333
43.678561197916665
43.77137044270833
43.816240234375
43.872060546875
43.960706380208336
44.068089192708335
43.88645833333333
43.447835286458336
42.56029296875
41.43814453125
41.031207682291665
41.008343098958335
41.550478515625
42.28131184895833
43.076240234375
43.1933984375
43.299244791666666
43.11208333333333
42.874482421875
42.81479817708333
42.936630859375
43.17116536458333
43.410283203125
43.6222265625
43.806819661458334
43.930406901041664
43.496897786458334
43.00898111979166
42.99880859375
43.354931640625
42.91418294270834
43.65628580729167
43.808095703125
43.904840494791664
43.409108072916666
42.35001953125
41.487102864583335
41.555673828125
42.40779947916667
42.600094401041666
43.36370768229167
43.49313151041667
43.51915690104167
43.280361328125
42.503880208333335
42.546259765625
42.6971875
43.45234700520833
43.59166666666667
43.779169921875
43.93767578125
43.52029622395833
43.067220052083336
43.05919596354167
42.546741536458335
42.958896484375
43.06522135416667
43.08273111979167
42.47759114583334
41.23597981770833
40.80255859375
41.447766927083336
42.23139973958333
43.060618489583334
43.181826171875
43.39431966145833
43.3722265625
43.141285807291666
42.919895833333335
42.92485677083334
43.09593098958333
43.35215169270833
43.56807942708333
43.755777994791664
43.92558268229167
43.52104817708334
43.652835286458334
43.690869140625
43.19427734375
42.732275390625
43.081767578125
42.833440755208336
41.83279296875
40.78376953125
40.610882161458335
41.370263671875
42.098349609375
42.843857421875
42.84822916666667
42.96029622395833
43.402347005208334
43.15822591145833
43.076708984375
43.17448567708333
43.3618359375
43.59951822916667
43.82663736979167
43.4938671875
43.69981119791667
43.77713216145833
43.29126953125
43.110013020833335
43.105823567708335
43.136149088541664
43.243759765625
43.04037434895833
42.641451822916665
41.58065104166667
40.38467447916667
40.9103515625
41.17005208333333
42.44037109375
42.34456705729167
42.914560546875
42.912705078125
42.8723828125
42.78202799479167
42.76745442708334
42.880302734375
43.061031901041666
43.253811848958335
43.44930989583333
43.610244140625
43.72361328125
43.304361979166664
43.418255208333335
43.46738932291667
43.500299479166664
43.574641927083334
43.13398763020833
43.32356119791667
43.479921875
43.441761067708335
42.50600260416667
41.492333984375
41.15312174479167
41.802760416666665
41.954274088541666
42.647490234375
42.63854817708334
42.75625
43.325953776041665
43.16611328125
43.092923177083335
43.14182942708333
43.30354166666667
43.49314127604167
43.65404622395833
43.279811197916665
43.48419921875
43.59228515625
43.640166015625
43.19659505208333
43.330621744791664
43.74292643229167
43.86856119791667
43.98887369791667
44.130888671875
43.743388671875
42.94131510416667
41.816640625
41.02192057291666
40.88297200520833
41.65178059895833
42.37926432291667
43.07011393229167
42.76081705729167
42.829768880208334
43.323427734375
43.143688151041665
43.101002604166666
43.19079752604166
43.362796223958334
43.563828125
43.754814453125
43.38342122395834
43.575732421875
43.65309244791667
43.20901692708333
43.672841796875
43.75421875
43.83419596354167
43.93497395833333
43.70859700520833
43.29314453125
42.94177408854166
42.982981770833334
42.62161783854167
41.196315104166665
40.486871744791664
41.21494466145833
41.78109049479167
41.30713541666667
42.407223307291666
42.91390299479167
42.9604296875
42.84390299479167
42.73046223958333
42.76884440104167
42.93033203125
43.137194010416664
43.352985026041665
43.52980794270833
43.674111328125
43.78147135416667
43.35339518229166
43.43712890625
43.448948567708335
43.843531901041665
43.618818359375
43.684176432291665
43.26769205729167
42.88474609375
42.963720703125
42.76866861979167
41.68044270833333
40.28153971354167
41.201526692708335
41.775634765625
41.31722330729167
42.47127604166667
43.028147786458334
43.13466796875
42.98569986979167
42.85080729166667
42.84908528645833
42.974912109375
43.16458333333333
43.3900390625
43.583212890625
43.741930338541664
43.396214192708335
43.539609375
43.57078450520833
43.588421223958335
43.44681315104167
43.609599609375
43.72899739583333
43.86936848958333
43.769222005208334
42.87023111979167
42.06712239583333
41.887112630208335
42.689508463541664
42.897366536458335
43.669908854166664
43.81533854166667
43.6180859375
43.4390625
42.70430013020833
42.661380208333334
42.76365234375
42.974775390625
43.690654296875
43.805078125
43.952333984375
43.595947265625
43.75744791666666
43.787490234375
43.592138671875
43.707464192708336
43.765322265625
43.81196614583333
43.293681640625
42.357744140625
41.897991536458335
41.97591796875
42.823896484375
42.99002604166667
43.692919921875
43.818277994791664
43.458102213541665
43.2026953125
42.531276041666665
42.622897135416665
42.794033203125
43.532542317708334
43.67806315104167
43.873134765625
43.52600911458333
43.699108072916665
43.737981770833336
43.56298177083333
43.69227864583333
43.74679036458333
43.45221028645833
42.49891927083333
41.769534505208334
41.35608723958333
42.10671223958333
42.301266276041666
42.947972005208335
43.01010091145833
43.11978190104167
43.03708658854167
42.86789713541667
42.82779622395833
42.94484375
43.16882161458334
43.376865234375
43.57689778645833
43.74572916666666
43.37030924479166
43.507190755208335
43.54106119791667
43.569820963541666
43.438733723958336
43.63693359375
43.47837890625
42.57451171875
41.75523111979167
41.529446614583335
41.933033854166666
42.03494140625
42.68773763020833
42.691097005208334
42.79710286458333
43.312067057291664
43.10340169270833
43.058444010416665
43.1337890625
43.29689453125
43.509694010416666
43.69885416666666
43.85158528645833
43.445986328125
43.60323567708333
43.64279947916667
43.18775390625
43.62046875
43.69584635416667
43.809488932291664
43.94004231770833
43.30025716145833
42.2447265625
41.0025
40.417890625
40.559072265625
41.320003255208334
41.87970703125
42.52908528645833
42.529296875
42.471910807291664
42.883531901041664
42.18650065104167
42.233235677083336
42.38537760416666
42.551448567708334
42.711630859375
42.84222330729167
42.943330078125
42.48745768229167
43.19449544270833
43.28099609375
43.31942708333333
43.36666341145833
43.47325846354167
43.620263671875
43.651256510416665
42.49033203125
41.52896484375
41.469755859375
42.060709635416664
42.186077473958335
42.60665690104167
42.57848307291667
43.288798828125
43.25395182291667
43.169228515625
43.09783854166667
43.14018229166667
43.31099609375
43.486357421875
43.65365559895833
43.2224609375
43.421875
43.5146484375
43.56814778645833
43.07603515625
43.186669921875
43.24099934895833
43.31990885416667
43.77657552083333
43.628597005208334
43.336207682291665
41.871005859375
41.18955078125
41.056162109375
42.06234700520833
41.91653971354167
42.54738606770833
42.59916666666667
42.71423828125
43.282496744791665
43.10519205729167
43.09671223958333
43.20905924479167
43.391370442708336
43.579033203125
43.764202473958335
43.32275390625
43.505576171875
43.58966145833333
43.107112630208334
43.56044270833333
43.641116536458334
43.726904296875
43.822337239583334
43.642802734375
43.750078125
43.21490234375
42.35277669270833
41.72421223958333
41.478541666666665
42.14794270833333
42.327255859375
43.07261393229167
43.11535807291666
42.93047200520834
43.493746744791665
43.2951171875
43.22281575520833
42.6958203125
42.929013671875
43.117037760416665
43.284694010416665
43.46171875
43.61300130208333
43.72324544270833
43.27380533854166
43.37300130208333
43.417734375
43.475589192708334
43.095035807291666
43.32972005208333
43.614765625
42.799873046875
41.828759765625
41.200576171875
41.84708984375
42.03326171875
42.81573567708333
42.89638020833333
43.05119140625
43.060107421875
42.905475260416665
42.822392578125
42.91127278645833
43.08894205729167
43.32040364583333
43.52223958333333
43.683740234375
43.80782877604167
43.369274088541665
43.491360677083335
43.49816731770834
43.05612955729167
43.23449869791666
43.548030598958334
42.836070963541665
41.84548828125
41.147841796875
41.756328125
41.97277994791666
42.773004557291664
42.86766927083333
43.044658203125
43.049319661458334
42.909830729166664
42.80396158854167
42.887978515625
43.08644856770833
43.324248046875
43.571666666666665
43.79501953125
43.431165364583336
43.62503255208333
43.693658854166664
43.259518229166666
43.725026041666666
43.734990234375
43.05515625
42.064765625
41.33761393229167
41.95513020833334
42.192724609375
43.02356770833333
43.140856119791664
43.339625651041665
43.33084309895833
43.11603515625
42.453525390625
42.55387044270833
42.72922526041667
43.49107096354167
43.654186197916665
43.856419270833335
43.499443359375
43.670110677083336
43.74349283854167
43.61819986979167
43.3546484375
42.36959635416667
41.69149739583333
41.67227864583333
42.480159505208334
42.70662760416667
43.50928385416667
43.311826171875
43.330302734375
43.10341796875
42.906279296875
42.354427083333334
42.575999348958334
42.78947591145833
43.579059244791665
43.691393229166664
43.84062825520834
43.44394856770833
43.616044921875
43.54806640625
42.300045572916666
41.69683919270833
41.37541341145833
42.013818359375
42.221194661458334
42.72482096354167
42.82067057291667
43.00666015625
43.52352213541667
43.24999348958333
43.15171875
42.655244140625
42.934267578125
43.170787760416665
43.38205078125
43.56022786458333
43.708681640625
43.30115559895833
43.35330403645833
42.657786458333334
41.587932942708335
40.960139973958334
41.115305989583334
41.86656901041667
41.9978515625
43.307301432291666
43.30398763020833
43.364664713541664
43.256305338541665
42.822887369791665
42.84879231770833
43.02172200520833
43.22904296875
43.453046875
43.636920572916665
43.78371419270833
43.312373046875
43.442177734375
43.51794270833334
42.93222981770833
41.64369466145833
40.982880859375
40.670572916666664
41.32760091145833
42.01622721354167
42.82254231770833
42.827945963541666
43.29248697916667
43.23556640625
43.135244140625
43.0851171875
43.174794921875
43.34568684895833
43.55387044270833
43.776552734375
43.362626953125
43.586354166666666
43.679248046875
43.14486653645833
43.58263671875
43.67613932291667
43.815989583333334
43.79069661458333
42.096897786458335
41.181376953125
40.87720377604167
41.833798828125
41.70007486979166
42.424749348958336
42.46186197916666
43.248544921875
43.241009114583335
43.18245768229167
43.16133138020833
43.26373372395833
43.44947916666667
43.64810546875
43.841878255208336
43.41814453125
43.625791015625
43.74565104166667
43.24611002604167
43.373470052083334
43.801702473958336
43.90573893229167
43.520901692708335
43.75955729166667
43.7238671875
42.764013671875
41.2657421875
40.990328776041665
41.155833333333334
41.944524739583336
42.034869791666665
42.99271158854167
42.93222005208333
42.96111328125
42.876416015625
42.86640299479166
42.98440755208333
43.2164453125
43.45651041666667
43.699274088541664
43.922252604166665
43.49067708333333
43.652255859375
43.703203125
43.23440755208333
43.707652994791665
43.812701822916665
43.93777669270833
43.61100911458333
43.40773111979167
42.98435221354167
41.811611328125
41.33523763020833
41.966861979166666
42.168916015625
42.929892578125
42.690266927083336
43.499928385416666
43.54295247395833
43.449326171875
42.80103190104167
42.951214192708335
43.14627604166667
43.376653645833336
43.61861979166667
43.86849934895833
43.56135416666667
43.795826822916666
43.90723307291667
43.84107096354167
44.003284505208335
44.077464192708334
43.64782552083334
43.873440755208335
43.95729817708333
43.33663411458333
42.03037109375
40.898248697916664
40.46711588541667
41.309436848958335
41.792275390625
43.072099609375
43.128590494791666
43.20797526041667
43.040472005208336
42.842418619791665
42.878798828125
43.103541666666665
43.37735677083333
43.623385416666665
43.827958984375
43.9773046875
43.590494791666664
43.74387369791667
43.78085286458333
43.276393229166665
43.708157552083335
43.83037109375
43.97593424479167
44.00667643229167
42.88793294270833
41.19347330729167
40.785888671875
40.94277018229167
41.817073567708334
41.435247395833336
42.650677083333335
42.736298828125
42.80142578125
42.629501953125
42.444970703125
42.023548177083335
42.297923177083334
42.56468098958333
43.2821484375
44.03935872395834
44.24253255208333
43.920322265625
44.05138997395834
44.08065755208333
43.55587239583333
43.96675130208333
44.04165690104167
43.51752604166666
42.303193359375
41.10332356770834
40.64512369791667
41.347903645833334
42.207763671875
43.64692708333333
43.740787760416666
43.662906901041666
43.596979166666664
43.297841796875
42.570270182291665
42.672252604166665
42.86460286458333
43.623372395833336
43.808955078125
44.008056640625
43.6911328125
43.881650390625
43.92900390625
43.76087239583333
43.87116861979167
43.465901692708336
42.327542317708335
41.610576171875
41.58605143229167
42.46977864583334
42.12464192708333
42.863173828125
43.26228515625
43.328785807291666
43.081461588541664
42.758733723958336
42.69629557291667
42.847965494791666
43.09444986979167
43.886142578125
44.036975911458335
44.21301106770834
43.806103515625
43.94972981770833
43.82696614583333
42.428828125
41.76598958333334
41.46012044270833
42.14457682291667
42.34501953125
42.82837890625
42.899560546875
43.06546223958333
43.01989583333334
42.806650390625
42.679169921875
42.743909505208336
42.94297526041667
43.18689778645833
43.40471028645833
43.61785807291667
43.76895182291667
43.333662109375
43.458675130208334
43.520755208333334
43.491142578125
42.356175130208335
41.26431640625
41.06609375
41.66815104166667
41.823024088541665
42.863919270833335
42.761067708333336
42.892467447916665
43.57615234375
43.399248046875
43.30599934895833
42.715237630208335
42.93529296875
43.12376953125
43.327216796875
43.48696940104167
43.625787760416664
43.15584635416667
43.2709765625
43.30020182291667
43.353206380208334
43.40238932291667
43.000081380208336
41.419596354166664
40.7892578125
40.71731770833333
41.462835286458336
41.54072265625
42.891468098958335
42.85189778645833
42.98800130208333
42.949651692708336
42.84556640625
42.8489453125
42.973606770833335
43.162014973958335
43.369983723958335
43.54929361979167
43.689899088541665
43.195367838541664
43.320341796875
43.359674479166664
43.38318684895833
42.869928385416664
43.078740234375
43.11981119791667
42.45227864583333
41.397646484375
40.946396484375
41.559970703125
41.64259440104167
42.448369140625
42.49974609375
43.209049479166666
43.199801432291665
43.111790364583335
43.05709635416667
43.112568359375
43.317613932291664
43.52507161458333
43.712591145833336
43.335400390625
43.5506640625
43.649541015625
43.09038411458334
43.21212565104167
43.29290690104167
43.373525390625
43.49484375
43.629381510416664
43.19825846354167
43.45544270833334
43.48420572916667
42.58125
40.92927408854167
40.8855859375
41.025784505208335
41.8500390625
41.6550390625
42.997014973958336
42.98694010416666
43.0070703125
42.91930338541667
42.868597005208336
42.95833984375
43.185556640625
43.4006640625
43.6156640625
43.807041015625
43.35968098958333
43.53751953125
43.58886067708333
43.06526041666667
43.22056315104167
43.634912109375
43.75365234375
43.536920572916664
43.677776692708335
43.333567708333334
43.37876302083333
42.415472005208336
41.1276953125
40.787275390625
40.95682291666667
42.35927408854167
42.44088216145833
43.556865234375
43.530367838541665
43.47154947916667
42.66763671875
42.62952473958333
42.75172526041667
42.98451171875
43.2312109375
43.48180338541667
43.714016927083335
43.87844075520833
43.405634765625
43.51264973958333
43.542887369791664
43.390406901041665
43.585625
43.70645833333333
43.83777669270833
43.35611328125
42.278212890625
41.278375651041664
41.4836328125
41.550029296875
42.33963216145833
42.525149739583334
43.311162109375
43.20137044270833
42.912027994791664
42.70357421875
42.730709635416666
42.91892252604167
43.165986328125
43.411171875
43.63224609375
43.823375651041665
43.414873046875
43.53703125
43.56722981770833
43.136494140625
43.63748697916667
43.28078125
42.13649739583333
41.409833984375
41.358798828125
42.16616861979167
42.422552083333336
43.218037109375
43.366276041666666
43.491399739583336
43.0125
42.78082356770833
42.741533203125
42.904866536458336
43.1491796875
43.387317708333335
43.58908203125
43.79541666666667
43.413639322916666
43.560924479166665
43.58641927083333
43.126888020833334
43.59488606770833
43.693033854166664
43.289326171875
42.08339192708333
40.950572916666665
40.821376953125
41.579547526041665
41.777584635416666
43.13896158854167
43.13050130208333
43.288655598958336
43.23119140625
43.083486328125
43.053684895833335
43.18805013020833
43.43136393229167
43.703818359375
43.94689453125
43.554996744791666
43.767880859375
43.864765625
43.391552734375
43.84917317708334
43.92540690104167
43.48937174479167
43.66806966145833
43.8214453125
43.840517578125
42.91320638020834
41.646197916666665
40.660224609375
40.852255859375
41.683974609375
41.49916341145833
42.681787109375
42.69100911458333
42.750439453125
43.20550455729167
43.02832682291667
43.063245442708336
43.249296875
43.48804361979167
43.742975260416664
43.97386067708333
43.587213541666664
43.797978515625
43.88639973958333
43.42118815104167
43.89974934895833
44.00426432291667
43.60073893229167
43.77744791666667
43.94032552083333
44.0203515625
43.214664713541666
41.38244140625
40.249775390625
40.281497395833334
41.138590494791664
41.56074544270833
42.79806315104167
42.80351888020834
42.87898111979167
43.31703776041667
43.11129231770833
43.109013671875
43.26704427083333
43.51184895833333
43.75064778645833
43.968701171875
43.58609375
43.803359375
43.895556640625
43.40114583333333
43.82947591145833
43.887630208333334
43.488346354166666
43.67152669270833
43.391845703125
42.21481119791667
41.311875
41.158994140625
41.590517578125
41.75863606770833
43.14375
43.161591796875
43.33818359375
43.270625
43.10123046875
42.46023763020833
42.642320963541664
42.8654296875
43.7119140625
43.27840494791667
43.449381510416664
43.045872395833335
43.82974609375
43.941324869791664
43.458743489583334
43.91194010416667
44.0339453125
43.668759765625
43.51792643229167
42.4126953125
41.53794596354167
41.41902018229167
42.22095703125
42.125270182291665
42.906103515625
43.06650390625
43.206142578125
43.067431640625
42.80513671875
42.69719075520833
42.782184244791665
42.961083984375
43.167890625
43.42775390625
43.618001302083336
43.79176432291667
43.409716796875
43.58092447916667
43.67567708333333
43.241565755208335
43.524547526041665
42.756650390625
41.97724609375
41.85630208333333
42.312916666666666
42.547333984375
43.408932291666666
43.6564453125
43.852711588541666
43.70133138020833
42.827464192708334
42.69987630208333
42.75009114583333
42.96205403645833
43.764384765625
43.88687174479167
44.068294270833334
43.684420572916665
43.89965169270833
44.003671875
43.554010416666664
42.52966796875
41.71857421875
41.56725260416667
42.302249348958334
42.50681640625
43.037447916666665
43.274847005208336
43.3511328125
43.033802083333335
42.73100911458334
42.16505533854167
42.380686848958334
42.58248046875
43.32589518229167
43.3927734375
43.538333333333334
43.636328125
43.15683919270833
42.90518880208333
41.900498046875
41.15656901041667
41.02910481770834
41.777109375
41.94933919270834
42.78347981770833
42.98415364583333
43.073541666666664
42.88130208333333
42.66031575520833
42.61099934895833
42.7070703125
42.88683268229167
43.690891927083335
43.856787109375
44.032373046875
43.57754557291667
43.7330078125
43.398984375
41.794840494791664
41.10842122395833
41.28396484375
42.085400390625
42.209169921875
42.700833333333335
42.72530598958333
42.88180013020833
43.426282552083336
43.233899739583336
43.15762369791667
42.685634765625
42.93664388020834
43.12935872395833
43.331162109375
43.517591145833336
43.642568359375
43.12154622395833
43.279010416666665
43.25585286458333
42.57466145833333
41.64572265625
41.2953125
41.293141276041666
42.037555338541665
42.071966145833336
42.70016276041667
42.76682291666667
42.861018880208334
42.819759114583334
42.758518880208335
42.77877604166667
42.90830729166667
43.08033203125
43.258489583333336
43.442763671875
43.59854817708333
43.70402669270833
43.23312174479167
43.356806640625
43.41939778645833
43.47461588541667
42.929537760416665
43.10902669270833
43.554020182291666
43.64197265625
43.017115885416665
41.68901041666667
41.30781575520833
41.32337239583333
42.03332682291666
42.01287109375
42.5971875
42.60140299479167
42.657581380208335
43.143733723958334
43.01911783854167
43.03476888020833
43.13283203125
43.294765625
43.413623046875
43.55862630208333
43.1557421875
43.307307942708334
43.37722005208333
43.454166666666666
42.983515625
43.142978515625
43.247333984375
43.661617838541666
43.482434895833336
43.594554036458334
43.07692057291667
42.890690104166666
41.9589453125
41.46156901041667
41.445094401041665
42.16596354166666
42.164309895833334
42.77624348958334
42.797509765625
42.86037109375
42.83411458333333
42.756360677083336
42.734456380208336
42.776028645833335
42.90790690104166
43.060100911458335
43.19614583333333
43.31766276041667
43.421884765625
43.49025065104167
42.999169921875
43.111533203125
43.174638671875
43.27111002604167
43.3744140625
43.474934895833336
43.56587890625
43.058369140625
43.16660481770833
42.700260416666666
41.83481770833333
41.542998046875
41.586985677083334
42.33159505208334
41.794453125
42.378567708333335
43.013743489583334
43.11658528645833
43.053707682291666
42.94679361979167
42.922783203125
42.99666015625
43.147333984375
43.318662109375
43.47291015625
43.615224609375
43.176259765625
43.300465494791666
43.340703125
43.38359375
43.45200846354167
43.530205078125
42.99999348958333
43.177447916666665
43.29582356770833
43.42
43.505641276041665
43.070895182291665
41.570149739583336
41.221302083333335
41.232067057291665
41.98781575520833
42.068232421875
42.80736328125
42.856744791666664
42.936650390625
42.879091796875
42.75013671875
42.71385091145833
42.79030598958333
42.96146484375
43.151910807291664
43.32708658854167
43.47767578125
43.615595703125
43.70763346354167
43.16176432291667
43.26931640625
43.32274739583333
43.381793619791665
43.475940755208335
43.57025390625
43.084095052083335
43.266155598958335
43.314130859375
42.80886067708333
41.8457421875
41.49004231770834
41.52516276041667
42.300673828125
42.447841796875
43.27722981770833
43.434514973958336
43.584912109375
43.527545572916665
42.76366536458333
42.78056315104167
42.89123372395834
43.100384114583335
43.334583333333335
43.52769205729167
43.70771809895833
43.85030924479167
43.394612630208336
43.521129557291665
43.560846354166664
43.06652669270834
43.18710286458333
43.25387369791667
43.6824609375
43.50250325520833
43.47106119791667
42.819111328125
41.91214518229167
41.128528645833335
41.31576497395833
42.095904947916665
42.2819921875
43.043889973958336
43.156640625
43.207073567708335
43.083486328125
42.9319140625
42.917467447916664
43.03041341145833
43.188190104166665
43.33940104166667
43.50203776041667
43.664593098958335
43.798251953125
43.368984375
43.50057942708333
43.54235677083334
43.571318359375
43.111682942708335
43.24052734375
43.27625325520833
42.89508138020833
41.979182942708334
41.45065104166667
41.46047200520833
42.21456380208333
42.429020182291666
43.225139973958335
43.33400716145833
43.44885416666666
43.343990885416666
43.15208984375
42.49692708333333
42.656360677083335
42.809055989583335
43.52732421875
43.61883463541667
43.796884765625
43.42
43.600748697916664
43.670338541666666
43.731067708333335
43.25197591145833
43.36093098958333
43.41938151041666
43.200670572916664
42.64494140625
41.57908528645833
41.423447265625
42.10650716145833
42.28787760416667
43.059925130208335
43.17355143229167
43.340794270833335
43.33094075520833
43.174166666666665
43.019423828125
43.03085286458333
43.17858723958334
43.371982421875
43.5456640625
43.72623372395833
43.8964453125
43.53411783854167
43.7146484375
43.77528971354167
43.31123372395833
43.42236328125
43.818173828125
43.91909830729167
43.585338541666665
42.21740234375
41.53601888020833
41.467516276041664
42.178792317708336
42.367526041666665
43.14174153645833
43.229641927083335
43.38137044270833
43.34816080729167
43.204990234375
43.100774739583336
43.15871419270833
43.35216796875
43.53553059895833
43.72875325520833
43.90953776041667
43.532444661458335
43.72342447916667
43.781741536458334
43.345966796875
43.453938802083336
43.817744140625
43.906061197916664
43.969007161458336
43.75541015625
43.69028971354167
42.39877278645833
41.3790625
40.95962890625
41.88087565104167
42.062259114583334
43.032421875
42.990771484375
43.148776041666665
43.21765625
43.11849934895833
42.96521158854166
42.936048177083336
43.033505859375
43.20767252604167
43.387666015625
43.524716796875
43.66986979166666
43.79610677083333
43.35459309895833
43.47446940104167
43.52580078125
43.58860677083333
43.15778971354167
43.31452799479167
43.40424479166666
43.5280859375
43.574208984375
43.07083984375
41.95052734375
40.806018880208335
40.83556315104167
41.599827473958335
41.753916015625
43.0163671875
43.008056640625
43.11274739583333
43.04700520833333
42.90328776041667
42.831813151041665
42.915973307291665
43.1007421875
43.29140625
43.47026041666667
43.642184244791665
43.79016927083333
43.361399739583334
43.490709635416664
43.519365234375
43.55521484375
43.119736328125
43.24194986979167
43.327815755208334
43.43192057291667
43.567294921875
43.495908203125
42.596689453125
41.579921875
41.26607421875
41.910045572916665
42.10646809895833
42.94
43.0644921875
43.24757486979167
43.275283203125
43.11032877604167
42.9490234375
42.938583984375
43.069163411458334
43.264270833333335
43.46572265625
43.65725911458333
43.82318033854167
43.4390625
43.6036328125
43.647236328125
43.18843098958333
42.703557942708336
42.691080729166664
43.06264322916667
42.879153645833334
42.984524739583335
43.022083333333335
42.39351888020833
40.8323828125
40.91195638020833
41.009274088541666
41.85361328125
42.04242838541666
43.33226888020833
43.35388671875
43.42221028645833
43.259654947916665
43.03703125
42.42511067708333
42.60294270833333
42.79671875
43.54119791666667
43.64296875
43.833225911458335
43.443440755208336
43.61123046875
43.673541666666665
43.215891927083334
43.295966796875
43.640569661458336
43.721240234375
43.79890299479167
43.1502734375
42.13565104166667
41.43952799479167
41.35539388020833
42.10201171875
42.29286783854167
43.07932291666667
43.211002604166666
43.32540690104167
43.220104166666665
43.004352213541665
42.8741015625
42.92529296875
43.101103515625
43.280276692708334
43.47958984375
43.683375651041665
43.83680013020833
43.40421875
43.53782552083333
43.55578125
43.076998697916665
43.16902994791667
43.231136067708334
43.57446940104167
42.72906575520833
41.70109375
41.15843098958333
41.667861328125
41.865804036458336
42.69316080729167
42.81478841145833
43.606920572916664
43.626142578125
43.512584635416665
42.76193359375
42.748479817708336
42.844837239583335
43.04913411458333
43.266640625
43.465465494791665
43.63759440104167
43.771826171875
43.33146484375
43.43907877604167
43.45853515625
43.8327734375
43.570126953125
43.10216796875
43.26755859375
43.2807421875
42.63881510416667
41.57909505208333
41.071116536458334
41.6144921875
41.74875651041667
42.526188151041666
42.595485026041665
43.32656901041667
43.326848958333336
43.256376953125
43.1330859375
43.108984375
43.21341796875
43.39048502604167
43.60140625
43.785341796875
43.36138997395833
43.551188151041664
43.62290364583333
43.13119140625
43.231432291666664
43.613902994791665
43.38845703125
43.433203125
43.54033203125
43.65783203125
43.5898828125
42.24546875
41.316188151041665
40.98667317708333
41.60106770833333
41.71802734375
42.4501953125
42.49810546875
43.221028645833336
43.169430338541666
43.07186197916667
42.976826171875
42.9805859375
43.122626953125
43.32217447916667
43.510888671875
43.66946614583333
43.80742513020834
43.343600260416665
43.46443359375
43.51332356770833
43.03533203125
43.144573567708335
43.21345703125
43.614755859375
43.41625
43.506158854166664
43.571194661458335
42.989202473958336
41.456393229166665
40.95912760416667
40.98028645833333
41.709638671875
41.823955078125
43.1065625
43.073229166666664
43.1619921875
43.07143229166667
42.95931640625
42.9467578125
43.08484049479166
43.257190755208335
43.43772135416667
43.60391276041667
43.756376953125
43.27348958333334
43.4066015625
43.456953125
43.5031640625
43.01037109375
43.14103841145833
43.22256510416667
43.33623046875
43.4646484375
43.43208984375
42.62581705729167
41.185205078125
40.88602213541667
40.98150716145833
41.71787760416667
41.829166666666666
43.10545247395833
43.05119140625
43.07654296875
42.972913411458336
42.88293619791666
42.90399088541667
43.059619140625
43.23935546875
43.42269856770833
43.574016927083335
43.708277994791665
43.22011067708333
43.3346875
43.36414388020833
43.40525065104167
43.46412109375
43.52973958333333
43.09298828125
43.27662760416667
43.33080078125
42.78111328125
41.770654296875
41.23416015625
41.222467447916664
41.97779947916667
42.083714192708335
42.81343098958333
42.88243815104167
42.95242838541667
42.86952473958333
42.774739583333336
42.781181640625
42.88904296875
43.064342447916665
43.236399739583334
43.37857747395833
43.517620442708335
43.62021809895833
43.093916015625
43.203076171875
43.24406575520833
43.29284830729166
43.36569010416667
43.47103190104167
43.58798828125
43.539036458333335
42.257542317708335
41.40406901041667
41.092867838541665
41.743544921875
41.85632486979166
42.62437174479167
42.65846354166667
42.782848307291665
43.381162109375
43.17904296875
43.11539388020833
42.55552408854167
42.77299479166667
42.949964192708336
43.723134765625
43.776064453125
43.855888671875
43.31605794270833
43.42198893229167
43.45362955729167
42.90556966145834
43.030452473958334
43.118759765625
43.581123046875
43.299313151041666
42.692138671875
41.81359700520834
41.44701171875
41.48303385416666
42.274915364583336
41.77904622395833
42.49806315104167
43.142184244791665
43.160439453125
43.04255859375
42.949853515625
42.988697916666666
43.12899088541667
43.309505208333334
43.484677734375
43.628037109375
43.74265625
43.21130533854166
43.313779296875
43.32168619791667
43.34973307291666
43.42179036458333
43.526171875
42.986171875
42.5667578125
41.72114583333333
41.29830729166667
41.912027994791664
42.01099609375
42.795263671875
42.82613932291667
42.95886067708334
42.973850911458335
42.859091796875
42.760172526041664
42.79155598958334
42.941402994791666
43.13905598958333
43.322102864583336
43.48130533854167
43.61490234375
43.70118815104167
43.164127604166666
43.289020182291665
43.326787109375
43.384482421875
43.48070638020833
43.61348958333333
42.873333333333335
42.068180338541666
41.340494791666664
41.14733072916667
41.85254557291667
41.93050455729167
42.672229817708335
42.665706380208334
42.78309895833333
43.33603841145833
42.573512369791665
42.512236328125
42.587548828125
42.73271158854167
42.924755859375
43.086171875
42.69163411458333
43.48751953125
43.60322591145833
43.03965494791667
43.16732096354167
43.215126953125
43.29795572916667
43.373046875
43.49748046875
43.6417578125
43.020810546875
42.276692708333336
41.35940755208333
41.032392578125
41.682275390625
41.7444921875
42.50198893229167
42.498561197916665
43.165784505208336
43.13612955729167
43.068662109375
43.00216145833333
43.046015625
43.203121744791666
43.391337890625
43.57998697916667
43.74059895833334
43.357203776041665
43.53486653645833
43.595716145833336
43.05419270833333
43.19849609375
43.2777734375
43.3708984375
43.482923177083336
43.59610677083333
43.133759765625
43.342945963541666
43.31237630208334
42.463291015625
41.449267578125
41.07611328125
41.732913411458334
41.84580078125
42.64658854166667
42.670709635416664
42.81003580729167
43.423473307291665
43.27275065104167
43.219615885416665
42.713408203125
42.92162434895833
43.10691731770833
43.29754557291667
43.47921549479167
43.64498372395833
43.756728515625
43.242705078125
43.353203125
43.41416015625
43.475400390625
42.967503255208335
43.13640625
43.27498697916667
43.316487630208336
42.635836588541665
41.62554036458334
41.17966471354167
41.19209309895833
41.986653645833336
42.088271484375
42.858209635416664
42.916455078125
42.98064453125
42.90474934895833
42.82580078125
42.83828125
42.96357747395833
43.17518880208333
43.380992838541665
43.56939778645833
43.760686848958336
43.274729817708334
43.422578125
43.459375
43.49412434895833
42.96367513020834
43.09743489583333
43.23223958333333
43.35574544270833
43.050615234375
42.04933268229167
41.317744140625
41.17791015625
41.93216471354167
42.0696875
42.87728190104167
42.9556640625
43.075358072916664
43.042630208333335
42.914150390625
42.871090494791666
42.96276041666667
43.1462109375
43.349345703125
43.57386067708333
43.778567708333334
43.31701171875
43.49634765625
43.55611653645833
43.012164713541665
43.117060546875
43.158271484375
43.252386067708336
43.250934244791665
42.60884765625
41.62647135416667
41.172444661458336
41.79671549479167
41.924000651041666
42.777659505208334
42.85128255208333
42.990380859375
43.01794596354166
