30.504427083333333
30.5253125
30.529049479166666
30.594153645833334
51.24361979166667
49.62515625
75.27481770833333
50.865299479166666
48.31552083333333
46.011705729166664
46.414440104166665
42.978841145833336
42.29018229166667
42.201796875
42.27393229166667
42.3347265625
42.39705729166667
42.301510416666666
42.09907552083333
41.92069010416667
41.8901171875
41.92098958333333
42.016588541666664
42.04276041666667
42.08212239583333
42.10803385416666
42.12243489583334
42.13493489583333
42.16899739583334
42.2225
42.27970052083333
42.336276041666665
42.3902734375
42.444622395833335
42.48481770833333
42.451171875
42.49712239583334
42.544674479166666
42.118802083333335
42.14493489583333
41.91158854166667
41.737721354166666
42.370716145833335
42.4198828125
42.909205729166665
42.9241796875
42.958294270833335
42.98779947916667
43.05384114583333
43.08157552083333
43.1114453125
43.13661458333333
43.179401041666665
43.235065104166665
43.27529947916667
43.315091145833335
43.2854296875
43.316875
43.359661458333335
43.39404947916667
43.44815104166667
43.009348958333334
43.111341145833336
43.128515625
43.198307291666666
43.2517578125
43.17817708333333
42.863294270833336
42.64829427083333
42.606471354166665
42.6316015625
43.08208333333334
43.0113671875
43.108815104166666
43.134453125
43.169453125
43.18953125
43.1408203125
43.17196614583333
43.23540364583334
43.28639322916667
43.32046875
43.3618359375
43.39766927083333
43.42546875
43.47842447916667
43.022161458333336
43.1176953125
43.15509114583333
43.2084765625
43.29049479166667
43.31778645833333
43.35591145833333
43.23483072916667
42.93345052083333
42.720625
42.67703125
42.697994791666666
43.16658854166667
43.09819010416667
43.2005078125
43.1656640625
43.17401041666667
43.195078125
43.21098958333334
43.244479166666665
43.303736979166665
43.348033854166665
43.3986328125
43.45065104166667
43.490651041666666
43.5362109375
43.07430989583333
43.1756640625
43.202825520833336
43.27188802083333
43.32236979166667
43.39234375
43.46111979166667
43.520481770833335
43.335078125
42.980716145833334
42.83326822916667
42.799244791666666
42.76765625
43.27328125
43.235546875
43.295911458333336
43.292330729166665
43.2788671875
43.2816796875
43.30744791666667
43.36302083333333
43.41170572916667
43.49213541666666
43.5325
43.585299479166665
43.14447916666666
43.217174479166665
43.2867578125
43.31653645833333
43.374440104166666
43.42067708333333
43.4060546875
43.126302083333336
42.8414453125
42.740924479166665
42.7694921875
43.3218359375
43.8117578125
43.9585546875
44.02328125
43.9891796875
43.9505078125
43.934153645833334
43.993815104166664
44.05903645833333
44.137447916666666
44.229908854166666
44.2796875
44.34755208333333
43.89893229166667
43.99265625
44.055026041666665
44.083997395833336
44.009700520833334
43.72171875
43.37942708333333
43.199192708333335
43.174505208333336
43.711953125
43.078125
43.159205729166665
43.203776041666664
43.2045703125
43.189427083333335
43.095703125
43.107890625
43.151380208333336
43.220950520833334
43.353984375
43.367604166666666
43.4531640625
43.487330729166665
43.527096354166666
43.575546875
43.1037109375
43.304765625
43.25932291666667
42.88924479166667
42.570989583333336
42.4490234375
42.969401041666664
42.87546875
42.986002604166664
43.0355078125
43.098658854166665
43.093815104166666
43.03079427083333
43.02037760416667
43.058359375
43.097669270833336
43.175846354166666
43.228489583333335
43.289388020833336
43.336979166666666
43.3590234375
43.303697916666664
43.335651041666665
43.38014322916667
43.41858072916666
43.246015625
42.870455729166665
42.6329296875
42.56076822916667
42.55951822916666
43.186276041666666
43.11203125
43.12868489583333
43.153567708333334
43.15055989583333
43.11186197916667
43.12291666666667
43.154674479166665
43.21145833333333
43.26313802083333
43.3034765625
43.35850260416667
43.39799479166667
43.4126171875
43.446666666666665
43.47860677083333
43.53135416666667
43.586796875
43.44716145833333
42.56200520833333
42.344440104166665
42.25842447916666
42.78475260416667
42.69484375
42.623385416666665
43.201731770833334
43.1328125
43.226236979166664
43.238619791666665
43.257877604166666
43.30505208333334
43.358203125
43.40912760416666
43.47940104166667
43.52485677083333
43.557369791666666
43.03274739583333
43.162356770833334
43.20055989583334
43.205403645833336
43.10609375
42.81690104166667
42.546575520833336
42.43967447916667
42.442708333333336
42.91694010416666
42.902005208333335
42.942317708333334
43.0541015625
43.022395833333334
42.9644921875
42.983671875
43.024036458333335
43.0890625
43.160091145833334
43.21694010416667
43.257174479166665
43.30365885416666
43.330677083333335
43.356953125
43.41515625
43.35325520833333
43.03041666666667
42.726940104166665
42.602265625
42.57040364583333
43.153984375
43.103528645833336
43.14869791666667
43.211940104166665
43.202421875
43.156927083333336
43.14826822916667
43.2012890625
43.282825520833335
43.357838541666666
43.420911458333336
43.47635416666667
43.525638020833334
43.550143229166665
43.57923177083333
43.63388020833333
43.1105078125
43.00609375
42.609713541666665
42.32567708333333
42.23805989583333
42.77588541666667
42.64010416666667
42.64958333333333
43.30375
43.27104166666667
43.236484375
43.20029947916667
43.2173046875
43.269140625
43.34513020833333
43.400690104166664
43.4618359375
43.52166666666667
43.5601171875
43.59983072916667
43.087200520833335
43.19328125
43.25385416666666
43.331953125
43.225703125
42.80494791666667
42.45481770833333
42.3002734375
42.26388020833333
42.83096354166667
42.73223958333333
42.75373697916667
42.78119791666666
43.265690104166666
43.1584765625
43.15673177083333
43.20401041666667
43.28140625
43.35583333333334
43.42591145833333
43.4751953125
43.52255208333333
43.0566796875
43.1677734375
43.22372395833333
43.278958333333335
43.33930989583333
43.42854166666667
43.51361979166666
43.42169270833333
42.99028645833334
42.058919270833336
41.93966145833333
41.89893229166667
42.46727864583333
42.36584635416666
42.907513020833335
42.85045572916667
42.82466145833333
42.4591796875
42.755442708333334
42.833971354166664
42.908841145833335
42.9868359375
43.0628515625
43.12122395833333
43.184596354166665
43.22479166666667
43.286809895833336
43.33485677083333
43.393177083333335
43.4522265625
43.5309765625
43.608736979166665
43.19739583333333
43.3069921875
42.9980078125
42.541640625
42.271484375
42.1809375
42.693606770833334
43.16032552083333
43.206380208333336
43.7751171875
43.691158854166666
43.341549479166666
43.73157552083333
43.7606640625
44.135052083333335
44.239270833333336
44.32165364583334
44.39217447916667
43.933359375
43.52265625
43.53920572916667
43.590078125
43.6412109375
43.7383984375
43.811861979166665
43.898450520833336
43.470234375
43.641276041666664
43.5634765625
43.1037890625
42.70518229166667
42.5297265625
42.50802083333333
43.04899739583333
43.517265625
43.593072916666664
43.630794270833334
43.84263020833333
43.693046875
43.69641927083333
43.74583333333333
43.835872395833334
43.93790364583333
44.02682291666667
44.114557291666664
43.64799479166667
43.2133984375
43.24311197916666
43.64311197916667
43.74115885416666
43.83833333333333
43.913333333333334
43.4984375
43.7004296875
43.75861979166667
43.36803385416667
42.86430989583334
42.628567708333335
42.5825390625
43.177981770833334
43.1361328125
43.211901041666664
43.269869791666665
43.25061197916666
43.1863671875
43.15671875
43.208424479166666
43.287408854166664
43.392265625
43.49858072916667
43.59233072916667
43.6608984375
43.7198046875
43.77588541666667
43.808658854166666
43.866953125
43.4292578125
43.601328125
43.6116796875
43.235338541666664
42.8353515625
42.653919270833335
42.65305989583333
43.25154947916667
43.24466145833333
43.3526953125
43.393971354166666
43.35397135416667
43.28274739583333
43.2737890625
43.3221875
43.4325
43.54963541666667
43.665325520833335
43.7575390625
43.832981770833335
43.89376302083333
43.415390625
43.5214453125
43.60166666666667
43.659557291666665
43.397734375
42.9069140625
42.636419270833336
42.55479166666667
43.129296875
43.12221354166667
43.19212239583333
43.255625
43.2535546875
43.1887890625
43.15065104166667
43.170911458333336
43.254453125
43.37615885416667
43.50016927083333
43.6098046875
43.6984765625
43.7649609375
43.8060546875
43.83901041666667
43.387408854166665
43.554453125
43.51576822916667
43.041302083333335
42.6017578125
42.392578125
42.892903645833336
42.8300390625
42.84809895833333
43.4301171875
43.94477864583333
43.657291666666666
43.58186197916667
43.5676953125
43.91822916666667
44.0326171875
44.1466015625
44.25338541666667
44.35069010416667
44.43888020833333
43.9673828125
43.562747395833334
43.57528645833333
43.63375
43.726953125
43.86252604166667
43.8537890625
43.34330729166667
42.34401041666667
42.6764453125
42.64412760416667
43.201731770833334
42.57345052083333
43.097578125
43.06565104166667
43.06787760416667
42.703372395833334
42.6582421875
42.6988671875
42.779973958333336
42.875677083333336
42.972643229166664
43.072942708333336
43.15173177083334
43.19615885416667
43.25341145833333
43.306888020833334
43.392330729166666
43.46283854166666
43.037421875
43.5624609375
43.70610677083334
43.499270833333334
42.915078125
42.50817708333334
42.33989583333334
42.84553385416667
42.773763020833336
42.778645833333336
43.36615885416666
43.87268229166666
43.5627734375
43.506106770833334
43.526653645833335
43.883411458333335
44.009739583333335
44.1073046875
44.21125
44.296015625
44.3748828125
43.88126302083333
44.01453125
44.090234375
44.1666796875
44.261705729166664
44.36678385416667
44.509166666666665
44.4442578125
43.39825520833333
42.44510416666667
42.22470052083333
42.7196484375
43.19356770833333
43.25018229166667
43.84229166666667
43.79578125
43.4647265625
43.385078125
43.39505208333333
43.44020833333333
43.536640625
43.648854166666666
43.761041666666664
43.858059895833335
43.93514322916667
43.99712239583334
43.52458333333333
43.66036458333333
43.73265625
43.8085546875
43.900677083333335
44.3188671875
44.43053385416667
44.12518229166667
43.05709635416667
42.27063802083333
42.1375390625
42.70751302083333
42.6696875
42.74885416666667
43.54404947916667
44.27912760416667
44.250338541666665
44.426432291666664
44.139583333333334
44.29733072916667
44.64666666666667
44.438411458333334
44.73095052083333
44.89657552083333
44.49712239583334
44.6177734375
44.11927083333333
44.32817708333334
44.52166666666667
44.121653645833334
44.20645833333333
43.452708333333334
41.77725260416667
41.50576822916667
41.549791666666664
42.086796875
42.10213541666667
42.824205729166664
42.931575520833334
43.415377604166665
42.856484375
42.856510416666666
42.971328125
43.13328125
43.63096354166667
43.802721354166664
43.90873697916667
43.96138020833333
44.00106770833333
44.00248697916667
43.50278645833333
43.82740885416667
44.146419270833334
43.842473958333336
42.83220052083333
41.81490885416667
41.84653645833333
41.9313671875
42.61709635416667
42.54940104166667
43.16765625
42.736627604166664
42.63924479166667
43.14298177083333
43.0930859375
43.18046875
43.310846354166664
43.444986979166664
43.925533854166666
44.1121484375
44.310533854166664
43.938177083333336
44.67924479166667
44.84493489583333
44.4455859375
44.131809895833335
43.5564453125
42.47239583333333
41.5253515625
41.550546875
42.267890625
42.27329427083333
42.94802083333333
43.03977864583333
43.70622395833333
43.597578125
43.23006510416667
43.322643229166665
43.5612890625
43.85075520833333
44.1537890625
43.907565104166665
44.171315104166666
44.292265625
43.81157552083334
44.27811197916667
44.3578125
43.86703125
44.053671875
44.209309895833336
44.0465234375
42.806953125
41.296236979166665
41.2830078125
41.136692708333335
42.291315104166664
42.10963541666667
43.1509375
42.72204427083334
42.681171875
42.778606770833335
42.84454427083333
43.2625
43.44766927083333
43.63640625
43.804622395833334
43.9662109375
44.0787109375
44.173190104166665
43.720377604166664
43.88296875
44.0201953125
44.152278645833334
44.296575520833336
44.46983072916667
44.08518229166667
44.145625
43.15651041666667
41.6365625
41.425104166666664
41.40049479166667
42.02225260416667
41.86674479166667
43.02454427083333
42.95533854166667
42.65321614583333
43.116588541666665
43.020520833333336
43.080494791666666
43.19809895833333
43.363359375
43.52592447916667
43.9840234375
44.09259114583333
43.64643229166666
43.806614583333335
43.914088541666665
44.0375390625
44.18640625
44.34778645833333
43.97377604166667
44.19776041666667
44.38627604166667
43.89869791666667
43.26264322916666
42.18115885416667
41.829700520833335
42.35661458333333
42.303203125
42.89825520833333
42.85466145833333
43.47735677083333
43.404765625
43.013033854166665
42.96440104166667
43.00591145833334
43.44993489583333
43.63299479166667
43.82734375
43.99666666666667
44.12296875
43.6923828125
44.372044270833335
44.48859375
44.59809895833333
44.73640625
44.88091145833334
44.515559895833334
44.25981770833334
44.3673828125
43.943046875
42.315052083333335
41.87770833333333
41.819765625
42.48087239583333
42.49458333333333
43.172890625
43.7924609375
43.82209635416667
43.92557291666667
44.0475
44.1148828125
44.2608203125
44.47483072916667
44.711796875
44.91854166666667
44.543658854166665
44.21658854166667
44.27490885416667
43.8166015625
43.98420572916667
44.116458333333334
44.30962239583334
44.42428385416667
43.287760416666664
42.254283854166665
41.84485677083333
41.8015625
42.47026041666667
42.46865885416667
43.114192708333334
43.16641927083333
43.16515625
43.28063802083334
43.98157552083333
44.092265625
44.23708333333333
44.46119791666667
44.6946875
44.89341145833333
44.50864583333333
44.164973958333334
44.215807291666664
43.7666015625
43.91654947916667
44.03203125
44.185481770833334
44.388424479166666
44.35608072916666
42.7884375
41.893307291666666
41.665
42.244205729166666
42.7171875
43.33651041666667
42.769466145833334
43.357760416666665
42.934322916666666
42.82432291666667
42.79799479166667
42.87643229166667
43.332265625
43.55776041666667
43.735729166666665
43.907513020833335
44.043606770833335
44.14178385416667
43.68955729166667
43.83486979166667
43.949856770833335
44.06880208333333
44.231380208333334
43.86544270833333
44.1299609375
44.1583203125
43.230794270833336
41.70916666666667
41.4562890625
41.42177083333333
42.052760416666665
41.977200520833335
43.094453125
43.52174479166667
43.5563671875
43.755234375
43.04576822916667
43.06166666666667
43.175052083333334
43.313098958333335
43.475963541666665
43.63255208333333
43.754231770833336
43.29770833333333
44.0115625
44.1258203125
44.545546875
44.68984375
44.285846354166665
44.5122265625
44.6919921875
44.88459635416667
44.815091145833335
43.29967447916667
42.0178515625
41.78825520833333
42.30389322916667
42.26571614583333
42.857083333333335
42.823255208333336
43.475625
43.5887890625
43.5314453125
43.51610677083333
43.5945703125
43.738033854166666
44.235377604166665
44.43399739583333
44.59756510416667
44.7353515625
44.27889322916667
43.876041666666666
43.935078125
44.027721354166665
43.605403645833334
43.82838541666667
44.02134114583333
44.232721354166664
44.159375
42.697578125
41.98118489583333
41.80348958333333
42.357721354166664
42.351276041666665
42.990963541666666
43.0253515625
43.105794270833336
43.25026041666667
43.5705859375
43.5931640625
43.978854166666665
44.1498046875
44.33696614583334
44.528958333333335
44.708567708333334
44.25149739583333
43.8301171875
43.8377734375
43.87829427083334
44.001536458333334
43.606432291666664
43.5319140625
42.76415364583333
42.236744791666666
42.08743489583333
42.648098958333335
42.637317708333335
43.29296875
43.872421875
43.93015625
43.52348958333334
43.729791666666664
43.76454427083333
43.861484375
44.01966145833333
44.193919270833334
44.360338541666664
44.497721354166664
44.588880208333336
44.093828125
43.668346354166665
43.69295572916667
43.82083333333333
43.6624609375
42.911640625
42.407604166666665
42.2115625
42.716171875
43.14990885416667
43.199153645833334
43.769908854166665
43.7466015625
43.71298177083333
43.359765625
43.62453125
43.72009114583334
43.82921875
43.9687109375
44.096666666666664
44.19717447916667
44.26696614583334
44.324869791666664
44.3731640625
43.91061197916667
44.067981770833335
44.199869791666664
44.27528645833333
43.79563802083333
43.16095052083333
42.803984375
42.651953125
43.136080729166665
43.024791666666665
43.034453125
43.634205729166666
43.5758984375
43.23291666666667
43.185833333333335
43.2248046875
43.607447916666665
43.73876302083333
43.84744791666667
43.9366015625
44.03684895833333
44.09734375
44.167369791666665
44.22481770833333
44.294270833333336
43.849908854166664
44.028919270833335
44.18990885416667
44.220546875
43.69411458333333
43.111354166666665
42.296848958333335
42.25825520833333
42.240234375
42.76260416666667
42.71305989583333
43.33220052083333
43.262395833333336
42.93143229166667
43.498359375
43.47075520833334
43.57016927083333
43.6747265625
43.795963541666666
43.88399739583333
43.97122395833333
43.4635546875
43.58283854166667
43.652005208333335
43.7183984375
44.14071614583333
44.290078125
44.4471484375
43.9851171875
43.607760416666665
43.032109375
42.71338541666667
42.61158854166667
43.18890625
43.1466796875
43.23294270833333
43.903307291666664
43.50901041666667
43.428111979166665
43.40940104166667
43.459322916666665
43.880182291666664
44.0144921875
44.13651041666667
44.24197916666667
44.3184765625
43.786328125
43.90244791666667
43.9712109375
44.04837239583333
44.185390625
44.28819010416667
44.058515625
42.98684895833333
42.65140625
42.501875
43.07057291666667
43.043658854166665
43.727838541666664
43.74591145833333
43.75740885416667
43.38703125
43.631484375
43.709635416666664
43.80154947916667
43.95329427083333
44.09458333333333
44.206653645833335
44.287044270833334
44.3708984375
43.833958333333335
43.9634375
44.06419270833333
44.19614583333333
44.316744791666665
44.1032421875
42.96390625
42.56973958333333
42.39022135416667
42.9163671875
42.85721354166667
43.49959635416667
43.503658854166666
43.5641796875
43.237369791666666
43.178111979166665
43.200494791666664
43.3034375
43.435872395833336
43.58389322916667
43.688854166666665
43.816419270833336
43.901875
43.98352864583333
43.46828125
43.61703125
43.71536458333333
44.164309895833334
44.3762890625
44.4371484375
43.3134375
42.7190234375
42.37654947916667
42.82005208333333
42.74095052083333
43.35953125
43.3087890625
43.097721354166666
43.73915364583333
43.652265625
43.6537890625
43.720703125
43.839375
43.987981770833336
44.446940104166664
43.990872395833335
44.17537760416667
44.27225260416667
44.368854166666665
43.87032552083333
44.0654296875
44.185169270833335
44.31010416666667
44.48108072916666
44.127513020833334
44.366497395833335
43.96311197916667
43.0766015625
42.11080729166667
41.989947916666665
41.97958333333333
42.55227864583333
42.48325520833333
43.14057291666666
43.120755208333335
43.418567708333335
43.26876302083333
43.31067708333333
43.40770833333333
43.53921875
43.69841145833333
44.17690104166667
44.34559895833333
44.46484375
43.974921875
44.128971354166666
44.23873697916667
44.36114583333333
44.5106640625
44.12397135416666
44.390377604166666
44.603932291666666
44.82532552083333
44.04744791666667
43.03299479166667
42.44389322916667
42.24889322916667
42.7675
42.73126302083333
43.352526041666664
43.36805989583333
43.452135416666664
43.7435546875
43.586263020833336
43.59981770833333
43.68279947916667
43.8378515625
44.042369791666665
44.55609375
44.173893229166666
44.3885546875
44.53009114583333
44.0973828125
44.277721354166665
44.415
44.566692708333335
44.24916666666667
44.539140625
44.80545572916667
44.9712109375
43.722903645833334
42.60063802083334
42.22399739583334
42.1574609375
42.80873697916667
42.81618489583333
43.48165364583333
43.55260416666667
43.57403645833333
43.73421875
43.57540364583333
43.60891927083333
43.749088541666666
44.250963541666664
44.52041666666667
44.7496875
44.39688802083333
44.63951822916667
44.75014322916667
44.333828125
44.497486979166666
44.628125
44.25759114583333
44.5204296875
44.1108203125
42.999921875
41.974765625
41.45584635416667
41.50470052083333
42.201861979166665
42.82427083333334
43.62966145833333
43.556015625
43.39217447916667
43.5021875
43.428723958333336
43.565078125
43.774661458333334
44.02334635416667
44.2532421875
44.8040234375
44.49365885416667
44.6867578125
44.7602734375
44.28268229166667
44.4949609375
44.47375
43.53861979166667
42.145
41.405963541666665
41.33119791666667
41.9508203125
42.46298177083333
43.182864583333334
43.18447916666667
43.372356770833335
43.16325520833333
43.127864583333334
43.180364583333336
43.32475260416667
44.071536458333334
44.1883203125
44.380520833333335
43.98149739583334
44.4821875
44.58407552083333
44.140924479166664
44.292018229166665
44.414296875
44.57278645833333
44.16549479166667
42.637096354166665
41.66200520833333
41.44571614583333
42.021861979166665
42.462890625
43.06911458333333
43.060559895833336
43.66747395833333
43.2401953125
43.157825520833335
43.1710546875
43.2522265625
43.3788671875
43.537786458333336
43.693072916666665
43.8316796875
43.937747395833334
44.01078125
43.5341796875
43.6709375
44.072278645833336
44.229479166666664
44.40341145833333
44.479908854166666
43.802109375
42.53178385416667
42.22096354166667
42.1085546875
42.628841145833334
42.563541666666666
43.16188802083333
43.16001302083333
43.478138020833335
43.302265625
43.281484375
43.31229166666667
43.423138020833335
43.55015625
43.69485677083333
43.8352734375
43.9362109375
44.018841145833335
43.507578125
43.644140625
43.7408984375
43.86515625
43.98885416666667
44.47317708333333
44.17916666666667
44.185221354166664
43.320729166666666
42.684153645833334
42.41313802083334
42.920234375
42.86735677083333
43.519830729166664
43.5218359375
43.599986979166665
43.29421875
43.203372395833334
43.199205729166664
43.56260416666667
43.715390625
43.85635416666667
44.0124609375
44.151328125
44.24985677083333
44.336015625
43.804270833333334
43.94686197916667
44.037109375
44.150729166666665
44.318372395833336
44.51020833333333
44.316731770833336
43.007890625
42.5630859375
42.38361979166667
42.96329427083333
42.966158854166665
43.690390625
43.74721354166667
43.766796875
43.378919270833336
43.5862109375
43.633138020833336
43.72446614583333
43.858684895833335
43.983958333333334
44.129466145833334
44.259205729166666
44.323046875
43.75434895833333
43.77713541666667
43.695338541666665
43.686809895833335
43.667721354166666
43.44807291666667
42.85106770833333
42.26932291666667
41.99630208333333
42.462213541666664
42.09587239583333
42.369700520833334
41.952447916666664
42.192799479166666
41.4721875
41.6608984375
41.3814453125
41.82807291666666
41.72634114583333
42.30415364583333
42.158580729166665
42.530078125
42.37815104166667
42.3330078125
42.82009114583333
42.68380208333333
42.69135416666666
42.74561197916667
42.7737109375
42.79740885416667
42.65342447916667
42.094661458333334
41.45131510416667
41.0873828125
41.39173177083333
41.444375
42.06817708333333
42.19575520833333
42.290729166666665
42.87087239583333
42.64791666666667
42.606158854166665
42.0669140625
42.24100260416667
42.32178385416667
42.51998697916667
42.6865234375
42.73026041666667
42.762408854166665
42.926341145833334
42.62032552083333
42.91858072916666
43.12096354166667
43.41002604166667
43.728502604166664
44.182591145833335
44.58997395833333
44.40809895833333
44.5319140625
43.67391927083333
43.30296875
42.68092447916667
42.8212890625
42.9439453125
43.61826822916667
43.73623697916667
43.935299479166666
43.544140625
43.65602864583333
43.69126302083333
43.77282552083334
43.7826171875
43.517239583333335
42.77333333333333
43.057578125
43.023450520833336
43.57174479166667
43.7515234375
44.32346354166667
45.72740885416667
46.86190104166667
47.004921875
46.814479166666665
46.80739583333333
45.350625
45.929388020833336
44.11515625
42.914140625
41.988697916666666
41.936536458333336
78.259765625
93.896484375
46.31604166666666
44.922473958333335
40.927395833333335
40.53578125
39.514934895833335
40.98654947916667
40.9952734375
42.387317708333335
42.13721354166667
44.479505208333336
65.46322916666666
97.24364583333333
104.92944010416667
105.3459765625
86.69552083333333
68.32619791666667
52.824544270833336
48.000703125
46.18638020833333
58.80864583333334
57.5427734375
57.60018229166667
44.25852864583333
42.943111979166666
41.48157552083333
41.431080729166666
41.529010416666665
42.2266796875
43.38490885416667
43.50079427083333
44.112057291666666
44.1303125
44.64048177083333
44.840885416666666
45.42134114583333
45.64080729166667
45.1878125
45.37256510416667
45.069752604166666
45.22282552083333
44.5630078125
44.561484375
43.86678385416667
43.8241015625
43.95947916666667
44.2001171875
44.2738671875
43.93510416666667
43.384765625
43.02421875
42.9784375
43.66971354166667
43.67654947916667
43.722317708333335
44.356067708333335
43.891940104166665
43.713619791666666
43.65483072916667
43.6894921875
43.7579296875
43.8492578125
43.953372395833334
44.057578125
44.16774739583333
44.204388020833335
43.63196614583333
43.841510416666665
44.0399609375
44.113359375
44.183828125
44.17567708333333
43.20622395833333
42.66841145833333
42.351315104166666
42.893268229166665
42.889765625
43.614283854166665
43.59453125
43.6569921875
43.665416666666665
43.63067708333333
43.61875
43.64022135416667
43.714856770833336
43.834765625
43.95375
44.022044270833334
44.06139322916667
44.1059375
44.127903645833335
43.506770833333334
43.614192708333334
43.66190104166667
43.726888020833336
43.80772135416667
43.77809895833333
43.3047265625
42.74462239583333
42.5216796875
42.538203125
43.2841796875
43.333828125
43.4440234375
44.09924479166666
43.996067708333335
43.94243489583334
43.3906640625
43.52984375
43.65522135416666
43.755625
43.859049479166664
43.9409375
43.994127604166664
44.0416796875
44.0780859375
44.10444010416666
44.133059895833334
43.537408854166664
43.6557421875
43.7289453125
43.7801953125
43.57013020833333
42.97190104166667
42.54106770833334
42.4260546875
43.12118489583333
43.1314453125
43.76295572916667
43.76740885416667
43.813776041666664
43.77166666666667
43.729140625
43.74861979166667
43.81734375
43.913359375
44.03852864583333
44.1297265625
44.173671875
43.660078125
43.742174479166664
43.780872395833335
43.8094921875
43.854427083333334
43.909466145833335
43.97705729166667
44.069270833333334
44.122356770833335
43.889661458333336
42.65625
42.287395833333335
42.1792578125
42.8920703125
42.866848958333335
43.52223958333333
42.94540364583333
42.9239453125
42.8770703125
42.82627604166667
42.83766927083333
42.909205729166665
42.9963671875
43.0903515625
43.15576822916667
43.20986979166667
43.252513020833334
43.27272135416667
43.28510416666666
43.3022265625
43.32591145833333
43.394856770833336
43.43123697916667
42.82565104166667
43.010403645833335
42.54518229166667
42.34875
42.91432291666667
42.921197916666664
43.00647135416666
43.635104166666665
43.569752604166666
43.5081640625
43.43930989583333
43.436484375
43.496080729166664
43.59815104166667
43.680625
43.750338541666665
43.84131510416667
43.9235546875
43.93795572916667
43.956875
43.48028645833333
43.648776041666665
43.757122395833335
43.571666666666665
43.1128515625
42.93412760416667
43.07115885416667
43.80946614583333
43.852200520833335
43.99516927083334
44.169192708333334
44.307369791666666
43.92856770833333
44.118098958333334
44.247981770833334
43.7688671875
43.97016927083333
44.107578125
44.20854166666667
43.68541666666667
43.865572916666665
43.9657421875
44.024752604166665
44.10955729166667
44.198841145833335
43.57203125
43.1367578125
42.5168359375
42.3219140625
42.96858072916667
43.0102734375
43.7354296875
43.1811328125
43.3213671875
43.41184895833333
43.39084635416667
42.7901953125
43.526640625
43.67236979166667
43.814921875
43.962578125
44.08811197916667
44.22096354166667
43.71014322916667
43.783359375
43.83571614583333
43.8629296875
43.91653645833333
44.02143229166666
44.08315104166667
43.725338541666666
42.39270833333333
41.985911458333334
41.95157552083333
42.63041666666667
42.6171484375
43.30881510416667
43.34713541666667
43.40630208333334
43.44700520833333
43.54091145833333
43.67876302083334
43.84286458333333
44.02369791666667
44.15295572916666
44.235989583333335
43.69065104166667
43.79018229166667
43.8268359375
43.87278645833333
43.920208333333335
43.9558984375
44.0278515625
44.12295572916667
43.6759765625
43.688541666666666
43.097369791666665
42.361354166666665
42.10134114583333
42.665338541666664
42.701184895833336
43.408046875
43.42984375
43.5555859375
43.543697916666666
43.50119791666667
43.498684895833335
43.57442708333333
43.6928125
43.846171875
43.94201822916666
44.02454427083333
44.08516927083333
43.53463541666667
43.61904947916667
43.660078125
43.72997395833333
43.83895833333333
43.91259114583333
43.64625
42.998515625
42.64733072916667
42.643046875
43.3975
43.4790625
43.64854166666667
43.7838671875
43.77321614583333
43.700794270833335
43.6767578125
43.7553515625
43.8830078125
44.04731770833333
44.178072916666665
44.28151041666667
43.77209635416666
43.9055859375
43.93688802083334
43.999700520833336
44.089375
44.091731770833334
43.09388020833333
42.478763020833334
42.26450520833333
42.91548177083333
43.0535546875
43.788815104166666
43.87454427083333
43.973333333333336
43.94588541666667
43.86084635416667
43.28307291666667
43.434505208333334
43.59266927083333
43.745755208333335
43.864322916666666
43.94518229166667
44.016536458333334
44.05415364583333
44.09484375
43.5812109375
43.715442708333335
43.78377604166667
43.570638020833336
42.822916666666664
42.331080729166665
42.23658854166667
42.87265625
42.91424479166667
43.61451822916667
43.65923177083334
43.76484375
43.7628515625
43.72864583333333
43.7759765625
43.91091145833333
44.0490625
44.204479166666665
44.3569140625
43.839921875
43.95690104166667
44.001002604166665
44.05592447916667
44.09450520833333
43.61759114583333
43.78954427083333
43.899127604166665
43.7215234375
42.957278645833334
42.435859375
42.346705729166665
42.96201822916667
42.976315104166666
43.665703125
43.72548177083333
43.83727864583334
43.84858072916666
43.814466145833336
43.861015625
43.99751302083333
44.149921875
44.282109375
43.8057421875
43.96915364583333
44.03098958333333
44.10412760416666
44.136341145833335
43.647213541666666
43.777278645833334
43.87032552083333
43.968424479166664
43.956393229166665
43.4405078125
42.75825520833333
42.54811197916667
42.586015625
43.277408854166666
43.28639322916667
43.41174479166666
44.171458333333334
44.13513020833334
44.089518229166664
43.476861979166664
43.60927083333333
43.77140625
43.92786458333333
44.041028645833336
44.140651041666665
44.21130208333334
43.73526041666667
43.87119791666667
43.94188802083333
43.984401041666665
44.0418359375
44.115559895833336
44.2116796875
44.1936328125
43.1864453125
42.5176953125
42.32989583333333
42.8908984375
42.95072916666667
43.609348958333335
43.67244791666667
43.805677083333336
43.805078125
43.726796875
43.6751953125
43.73623697916667
43.881184895833336
44.010364583333335
44.09744791666667
44.18484375
43.6980859375
43.816380208333335
43.82927083333333
43.8656640625
43.903919270833335
43.96703125
43.9701171875
43.5769921875
43.00239583333333
42.85404947916667
42.95484375
43.6925390625
43.80388020833333
43.94765625
43.9333984375
43.78955729166667
43.6743359375
43.691705729166664
43.815546875
43.944973958333335
44.058841145833334
44.142109375
44.2151171875
43.7244140625
43.85876302083334
43.91610677083333
43.936536458333336
43.751927083333335
43.2233203125
42.924153645833336
42.95890625
43.70529947916667
43.840494791666664
44.04078125
44.155260416666664
44.10552083333334
43.429440104166666
43.417317708333336
43.47022135416667
43.6081640625
43.73984375
43.867434895833334
43.96243489583333
44.040052083333336
44.07608072916667
44.10005208333333
44.1262109375
44.12868489583333
43.21865885416667
42.5190234375
42.2191796875
42.719752604166665
42.723346354166665
43.3375
43.30223958333333
43.42979166666667
44.1383203125
44.04697916666667
44.02002604166667
43.46817708333333
43.663776041666665
43.83247395833333
43.969609375
44.08286458333333
44.177981770833334
44.231484375
43.732109375
43.8625
43.91165364583333
43.75678385416666
43.0609765625
42.62552083333333
42.56229166666667
43.19807291666667
43.19260416666667
43.250078125
43.966158854166665
44.015325520833336
44.04158854166667
44.018203125
43.4350390625
43.599049479166666
43.75661458333333
43.8973046875
44.024427083333336
44.10303385416667
44.162122395833336
43.6857421875
43.793359375
43.83739583333333
43.9077734375
44.004231770833336
44.11420572916666
44.0303515625
43.4407421875
42.620234375
42.78688802083333
42.892864583333335
43.493854166666665
43.47087239583333
43.602552083333336
43.70723958333333
43.699635416666666
43.6630859375
43.69890625
43.7912890625
43.953984375
44.08908854166667
44.2270703125
44.322278645833336
43.9038671875
44.0243359375
44.08904947916667
44.133502604166665
44.1894140625
44.260625
43.791041666666665
43.95890625
43.958736979166666
43.44359375
42.7594140625
42.58131510416667
42.6196875
43.27098958333333
43.25203125
43.361705729166665
43.972096354166666
43.8440625
43.7605859375
43.738984375
43.83313802083333
44.000546875
44.12677083333333
44.24196614583333
44.343502604166666
43.88493489583333
43.966497395833336
43.97563802083334
44.01096354166667
44.069609375
44.135716145833335
44.16877604166667
43.87186197916667
42.705703125
42.49080729166667
42.46981770833333
43.116458333333334
43.066106770833336
43.66231770833333
43.685221354166664
43.694986979166664
43.6149609375
43.58192708333333
43.61665364583333
43.72154947916667
43.86536458333333
43.999348958333336
44.10703125
44.18276041666667
44.2350390625
43.7611328125
43.87384114583333
43.940364583333334
44.00147135416667
44.08091145833333
44.15979166666666
44.1330078125
43.53399739583333
42.401067708333336
41.71143229166667
41.67986979166667
42.29154947916667
42.78888020833333
43.42453125
43.4168359375
43.4246875
43.37157552083333
43.370091145833335
43.4157421875
43.5408984375
43.680234375
43.7923828125
43.886028645833335
43.9509765625
44.01536458333333
44.048528645833336
44.11641927083333
44.195598958333335
44.24450520833334
43.79212239583333
43.934986979166666
44.03760416666667
44.079791666666665
43.70251302083334
42.93700520833333
42.62904947916667
42.58322916666667
43.177447916666665
43.15700520833333
43.23606770833333
43.9139453125
43.8487109375
43.80962239583334
43.77220052083333
43.80033854166667
43.92790364583333
44.07479166666667
44.213450520833334
44.302057291666664
43.846015625
43.99342447916667
44.04221354166667
44.08934895833333
44.15255208333333
44.22372395833333
43.7850390625
43.93864583333333
44.02427083333333
44.112903645833335
44.12345052083333
43.682916666666664
42.905286458333336
42.628984375
42.6373046875
43.28329427083333
43.31609375
43.42592447916667
44.12330729166667
44.06334635416667
44.00256510416666
43.401354166666664
43.538723958333335
43.673046875
43.83963541666667
43.997135416666666
44.110989583333335
44.226875
44.287109375
43.8415234375
43.973658854166665
44.0887109375
44.205364583333335
44.3190234375
44.45126302083333
44.0521484375
44.16671875
43.605455729166664
42.95817708333333
42.80069010416667
42.982265625
43.7918359375
43.885989583333334
44.0890625
44.16352864583333
44.0465625
43.936184895833335
43.36462239583334
42.96139322916667
43.06334635416667
43.75497395833333
44.368515625
44.5176171875
44.04897135416667
43.60794270833333
43.597408854166666
43.602213541666664
43.6359765625
43.6909375
43.750234375
43.456041666666664
42.11173177083333
41.56455729166667
41.51647135416667
42.200494791666664
42.845677083333335
43.5705859375
43.616015625
43.643567708333336
43.5630859375
43.48423177083333
43.503046875
43.624713541666665
43.81200520833333
43.96640625
44.0875390625
44.1955859375
44.24524739583333
44.303020833333335
43.76643229166667
43.2886328125
43.3370703125
43.3976171875
43.47384114583333
43.597356770833336
43.69899739583333
43.23890625
42.2571875
41.2415234375
41.25477864583333
41.379283854166665
42.06002604166667
42.633059895833334
43.36936197916667
42.740546875
42.626263020833335
43.0741796875
43.6064453125
43.74819010416667
43.896731770833334
44.02365885416667
44.140924479166664
44.2471875
44.30717447916667
43.81436197916667
43.92397135416667
43.97291666666667
44.04319010416667
44.130234375
44.222109375
44.332330729166664
44.4348828125
43.934856770833335
43.51265625
42.5460546875
42.09166666666667
42.05118489583333
42.7226171875
42.76087239583333
43.416953125
43.45037760416667
43.47013020833333
43.95104166666667
43.802760416666665
43.8372265625
43.966145833333336
44.1069140625
44.25537760416667
44.37576822916667
43.92559895833333
44.043658854166665
44.065625
44.0793359375
44.13298177083333
44.19126302083333
44.2810546875
43.868138020833335
43.463802083333334
43.54967447916667
43.5989453125
43.075533854166665
41.64171875
41.85356770833334
41.85901041666666
42.54078125
42.59078125
43.260494791666666
43.31494791666667
43.30779947916667
43.7698828125
43.60983072916667
43.64915364583333
43.77265625
43.9196875
44.058528645833334
44.182994791666665
44.26393229166667
43.79765625
43.891848958333334
43.9271875
43.97682291666667
44.024739583333336
44.090143229166664
44.173828125
44.2865625
44.303033854166664
43.2558984375
42.49049479166667
42.2027734375
42.760677083333334
42.84432291666667
43.57109375
43.64889322916667
43.762278645833334
43.70040364583333
43.58567708333333
43.5267578125
43.611953125
43.7604296875
43.9204296875
44.05061197916667
44.135403645833335
44.200182291666664
43.69872395833333
43.804361979166664
43.81342447916666
43.86080729166667
43.955078125
44.026640625
43.841822916666665
43.09884114583333
42.5299609375
42.4221484375
43.06727864583333
43.09259114583333
43.238046875
44.02432291666667
43.99778645833333
43.9178125
43.81352864583334
43.22162760416666
43.416705729166665
43.57399739583333
43.71115885416667
43.83901041666667
43.9506640625
44.006328125
44.02334635416667
44.04563802083333
43.523125
43.62641927083333
43.716328125
43.814153645833336
43.708645833333335
42.9594921875
42.282890625
42.124140625
42.6936328125
42.67067708333333
43.351861979166664
43.35701822916667
43.456471354166666
43.414661458333335
43.34826822916666
43.35372395833333
43.44845052083333
43.6101171875
43.74032552083333
43.8640234375
43.98647135416667
44.062747395833334
44.0839453125
43.5146875
43.629140625
43.69381510416667
43.765963541666665
43.856731770833335
43.977604166666666
44.02477864583334
43.558294270833336
42.754596354166665
41.90639322916667
41.9437109375
41.99501302083333
42.61287760416667
42.5824609375
43.31743489583334
42.6865625
42.59544270833333
42.575208333333336
42.635729166666664
42.778255208333334
43.57385416666666
44.20104166666667
44.3373828125
43.7840625
43.8965234375
43.95421875
44.00088541666667
44.051171875
44.1255078125
43.62022135416667
43.79442708333333
43.888333333333335
43.8287890625
43.1437890625
42.519596354166666
42.36462239583334
43.00186197916667
42.97319010416667
43.041666666666664
43.79803385416667
43.230807291666665
43.12903645833333
43.0703515625
43.0872265625
43.17459635416667
43.34389322916667
43.50994791666667
43.641328125
43.0920703125
43.797265625
43.867604166666666
43.895755208333334
43.952708333333334
44.03015625
44.110364583333336
44.2135546875
43.7241796875
43.816783854166665
43.30606770833333
42.62162760416667
42.429088541666665
42.4528515625
43.199153645833334
43.25125
43.40251302083333
44.15510416666667
44.0012109375
43.864596354166665
43.22473958333333
43.39205729166667
43.5680859375
43.744427083333335
43.8785546875
43.953203125
43.9958984375
44.02223958333333
44.04092447916667
43.48842447916667
43.62516927083333
43.7306640625
43.784869791666665
43.42891927083333
42.700833333333335
42.38303385416667
42.35782552083333
43.068072916666665
43.0932421875
43.86739583333333
43.935794270833334
43.91451822916667
43.80296875
43.751171875
43.83372395833333
44.00045572916667
44.18125
44.31795572916667
43.8097265625
43.39140625
43.40372395833333
43.41717447916667
42.845455729166666
43.5257421875
43.63265625
43.7380078125
43.7293359375
43.12813802083333
42.403346354166665
42.160546875
42.7640625
42.7165625
43.4298046875
43.42889322916667
43.54118489583333
43.544674479166666
43.494830729166665
43.49856770833333
43.564153645833336
43.7317578125
43.90065104166667
44.0511328125
44.16489583333333
44.2494140625
43.67596354166667
43.799114583333335
43.86208333333333
43.930013020833336
44.023372395833334
44.1190625
44.22109375
43.7613671875
43.766953125
43.000625
42.30557291666667
42.11217447916667
42.74063802083333
42.719609375
43.421575520833336
43.427174479166666
43.545625
43.56950520833333
43.494921875
43.51453125
43.6081640625
43.80140625
43.9776171875
44.13041666666667
44.2410546875
43.72532552083333
43.85984375
43.934869791666664
44.0255078125
44.10462239583333
44.185208333333335
43.70326822916667
43.292942708333335
43.355052083333334
43.46196614583334
43.52451822916667
43.0499609375
41.60915364583333
41.84143229166666
41.856197916666666
42.50319010416667
42.52893229166666
43.238619791666665
43.2930859375
43.36078125
43.944270833333334
43.83123697916667
43.891875
44.036171875
44.23356770833333
44.4102734375
43.921315104166666
44.0934375
44.18665364583333
43.63471354166666
43.76326822916667
43.82309895833333
43.889713541666666
43.99985677083333
44.10063802083334
44.20893229166666
44.32190104166666
43.86359375
43.57955729166667
42.645794270833335
42.16170572916667
42.1308984375
42.83802083333333
42.93287760416667
43.7061328125
43.79595052083334
43.84096354166667
43.7543359375
43.675234375
43.69872395833333
43.83501302083334
43.9927734375
44.142734375
44.28470052083333
43.800130208333336
43.9590625
43.99920572916667
44.0244921875
44.067734375
44.137265625
44.22157552083333
43.7967578125
43.8423046875
43.25545572916667
42.47829427083333
42.27045572916666
42.9091796875
43.029322916666665
43.870716145833335
44.0140234375
44.1615234375
44.12782552083333
43.41647135416667
43.455013020833334
43.534505208333336
43.70837239583334
43.877734375
44.0128515625
44.14830729166667
44.2483203125
44.32567708333333
43.81888020833333
43.94813802083333
43.986666666666665
44.066432291666665
44.1507421875
43.90580729166667
43.01048177083333
41.878528645833335
41.826809895833335
41.931328125
42.61755208333334
42.654609375
43.396236979166666
43.40641927083333
43.355703125
43.29514322916667
43.303697916666664
43.41653645833333
43.6042578125
43.77184895833334
43.937109375
44.03893229166667
44.12921875
44.19638020833333
43.67169270833333
43.78889322916667
43.842213541666666
43.92850260416667
44.03005208333333
44.074947916666666
43.5163671875
42.54475260416667
42.1341796875
42.124140625
42.79309895833333
42.85364583333333
43.5765625
43.65506510416667
43.72260416666666
43.635182291666666
43.5648046875
43.582408854166665
43.7184765625
43.879296875
44.019557291666665
44.13454427083333
44.240234375
43.72877604166667
43.8397265625
43.877421875
43.92295572916667
43.984713541666665
44.062434895833334
44.18536458333333
44.26026041666667
43.26411458333333
42.3687890625
41.95546875
41.9485546875
42.6283203125
42.666927083333334
43.438723958333334
43.50416666666667
43.54447916666667
43.4552734375
43.3912890625
43.4354296875
43.61440104166667
43.79390625
43.966119791666664
44.099583333333335
44.19259114583333
44.26453125
43.734296875
43.85078125
43.8958984375
43.971875
44.037083333333335
44.155208333333334
44.23966145833333
43.378125
42.524765625
42.00744791666666
41.96333333333333
42.675052083333334
42.74388020833333
43.5210546875
43.60889322916667
43.6432421875
43.5329296875
43.457265625
43.4979296875
43.63555989583333
43.8101171875
43.9651171875
44.06485677083333
44.16622395833333
44.23455729166667
43.66673177083333
43.758502604166665
43.812877604166665
43.89430989583333
44.0025390625
43.89067708333334
43.19032552083333
42.54046875
42.4256640625
43.16854166666667
43.280651041666665
43.477890625
44.310833333333335
44.26305989583334
44.148450520833336
43.39470052083333
43.47079427083333
43.58606770833333
43.75438802083333
43.89666666666667
44.01908854166667
44.125989583333336
44.18140625
43.61834635416667
43.7359765625
43.818020833333335
43.9084375
43.691432291666665
42.937265625
42.42071614583333
42.369817708333336
43.111744791666666
43.18536458333333
