-30.610872395833333
-30.571057942708332
-10.680660807291666
-20.4116796875
-19.585657552083333
-38.152805989583335
-32.60552083333334
-29.88029296875
-29.985856119791666
-26.348430989583335
-24.239827473958332
-21.824986979166667
-21.623551432291666
-21.764775390625
-20.956171875
-20.973196614583333
-21.130856119791666
-21.059798177083334
-21.002353515625
-21.071162109375
-21.021383463541667
-21.026207682291666
-21.06589192708333
-21.118645833333332
-21.124111328125
-21.132568359375
-21.270660807291666
-21.240576171875
-21.353177083333332
-21.27943359375
-20.978317057291665
-20.96810546875
-20.814453125
-20.9055859375
-20.831233723958334
-20.8373828125
-20.862356770833333
-20.888063151041667
-20.909410807291668
-20.9315234375
-20.950654296875
-20.954261067708334
-20.950973307291665
-20.962379557291666
-21.007789713541666
-21.059150390625
-20.963714192708334
-20.73089518229167
-20.604130859375
-20.56900390625
-20.595774739583334
-20.610182291666668
-20.604622395833335
-20.62927734375
-20.599677734375
-20.56404296875
-20.556875
-20.577200520833333
-20.602731119791667
-20.623391927083333
-20.642939453125
-20.667060546875
-20.703294270833332
-20.7083203125
-20.720068359375
-20.739918619791666
-20.750963541666668
-20.782314453125
-20.78890625
-20.731956380208334
-20.506875
-20.345882161458334
-20.304251302083333
-20.315784505208335
-20.89306640625
-20.699759114583333
-21.107054036458333
-20.698916015625
-20.842513020833334
-20.838053385416668
-20.846103515625
-20.888831380208334
-20.913912760416668
-20.929915364583334
-20.94826171875
-20.967864583333334
-20.983766276041667
-21.004173177083334
-21.019303385416666
-21.058072916666667
-21.069069010416666
-21.112314453125
-21.125397135416666
-20.952190755208335
-20.738805338541667
-20.65817708333333
-20.656110026041667
-20.688219401041668
-20.68501953125
-20.68682942708333
-20.7119921875
-20.686022135416668
-20.664365234375
-20.671917317708335
-20.6883203125
-20.710035807291668
-20.7745703125
-20.805247395833334
-20.82091796875
-20.835390625
-20.84376953125
-20.870647786458335
-20.883557942708332
-20.912268880208334
-20.937164713541666
-20.95275390625
-20.993479817708334
-21.021956380208334
-21.03263671875
-20.850423177083332
-20.651848958333332
-20.603092447916666
-20.628896484375
-20.636354166666667
-20.63060546875
-20.654436848958333
-20.65671223958333
-20.640690104166666
-20.404557291666666
-20.508069661458332
-20.55148763020833
-20.800016276041667
-20.738424479166667
-20.766881510416667
-20.791588541666666
-20.813688151041667
-20.8362109375
-20.860755208333334
-20.888776041666667
-20.892522786458333
-20.938264973958333
-20.976959635416666
-21.001481119791666
-21.030198567708332
-21.056396484375
-20.932493489583333
-20.72228515625
-20.636884765625
-20.650716145833332
-20.695068359375
-20.713642578125
-20.738671875
-20.752399088541665
-20.738675130208332
-20.690257161458334
-20.686988932291666
-20.722835286458334
-20.752942708333332
-20.78790364583333
-20.819576822916666
-20.849446614583332
-20.884563802083335
-20.896061197916666
-20.922972005208333
-20.940670572916666
-20.954254557291666
-20.959547526041668
-21.002620442708334
-21.025862630208334
-20.942386067708334
-20.75393229166667
-20.63830078125
-20.641569010416667
-20.679069010416665
-20.7112109375
-20.741015625
-20.752568359375
-20.741207682291666
-20.69436197916667
-20.693059895833333
-20.722529296875
-20.748450520833334
-20.781184895833334
-20.816585286458334
-20.851276041666665
-20.867024739583332
-20.893229166666668
-20.918951822916668
-20.927532552083335
-20.943138020833334
-20.970104166666665
-20.995358072916666
-20.8605859375
-20.62572265625
-20.53521484375
-20.54275065104167
-20.5646484375
-20.571832682291667
-20.576451822916667
-20.5937109375
-20.35673828125
-20.426555989583335
-20.417789713541666
-20.44109375
-20.483707682291666
-20.511946614583334
-20.538899739583332
-20.574427083333333
-20.605462239583332
-20.619072265625
-20.663932291666665
-20.908658854166667
-20.850849609375
-20.864485677083334
-20.731067708333335
-20.497180989583335
-20.423955078125
-20.432522786458332
-20.447021484375
-20.438570963541668
-20.447125651041667
-20.46603515625
-20.44992513020833
-20.242252604166666
-20.327197265625
-20.349619140625
-20.393138020833334
-20.42868489583333
-20.457760416666666
-20.481829427083333
-20.501461588541666
-20.539931640625
-20.567486979166667
-20.58259765625
-20.606565755208333
-20.636715494791666
-20.688056640625
-20.706956380208332
-20.805748697916666
-20.5219921875
-20.4332421875
-20.443922526041668
-20.46364908854167
-20.48392578125
-20.495504557291667
-20.508248697916667
-20.507021484375
-20.285416666666666
-20.38595703125
-20.4124609375
-20.4521875
-20.487991536458335
-20.525787760416666
-20.561051432291666
-20.584856770833333
-20.614518229166666
-20.63767578125
-20.672591145833334
-20.705856119791665
-20.953111979166668
-20.896748046875
-20.953326822916665
-20.97833984375
-20.888642578125
-20.727936197916666
-20.674973958333332
-20.692747395833333
-20.736966145833332
-20.743323567708334
-20.762906901041667
-20.778577473958332
-20.77341796875
-20.769475911458333
-20.77663736979167
-20.795087890625
-20.823981119791668
-20.871891276041666
-20.900003255208333
-20.928310546875
-20.942307942708332
-20.969488932291668
-20.993463541666667
-21.00869140625
-21.027001953125
-21.062877604166665
-21.110315755208333
-21.095227864583332
-20.968440755208334
-20.85107421875
-20.837659505208332
-20.860162760416667
-20.885120442708335
-20.917760416666667
-20.91506510416667
-20.938583984375
-20.91748046875
-20.898043619791668
-20.920494791666666
-20.937975260416668
-20.955309244791668
-20.980113932291665
-21.01052408854167
-21.028336588541666
-21.04010091145833
-21.056002604166668
-21.071848958333334
-21.0994921875
-21.130595703125
-21.161500651041667
-21.144186197916667
-20.989466145833333
-20.84450846354167
-20.783870442708334
-20.808232421875
-20.803473307291668
-20.78658203125
-20.799143880208334
-20.803557942708334
-20.778583984375
-20.755182291666667
-20.778811848958334
-20.801956380208335
-20.818766276041668
-20.846168619791666
-20.87517578125
-20.901930338541668
-20.919765625
-20.938343098958335
-20.94805989583333
-20.973291015625
-21.001061197916666
-21.022093098958333
-21.053626302083334
-21.077874348958332
-21.017255859375
-20.796341145833335
-20.663079427083332
-20.64943359375
-20.673639322916667
-20.664016927083335
-20.660224609375
-20.664723307291666
-20.670081380208334
-20.665042317708334
-20.655338541666666
-20.663173828125
-20.70416015625
-20.729622395833335
-20.749192708333332
-20.79294270833333
-20.804983723958333
-20.824684244791666
-20.874055989583333
-20.909420572916666
-20.931940104166667
-20.960455729166668
-20.994521484375
-21.009501953125
-21.037337239583334
-20.911845703125
-20.69923828125
-20.614820963541668
-20.633766276041666
-20.65748046875
-20.637223307291666
-20.653935546875
-20.673701171875
-20.667578125
-20.650716145833332
-20.663001302083334
-20.685472005208332
-20.729169921875
-20.74709635416667
-20.7816015625
-20.816559244791666
-20.842701822916666
-20.863359375
-20.8952734375
-20.914049479166668
-20.95171875
-20.985804036458333
-21.005732421875
-21.038382161458333
-21.074140625
-21.082451171875
-20.951546223958335
-20.771279296875
-20.700084635416665
-20.73509765625
-20.75740234375
-20.776975911458333
-20.789755859375
-20.805533854166665
-20.791725260416666
-20.759378255208333
-20.773902994791666
-20.807991536458335
-20.829912109375
-20.872063802083332
-20.908157552083335
-20.928974609375
-20.954410807291666
-20.967649739583333
-20.970582682291667
-21.0020703125
-21.020638020833335
-21.051171875
-21.102454427083334
-21.08273763020833
-20.9300390625
-20.7752734375
-20.732347005208332
-20.77028971354167
-20.80318359375
-20.808707682291665
-20.83533203125
-20.838837890625
-20.795022786458333
-20.7955078125
-20.803059895833332
-20.8319140625
-20.9126171875
-20.943740234375
-20.962626953125
-20.97794921875
-20.992376302083333
-21.008134765625
-21.024254557291666
-21.063193359375
-21.090289713541665
-21.039638671875
-20.847744140625
-20.680003255208334
-20.641774088541666
-20.663323567708332
-20.661399739583334
-20.642054036458333
-20.65533203125
-20.6578125
-20.638902994791668
-20.63958984375
-20.645009765625
-20.66265950520833
-20.701451822916667
-20.733649088541668
-20.763935546875
-20.781637369791667
-20.793313802083333
-20.820472005208334
-20.83591796875
-20.855458984375
-20.879990234375
-20.907180989583335
-20.92877278645833
-20.823860677083335
-20.589729817708335
-20.459329427083333
-20.459873046875
-20.474124348958334
-20.455244140625
-20.45849609375
-20.463802083333334
-20.463411458333333
-20.447581380208334
-20.447337239583334
-20.4561328125
-20.28275390625
-20.404283854166668
-20.427815755208332
-20.4594921875
-20.476373697916667
-20.506793619791665
-20.74244140625
-20.673444010416667
-20.701025390625
-20.732470703125
-20.766201171875
-20.786953125
-20.798375651041667
-20.626451822916668
-20.42523111979167
-20.354895833333334
-20.3828125
-20.407001953125
-20.400859375
-20.40322265625
-20.410016276041667
-20.176080729166667
-20.266214192708333
-20.276943359375
-20.4619140625
-20.4825390625
-20.29833984375
-20.422594401041668
-20.437158203125
-20.67392578125
-20.600143229166665
-20.614567057291666
-20.4275390625
-20.551363932291668
-20.579915364583332
-20.824251302083333
-20.65259765625
-20.444375
-20.349065755208333
-20.366572265625
-20.398597005208334
-20.401419270833333
-20.423147786458333
-20.443395182291667
-20.405911458333332
-20.397529296875
-20.418343098958335
-20.439811197916665
-20.46771484375
-20.503675130208332
-20.5392578125
-20.55767903645833
-20.582399088541667
-20.586416015625
-20.595413411458335
-20.630602213541668
-20.66311197916667
-20.69568359375
-20.726373697916667
-20.715299479166667
-20.52373046875
-20.371295572916665
-20.341461588541666
-20.363603515625
-20.352887369791667
-20.368125
-20.422353515625
-20.441591796875
-20.410634765625
-20.404794921875
-20.397024739583333
-20.369563802083334
-20.372444661458335
-20.288763020833333
-20.250556640625
-20.274798177083333
-20.238180338541667
-20.222457682291665
-20.220696614583332
-20.259313151041667
-20.2653515625
-20.321901041666667
-20.3976953125
-20.495309244791667
-20.552229817708334
-20.453219401041668
-20.2451953125
-20.096100260416666
-20.093313802083333
-20.10576171875
-20.688411458333334
-20.489241536458334
-20.855537109375
-20.817975260416667
-20.716217447916666
-20.752766927083332
-20.793033854166666
-20.836142578125
-20.863330078125
-20.8901171875
-20.906809895833334
-20.9341796875
-20.962457682291667
-21.002278645833332
-21.031708984375
-21.065032552083334
-21.102333984375
-21.13092122395833
-21.152154947916667
-21.185188802083335
-21.193401692708335
-21.023111979166668
-20.803636067708332
-20.694332682291666
-20.68572265625
-20.706149088541668
-20.689195963541668
-20.687955729166667
-20.68705078125
-20.675569661458333
-20.6812890625
-20.67439453125
-20.695797526041666
-20.729938151041665
-20.774111328125
-20.814163411458335
-20.827529296875
-20.874462890625
-20.89896484375
-20.912630208333333
-20.943479817708333
-20.972639973958334
-21.011686197916667
-21.041383463541667
-21.064622395833332
-21.105641276041666
-21.133697916666666
-21.051448567708334
-20.699264322916665
-20.678056640625
-20.711005859375
-20.731217447916666
-20.78045572916667
-20.775556640625
-20.733795572916666
-20.7125
-20.74064453125
-20.770328776041666
-20.801256510416668
-20.834557291666666
-20.876129557291666
-20.914029947916667
-20.904772135416668
-20.930107421875
-20.948274739583333
-20.963850911458334
-20.999052734375
-21.037216796875
-21.058102213541666
-20.978720703125
-20.740263671875
-20.61654296875
-20.61252278645833
-20.692796223958332
-20.714827473958334
-20.742900390625
-20.730283203125
-20.707877604166665
-20.710771484375
-20.734488932291665
-20.760481770833334
-20.796363932291666
-20.838824869791665
-20.862587890625
-20.884440104166668
-20.923701171875
-20.928489583333334
-20.966555989583334
-20.988089192708333
-21.06017578125
-21.08107421875
-20.924270833333335
-20.689518229166666
-20.57052734375
-20.552405598958334
-20.589010416666667
-20.590384114583333
-20.587386067708334
-20.623720703125
-20.602626953125
-20.575810546875
-20.568323567708333
-20.594827473958333
-20.667962239583332
-20.745524088541668
-20.773870442708333
-20.79876627604167
-20.826220703125
-20.837350260416667
-20.875677083333333
-20.91517578125
-20.939772135416668
-20.982366536458333
-20.97951171875
-20.766888020833335
-20.581591796875
-20.518899739583333
-20.51298828125
-20.52724609375
-20.540169270833335
-20.530341796875
-20.540113932291668
-20.535458984375
-20.516513671875
-20.519632161458333
-20.55357421875
-20.582594401041668
-20.627838541666666
-20.652233072916665
-20.68279296875
-20.7098828125
-20.721455078125
-20.746731770833332
-20.779052734375
-20.825690104166668
-20.847096354166666
-20.876708984375
-20.914189453125
-20.92181315104167
-20.785432942708333
-20.567724609375
-20.483411458333332
-20.49631184895833
-20.510797526041667
-20.512662760416667
-20.518883463541666
-20.540426432291667
-20.527516276041666
-20.523577473958333
-20.586396484375
-20.617897135416666
-20.653515625
-20.681188151041667
-20.705940755208335
-20.739069010416667
-20.754544270833332
-20.7946875
-20.81109375
-20.856735026041665
-20.886884765625
-20.918255208333335
-20.958046875
-20.891904296875
-20.683483072916665
-20.57232747395833
-20.566409505208334
-20.594254557291666
-20.613014322916666
-20.626497395833333
-20.625582682291668
-20.611409505208332
-20.592369791666666
-20.586637369791667
-20.592522786458332
-20.63772135416667
-20.668824869791667
-20.73410481770833
-20.748121744791668
-20.767802734375
-20.783050130208334
-20.790999348958334
-20.821572265625
-20.855152994791666
-20.874996744791666
-20.867174479166668
-20.698411458333332
-20.5256640625
-20.490166015625
-20.512213541666668
-20.516487630208335
-20.519440104166666
-20.54363932291667
-20.541826171875
-20.5160546875
-20.488089192708333
-20.504938151041667
-20.535188802083333
-20.559619140625
-20.598111979166667
-20.622919921875
-20.648056640625
-20.654908854166667
-20.68388671875
-20.686142578125
-20.708317057291666
-20.7437109375
-20.754876302083332
-20.656106770833333
-20.431295572916667
-20.2998046875
-20.29298828125
-20.305152994791666
-20.2870703125
-20.28610677083333
-20.29738932291667
-20.294612630208334
-20.266979166666665
-20.268059895833332
-20.269202473958334
-20.293977864583333
-20.331015625
-20.355768229166667
-20.380003255208333
-20.402766927083334
-20.428912760416665
-20.447350260416666
-20.465719401041667
-20.47732096354167
-20.518678385416667
-20.559925130208335
-20.498427734375
-20.28705078125
-20.11759765625
-20.079016927083334
-20.073108723958335
-20.092213541666666
-20.066809895833334
-20.071998697916666
-20.087760416666665
-20.079475911458335
-20.093307291666665
-20.119850260416666
-20.144322916666667
-20.185419921875
-20.213935546875
-20.235393880208335
-20.262952473958332
-20.28091796875
-20.320074869791668
-20.345498046875
-20.410263671875
-20.440745442708334
-20.46740234375
-20.360572916666666
-20.147516276041667
-20.05837565104167
-20.059313151041668
-20.075791015625
-20.067288411458332
-20.070934244791665
-20.099065755208333
-20.103704427083333
-20.09109375
-20.099117838541666
-20.120247395833335
-20.149264322916668
-20.188483072916668
-20.208040364583333
-20.25521484375
-20.28225260416667
-20.298154296875
-20.313173828125
-20.35396484375
-20.38552408854167
-20.414449869791667
-20.448382161458333
-20.496272786458334
-20.404632161458334
-20.23781901041667
-20.18251953125
-20.212115885416665
-20.235751953125
-20.228014322916668
-20.24923828125
-20.276201171875
-20.266165364583333
-20.249794921875
-20.267900390625
-20.287919921875
-20.33615559895833
-20.361686197916665
-20.394134114583334
-20.434736328125
-20.446419270833335
-20.472083333333334
-20.499599609375
-20.525755208333333
-20.555270182291668
-20.583649088541666
-20.620569661458333
-20.621966145833333
-20.467731119791665
-20.32659830729167
-20.299794921875
-20.314124348958334
-20.321432291666667
-20.32859375
-20.341927083333335
-20.360208333333333
-20.338541666666668
-20.346858723958334
-20.357223307291665
-20.366643880208333
-20.403645833333332
-20.429710286458334
-20.452877604166666
-20.479078776041668
-20.503011067708332
-20.519195963541666
-20.537125651041666
-20.567122395833334
-20.585296223958334
-20.617705078125
-20.654801432291666
-20.686490885416667
-20.653756510416667
-20.452314453125
-20.310201822916667
-20.280592447916668
-20.285673828125
-20.282799479166666
-20.277584635416666
-20.288707682291665
-20.29990234375
-20.275240885416668
-20.269033203125
-20.294638671875
-20.322900390625
-20.349186197916666
-20.374469401041665
-20.4164453125
-20.439306640625
-20.44990234375
-20.477942708333334
-20.509016927083334
-20.541031901041666
-20.56330078125
-20.603251953125
-20.616891276041667
-20.696585286458333
-20.67365234375
-20.4897265625
-20.3337890625
-20.277727864583333
-20.309661458333334
-20.310065104166668
-20.307776692708334
-20.332936197916666
-20.338600260416666
-20.323277994791667
-20.321022135416666
-20.329065755208333
-20.367802734375
-20.435006510416667
-20.459508463541667
-20.495660807291667
-20.5138671875
-20.53537109375
-20.553636067708332
-20.581884765625
-20.615693359375
-20.656350911458333
-20.688616536458333
-20.720934244791668
-20.748359375
-20.792936197916667
-20.800533854166666
-20.650703125
-20.463199869791666
-20.408470052083334
-20.432161458333333
-20.456363932291666
-20.482210286458333
-20.491595052083333
-20.50767578125
-20.48216796875
-20.453421223958333
-20.460481770833333
-20.494700520833334
-20.518046875
-20.546946614583334
-20.572093098958334
-20.608479817708332
-20.625045572916665
-20.643229166666668
-20.66986002604167
-20.694127604166667
-20.728063151041667
-20.764449869791665
-20.788974609375
-20.818802083333335
-20.767412109375
-20.559993489583334
-20.416861979166665
-20.404856770833334
-20.435797526041668
-20.444954427083335
-20.445166015625
-20.475475260416665
-20.470768229166666
-20.430745442708332
-20.417493489583332
-20.442516276041665
-20.47734375
-20.528030598958335
-20.557233072916667
-20.59275390625
-20.613561197916667
-20.640123697916668
-20.66501302083333
-20.680569661458332
-20.716419270833335
-20.77008138020833
-20.8000390625
-20.697822265625
-20.4451953125
-20.315625
-20.29474609375
-20.309195963541665
-20.323385416666667
-20.325322265625
-20.3367578125
-20.339466145833335
-20.313229166666666
-20.302080078125
-20.32376953125
-20.348430989583335
-20.383444010416667
-20.432578125
-20.470120442708332
-20.494938151041666
-20.505377604166668
-20.527379557291667
-20.558678385416666
-20.578557942708333
-20.608346354166667
-20.643264973958335
-20.686015625
-20.515732421875
-20.187369791666665
-20.164303385416666
-20.180231119791667
-20.190846354166666
-20.217666015625
-20.211520182291668
-20.186295572916666
-20.192731119791667
-20.2072265625
-20.231481119791667
-20.285162760416668
-20.321266276041666
-20.349537760416666
-20.379446614583333
-20.403678385416665
-20.432711588541668
-20.488206380208332
-20.536409505208333
-20.571809895833333
-20.612900390625
-20.410924479166667
-20.189521484375
-20.105231119791668
-20.110927734375
-20.147220052083334
-20.166178385416668
-20.1694921875
-20.147203776041668
-20.149778645833333
-20.176334635416666
-20.214527994791666
-20.272428385416667
-20.293154296875
-20.355794270833332
-20.36326171875
-20.40646484375
-20.428645833333334
-20.442034505208333
-20.466901041666667
-20.557223307291668
-20.573453776041667
-20.4363671875
-20.209322916666668
-20.092392578125
-20.101520182291665
-20.139573567708332
-20.164801432291668
-20.185823567708333
-20.228291015625
-20.188203125
-20.160960286458334
-20.184195963541665
-20.21578125
-20.245849609375
-20.278616536458333
-20.331396484375
-20.369254557291665
-20.396767578125
-20.457630208333335
-20.497799479166666
-20.495485026041667
-20.488782552083332
-20.418626302083332
-20.00130859375
-20.012112630208332
-20.050309244791666
-20.060475260416666
-20.063720703125
-20.101315104166666
-20.038492838541668
-20.034768880208333
-20.054143880208333
-20.072503255208332
-20.129108072916665
-20.17486653645833
-20.198255208333332
-20.21404947916667
-20.238727213541665
-20.248518880208334
-20.26858072916667
-20.28701171875
-20.315143229166665
-20.34646158854167
-20.202659505208334
-19.777861328125
-19.77276692708333
-19.7966015625
-20.292291666666667
-20.664879557291666
-20.483232421875
-20.458649088541666
-20.443151041666667
-20.522880859375
-20.55919921875
-20.589427083333334
-20.624990234375
-20.670693359375
-20.690524088541668
-20.725110677083332
-20.803333333333335
-20.827913411458333
-20.78189453125
-20.49779296875
-20.303821614583335
-20.259456380208334
-20.270442708333334
-20.2741796875
-20.254378255208334
-20.28619140625
-20.291471354166667
-20.270608723958333
-20.269049479166668
-20.308518880208332
-20.34564453125
-20.419410807291666
-20.464322916666667
-20.498125
-20.52271484375
-20.554928385416666
-20.577275390625
-20.61716796875
-20.651025390625
-20.694104817708332
-20.697662760416666
-20.46340494791667
-20.271077473958332
-20.221588541666666
-20.245305989583333
-20.254537760416667
-20.238404947916667
-20.283518880208334
-20.295266927083333
-20.30169596354167
-20.316259765625
-20.342532552083334
-20.386617838541667
-20.4362109375
-20.466634114583332
-20.512063802083333
-20.5290234375
-20.563359375
-20.607652994791668
-20.636207682291666
-20.67266927083333
-20.706240234375
-20.750986328125
-20.793968098958334
-20.558860677083334
-20.433473307291667
-20.42626953125
-20.475882161458333
-20.481813151041667
-20.505436197916666
-20.529156901041667
-20.518570963541666
-20.52105794270833
-20.536767578125
-20.58514322916667
-20.620166015625
-20.660852864583333
-20.694951171875
-20.705589192708334
-20.772200520833334
-20.78582682291667
-20.818349609375
-20.848557942708332
-20.889505208333333
-20.90181640625
-20.8064453125
-20.636803385416666
-20.57732421875
-20.600846354166666
-20.623284505208332
-20.63134765625
-20.652086588541668
-20.657815755208333
-20.667158203125
-20.676930338541666
-20.701432291666666
-20.744176432291667
-20.781774088541667
-20.82662109375
-20.870638020833333
-20.900445963541667
-20.915286458333334
-20.951611328125
-20.983102213541667
-21.00958333333333
-21.026565755208335
-20.890891927083334
-20.728583984375
-20.6722265625
-20.678932291666666
-20.691451822916665
-20.69488606770833
-20.707799479166667
-20.717158203125
-20.710205078125
-20.717565104166667
-20.753352864583334
-20.783235677083333
-20.8087890625
-20.849443359375
-20.879847005208333
-20.894664713541665
-20.932503255208335
-20.953681640625
-20.983033854166667
-21.020139973958333
-21.046640625
-21.090400390625
-20.992060546875
-20.803583984375
-20.737897135416667
-20.737057291666666
-20.746770833333333
-20.75055013020833
-20.736067708333334
-20.771722005208332
-20.769215494791666
-20.755865885416668
-20.782298177083334
-20.81142578125
-20.838359375
-20.867141927083335
-20.908359375
-20.936790364583334
-21.001751302083335
-21.019000651041665
-21.04455078125
-21.084293619791666
-21.117552083333333
-21.162119140625
-21.196598307291666
-21.226598307291667
-21.238483072916665
-21.113304036458334
-20.948297526041667
-20.878310546875
-20.893795572916666
-20.912356770833334
-20.901357421875
-20.911048177083334
-20.928232421875
-20.922197265625
-20.951920572916666
-20.992744140625
-21.0461328125
-21.074485677083334
-21.100244140625
-21.13568359375
-21.1841796875
-21.220234375
-21.251917317708333
-21.279990234375
-21.296188151041665
-21.347858072916665
-21.42390625
-21.437610677083335
-21.27626953125
-21.116145833333334
-21.083209635416665
-21.115826822916667
-21.140374348958332
-21.138408203125
-21.164322916666666
-21.187275390625
-21.164205729166667
-21.152955729166667
-21.1544921875
-21.194563802083334
-21.233880208333332
-21.26633138020833
-21.287874348958333
-21.303577473958335
-21.324778645833334
-21.360634765625
-21.361653645833332
-21.39287109375
-21.424820963541666
-21.487353515625
-21.530706380208333
-21.43611328125
-21.253447265625
-21.16787109375
-21.163981119791668
-21.196624348958334
-21.219680989583335
-21.23212890625
-21.206474609375
-21.185279947916666
-21.23259765625
-21.25384765625
-21.28662109375
-21.32912760416667
-21.34439453125
-21.373193359375
-21.399807942708332
-21.420901692708334
-21.439762369791666
-21.455712890625
-21.50326171875
-21.519010416666667
-21.450367838541666
-21.232431640625
-21.080947265625
-21.046526692708333
-21.04826171875
-21.065107421875
-21.072587890625
-21.087805989583334
-21.074283854166666
-21.05638671875
-21.071969401041667
-21.099837239583334
-21.13474609375
-21.166136067708333
-21.19078125
-21.223336588541667
-21.261995442708333
-21.272932942708334
-21.295162760416666
-21.332591145833334
-21.361809895833332
-21.402779947916667
-21.426155598958335
-21.176858723958333
-20.964205729166668
-20.885426432291666
-20.881959635416667
-20.896474609375
-20.891083984375
-20.893180338541665
-20.891546223958333
-20.8666015625
-20.866295572916666
-20.882405598958332
-20.965442708333335
-20.994742838541665
-21.034847005208334
-21.062428385416666
-21.08221354166667
-21.125087890625
-21.139235026041668
-21.165302734375
-21.210973307291667
-21.274381510416667
-21.314970703125
-21.2303515625
-20.942880859375
-20.743235677083334
-20.710940755208334
-20.765673828125
-20.760755208333332
-20.77833984375
-20.7925390625
-20.762568359375
-20.746214192708333
-20.74599609375
-20.787021484375
-20.83322591145833
-20.8737109375
-20.897001953125
-20.9440234375
-20.9706640625
-20.976350911458333
-21.0030078125
-21.035973307291666
-21.062796223958333
-21.084697265625
-21.142421875
-21.1759765625
-21.035221354166666
-20.761217447916668
-20.63189453125
-20.6414453125
-20.668977864583333
-20.700862630208334
-20.729772135416667
-20.76312174479167
-20.720279947916666
-20.681155598958334
-20.67833984375
-20.683714192708333
-20.7347265625
-20.82013671875
-20.858098958333333
-20.893942057291667
-20.916311848958333
-20.912109375
-20.952643229166668
-20.98421875
-21.0002734375
-20.951982421875
-20.474680989583334
-20.45302734375
-20.493258463541668
-20.513408203125
-20.533772786458332
-20.578971354166665
-20.566302083333333
-20.516409505208333
-20.4919921875
-20.516930338541666
-20.565481770833333
-20.61208984375
-20.665390625
-20.695397135416666
-20.724241536458333
-20.773779296875
-20.789192708333335
-20.833284505208333
-20.855130208333332
-20.724069010416667
-20.417164713541666
-20.223912760416667
-20.200152994791665
-20.213492838541665
-20.216744791666667
-20.21111328125
-20.254729817708334
-20.24289388020833
-20.22400390625
-20.223121744791666
-20.269303385416666
-20.32759765625
-20.362281901041666
-20.396162109375
-20.438372395833333
-20.453994140625
-20.480540364583334
-20.497955729166666
-20.536793619791666
-20.56669921875
-20.578072916666667
-20.400377604166668
-20.09445638020833
-19.938372395833333
-19.940309244791667
-19.9673828125
-19.964886067708335
-19.93693359375
-19.984729817708335
-19.98635416666667
-19.958053385416665
-19.964775390625
-20.000891927083334
-20.025149739583334
-20.082278645833334
-20.11716796875
-20.190416666666668
-20.206920572916665
-20.228929036458332
-20.257916666666667
-20.2807421875
-20.316943359375
-20.35373372395833
-20.406149088541667
-20.31057291666667
-20.00661783854167
-19.78869140625
-19.756149088541665
-19.781246744791666
-20.322272135416668
-20.193395182291667
-20.953372395833334
-20.782278645833333
-20.73830729166667
-20.7396484375
-20.77752604166667
-20.801399739583335
-20.837607421875
-20.885865885416667
-20.954775390625
-20.974723307291665
-20.993642578125
-21.0146484375
-21.047369791666668
-21.136217447916668
-21.173518880208334
-21.200921223958332
-21.252486979166665
-20.91435546875
-20.66579752604167
-20.614150390625
-20.66763671875
-20.665104166666666
-20.663570963541666
-20.69378580729167
-20.662197265625
-20.6451953125
-20.662265625
-20.708509114583332
-20.749501953125
-20.772275390625
-20.813518880208335
-20.8438671875
-20.850970052083333
-20.871334635416666
-20.909020182291666
-20.927496744791668
-20.955797526041668
-20.993170572916668
-21.037496744791667
-21.069514973958334
-20.980660807291667
-20.684830729166666
-20.530354817708332
-20.51091796875
-20.573717447916668
-20.59314453125
-20.629716796875
-20.612561848958332
-20.565061848958333
-20.579296875
-20.6169140625
-20.650032552083335
-20.744407552083334
-20.764072265625
-20.787464192708335
-20.814996744791667
-20.871832682291668
-20.903505859375
-20.947112630208334
-20.981184895833334
-20.986979166666668
-20.764560546875
-20.492470703125
-20.381419270833334
-20.429192708333332
-20.422561848958335
-20.429254557291667
-20.449371744791666
-20.444329427083332
-20.426793619791667
-20.433968098958335
-20.472552083333333
-20.520205078125
-20.573053385416667
-20.61255859375
-20.647428385416667
-20.6736328125
-20.694108072916666
-20.724720052083335
-20.791617838541665
-20.82721028645833
-20.860113932291668
-20.90847330729167
-20.944993489583332
-20.747229817708334
-20.448694661458333
-20.330188802083335
-20.348763020833335
-20.381272786458332
-20.384049479166666
-20.410061848958332
-20.424039713541667
-20.412796223958335
-20.418095703125
-20.446396484375
-20.489137369791667
-20.534925130208332
-20.554117838541668
-20.588551432291666
-20.615823567708333
-20.68076171875
-20.72433919270833
-20.739625651041667
-20.781806640625
-20.839098307291668
-20.903772786458333
-20.931315104166668
-20.991630859375
-21.028248697916666
-20.869674479166665
-20.621178385416666
-20.492900390625
-20.524973958333334
-20.530393880208333
-20.544996744791668
-20.575735677083333
-20.58465494791667
-20.602376302083332
-20.6791796875
-20.722568359375
-20.779840494791667
-20.814619140625
-20.858694661458333
-20.923723958333333
-21.032109375
-21.048111979166666
-21.082008463541666
-21.124593098958332
-21.16783203125
-21.224459635416668
-21.276145833333334
-21.293834635416665
-21.111513671875
-20.900895182291666
-20.845146484375
-20.892278645833333
-20.925579427083335
-20.95359375
-20.995120442708334
-21.02404296875
-20.996507161458332
-20.991647135416667
-21.01146484375
-21.052356770833335
-21.14220703125
-21.184059244791666
-21.22681640625
-21.293899739583335
-21.307490234375
-21.37668294270833
-21.421546223958334
-21.451800130208333
-21.455426432291667
-21.30462890625
-21.142190755208333
-21.129091796875
-21.155751953125
-21.179228515625
-21.215745442708332
-21.235322265625
-21.2165625
-21.217613932291666
-21.212679036458333
-21.256888020833333
-21.300403645833335
-21.330289713541667
-21.411110026041666
-21.426077473958333
-21.457926432291668
-21.487688802083333
-21.515413411458333
-21.545026041666667
-21.558274739583332
-21.358046875
-21.171038411458333
-21.1159375
-21.141165364583333
-21.177386067708333
-21.158076171875
-21.174918619791665
-21.190237630208333
-21.178837890625
-21.164013671875
-21.190445963541666
-21.216220703125
-21.238193359375
-21.2800390625
-21.31711263020833
-21.380517578125
-21.404150390625
-21.434453125
-21.459306640625
-21.483857421875
-21.569814453125
-21.4999609375
-21.25982747395833
-21.075830078125
-21.06296223958333
-21.083899739583334
-21.0902734375
-21.076822916666668
-21.0945703125
-21.102360026041666
-21.09552734375
-21.120927734375
-21.1545703125
-21.190550130208333
-21.23978515625
-21.272255859375
-21.328037109375
-21.361953125
-21.425358072916666
-21.44654296875
-21.481477864583333
-21.52974609375
-21.56126953125
-21.492750651041668
-21.261481119791668
-21.103271484375
-21.13568033854167
-21.145563151041667
-21.172796223958333
-21.187327473958334
-21.180940755208333
-21.16779296875
-21.189905598958333
-21.206432291666665
-21.236018880208334
-21.276510416666667
-21.3287109375
-21.355973307291666
-21.391334635416666
-21.429567057291667
-21.464225260416665
-21.475364583333334
-21.4979296875
-21.527242838541667
-21.575276692708332
-21.617281901041668
-21.444677734375
-21.254401041666668
-21.211175130208332
-21.270494791666668
-21.296546223958334
-21.3628515625
-21.363395182291665
-21.328294270833332
-21.336907552083332
-21.361689453125
-21.387659505208333
-21.468736979166668
-21.501536458333334
-21.549095052083334
-21.553453776041668
-21.572594401041666
-21.613235677083335
-21.635022786458332
-21.676803385416665
-21.714733072916665
-21.742838541666668
-21.597819010416668
-21.394733072916665
-21.300517578125
-21.312119140625
-21.327444661458333
-21.338717447916668
-21.393343098958333
-21.371923828125
-21.373610026041668
-21.402835286458334
-21.428255208333333
-21.451292317708333
-21.54596028645833
-21.562216796875
-21.580211588541665
-21.61951171875
-21.646793619791666
-21.669986979166666
-21.70185546875
-21.744619140625
-21.773427734375
-21.7012109375
-21.449703776041666
-21.302568359375
-21.28921875
-21.328873697916666
-21.338082682291667
-21.352272135416666
-21.37982096354167
-21.371627604166665
-21.358779296875
-21.352506510416667
-21.385016276041668
-21.441145833333334
-21.476041666666667
-21.517845052083334
-21.542041015625
-21.566149088541668
-21.612799479166668
-21.635266927083332
-21.64474609375
-21.697132161458335
-21.748860677083332
-21.807692057291668
-21.842216796875
-21.828876953125
-21.597509765625
-21.361780598958333
-21.310478515625
-21.338134765625
-21.334964192708334
-21.344947916666666
-21.360797526041665
-21.364990234375
-21.3614453125
-21.37703125
-21.416243489583334
-21.450192057291666
-21.531344401041668
-21.568580729166666
-21.590413411458332
-21.613525390625
-21.664762369791667
-21.679095052083333
-21.716119791666667
-21.75173502604167
-21.780628255208335
-21.812529296875
-21.83102864583333
-21.664098307291667
-21.412057291666667
-21.322428385416668
-21.3769921875
-21.408372395833332
-21.434759114583333
-21.430390625
-21.4048046875
-21.42302734375
-21.471136067708333
-21.544697265625
-21.584189453125
-21.635074869791666
-21.668805338541667
-21.701162109375
-21.731360677083334
-21.77109375
-21.82663411458333
-21.8277734375
-21.569951171875
-21.415328776041665
-21.413125
-21.453424479166667
-21.479908854166666
-21.499365234375
-21.550882161458333
-21.548697916666665
-21.52275390625
-21.529013671875
-21.586809895833333
-21.630130208333334
-21.672164713541665
-21.706617838541668
-21.721155598958333
-21.762132161458332
-21.795947265625
-21.807506510416665
-21.847565104166666
-21.903772786458333
-21.672705078125
-21.4825390625
-21.450589192708332
-21.48130859375
-21.506123046875
-21.505328776041665
-21.539140625
-21.560380859375
-21.541982421875
-21.554163411458333
-21.558466796875
-21.592145182291667
-21.627493489583333
-21.678974609375
-21.711051432291665
-21.73919921875
-21.763444010416666
-21.80111328125
-21.819837239583332
-21.873414713541667
-21.91591796875
-21.790895182291667
-21.437141927083335
-21.447854817708333
-21.457936197916666
-21.458528645833333
-21.46091145833333
-21.490953776041668
-21.493776041666667
-21.52859375
-21.54638671875
-21.576865234375
-21.617151692708333
-21.667412109375
-21.681412760416666
-21.738479817708335
-21.766822916666666
-21.780833333333334
-21.819020182291666
-21.858040364583335
-21.906686197916667
-21.69759765625
-21.519361979166668
-21.475247395833332
-21.499827473958334
-21.512337239583335
-21.497825520833334
-21.501435546875
-21.531686197916667
-21.546298828125
-21.537115885416668
-21.568391927083333
-21.638792317708333
-21.692369791666668
-21.722493489583332
-21.749527994791666
-21.801803385416665
-21.83373046875
-21.87349609375
-21.900169270833334
-21.940768229166668
-21.986370442708335
-22.013167317708334
-22.055123697916667
-22.040442708333334
-21.850211588541665
-21.655179036458332
-21.648977864583333
-21.683831380208332
-21.671064453125
-21.685257161458335
-21.701663411458334
-21.683636067708335
-21.696266276041666
-21.702229817708332
-21.715042317708335
-21.73923828125
-21.806943359375
-21.834609375
-21.859817708333335
-21.875419921875
-21.9075390625
-21.92865234375
-22.012320963541665
-22.025319010416666
-22.065953776041667
-22.12786783854167
-22.038466796875
-21.80584635416667
-21.684944661458335
-21.671223958333332
-21.673850911458334
-21.690777994791667
-21.73630208333333
-21.75134765625
-21.723896484375
-21.722421875
-21.772779947916668
-21.79126953125
-21.80775390625
-21.875302734375
-21.901188151041666
-21.90369140625
-21.943391927083333
-21.944189453125
-21.952848307291667
-22.01435546875
-22.0669921875
-21.951643880208334
-21.738232421875
-21.620768229166668
-21.609567057291667
-21.640374348958332
-21.65544921875
-21.647197265625
-21.658805338541665
-21.65619140625
-21.650481770833334
-21.664554036458334
-21.715029296875
-21.778004557291666
-21.799856770833333
-21.813717447916666
-21.849033203125
-21.868307291666667
-21.895393880208335
-21.958079427083334
-22.005654296875
-22.035227864583334
-22.01400390625
-21.569970703125
-21.491165364583335
-21.527962239583335
-21.504573567708334
-21.502438151041666
-21.547408854166665
-21.55734700520833
-21.524908854166668
-21.53127604166667
-21.560719401041666
-21.60109375
-21.658772786458332
-21.691181640625
-21.715774739583335
-21.722262369791668
-21.763916015625
-21.801868489583335
-21.839544270833333
-21.873037109375
-21.888108723958332
-21.939544270833334
-21.967483723958335
-21.900260416666665
-21.644427083333333
-21.487314453125
-21.478671875
-21.511442057291667
-21.51623046875
-21.51619140625
-21.532213541666668
-21.538040364583335
-21.52301106770833
-21.60771484375
-21.657063802083332
-21.685104166666665
-21.710393880208333
-21.745660807291667
-21.779397786458333
-21.836966145833333
-21.863841145833334
-21.899661458333334
-21.935823567708333
-21.994765625
-22.03166015625
-22.02288736979167
-21.79970703125
-21.61298828125
-21.56009765625
-21.60931315104167
-21.640735677083335
-21.650149739583334
-21.667900390625
-21.67203125
-21.667389322916666
-21.719612630208335
-21.756048177083333
-21.763779296875
-21.794759114583332
-21.840797526041666
-21.872060546875
-21.915843098958334
-21.991051432291666
-22.039622395833334
-22.059850260416667
-22.01712890625
-21.810091145833333
-21.678590494791667
-21.669485677083333
-21.729225260416666
-21.778317057291666
-21.780498046875
-21.8034375
-21.765397135416666
-21.795638020833334
-21.836204427083334
-21.881315104166667
-21.90322265625
-21.927425130208334
-21.93833984375
-21.951373697916665
-21.970419921875
-21.991888020833333
-22.021110026041665
-22.055735677083334
-21.871432291666668
-21.681031901041667
-21.652047526041667
-21.664251302083333
-21.68307942708333
-21.690970052083333
-21.731881510416667
-21.720533854166668
-21.684951171875
-21.704052734375
-21.72173828125
-21.752783203125
-21.793610026041666
-21.847945963541665
-21.851692708333335
-21.864446614583333
-21.904205729166666
-21.933723958333335
-21.865986328125
-21.640159505208334
-21.500234375
-21.492412109375
-21.501901041666667
-21.500016276041666
-21.487093098958333
-21.472587890625
-21.468326822916666
-21.504358723958333
-21.542747395833334
-21.567278645833333
-21.574508463541665
-21.588961588541668
-21.621402994791666
-21.652763671875
-21.662666015625
-21.6803125
-21.71478515625
-21.698815104166666
-21.489095052083332
-21.28521484375
-21.296481119791668
-21.295953776041667
-21.27876953125
-21.284664713541666
-21.3065625
-21.317529296875
-21.352548828125
-21.386350911458333
-21.396090494791668
-21.440198567708332
-21.460403645833335
-21.50318359375
-21.515540364583334
-21.52252278645833
-21.53796875
-21.579518229166666
-21.613597005208334
-21.642093098958334
-21.623968098958333
-21.440804036458335
-21.262102864583333
-21.225582682291666
-21.257369791666665
-21.2618359375
-21.2394921875
-21.28595703125
-21.289140625
-21.275406901041666
-21.291279296875
-21.339563802083333
-21.365348307291665
-21.384244791666667
-21.431142578125
-21.4662890625
-21.492848307291666
-21.55876953125
-21.575631510416667
-21.620810546875
-21.669921875
-21.597532552083333
-21.38678059895833
-21.294973958333333
-21.305026041666668
-21.318623046875
-21.318697916666668
-21.317477213541668
-21.344794921875
-21.342444661458334
-21.341396484375
-21.369596354166667
-21.416813151041666
-21.431490885416668
-21.459459635416668
-21.502470703125
-21.50588541666667
-21.53478515625
-21.550657552083333
-21.583219401041667
-21.664202473958333
-21.699612630208332
-21.721070963541667
-21.762379557291666
-21.78347330729167
-21.681051432291667
-21.487838541666665
-21.408583984375
-21.444680989583333
-21.46744140625
-21.456920572916665
-21.456038411458334
-21.483277994791667
-21.493365885416665
-21.475263671875
-21.465559895833334
-21.532223307291666
-21.565986328125
-21.582386067708335
-21.592688802083334
-21.625875651041667
-21.662786458333333
-21.680862630208335
-21.70602864583333
-21.72890625
-21.747825520833334
-21.782760416666665
-21.820882161458332
-21.724348958333334
-21.534762369791668
-21.561686197916668
-21.56318359375
-21.633076171875
-21.660817057291666
-21.59830078125
-21.546181640625
-21.574514973958333
-21.60788411458333
-21.630654296875
-21.6862109375
-21.694895833333334
-21.722574869791668
-21.76279296875
-21.773502604166666
-21.7899609375
-21.811826171875
-21.820686848958335
-21.815771484375
-21.698147786458332
-21.543701171875
-21.505543619791666
-21.525745442708335
-21.55520182291667
-21.55361328125
-21.575397135416665
-21.580198567708333
-21.570224609375
-21.566168619791668
-21.586995442708332
-21.610966796875
-21.644752604166666
-21.679248046875
-21.70403971354167
-21.717301432291666
-21.744645182291666
-21.75763671875
-21.803408203125
-21.815543619791665
-21.839088541666666
-21.7331640625
-21.545904947916668
-21.485159505208333
-21.4994140625
-21.52663736979167
-21.545270182291667
-21.578697916666666
-21.619231770833334
-21.613238932291665
-21.589361979166668
-21.6141015625
-21.645999348958334
-21.676253255208334
-21.706337890625
-21.752115885416668
-21.758173828125
-21.786263020833335
-21.794130859375
-21.868763020833335
-21.911949869791666
-21.855035807291667
-21.653369140625
-21.517985026041668
-21.494254557291665
-21.516516927083334
-21.5297265625
-21.530322265625
-21.60443033854167
-21.606214192708332
-21.617421875
-21.629241536458334
-21.643014322916667
-21.694020182291666
-21.720107421875
-21.757552083333334
-21.777203776041667
-21.785651041666668
-21.825826822916667
-21.899375
-21.923658854166668
-21.894703776041666
-21.690852864583334
-21.56505859375
-21.541875
-21.576975911458334
-21.597744140625
-21.59240234375
-21.643938802083333
-21.677190755208333
-21.67575520833333
-21.674013671875
-21.698160807291668
-21.720364583333332
-21.731539713541668
-21.761018880208333
-21.806393229166666
-21.86599283854167
-21.895100911458332
-21.92706380208333
-21.963024088541665
-22.006207682291667
-22.040152994791665
-22.07684244791667
-22.05544921875
-21.875530598958335
-21.7094140625
-21.7003515625
-21.721292317708333
-21.715970052083332
-21.719615885416665
-21.724928385416668
-21.741627604166666
-21.752356770833334
-21.755908203125
-21.790188802083332
-21.79904622395833
-21.830738932291666
-21.844182942708333
-21.902591145833334
-21.9378515625
-21.963287760416666
-21.975537109375
-21.995794270833333
-22.040944010416666
-22.069176432291666
-22.103277994791668
-21.95562825520833
-21.764934895833335
-21.721839192708334
-21.75612955729167
-21.7752734375
-21.806217447916666
-21.825240885416665
-21.822001953125
-21.794856770833334
-21.817457682291668
-21.865563151041666
-21.891995442708332
-21.911412760416667
-21.948050130208333
-21.97455078125
-22.048212890625
-22.125227864583334
-22.06817708333333
-21.869583333333335
-21.71708984375
-21.661448567708334
-21.656839192708333
-21.691357421875
-21.6905078125
-21.72583984375
-21.731396484375
-21.692223307291666
-21.681917317708333
-21.70533203125
-21.7393359375
-21.762093098958335
-21.7959765625
-21.839469401041665
-21.874661458333332
-21.934622395833333
-21.938291015625
-21.965452473958333
-22.0225
-21.91794270833333
-21.6925390625
-21.54546875
-21.516751302083332
-21.530276692708334
-21.553899739583333
-21.548603515625
-21.567727864583333
-21.57927734375
-21.5971484375
-21.602109375
-21.622001953125
-21.659860026041667
-21.699104817708335
-21.733551432291666
-21.769365234375
-21.79673828125
-21.823873697916667
-21.8589453125
-21.891572265625
-21.92884765625
-21.957122395833334
-21.97359375
-21.872613932291667
-21.632805989583332
-21.520559895833333
-21.53359375
-21.553203125
-21.557770182291666
-21.563759765625
-21.575319010416667
-21.570169270833333
-21.59027018229167
-21.613828125
-21.665123697916666
-21.702926432291665
-21.7265234375
-21.778570963541668
-21.794996744791668
-21.80765625
-21.861018880208334
-21.900426432291667
-21.915139973958333
-21.958264973958332
-21.967060546875
-21.760149739583333
-21.566064453125
-21.511064453125
-21.538821614583334
-21.540810546875
-21.551712239583335
-21.555328776041666
-21.5445703125
-21.527158203125
-21.545201822916667
-21.566988932291668
-21.600397135416667
-21.645361328125
-21.669892578125
-21.7075390625
-21.728938802083334
-21.745006510416665
-21.77682942708333
-21.795462239583333
-21.864703776041665
-21.896995442708334
-21.934222005208333
-21.979889322916666
-21.968639322916665
-21.744111328125
-21.555677083333332
-21.454410807291666
-21.486767578125
-21.470143229166666
-21.456497395833335
-21.480921223958333
-21.465755208333334
-21.454547526041665
-21.448190104166667
-21.490244140625
-21.532275390625
-21.557903645833335
-21.618388671875
-21.62419921875
-21.6248828125
-21.64353515625
-21.663421223958334
-21.729329427083332
-21.76880859375
-21.779606119791666
-21.800638020833333
-21.836175130208332
-21.67732421875
-21.413050130208333
-21.300813802083333
-21.323932291666665
-21.379182942708333
-21.40509114583333
-21.393779296875
-21.372405598958334
-21.335758463541666
-21.328899739583335
-21.344934895833333
-21.376692708333334
-21.413522135416667
-21.44271484375
-21.474856770833334
-21.51144856770833
-21.526116536458332
-21.54349609375
-21.571360677083334
-21.58626953125
-21.599798177083333
-21.620152994791667
-21.635849609375
-21.48798828125
-21.252731119791665
-21.152962239583335
-21.166748046875
-21.185657552083335
-21.209075520833334
-21.236409505208332
-21.242099609375
-21.179964192708333
-21.16267578125
-21.187581380208332
-21.219866536458333
-21.246705729166667
-21.293346354166665
-21.332672526041666
-21.365563151041666
-21.377141927083333
-21.373251953125
-21.413994140625
-21.450810546875
-21.456057942708334
-21.35040364583333
-21.090709635416665
-20.936875
-20.894417317708335
-20.905179036458332
-20.921031901041665
-20.957281901041668
-20.938929036458333
-20.88607421875
-20.93044921875
-20.944619140625
-20.984072265625
-21.021474609375
-21.061243489583333
-21.101315104166666
-21.118675130208334
-21.131022135416668
-21.155546875
-21.187389322916665
-21.2255078125
-21.23296875
-21.002213541666666
-20.739908854166668
-20.652483723958333
-20.662294921875
-20.66142578125
-20.662294921875
-20.684703776041665
-20.698167317708332
-20.659583333333334
-20.661507161458335
-20.699947916666666
-20.734951171875
-20.776165364583335
-20.81921875
-20.83737630208333
-20.892991536458332
-20.930647786458334
-20.948343098958333
-20.973072916666666
-21.026259765625
-21.075087890625
-20.999593098958332
-20.6946875
-20.505123697916666
-20.481350911458332
-20.506061197916665
-20.497294921875
-20.499791666666667
-20.5296484375
-20.540426432291667
-20.522877604166666
-20.513544921875
-20.529973958333333
-20.559427083333333
-20.608779296875
-20.675729166666667
-20.703798828125
-20.740543619791666
-20.770891927083333
-20.819296875
-20.82940755208333
-20.866100260416665
-20.899521484375
-20.949251302083333
-20.977138671875
-20.936487630208333
-20.677858072916667
-20.45648111979167
-20.392975260416666
-20.410380859375
-20.453125
-20.455706380208333
-20.491904296875
-20.506927083333334
-20.484248046875
-20.485719401041667
-20.510139973958335
-20.564319661458335
-20.599967447916665
-20.62267578125
-20.682727864583335
-20.738157552083333
-20.769322916666667
-20.7991015625
-20.843701171875
-20.918414713541665
-20.978255208333334
-21.023473307291667
-21.11355143229167
-21.237408854166667
-21.18388671875
-20.906253255208334
-20.679615885416666
-20.656461588541667
-20.738792317708334
-20.748180338541665
-20.788857421875
-20.812750651041668
-20.78771484375
-20.771295572916667
-20.806110026041665
-20.849195963541668
-20.94558268229167
-20.984430338541667
-21.015944010416668
-21.052399088541666
-21.0776953125
-21.108665364583334
-21.151266276041667
-21.18020182291667
-21.249169921875
-21.287568359375
-21.208929036458333
-20.960885416666667
-20.793863932291668
-20.792272135416667
-20.846871744791667
-20.89181966145833
-20.917063802083334
-20.964700520833333
-20.94984375
-20.92583984375
-20.92633138020833
-20.933968098958335
-20.97735677083333
-21.032861328125
-21.080520833333335
-21.10931640625
-21.14248046875
-21.175345052083333
-21.20224609375
-21.21357421875
-21.297737630208335
-21.153798828125
-20.78143229166667
-20.784261067708332
-20.833701171875
-20.88447265625
-20.873518880208334
-20.84524088541667
-20.830081380208334
-20.877001953125
-20.945895182291668
-21.014231770833334
-21.046676432291665
-21.08951171875
-21.136897786458334
-21.1473046875
-21.165764973958332
-21.21318359375
-21.253821614583334
-21.257454427083335
-21.092998046875
-20.8365234375
-20.71986328125
-20.735572916666666
-20.772639973958334
-20.780498046875
-20.79636067708333
-20.813531901041667
-20.808798828125
-20.81329427083333
-20.830208333333335
-20.94447265625
-20.985940755208333
-21.013160807291666
-21.06015625
-21.099527994791668
-21.18060221354167
-21.23041015625
-21.288717447916667
-21.099449869791666
-20.876943359375
-20.770348307291666
-20.770947265625
-20.802757161458334
-20.812688802083333
-20.862333984375
-20.854427083333334
-20.851673177083335
-20.890885416666666
-20.917347005208335
-20.934723307291666
-21.048792317708333
-21.078251953125
-21.11138997395833
-21.134576822916667
-21.175455729166668
-21.269055989583332
-21.322369791666667
-21.395611979166667
-21.442213541666668
-21.310647786458333
-20.9875390625
-20.995065104166667
-21.047607421875
-21.068971354166667
-21.063356119791667
-21.117819010416667
-21.119309895833332
-21.126663411458335
-21.16033854166667
-21.215569661458332
-21.294768880208334
-21.320029296875
-21.355888671875
-21.403668619791667
-21.429384765625
-21.457552083333333
-21.490559895833332
-21.535865885416666
-21.585234375
-21.612828776041667
-21.540559895833333
-21.363662109375
-21.305569661458332
-21.315983072916666
-21.352333984375
-21.36259765625
-21.394000651041665
-21.449905598958335
-21.439567057291665
-21.43521484375
-21.459908854166667
-21.509423828125
-21.559147135416666
-21.606145833333333
-21.61554036458333
-21.645263671875
-21.698238932291666
-21.7304296875
-21.765091145833335
-21.819140625
-21.767734375
-21.587044270833335
-21.44546875
-21.45158203125
-21.495419921875
-21.503541666666667
-21.502177734375
-21.534248046875
-21.523896484375
-21.507369791666665
-21.534928385416666
-21.542477213541666
-21.572109375
-21.594622395833333
-21.636627604166666
-21.670257161458334
-21.692952473958332
-21.7138671875
-21.71722330729167
-21.737740885416667
-21.800764973958334
-21.825361328125
-21.798326822916668
-21.419420572916668
-21.361513671875
-21.382347005208334
-21.428092447916665
-21.425003255208335
-21.410533854166665
-21.376204427083334
-21.389501953125
-21.414013671875
-21.500856119791667
-21.53376953125
-21.573743489583332
-21.595029296875
-21.625699869791667
-21.649410807291666
-21.662262369791666
-21.707766927083334
-21.738323567708335
-21.791416015625
-21.72405924479167
-21.454134114583333
-21.282578125
-21.269166666666667
-21.282825520833335
-21.283203125
-21.245895182291665
-21.24835286458333
-21.239752604166668
-21.277532552083333
-21.316826171875
-21.335833333333333
-21.369879557291668
-21.438473307291666
-21.492379557291667
-21.506468098958333
-21.534111328125
-21.546363932291666
-21.620078125
-21.638522135416668
-21.695804036458334
-21.595208333333332
-21.18158203125
-21.140009765625
-21.15466796875
-21.189430338541666
-21.193238932291667
-21.205162760416666
-21.217561848958333
-21.226334635416666
-21.210537109375
-21.2360546875
-21.291761067708332
-21.39509765625
-21.4198046875
-21.46341796875
-21.488151041666665
-21.54266276041667
-21.628606770833333
-21.661819661458335
-21.733619791666666
-21.789498697916667
-21.654716796875
-21.37837890625
-21.213548177083332
-21.186780598958332
-21.194694010416665
-21.201298828125
-21.231168619791667
-21.2526171875
-21.245377604166666
-21.221793619791665
-21.23712890625
-21.296389973958334
-21.385764973958334
-21.424016927083333
-21.466809895833332
-21.49322591145833
-21.557360026041668
-21.60662109375
-21.634690755208332
-21.692327473958333
-21.73728515625
-21.767379557291665
-21.616142578125
-21.215110677083334
-21.202516276041667
-21.245514322916666
-21.270380859375
-21.317024739583335
-21.321904296875
-21.305559895833333
-21.374915364583334
-21.415758463541668
-21.471754557291668
-21.490908203125
-21.519124348958332
-21.541790364583335
-21.576321614583332
-21.608212890625
-21.656259765625
-21.706337890625
-21.692014973958333
-21.472060546875
-21.208287760416667
-21.233014322916667
-21.2794921875
-21.286009114583333
-21.325647786458333
-21.32673828125
-21.309361979166667
-21.280797526041667
-21.31267578125
-21.339202473958334
-21.411389973958332
-21.456302083333334
-21.4880078125
-21.51226888020833
-21.558678385416666
-21.594016927083334
-21.616959635416666
-21.558310546875
-21.318662109375
-21.110416666666666
-21.058466796875
-21.101031901041665
-21.132880859375
-21.171803385416666
-21.171044921875
-21.130055338541666
-21.144547526041666
-21.188531901041667
-21.240569661458334
-21.312692057291667
-21.341087239583334
-21.377119140625
-21.394475911458333
-21.40749674479167
-21.434208984375
-21.475358072916666
-21.426142578125
-21.148974609375
-20.952688802083333
-20.967418619791665
-20.968795572916665
-20.946953125
-20.96877604166667
-20.988421223958333
-20.9821875
-21.017467447916665
-21.053346354166667
-21.154544270833334
-21.207360026041666
-21.272317708333333
-21.294934895833332
-21.369749348958333
-21.409645182291666
-21.011158854166666
-20.877578125
-20.876956380208334
-20.886311848958332
-20.880504557291665
-20.939397786458333
-20.949261067708335
-20.93609375
-20.957405598958335
-20.976552734375
-20.999931640625
-21.027880859375
-21.080709635416667
-21.151171875
-21.17310546875
-21.208408203125
-21.238382161458333
-21.282965494791668
-21.333030598958334
-21.378489583333334
-21.230179036458335
-21.021165364583332
-20.94529296875
-20.96819986979167
-20.954322916666666
-20.963356119791666
-21.007513020833333
-21.01690755208333
-21.005074869791667
-21.025270182291667
-21.118896484375
-21.151123046875
-21.19533854166667
-21.219186197916667
-21.261396484375
-21.325556640625
-21.34955078125
-21.3883203125
-21.418977864583333
-21.44919270833333
-21.498196614583332
-21.540813802083335
-21.481728515625
-21.25925130208333
-21.119055989583334
-21.102998046875
-21.140712890625
-21.157919921875
-21.18091796875
-21.186539713541666
-21.1921875
-21.21419921875
-21.252366536458332
-21.27966796875
-21.32791015625
-21.3534765625
-21.361298828125
-21.39720703125
-21.454918619791666
-21.47311848958333
-21.506145833333335
-21.556263020833335
-21.592005208333333
-21.608385416666668
-21.319124348958333
-21.224606119791666
-21.222783203125
-21.296975911458333
-21.309130859375
-21.329326171875
-21.325152994791665
-21.313310546875
-21.346171875
-21.373160807291665
-21.40118489583333
-21.450052083333333
-21.477516276041666
-21.494208984375
-21.517835286458332
-21.537529296875
-21.577711588541668
-21.599833984375
-21.62310546875
-21.636201171875
-21.338743489583333
-21.247750651041667
-21.273675130208332
-21.277682291666668
-21.289029947916667
-21.328984375
-21.320455729166667
-21.29953450520833
-21.339095052083334
-21.385026041666666
-21.414091796875
-21.44724609375
-21.458385416666665
-21.521305338541666
-21.539231770833332
-21.557386067708332
-21.59674153645833
-21.625983072916668
-21.423587239583334
-21.227766927083334
-21.169684244791668
-21.1969921875
-21.219485677083334
-21.197119140625
-21.227952473958332
-21.2751171875
-21.25060546875
-21.255934244791668
-21.2671484375
-21.281435546875
-21.365810546875
-21.408626302083334
-21.470126953125
-21.528095703125
-21.554742838541667
-21.585065104166667
-21.634453125
-21.676598307291666
-21.661796875
-21.253369140625
-21.216809895833332
-21.266337890625
-21.289293619791668
-21.282747395833333
-21.297750651041667
-21.332669270833332
-21.340621744791665
-21.344970703125
-21.3761328125
-21.410387369791668
-21.453011067708335
-21.497672526041665
-21.531028645833334
-21.556363932291667
-21.57931966145833
-21.644368489583332
-21.683011067708332
-21.7201953125
-21.771240234375
-21.697434895833332
-21.469205729166667
-21.35419921875
-21.367138671875
-21.418981119791667
-21.417802734375
-21.470888671875
-21.448759765625
-21.43447265625
-21.476871744791666
-21.516780598958334
-21.603125
-21.635520833333334
-21.669309895833333
-21.690458984375
-21.718942057291667
-21.745266927083332
-21.833284505208333
-21.872721354166668
-21.913118489583333
-21.961741536458334
-21.954768880208334
-21.740279947916665
-21.573382161458333
-21.555999348958334
-21.591891276041668
-21.621722005208333
-21.634749348958334
-21.657057291666668
-21.67892578125
-21.6511328125
-21.662001953125
-21.69293294270833
-21.771826171875
-21.8400390625
-21.868502604166668
-21.90171875
-21.939069010416667
-21.97177734375
-22.006103515625
-22.027682291666668
-22.035364583333333
-21.860660807291666
-21.661910807291665
-21.624046223958334
-21.64638671875
-21.675885416666667
-21.729293619791665
-21.7419140625
-21.722493489583332
-21.678216145833332
-21.690185546875
-21.735110677083334
-21.796917317708335
-21.81268229166667
-21.8518359375
-21.881985677083332
-21.903785807291666
-21.907229817708334
-21.936614583333334
-21.974202473958332
-21.995237630208333
-21.855068359375
-21.507379557291667
-21.513102213541668
-21.538154296875
-21.551875
-21.56243815104167
-21.581448567708332
-21.56703125
-21.532356770833335
-21.556354166666665
-21.583743489583334
-21.621087239583332
-21.641279296875
-21.673424479166666
-21.715862630208335
-21.744391276041668
-21.766979166666665
-21.807893880208333
-21.845940755208332
-21.766057942708333
-21.533287760416666
-21.321461588541666
-21.287727864583335
-21.302174479166666
-21.305677083333332
-21.301953125
-21.329117838541666
-21.344453125
-21.304837239583332
-21.276669921875
-21.334095052083335
-21.364619140625
-21.406458333333333
-21.450472005208333
-21.4690234375
-21.49560546875
-21.5372265625
-21.565673828125
-21.575550130208335
-21.60959309895833
-21.653743489583334
-21.643681640625
-21.418317057291667
-21.162099609375
-21.051796875
-21.055338541666668
-21.087490234375
-21.080022786458333
-21.091826171875
-21.095029296875
-21.085813802083333
-21.0901953125
-21.120764973958334
-21.17298828125
-21.219993489583334
-21.254583333333333
-21.300257161458333
-21.33123046875
-21.347223307291667
-21.381901041666666
-21.418294270833332
-21.433942057291667
-21.466767578125
-21.51392578125
-21.465100911458332
-21.178369140625
-20.948821614583334
-20.985455729166667
-20.995393880208333
-21.02829427083333
-21.010777994791667
-20.978893229166665
-21.015211588541668
-21.07330403645833
-21.11181640625
-21.15350260416667
-21.176666666666666
-21.214944661458333
-21.26751953125
-21.28427734375
-21.331119791666666
-21.370530598958332
-21.39873046875
-21.375833333333333
-21.135738932291666
-20.882063802083334
-20.836253255208334
-20.877265625
-20.894573567708335
-20.903942057291665
-20.954000651041667
-20.956005859375
-20.913707682291665
-20.929729817708335
-20.976038411458333
-21.02145833333333
-21.052259114583332
-21.096761067708332
-21.160660807291666
-21.185068359375
-21.20767578125
-21.2333984375
-21.280348307291668
-21.308971354166665
-21.196647135416665
-20.905182291666666
-20.71861328125
-20.702145182291666
-20.73279296875
-20.744049479166666
-20.748177083333335
-20.793216145833334
-20.788473307291667
-20.769000651041665
-20.769322916666667
-20.8066796875
-20.849534505208332
-20.949342447916667
-20.988352864583334
-21.009293619791666
-21.021793619791666
-21.069407552083334
-21.106220703125
-21.125533854166665
