-25.053818359375
-25.174827473958334
-22.197945963541667
-22.211227213541665
-44.108984375
-55.249599609375
-55.32124348958333
-41.479404296875
-38.09385416666667
-37.907080078125
-37.80710611979167
-38.462587890625
-34.93852213541667
-36.295192057291665
-34.051175130208335
-33.01810546875
-33.037220052083335
-33.028740234375
-33.102047526041666
-33.21250325520833
-33.289127604166666
-33.40413736979167
-33.44572265625
-33.502506510416666
-33.55075846354167
-33.613525390625
-33.683955078125
-33.82783528645833
-33.482418619791666
-33.268551432291666
-33.221826171875
-33.36496744791667
-33.45
-33.489013671875
-33.469547526041666
-33.4865234375
-33.614459635416665
-33.680120442708336
-33.72777669270833
-33.77131510416667
-33.840791015625
-33.898037109375
-33.93052083333333
-33.9541796875
-34.088557942708334
-34.156513671875
-33.696982421875
-32.989296875
-33.200192057291666
-33.272275390625
-33.323717447916664
-33.3962109375
-33.41510091145833
-33.365986328125
-33.32960611979167
-33.366741536458335
-33.44908203125
-33.542451171875
-33.60359375
-33.65287760416667
-33.71784830729167
-33.75838541666667
-33.787490234375
-33.82513671875
-33.863766276041666
-33.89240234375
-33.71539388020833
-33.498805338541665
-33.41545247395833
-33.445869140625
-33.51662109375
-33.58701822916667
-33.660830078125
-33.695673828125
-33.6675390625
-33.641953125
-33.63058268229167
-33.669690755208336
-33.731487630208335
-33.78343098958333
-33.8305078125
-33.94340494791667
-34.00499674479167
-34.035953776041666
-34.013050130208335
-33.775296223958335
-33.56864908854167
-33.51454752604167
-33.53674153645834
-33.588154296875
-33.63871744791667
-33.710003255208335
-33.729912109375
-33.699641927083334
-33.6792578125
-33.697932942708334
-33.74051432291667
-33.80139322916666
-33.855263671875
-33.909847005208334
-33.96382161458333
-33.99792317708334
-34.027294921875
-34.05636393229167
-34.095537109375
-34.08232096354167
-33.837972005208336
-33.59037760416667
-33.49481119791667
-33.48683268229167
-33.5292578125
-33.5683984375
-33.630221354166665
-33.670986328125
-33.64480794270833
-33.617594401041664
-33.621005859375
-33.65217447916667
-33.71190755208333
-33.82486653645833
-33.875380859375
-33.91988606770833
-33.97364908854167
-34.0203125
-34.052906901041666
-34.09259765625
-34.13517903645833
-34.048427734375
-33.741360677083335
-33.539251302083336
-33.4885546875
-33.52225260416667
-33.56461263020833
-33.61377604166667
-33.66191080729167
-33.652249348958335
-33.630966796875
-33.618434244791665
-33.633984375
-33.68099934895833
-33.73486328125
-33.778880208333334
-33.83431315104167
-33.883212890625
-33.929348958333335
-33.957288411458336
-33.98502278645833
-34.006656901041666
-34.042779947916664
-34.087490234375
-34.013515625
-33.708483072916664
-33.49658203125
-33.436875
-33.46736002604167
-33.505680338541666
-33.55704427083333
-33.60813802083333
-33.59564453125
-33.551608072916665
-33.52478515625
-33.54498046875
-33.595026041666664
-33.642093098958334
-33.686822916666664
-33.74629231770833
-33.78587890625
-33.82384765625
-33.862548828125
-33.89016927083333
-33.90971354166667
-33.95251302083334
-33.9968359375
-34.04509114583333
-33.94921223958333
-33.62693684895833
-33.395657552083335
-33.338268229166665
-33.41658854166667
-33.540791015625
-33.47072265625
-33.46578125
-33.505400390625
-33.56882486979167
-33.6245703125
-33.671123046875
-33.713818359375
-33.743173828125
-33.78098958333333
-33.817822265625
-33.82834635416667
-33.8723828125
-33.916676432291666
-33.952662760416665
-33.72473958333333
-33.374456380208336
-33.194794921875
-33.172825520833335
-33.21394205729167
-33.25602864583333
-33.33924153645833
-33.370419921875
-33.347096354166666
-33.29691080729167
-33.263509114583336
-33.28628580729167
-33.346165364583335
-33.40035481770833
-33.47486979166667
-33.51972330729166
-33.565927734375
-33.60318359375
-33.63896158854167
-33.656474609375
-33.672900390625
-33.727701822916664
-33.76857747395833
-33.609345703125
-33.22169921875
-32.983193359375
-32.93330078125
-32.9706640625
-33.63951822916667
-33.594580078125
-33.6465625
-33.615263671875
-33.5490234375
-33.513440755208336
-33.54342122395833
-33.58514322916667
-33.655924479166664
-33.71977213541667
-33.77271158854167
-33.82827799479167
-33.862141927083336
-33.9125
-33.924833984375
-33.955146484375
-33.976223958333335
-34.03616861979167
-33.945979817708334
-33.56707682291667
-33.25303385416667
-33.1633984375
-33.18295247395833
-33.241279296875
-33.315966796875
-33.38852864583333
-33.31322265625
-33.2661328125
-33.29962890625
-33.36071614583334
-33.422008463541665
-33.482516276041665
-33.53984700520834
-33.57266927083333
-33.59881510416667
-33.61779947916666
-33.641695963541665
-33.671650390625
-33.66746419270833
-33.38970052083334
-33.018076171875
-32.863671875
-32.86372395833333
-32.900823567708336
-33.60170247395833
-33.574931640625
-33.59988932291667
-33.53697916666667
-33.47853841145833
-33.465481770833335
-33.50158854166666
-33.570133463541666
-33.63779622395833
-33.70310872395833
-33.755367838541666
-33.796396484375
-33.83721028645834
-33.857353515625
-33.90822591145833
-33.71156575520833
-33.30186197916667
-33.039606119791664
-32.989283854166665
-33.02876302083333
-33.08799479166667
-33.157688802083335
-33.222073567708335
-33.188544921875
-33.12361328125
-33.097223307291664
-33.119267578125
-33.193056640625
-33.28021484375
-33.33581380208334
-33.39342447916667
-33.44625651041667
-33.483958333333334
-33.509860026041665
-33.548580729166666
-33.59487955729167
-33.607845052083334
-33.332998046875
-32.93713541666666
-32.74391276041667
-32.82957356770833
-33.435725911458334
-33.817805989583334
-33.926455078125
-33.888525390625
-33.844365234375
-33.840091145833334
-33.89254231770833
-33.970514322916664
-34.050266927083335
-34.121865234375
-34.18679036458333
-34.23210286458333
-34.28278971354167
-34.323232421875
-34.36427408854167
-34.414319661458336
-34.473606770833335
-34.468349609375
-34.17342447916667
-33.836354166666666
-33.70523763020833
-33.729775390625
-33.78580078125
-33.85236328125
-33.92455078125
-33.953043619791664
-33.92763020833333
-33.90696614583333
-33.93123046875
-34.00073893229167
-34.067317708333334
-34.149033203125
-34.223987630208335
-34.284716796875
-34.344127604166665
-34.38879557291666
-34.440029296875
-34.487620442708334
-34.54026041666667
-34.607203776041665
-34.67085286458333
-34.655185546875
-34.371881510416664
-34.091647135416665
-34.003408203125
-34.038056640625
-34.110595703125
-34.18115234375
-34.25533203125
-34.28412109375
-34.256123046875
-34.235843098958334
-34.26828776041667
-34.34414713541667
-34.409436848958336
-34.48376953125
-34.617252604166666
-34.66197265625
-34.714326171875
-34.753291015625
-34.804713541666665
-34.82358723958333
-34.87242838541667
-34.36513346354167
-34.076809895833335
-33.734117838541664
-33.44792317708333
-33.33220052083333
-33.355439453125
-33.436748046875
-33.504111328125
-33.59081380208333
-33.5984375
-33.558863932291665
-33.518486328125
-33.54240234375
-33.588798828125
-33.657626953125
-33.719781901041664
-33.82569010416667
-33.865481770833334
-33.906787109375
-33.94322265625
-33.986751302083334
-34.03251627604167
-34.07819986979167
-34.044446614583336
-33.749537760416665
-33.479710286458335
-33.380546875
-33.42077799479166
-33.48596028645834
-33.551097005208334
-33.634462890625
-33.65124674479166
-33.611953125
-33.58662109375
-33.615166015625
-33.66828125
-33.752376302083334
-33.81108723958334
-33.877262369791666
-33.939541015625
-33.982923177083336
-34.02484049479167
-34.058876953125
-34.09893880208333
-34.139921875
-34.189306640625
-34.054375
-33.680432942708336
-33.42499674479166
-33.370875651041665
-33.41122395833333
-33.45910481770834
-33.534290364583335
-33.59131510416667
-33.58373046875
-33.524899088541666
-33.566630859375
-33.627880859375
-33.709661458333336
-33.78372395833333
-33.835247395833335
-33.889759114583335
-33.932552083333334
-33.983427734375
-34.019384765625
-34.07757486979167
-34.1956640625
-34.17908203125
-33.85128580729167
-33.536708984375
-33.43431966145833
-33.46402018229167
-33.526324869791665
-33.59570963541667
-33.65883463541667
-33.701145833333335
-33.67792643229166
-33.66264322916667
-33.693056640625
-33.76047526041667
-33.835690104166666
-33.91982421875
-33.99122721354167
-34.060595703125
-34.11908854166666
-34.171591796875
-34.27866861979167
-34.343857421875
-34.398447265625
-33.814547526041665
-33.8929296875
-33.58484375
-33.33754231770833
-33.28670572916667
-33.34165364583333
-33.407962239583334
-33.479765625
-33.56444661458333
-33.584661458333336
-33.557734375
-33.54894205729167
-33.59084309895833
-33.65367838541667
-33.72957682291667
-33.79396809895833
-33.84828450520833
-33.898076171875
-33.94349609375
-33.98349934895833
-34.02136067708334
-34.064912109375
-34.11716471354167
-34.171640625
-34.22713541666667
-34.11068359375
-33.797809244791665
-33.62937825520833
-33.62099283854167
-33.662486979166665
-33.7342578125
-33.817151692708336
-33.872135416666666
-33.85542317708333
-33.807438151041666
-33.80962239583334
-33.843408203125
-33.892470703125
-33.957880859375
-34.01902669270833
-34.06775716145833
-34.10391927083333
-34.140478515625
-34.170751953125
-34.20830403645834
-34.2403515625
-34.28083658854167
-34.1301171875
-33.83207682291667
-33.05103515625
-33.16001953125
-33.20983072916667
-33.27052408854167
-33.333483072916664
-33.37242838541667
-33.34946614583333
-33.29205078125
-33.302288411458335
-33.34060872395833
-33.39857747395833
-33.456608072916666
-33.50955729166667
-33.554371744791666
-33.589072265625
-33.6279296875
-33.64347981770833
-33.67445638020833
-33.70988606770833
-33.736178385416665
-33.61607421875
-33.276533203125
-33.038935546875
-33.000582682291665
-33.027164713541666
-33.06308919270833
-33.72543294270833
-33.649332682291664
-33.635983072916666
-33.59182942708333
-33.563798828125
-33.60982747395833
-33.654527994791664
-33.714853515625
-33.759075520833335
-33.798274739583334
-33.84670247395833
-33.87783854166667
-33.897314453125
-33.923001302083335
-33.962109375
-33.99580403645833
-33.994267578125
-33.73605143229167
-33.403606770833335
-33.250188802083336
-33.253727213541666
-33.30544270833333
-33.3482421875
-33.404596354166664
-33.446031901041664
-33.41654296875
-33.3796484375
-33.393177083333335
-33.453922526041666
-33.51961588541667
-33.58304036458333
-33.633916015625
-33.69150390625
-33.730732421875
-33.772880859375
-33.822750651041666
-33.867893880208335
-33.90996419270834
-33.952099609375
-34.00132486979167
-33.93209635416667
-33.60883463541666
-33.36888997395833
-33.31513997395833
-33.348271484375
-33.409977213541666
-33.472210286458335
-33.53177408854167
-33.533382161458334
-33.49086263020833
-33.480947265625
-33.517268880208334
-33.580501302083334
-33.647626953125
-33.71261393229167
-33.770859375
-33.80644205729167
-33.837718098958334
-33.878499348958336
-33.907783203125
-33.944853515625
-33.99447591145833
-34.050361328125
-34.019873046875
-33.50720377604166
-33.49189778645833
-33.545192057291665
-33.603486328125
-33.680826822916664
-33.686510416666664
-33.63591145833333
-33.617106119791664
-33.633974609375
-33.694889322916666
-33.75445638020833
-33.83108723958333
-33.88970052083334
-33.92430989583333
-33.95710611979167
-34.001217447916666
-34.02900065104166
-34.05927408854166
-34.102783203125
-34.140065104166666
-34.0829296875
-33.771796875
-33.52383463541667
-33.458919270833334
-33.486803385416664
-33.53671875
-33.587779947916665
-33.660159505208334
-33.65655598958333
-33.605953776041666
-33.58433268229167
-33.614352213541665
-33.666178385416664
-33.725719401041665
-33.788343098958336
-33.840771484375
-33.880953776041665
-33.922376302083336
-33.952708333333334
-33.997259114583336
-34.019222005208334
-34.04692057291667
-34.090589192708336
-34.148440755208334
-34.11478515625
-33.78428059895833
-33.46142578125
-33.33956380208333
-33.34185872395833
-33.39132486979167
-33.44077473958333
-33.50262369791667
-33.513483072916664
-33.433323567708335
-33.42933919270833
-33.47492838541667
-33.53373046875
-33.600787760416665
-33.6544921875
-33.690029296875
-33.7291796875
-33.807236328125
-33.83474609375
-33.886233723958334
-33.947548828125
-33.99817057291666
-33.96625651041666
-33.63073567708334
-33.29004557291667
-33.16388020833333
-33.183102213541666
-33.24582682291667
-33.31867838541667
-33.38761067708333
-33.404697265625
-33.355777994791666
-33.31685546875
-33.31698567708333
-33.37544270833333
-33.45209635416666
-33.52249674479167
-33.57649088541667
-33.63858072916667
-33.67640625
-33.716891276041665
-33.76579427083333
-33.80496744791667
-33.83790690104167
-33.86883463541667
-33.91288736979167
-33.97315104166667
-33.721256510416666
-33.119069010416666
-33.17159505208333
-33.261611328125
-33.40255859375
-33.369381510416666
-33.296181640625
-33.284479166666664
-33.398193359375
-33.479739583333334
-33.53624674479167
-33.582125651041665
-33.63565755208333
-33.689280598958334
-33.724606119791666
-33.75380859375
-33.77484049479167
-33.81017252604167
-33.86033203125
-33.91065104166667
-33.86225260416666
-33.49407877604167
-33.12944010416667
-33.00156901041667
-33.037106119791666
-33.094130859375
-33.81982421875
-33.7884375
-33.797861328125
-33.71920247395833
-33.65387044270833
-33.65028645833333
-33.72921875
-33.774951171875
-33.85121419270833
-33.90933268229167
-33.98371744791667
-34.018447265625
-34.05141276041667
-34.111500651041666
-34.15168619791667
-34.14260091145833
-33.7987890625
-33.3955859375
-33.2020703125
-33.210338541666665
-33.257513020833336
-33.332233072916665
-33.417001953125
-33.47476888020833
-33.42799479166667
-33.36728841145833
-33.344241536458334
-33.377399088541665
-33.4605078125
-33.540553385416665
-33.60996419270833
-33.66104166666667
-33.71524739583333
-33.75991861979167
-33.792835286458335
-33.85220703125
-33.883922526041665
-33.918994140625
-33.65182291666667
-33.17715494791667
-32.886217447916664
-32.870673828125
-32.920963541666666
-33.527568359375
-33.905283203125
-34.049453125
-34.025393880208334
-33.94837239583333
-33.9071484375
-34.00582682291667
-34.080852864583335
-34.15433268229167
-34.21646158854167
-34.27472005208333
-34.32358723958333
-34.34476236979167
-34.37312174479167
-34.40437174479167
-34.4323828125
-34.49002604166667
-34.52011067708333
-34.259427083333335
-33.77207356770833
-33.48178059895833
-33.43014322916667
-33.489189453125
-34.17311848958333
-34.14408203125
-34.19582356770833
-34.171318359375
-34.09622395833333
-34.07898111979166
-34.11226888020833
-34.199869791666664
-34.28365885416667
-34.367314453125
-34.434817708333334
-34.4742578125
-34.510511067708336
-34.55992838541667
-34.58185546875
-34.633111979166664
-34.67801106770833
-34.724947916666665
-34.79377604166667
-34.716800130208334
-34.28086263020833
-33.862630208333336
-33.709375
-33.73861653645833
-33.810358072916664
-33.89929361979166
-33.99772786458333
-34.0075
-33.95134765625
-33.89543294270833
-33.90481770833333
-33.98103190104167
-34.07422526041667
-34.148984375
-34.21216471354167
-34.277197265625
-34.31972005208333
-34.35823893229167
-34.390924479166664
-34.4166796875
-34.5171484375
-34.55590169270833
-33.998196614583335
-33.501331380208335
-33.591875
-34.26489908854167
-34.25078125
-34.24571940104167
-34.182887369791665
-34.125751953125
-34.23426106770833
-34.3158203125
-34.41091796875
-34.462727864583336
-34.53658854166667
-34.591630859375
-34.63641276041667
-34.66784830729166
-34.7117578125
-34.75670572916667
-34.841175130208335
-34.79177734375
-33.771129557291665
-33.44791015625
-33.22961263020834
-33.226389973958334
-33.87536783854166
-33.84453450520834
-33.927731119791666
-33.96012044270833
-33.915654296875
-33.864016927083334
-33.86537760416667
-33.94008138020833
-34.02741861979167
-34.122568359375
-34.203486328125
-34.269801432291665
-34.32275390625
-34.374912109375
-34.4078515625
-34.439208984375
-34.48336588541667
-34.540621744791665
-34.60169270833333
-34.45558268229167
-33.95376953125
-33.56863932291667
-33.44407552083333
-33.470875651041666
-33.544283854166665
-34.212565104166664
-34.19415364583333
-34.19929361979167
-34.155804036458335
-34.135673828125
-34.172734375
-34.239772135416665
-34.34547526041667
-34.426376953125
-34.57046875
-34.62564778645833
-34.67634765625
-34.72062825520833
-34.21307291666667
-34.39787434895833
-34.4623046875
-34.4685546875
-34.122503255208336
-33.66792317708333
-33.446396484375
-33.44080078125
-33.52407877604167
-33.608896484375
-34.300380859375
-34.224326171875
-34.18915690104166
-34.137744140625
-34.21195963541667
-34.30028645833333
-34.40232747395833
-34.46555989583333
-34.532727864583336
-34.62951822916666
-34.6730859375
-34.69294921875
-34.757145182291666
-34.20115559895833
-34.392376302083335
-34.45048828125
-34.29736979166667
-33.554781901041665
-33.492197265625
-33.543046875
-33.63176106770833
-33.736041666666665
-33.80782877604167
-33.73818359375
-33.712389322916664
-33.738759765625
-33.9039453125
-33.984563802083336
-34.068564453125
-34.167265625
-34.260335286458336
-34.34819661458334
-34.38318359375
-34.12343424479167
-33.498564453125
-33.47677734375
-33.62146809895833
-34.22815104166666
-34.20930338541667
-34.16296549479166
-34.23123046875
-34.313232421875
-34.474521484375
-34.54040364583334
-34.659921875
-34.740634765625
-34.78416341145833
-34.24822265625
-34.44250651041666
-34.2639453125
-33.574879557291666
-33.548427734375
-33.682109375
-33.75193033854167
-33.76212239583333
-33.715712890625
-33.721025390625
-33.769912109375
-33.944879557291664
-34.02568033854167
-34.07912109375
-34.15075520833334
-34.245673828125
-34.346761067708336
-34.405582682291666
-34.47888020833334
-34.22029296875
-33.641171875
-33.635986328125
-33.75783203125
-33.915445963541664
-33.895276692708336
-33.8683203125
-33.98091796875
-34.074000651041665
-34.16573567708333
-34.393935546875
-34.454928385416665
-34.5025390625
-34.60850260416667
-34.667047526041664
-34.735263671875
-34.773938802083336
-34.48515950520834
-33.55021809895833
-33.53673502604167
-33.521510416666665
-34.24071614583333
-34.254788411458335
-34.24037760416667
-34.24375325520833
-34.29225911458333
-34.44242838541667
-34.524453125
-34.65220052083333
-34.69984700520833
-34.81444661458333
-34.860068359375
-34.33711263020833
-34.227763671875
-33.91220052083333
-33.78619140625
-33.95131184895833
-34.037906901041666
-34.06989908854167
-34.066432291666665
-34.20962890625
-34.28240234375
-34.425524088541664
-34.49484375
-34.58815755208333
-34.64259440104167
-34.73766276041667
-34.643893229166665
-34.023450520833336
-33.950266927083334
-34.05943359375
-34.13158528645833
-34.212666015625
-34.221995442708334
-34.191500651041665
-34.293079427083335
-34.373346354166664
-34.44508463541667
-34.57599609375
-34.61775065104167
-34.71330078125
-34.75640950520833
-34.797431640625
-34.85328125
-34.596279296875
-33.60798828125
-33.563662109375
-33.613092447916664
-34.283046875
-34.25490234375
-34.291735026041664
-34.280751953125
-34.251064453125
-34.31059244791667
-34.38664388020833
-34.53556966145833
-34.595875651041666
-34.697783203125
-34.749820963541666
-34.794261067708334
-34.83282552083333
-34.929866536458334
-34.35200520833333
-34.32767578125
-33.926357421875
-33.65743489583333
-33.72100911458333
-34.364993489583334
-34.37221028645833
-34.315540364583335
-34.349934895833336
-34.4166015625
-34.551051432291665
-34.60780924479167
-34.715126953125
-34.75286783854167
-34.79060546875
-34.882298177083335
-34.361002604166664
-34.508916015625
-34.27952473958333
-33.89393880208333
-33.67630533854167
-33.66353841145833
-33.72177734375
-33.79747721354167
-33.941806640625
-33.87660481770833
-33.86178385416667
-33.91020182291667
-34.04405924479167
-34.175846354166666
-34.28775065104167
-34.33742513020833
-34.382001953125
-34.4264453125
-34.45587239583333
-34.232600911458334
-33.855341796875
-33.642399088541666
-33.77691731770833
-33.86446614583333
-33.91971028645833
-33.90267903645833
-33.84431640625
-33.88520182291666
-33.954013671875
-34.093577473958334
-34.15267252604167
-34.21547526041667
-34.26158854166667
-34.342828776041664
-34.381455078125
-34.429599609375
-34.411119791666664
-34.081474609375
-33.547161458333335
-33.566640625
-33.617229817708335
-34.25056640625
-34.257076822916666
-34.21
-34.2631640625
-34.347154947916664
-34.4959765625
-34.557119140625
-34.60328776041667
-34.694833984375
-34.732340494791664
-34.764485677083336
-34.80302408854167
-34.84654296875
-34.286158854166665
-33.422376302083336
-33.467532552083334
-34.14057942708333
-34.16363606770833
-34.15456380208333
-34.090205078125
-34.0724609375
-34.17218098958333
-34.25726236979167
-34.326943359375
-34.45120442708333
-34.514990234375
-34.563968098958334
-34.59378580729167
-34.638818359375
-34.65989583333333
-33.946276041666664
-33.834895833333334
-33.87583984375
-34.010009765625
-34.0818359375
-34.057236328125
-34.02418619791667
-34.078463541666665
-34.15171223958333
-34.217705078125
-34.280963541666665
-34.373277994791664
-34.39607421875
-34.471569010416665
-34.51052734375
-34.27527669270833
-33.90735677083333
-33.753779296875
-33.841728515625
-33.917998046875
-34.019153645833335
-34.055419921875
-33.969013671875
-34.039117838541664
-34.109576822916665
-34.253134765625
-34.30934895833333
-34.350986328125
-34.432138671875
-34.469563802083336
-34.543590494791665
-34.362141927083336
-33.73400716145834
-33.702991536458335
-33.7547265625
-33.807835286458335
-33.93919270833333
-33.92668294270833
-33.881552734375
-33.85035807291667
-33.93982421875
-34.002314453125
-34.24469075520833
-34.28645182291667
-34.282727864583336
-34.3881640625
-34.43643229166667
-34.439075520833335
-34.307307942708334
-33.74686197916667
-33.70785481770833
-33.75738606770833
-33.883717447916666
-33.940234375
-33.9262890625
-33.894326171875
-33.91331380208333
-33.98896484375
-34.09567057291667
-34.211455078125
-34.244541015625
-34.30603841145833
-34.342822265625
-34.41544921875
-34.49218098958333
-34.535625
-34.45283203125
-34.11347330729166
-33.81400390625
-33.874202473958334
-33.95359375
-34.08470703125
-34.10500325520833
-34.077607421875
-34.126461588541666
-34.18514322916667
-34.258570963541665
-34.376881510416666
-34.441640625
-34.49996744791667
-34.56918294270833
-34.603955078125
-34.677138671875
-34.606227213541665
-34.28884765625
-34.02576497395833
-34.06748697916667
-34.12975260416667
-34.18901041666667
-34.256083984375
-34.2075390625
-34.19461263020833
-34.307711588541665
-34.37732747395833
-34.43906575520833
-34.49778645833333
-34.584459635416664
-34.68810872395834
-34.78512369791667
-34.697734375
-34.20918294270833
-34.192958984375
-34.33859375
-34.48096354166667
-34.459651692708334
-34.47551106770833
-34.53685872395833
-34.67867838541667
-34.73059244791666
-34.846324869791665
-34.888642578125
-34.9273046875
-34.98775716145833
-34.40019205729167
-34.54945963541667
-34.353017578125
-33.951588541666666
-33.97517252604167
-34.072454427083336
-34.13783203125
-34.203271484375
-34.187923177083334
-34.19639322916667
-34.32425130208333
-34.39671223958333
-34.46390625
-34.502421875
-34.544514973958336
-34.5823828125
-34.657861328125
-34.713802083333334
-34.758870442708336
-34.7665625
-34.47505859375
-34.24386393229167
-34.23123372395833
-34.28562174479167
-34.33552734375
-34.40591796875
-34.36731119791666
-34.349612630208334
-34.38984049479166
-34.490908203125
-34.556233723958336
-34.60776692708333
-34.647119140625
-34.70901692708333
-34.76342122395833
-34.78920247395833
-34.828076171875
-34.87166666666667
-34.609661458333335
-34.33548502604167
-33.39744140625
-33.353662109375
-33.366321614583335
-33.40245768229167
-33.35581705729167
-33.33522786458333
-33.374912109375
-33.438421223958336
-33.518974609375
-33.552333984375
-33.58755859375
-33.617916666666666
-33.641451822916665
-33.675537109375
-33.72467122395833
-33.49420247395833
-33.05308268229167
-33.08248372395833
-33.12884765625
-33.71955078125
-34.164873046875
-34.14315104166667
-34.09015625
-34.07801106770833
-34.122099609375
-34.18214518229167
-34.28091471354167
-34.32095377604167
-34.371038411458336
-34.42915364583333
-34.45359049479167
-34.48703776041667
-34.52230794270833
-34.50101236979167
-33.88392903645833
-33.769287109375
-33.787236328125
-33.863147786458335
-33.897275390625
-33.916422526041664
-33.84715169270833
-33.848072916666666
-33.882177734375
-33.94594401041667
-33.99496419270833
-34.09855794270833
-34.139339192708334
-34.19267252604167
-34.257122395833335
-34.296025390625
-34.388251953125
-34.27519205729167
-33.90197916666666
-33.62912760416667
-33.60787760416667
-33.657457682291664
-34.32116861979166
-34.259169921875
-34.2100390625
-34.181546223958335
-34.26621419270833
-34.32546223958333
-34.439996744791664
-34.49154296875
-34.531220703125
-34.57431966145833
-34.633359375
-34.67952799479167
-34.71824544270833
-34.772353515625
-34.27166015625
-34.00486328125
-33.95500325520833
-33.988837890625
-34.044475911458335
-34.162112630208334
-34.10935221354167
-34.11268880208333
-34.230113932291665
-34.35883463541666
-34.409085286458335
-34.45768880208333
-34.496653645833334
-34.5241796875
-34.56141927083333
-34.599850260416666
-34.64042643229167
-34.679697265625
-34.343030598958336
-33.996923828125
-33.909716796875
-33.963580729166665
-34.0204296875
-34.10386067708333
-34.08268880208333
-34.023037109375
-34.037174479166666
-34.074488932291665
-34.136393229166664
-34.24772786458333
-34.29678385416667
-34.346640625
-34.392643229166666
-34.40294921875
-34.450146484375
-34.49563802083333
-34.446357421875
-33.813837890625
-33.72409830729167
-33.75265625
-33.871962890625
-33.949814453125
-33.962646484375
-33.87421549479166
-33.883356119791664
-33.996839192708336
-34.05802734375
-34.107906901041666
-34.16462565104167
-34.22569010416667
-34.29556315104167
-34.334986979166665
-34.372005208333334
-34.36616536458333
-34.0633203125
-33.48399088541667
-33.468056640625
-33.530582682291666
-34.165556640625
-34.11781901041667
-34.09713541666667
-34.04506184895833
-34.044296875
-34.094973958333334
-34.16669596354166
-34.30751953125
-34.358505859375
-34.408040364583336
-34.484453125
-34.522451171875
-34.557428385416664
-34.456240234375
-33.726376953125
-33.66727213541667
-33.701754557291665
-33.76029296875
-33.83512044270833
-33.88781575520834
-33.831461588541664
-33.81938802083334
-33.85410481770833
-33.931598307291665
-34.003489583333334
-34.144612630208336
-34.18993489583333
-34.240992838541665
-34.317041015625
-34.357884114583335
-34.333766276041665
-33.93932291666667
-33.59119140625
-33.49723958333333
-33.621282552083336
-34.25456380208333
-34.262874348958334
-34.21967447916666
-34.25900065104167
-34.333645833333335
-34.41995442708333
-34.58213216145833
-34.642893880208334
-34.703544921875
-34.73823567708333
-34.226435546875
-34.4157421875
-34.476129557291664
-33.93549479166666
-33.65719401041667
-33.69160481770833
-33.774983723958336
-33.863307291666665
-33.938017578125
-33.873401692708335
-33.91564453125
-34.084117838541665
-34.231959635416665
-34.283948567708336
-34.366474609375
-34.39110677083333
-34.51125325520833
-34.45033854166667
-34.09440755208333
-33.82029296875
-33.863050130208336
-33.94494791666666
-34.040283203125
-34.129580078125
-34.103447265625
-34.088671875
-34.23282552083333
-34.31179036458333
-34.38853190104167
-34.466481119791666
-34.571666666666665
-34.62593098958333
-34.662747395833335
-34.71921549479167
-34.630055338541666
-34.28444661458333
-33.508662109375
-33.64562174479167
-33.796559244791666
-33.956975911458336
-33.92451171875
-33.93762044270834
-34.07204427083333
-34.144609375
-34.2144921875
-34.333359375
-34.382151692708334
-34.46791666666667
-34.52552083333333
-34.582102864583334
-34.210224609375
-33.970530598958334
-33.93993489583333
-34.06139322916667
-34.125556640625
-34.18786458333334
-34.215143229166664
-34.183284505208334
-34.297945963541665
-34.37622721354167
-34.44435546875
-34.50483723958333
-34.55779296875
-34.59369140625
-34.699612630208335
-34.74751953125
-34.86970377604167
-34.75467447916667
-33.79572265625
-33.77280924479167
-33.832835286458334
-33.9419921875
-34.004895833333336
-33.974892578125
-33.99522135416667
-34.11563802083333
-34.169788411458335
-34.235771484375
-34.339619140625
-34.371891276041666
-34.399319661458335
-34.44345703125
-34.507610677083335
-34.549205729166665
-34.60807942708333
-34.3745703125
-34.053951822916666
-33.932744140625
-34.02676432291667
-34.08526692708333
-34.156155598958335
-34.17934244791667
-34.152776692708336
-34.12968424479167
-34.14457682291667
-34.212552083333335
-34.349300130208334
-34.41432291666667
-34.50427408854166
-34.539134114583334
-34.581572265625
-34.60767252604167
-34.69542643229167
-34.74989908854167
-34.56788736979167
-34.208811848958334
-34.0473046875
-34.08680989583333
-34.20044596354167
-34.23748046875
-34.205296223958335
-34.1623046875
-34.21545247395834
-34.28539388020833
-34.35291341145833
-34.400185546875
-34.50283854166667
-34.52707682291667
-34.55833333333333
-34.630029296875
-34.700862630208334
-34.434599609375
-34.081516927083335
-33.949869791666664
-34.02064778645833
-34.17236328125
-34.2112890625
-34.165065104166665
-34.13305013020833
-34.197415364583335
-34.276897786458335
-34.42777018229167
-34.492037760416665
-34.59042317708333
-34.62219075520834
-34.69588541666667
-34.3998828125
-34.03563802083333
-33.86802083333333
-33.92297526041666
-33.97810546875
-34.08251953125
-34.052763671875
-34.02978515625
-34.0825
-34.24122721354167
-34.377255859375
-34.421077473958334
-34.478447265625
-34.549342447916665
-34.59491861979166
-34.610263671875
-34.26152018229167
-33.88986002604167
-33.748287760416666
-33.81771158854167
-33.918499348958335
-33.92545247395833
-33.839016927083335
-33.860279947916666
-33.92050130208333
-33.98833984375
-34.132379557291664
-34.19572591145833
-34.23908203125
-34.2753125
-34.344052734375
-34.39591796875
-34.44425130208333
-34.48490885416667
-34.113255208333335
-33.62787760416666
-33.661119791666664
-33.715016276041666
-33.85657552083333
-33.86722330729167
-33.77870442708333
-33.79871419270833
-33.868694661458335
-34.01962239583333
-34.08548828125
-34.192395833333336
-34.24357747395833
-34.32875651041667
-34.37416341145833
-34.413304036458335
-34.469990234375
-34.274599609375
-33.61681640625
-33.6000390625
-33.675953776041666
-34.43973307291667
-34.379091796875
-34.35910807291667
-34.314482421875
-34.355087890625
-34.505712890625
-34.641507161458335
-34.71409505208333
-34.754482421875
-34.815022786458336
-34.868365885416665
-34.672353515625
-33.45350911458333
-33.581722005208334
-33.644977213541665
-34.313623046875
-34.36770833333333
-34.333225911458335
-34.25312174479166
-34.303561197916665
-34.37372721354166
-34.44724609375
-34.57912109375
-34.626910807291665
-34.67053385416666
-34.69482421875
-34.71683268229167
-34.77476236979167
-34.37548828125
-34.03451497395833
-33.989814453125
-34.06087565104167
-34.14222005208333
-34.17744140625
-34.14951822916667
-34.22576171875
-34.314384765625
-34.38629231770833
-34.45189453125
-34.510960286458335
-34.54249674479167
-34.613349609375
-34.65699869791667
-34.6727734375
-34.407958984375
-33.98069661458333
-33.75190104166666
-33.822428385416664
-33.96988606770833
-34.00133463541667
-33.97145833333333
-33.94372721354166
-34.0053515625
-34.089938151041665
-34.23397786458333
-34.29288411458333
-34.391627604166665
-34.41948567708334
-34.46061848958333
-34.519459635416666
-34.405016276041664
-33.73661783854167
-33.73205403645834
-33.856578776041665
-33.916796875
-33.97793619791667
-33.95965494791667
-33.9512109375
-34.004459635416666
-34.176442057291666
-34.29629557291667
-34.343815104166666
-34.3834375
-34.42930338541667
-34.515569661458336
-34.57380859375
-34.32611979166666
-33.993610026041665
-33.888486328125
-34.0109765625
-34.151624348958336
-34.179905598958335
-34.1745703125
-34.30010091145834
-34.36677408854167
-34.50288411458333
-34.56011067708334
-34.65978190104167
-34.70626627604167
-34.74801106770833
-34.798076171875
-34.908580729166665
-34.81448893229167
-33.83940104166667
-33.75419596354167
-33.8359765625
-33.970309244791665
-34.041920572916666
-34.04697916666667
-34.023968098958335
-34.070774739583335
-34.12705403645833
-34.201969401041666
-34.2689453125
-34.36689127604166
-34.40618815104167
-34.483515625
-34.533649088541665
-34.581516927083335
-34.57052734375
-34.035305989583335
-33.974964192708335
-34.08560221354167
-34.141669921875
-34.22331380208333
-34.236904296875
-34.19892252604166
-34.18685872395833
-34.225598958333336
-34.29541666666667
-34.363580729166664
-34.473590494791665
-34.52050130208333
-34.568766276041664
-34.64212890625
-34.67897786458333
-34.726627604166666
-34.771236979166666
-34.63320963541667
-34.07030598958333
-34.094130859375
-34.13291666666667
-34.18860026041666
-34.24325520833333
-34.19099283854167
-34.185572916666665
-34.23110026041667
-34.36796875
-34.414990234375
-34.476201171875
-34.56277669270833
-34.60632486979166
-34.636025390625
-34.6788671875
-34.773990885416666
-34.76635091145833
-34.478623046875
-34.04879557291667
-34.12158854166667
-34.17917643229167
-34.246637369791664
-34.2694140625
-34.236888020833334
-34.236233723958335
-34.313421223958336
-34.374814453125
-34.492513020833336
-34.54765299479167
-34.592135416666665
-34.63041666666667
-34.710748697916664
-34.76316080729167
-34.872057291666664
-34.33102213541667
-34.17029622395833
-34.16787760416667
-34.270862630208335
-34.345934244791664
-34.3687109375
-34.33471028645833
-34.34347005208333
-34.405556640625
-34.52122395833333
-34.577451171875
-34.67094401041667
-34.72685546875
-34.78097330729167
-34.81484375
-34.86547200520833
-34.84734375
-34.265498046875
-34.17553059895833
-34.22245768229167
-34.35412109375
-34.43165690104167
-34.392119140625
-34.365572916666665
-34.38002604166667
-34.498723958333336
-34.55367513020833
-34.60634114583333
-34.69756184895834
-34.722584635416666
-34.79570638020834
-34.79603841145833
-34.1923828125
-34.060475260416666
-34.09396158854167
-34.14658203125
-34.20488606770834
-34.277965494791665
-34.294108072916664
-34.218997395833334
-34.23662434895834
-34.36492838541667
-34.42993815104167
-34.53796549479166
-34.565859375
-34.598671875
-34.62907552083333
-34.71094401041667
-34.667685546875
-34.32908203125
-33.90410481770834
-33.9366015625
-34.03287109375
-34.09380859375
-34.08274739583333
-34.05687825520833
-34.146429036458336
-34.224514973958335
-34.29100911458333
-34.348645833333336
-34.43658203125
-34.479736328125
-34.50751627604166
-34.541083984375
-34.598743489583335
-34.347972005208334
-33.99847330729167
-33.88599283854167
-33.941158854166666
-33.989228515625
-34.095325520833335
-34.068561197916665
-34.047916666666666
-34.071705729166666
-34.20696940104167
-34.26876627604167
-34.38173177083333
-34.426380208333335
-34.502766927083336
-34.53738932291667
-34.57404947916667
-34.61703125
-34.66664388020833
-34.525211588541666
-34.000625
-34.012623697916666
-34.06977864583333
-34.20455729166667
-34.24970377604166
-34.24451171875
-34.22330403645833
-34.28859375
-34.36078776041666
-34.436025390625
-34.497737630208334
-34.62302408854167
-34.654065755208336
-34.6987890625
-34.780244140625
-34.816295572916665
-34.866946614583334
-34.936669921875
-34.607734375
-33.696966145833336
-33.409436848958336
-33.452679036458335
-33.51062825520833
-33.58328450520833
-33.566175130208336
-33.54933268229167
-33.578450520833336
-33.696461588541666
-33.75353841145834
-33.803603515625
-33.881884765625
-33.9059765625
-33.96208984375
-33.993310546875
-34.056263020833335
-33.694768880208336
-33.443902994791664
-33.394384765625
-33.43888671875
-33.48825846354167
-33.54552408854167
-33.612529296875
-33.571083984375
-33.583011067708334
-33.686458333333334
-33.74205078125
-33.78630859375
-33.83509114583333
-33.913759765625
-33.93566731770834
-33.96031901041667
-33.98915690104167
-33.677164713541664
-33.33552734375
-33.22103515625
-33.23325520833333
-33.321344401041664
-33.37205078125
-33.398190104166666
-33.3102734375
-33.33445638020833
-33.381878255208335
-33.436839192708334
-33.560289713541664
-33.617939453125
-33.64165364583334
-33.68276041666667
-33.714384765625
-33.756090494791664
-33.83740234375
-33.89086263020833
-33.75414388020833
-33.05836588541667
-33.00708658854167
-33.0708984375
-33.118151041666664
-33.739716796875
-34.07639322916667
-34.161552734375
-34.10288411458333
-34.133733723958336
-34.196100260416664
-34.260634765625
-34.334049479166666
-34.45435221354167
-34.504111328125
-34.58237955729167
-34.626142578125
-34.674244791666666
-34.72305989583333
-34.76468098958333
-34.77720052083333
-34.08292317708333
-33.93856119791667
-33.960458984375
-34.02378255208333
-34.085514322916666
-34.21377604166667
-34.1815234375
-34.14944661458333
-34.16686197916667
-34.29138020833334
-34.362376302083334
-34.43052083333333
-34.493336588541666
-34.537311197916665
-34.577350260416665
-34.649248046875
-34.74052408854167
-34.85634114583333
-34.347591145833334
-34.04119140625
-33.99581705729167
-34.11704752604167
-34.29125
-34.29040364583334
-34.216416015625
-34.31607747395833
-34.37892578125
-34.444104817708336
-34.55953125
-34.59901692708333
-34.63024739583334
-34.69050455729167
-34.72509765625
-34.76503580729167
-34.585673828125
-34.18571614583333
-33.937688802083336
-34.003759765625
-34.07691080729167
-34.159833984375
-34.230712890625
-34.21324869791667
-34.172802734375
-34.157177734375
-34.25411783854167
-34.330517578125
-34.4601953125
-34.50702799479166
-34.565960286458335
-34.63801432291667
-34.66922526041667
-34.7095703125
-34.70966471354166
-33.973987630208335
-33.7951171875
-33.80032552083333
-33.86294596354167
-33.92836588541667
-34.04708333333333
-34.004755859375
-33.96228841145833
-33.996516927083334
-34.071139322916665
-34.13872395833334
-34.20743489583333
-34.266575520833335
-34.37488606770833
-34.40555013020833
-34.43428059895833
-34.511393229166664
-34.520439453125
-33.759541015625
-33.583821614583336
-33.604697265625
-33.66099283854167
-34.28821614583333
-34.332301432291665
-34.25154947916667
-34.26325846354167
-34.32240885416667
-34.47415690104167
-34.55043619791667
-34.611575520833334
-34.6621484375
-34.76611328125
-34.8009375
-34.838665364583335
-34.89220703125
-34.647734375
-33.591728515625
-33.519638671875
-33.52071940104167
-34.27444661458333
-34.24361653645833
-34.278857421875
-34.22833984375
-34.280908203125
-34.43794921875
-34.5707421875
-34.6253515625
-34.683079427083335
-34.711832682291664
-34.797444661458336
-34.826728515625
-34.58002604166666
-33.96730794270833
-33.966608072916664
-34.122486979166666
-34.21384765625
-34.2630078125
-34.22016276041666
-34.175455729166664
-34.176334635416666
-34.22749348958333
-34.371416015625
-34.437809244791666
-34.49623372395833
-34.60674153645834
-34.66001627604167
-34.70352213541667
-34.65067057291667
-34.265797526041666
-33.79511393229166
-33.926591796875
-34.092083333333335
-34.053466796875
-34.02193684895833
-34.046962890625
-34.122197265625
-34.26732421875
-34.39220703125
-34.438138020833335
-34.478343098958334
-34.55774088541666
-34.57002278645833
-34.20268229166667
-33.805582682291664
-33.663167317708336
-33.6857421875
-33.816595052083336
-33.88810546875
-33.924654947916665
-33.880654296875
-33.892236328125
-33.954169921875
-34.117412109375
-34.18330078125
-34.23614583333333
-34.331761067708335
-34.374912109375
-34.463798828125
-34.532093098958335
-34.54475260416667
-33.80681640625
-33.63578776041667
-33.727473958333334
-33.791110026041665
-33.874036458333336
-33.89688151041667
-33.865940755208335
-33.893115234375
-34.04305989583333
-34.133043619791664
-34.190341796875
-34.267080078125
-34.38364583333333
-34.43237955729167
-34.480823567708335
-34.58396809895833
-34.6418359375
-34.68912434895833
-34.00880859375
-33.794345703125
-33.868427734375
-33.946451822916664
-34.03181640625
-34.072158203125
-34.04205078125
-34.08154296875
-34.151393229166665
-34.22826497395833
-34.36111653645833
-34.401474609375
-34.480224609375
-34.513583984375
-34.604733072916666
-34.65464518229167
-34.08734375
-33.79796549479167
-33.86503580729167
-33.94967122395833
-34.115009765625
-34.10779296875
-34.058971354166665
-34.10435221354167
-34.262626953125
-34.329563802083335
-34.420791015625
-34.536357421875
-34.581783854166666
-34.664117838541664
-34.710869140625
-34.763743489583334
-34.630693359375
-34.20511067708333
-33.82300455729167
-33.868899739583334
-34.01896484375
-34.09439453125
-34.08444010416667
-34.06140625
-34.17858723958334
-34.262783203125
-34.349065755208336
-34.498974609375
-34.559169921875
-34.60877278645833
-34.70630533854167
-34.76291015625
-34.806819661458334
-34.74638346354167
-34.311956380208336
-33.38317708333334
-33.52241536458333
-34.167490234375
-34.252766927083336
-34.23434244791667
-34.2235546875
-34.34189778645833
-34.41935546875
-34.499498697916664
-34.578037109375
-34.70920572916667
-34.770641276041665
-34.8145703125
-34.924847005208335
-34.97670247395833
-34.372099609375
-34.12548828125
-33.59306315104167
-33.622776692708335
-33.708277994791665
-34.37412760416667
-34.41520833333333
-34.37077473958333
-34.34347330729167
-34.415286458333334
-34.48964192708333
-34.5709375
-34.644244791666665
-34.702662760416665
-34.810452473958335
-34.84636067708333
-34.921494140625
-34.977783203125
-34.37863932291667
-33.801669921875
-33.56875
-33.56259114583333
-33.637845052083335
-34.311207682291666
-34.379231770833336
-34.297252604166665
-34.29373697916667
-34.34097981770833
-34.506321614583335
-34.57543294270833
-34.71661458333333
-34.76359375
-34.804759114583334
-34.818287760416666
-34.85337890625
-34.73058268229167
-33.29357096354167
-33.34893880208333
-34.06848958333333
-34.12282552083333
-34.13328125
-34.10041666666667
-34.091868489583334
-34.200208333333336
-34.30378580729167
-34.41191080729167
-34.430706380208335
-34.530192057291664
-34.60906901041667
-34.648854166666666
-34.69415364583333
-34.7268359375
-34.39333984375
-33.9437890625
-33.754931640625
-33.79434244791667
-33.96860677083333
-34.02711588541667
-34.068356119791666
-34.007252604166666
-34.019228515625
-34.106028645833334
-34.26529622395833
-34.40638020833333
-34.574130859375
-34.785657552083336
-34.856357421875
-35.08818359375
-35.23212565104166
-34.45509765625
-34.20694010416667
-34.168011067708335
-34.55958984375
-34.79955403645833
-34.78120442708333
-34.92936848958333
-34.952649739583336
-34.39967447916667
-34.43784505208333
-34.57252604166667
-34.587620442708335
-34.31599283854167
-34.446376953125
-34.193020833333335
-32.854296875
-32.99987630208334
-33.075436197916666
-33.790592447916666
-33.83225260416667
-33.934755859375
-33.959697265625
-34.05693684895834
-34.172620442708336
-34.52015950520833
-34.26948567708333
-34.321712239583334
-34.41458984375
-34.030042317708336
-33.054742838541664
-33.056494140625
-33.11775065104167
-33.797174479166664
-33.828785807291666
-33.849895833333335
-33.87375
-33.95581705729167
-34.04659830729167
-34.1140234375
-34.26730143229167
-34.389049479166665
-34.54659830729167
-33.769638671875
-33.35524088541667
-33.201839192708334
-33.202838541666665
-33.31191080729167
-33.379462890625
-33.441663411458336
-33.498600260416666
-33.540107421875
-33.607692057291665
-33.78553059895833
-33.87171875
-33.957477213541665
-34.104150390625
-34.27244466145833
-34.346162109375
-34.43930989583333
-34.36460286458333
-33.242607421875
-33.11561848958333
-33.07960611979167
-33.778662109375
-33.7005078125
-33.799248046875
-33.77669921875
-33.8174609375
-33.912978515625
-34.017353515625
-34.179033203125
-34.250325520833336
-34.2918359375
-34.366435546875
-34.44889973958333
-34.53173177083333
-34.06872395833334
-34.69201497395834
-34.69919596354167
-33.86580078125
-33.829723307291665
-33.912135416666665
-34.005182291666664
-34.14703125
-34.15274088541667
-34.14858072916667
-34.15251302083333
-34.1887109375
-34.25913736979167
-34.334729817708336
-34.417522786458335
-34.50906575520833
-34.58197265625
-34.717037760416666
-34.780126953125
-34.844143880208335
-34.92018880208333
-35.002900390625
-35.16921875
-34.189521484375
-33.770520833333336
-33.569091796875
-33.648251953125
-34.302135416666665
-34.246240234375
-34.325680338541666
-34.30227864583333
-34.30001953125
-34.400159505208336
-34.468681640625
-34.641263020833335
-34.708264973958336
-34.776865234375
-34.85114908854167
-34.912373046875
-35.052425130208334
-35.13837565104166
-34.621201171875
-34.63269205729166
-34.01966796875
-33.57270182291666
-33.62313802083333
-34.265192057291664
-33.820384114583334
-33.81777018229167
-33.86227213541667
-33.84693359375
-33.828128255208334
-33.868479817708334
-33.955537109375
-34.05069661458333
-34.132705078125
-34.296145833333334
-34.385143229166665
-34.45935872395833
-34.5651953125
-34.056533203125
-34.66844075520833
-34.819957682291665
-34.491328125
-33.841103515625
-33.551787109375
-33.512900390625
-34.227509765625
-33.798610026041665
-33.81495768229167
-33.792470703125
-33.777301432291665
-33.91841145833333
-33.999521484375
-34.09265299479166
-34.255244140625
-34.32067057291667
-34.387998046875
-34.4628515625
-34.5248046875
-34.58006184895833
-34.48985026041667
-33.912897135416664
-33.41914388020833
-33.460546875
-34.110406901041664
-33.720432942708335
-33.752060546875
-33.718922526041666
-33.68541666666667
-33.813287760416664
-33.898815104166665
-33.99588541666667
-34.174749348958336
-34.235966796875
-34.302897135416664
-34.42823893229167
-34.499326171875
-34.462223307291666
-33.92923828125
-32.909915364583334
-33.388141276041665
-34.05966796875
-33.69114583333333
-33.721910807291664
-33.679384765625
-33.60543294270833
-33.59725260416667
-33.661647135416665
-33.720234375
-33.80736328125
-33.95509765625
-34.029309895833336
-34.09695638020833
-34.240517578125
-34.30192708333333
-33.496744791666664
-33.243951822916664
-33.19066731770833
-33.22398111979167
-33.37702799479167
-33.439602864583335
-33.439358723958335
-33.392138671875
-33.38255859375
-33.44762369791667
-33.525569661458334
-33.60314127604167
-33.687701822916665
-33.8210546875
-33.944638671875
-33.998590494791664
-33.22423502604167
-32.873805338541665
-32.78047200520833
-32.796031901041665
-33.38427083333333
-33.444446614583335
-33.436695963541666
-33.36587565104167
-33.453720703125
-33.671031901041665
-33.793955078125
-33.84535807291667
-33.880872395833336
-33.9458984375
-33.54135091145833
-32.827841796875
-32.812421875
-33.346298828125
-33.41366536458333
-33.44941731770833
-33.426090494791666
-33.38975260416667
-33.455823567708336
-33.608629557291664
-33.667057291666666
-33.74306315104167
-33.85883463541666
-33.906484375
-33.947320963541664
-34.071871744791665
-34.12118489583333
-33.276285807291664
-32.99098958333333
-33.02290364583333
-33.683268229166664
-33.626468098958334
-33.65300130208333
-33.63520833333333
-33.688746744791665
-33.84611328125
-33.92523111979167
-33.99958984375
-34.05927408854166
-34.18476236979166
-34.231432291666664
-34.391666666666666
-34.23565755208333
-32.810361328125
-32.895537109375
-33.56947591145833
-33.5380078125
-33.62020833333333
-33.581097005208335
-33.58080403645833
-33.61572265625
-33.774228515625
-33.858935546875
-33.928167317708336
-34.03875
-34.0826171875
-34.158802083333335
-33.95663411458333
-33.298763020833334
-33.35159505208333
-33.41725260416667
-33.566595052083336
-33.57859049479167
-33.547633463541665
-33.55818033854167
-33.71357747395833
-33.80925130208333
-33.884182942708335
-33.954388020833335
-34.03096028645833
-34.13040364583333
-34.22182291666667
-33.87716471354167
-33.463688151041666
-33.29205078125
-33.2904296875
-33.40807291666667
-33.4848828125
-33.543427734375
-33.544596354166664
-33.57569010416667
-33.652643229166664
-33.736259765625
-33.811442057291664
-33.906917317708334
-33.987438151041665
-34.050341796875
-34.10884765625
-34.164807942708336
-34.234117838541664
-34.32697265625
-34.49772786458333
-33.61677408854167
-33.08018229166667
-33.06240234375
-33.10318684895833
-33.82876953125
-33.78774088541667
-33.788548177083335
-33.875081380208336
-33.95537109375
-34.0372265625
-34.119303385416664
-34.17875651041667
-34.32208984375
-34.383876953125
-34.45649088541666
-34.088460286458336
-34.17914713541666
-34.310885416666665
-34.004095052083336
-33.43158203125
-33.43924153645833
-33.48735026041667
-33.526842447916664
-33.642415364583336
-33.658229166666665
-33.64341796875
-33.67470377604167
-33.80232096354167
-33.9683203125
-34.04551432291667
-34.104319661458334
-34.201064453125
-34.26112630208333
-34.3269921875
-34.39327799479167
-34.507314453125
-33.99056966145833
-34.18167317708333
-33.522392578125
-33.256510416666664
-33.25057291666667
-33.33884765625
-33.397822265625
-33.472490234375
-33.45315755208333
-33.476399739583336
-33.625263671875
-33.76325846354167
-33.807698567708336
-33.914944661458335
-33.97106770833334
-34.084934895833335
-34.1431640625
-34.27973307291666
-34.129599609375
-33.65754557291667
-33.35714192708333
-33.478948567708336
-33.556477864583336
-33.6315625
-33.59298828125
-33.574938151041664
-33.60250325520833
-33.77837890625
-33.848499348958335
-33.90901041666667
-33.96466796875
-34.079072265625
-34.124580078125
-34.250729166666666
-34.297373046875
-33.48476236979167
-33.30081380208333
-33.304794921875
-33.412584635416664
-33.49458333333333
-33.53767578125
-33.49639973958333
-33.495074869791665
-33.636663411458336
-33.71923177083333
-33.856389973958336
-33.921201171875
-33.969225260416664
-34.006266276041664
-34.124752604166666
-34.27188802083333
-34.160533854166665
-33.622737630208334
-33.221735026041664
-33.13604817708333
-33.18315755208334
-33.73240559895833
-33.78261393229167
-33.76346028645833
-33.74253255208333
-33.773180338541664
-33.92812174479167
-34.008245442708336
-34.08863932291667
-34.21341471354167
-34.27522135416667
-34.329443359375
-34.44463216145834
-34.52216796875
-34.17547526041667
-33.762509765625
-33.253583984375
-33.035494791666665
-33.097096354166666
-33.737858072916666
-33.66751627604167
-33.714306640625
-33.66915690104167
-33.676988932291664
-33.736201171875
-33.816748046875
-33.98528971354167
-34.065296223958335
-34.148896484375
-34.290608723958336
-34.391412760416664
-34.446178385416665
-33.94501627604166
-34.00939453125
-33.47126627604167
-33.163056640625
-33.08103515625
-33.205836588541665
-33.87392252604167
-33.8266796875
-33.7828515625
-33.770283203125
-33.88073893229166
-34.051484375
-34.12139973958333
-34.190485026041664
-34.29650065104167
-34.350576171875
-34.42172200520833
-33.973134765625
-33.319287109375
-33.079928385416665
-33.044228515625
-33.10673502604167
-33.71853515625
-33.79321940104167
-33.793772786458334
-33.745029296875
-33.81287434895833
-33.985986328125
-34.076253255208336
-34.15595703125
-34.305432942708336
-34.353955078125
-34.389827473958334
-34.45558919270833
-33.95025716145833
-33.44520833333333
-33.09875325520834
-33.005126953125
-33.04673177083333
-33.660087890625
-33.63919270833333
-33.61884765625
-33.59736002604166
-33.6871875
-33.77577473958333
-33.847314453125
-33.92267578125
-33.991871744791666
-34.053411458333336
-34.146510416666665
-34.18068684895833
-34.344996744791665
-34.28329427083333
-33.449147135416666
-33.384410807291665
-33.4179296875
-33.42947265625
-33.53104166666667
-33.5287109375
-33.507236328125
-33.628460286458335
-33.745319010416665
-33.80657877604167
-33.881998697916664
-34.013743489583334
-34.073414713541666
-34.12674153645833
-34.17921549479167
-34.35843098958333
-34.275576171875
-33.82866536458334
-33.0773046875
-33.12131510416667
-33.656627604166665
-33.740576171875
-33.70199544270833
-33.75083658854167
-33.824609375
-33.97621419270833
-34.035305989583335
-34.08625651041667
-34.123232421875
-34.168896484375
-34.25612630208333
-34.367848307291666
-33.741139322916666
-33.026341145833335
-33.2219140625
-33.302096354166665
-33.33750325520833
-33.31276692708333
-33.325205078125
-33.363619791666665
-33.514134114583335
-33.58187174479167
-33.634205729166666
