-27.6881640625
-27.746591796875
-39.94195638020833
-39.23392252604167
-45.39034505208333
-45.708330078125
-48.432724609375
-44.1102734375
-42.02888671875
-40.660198567708335
-40.737115885416664
-41.29114583333333
-41.422939453125
-41.509938151041666
-42.052073567708334
-42.14776692708333
-42.189775390625
-42.236611328125
-41.696666666666665
-41.84261393229167
-41.89009765625
-41.95591796875
-41.97434895833333
-41.76742513020833
-41.468082682291666
-41.26219075520833
-41.19660807291667
-41.177418619791666
-41.72456380208333
-41.78202799479167
-41.779951171875
-41.746038411458336
-41.74986328125
-41.56945638020834
-41.65989583333333
-41.726669921875
-41.78759114583333
-41.85041666666667
-41.92993815104167
-41.97375651041666
-42.014147135416664
-42.077503255208335
-42.12195638020833
-41.581783854166666
-41.718509114583334
-41.787594401041666
-41.825390625
-41.675592447916664
-41.354925130208336
-41.119069010416666
-41.05972330729167
-41.05184244791667
-41.67921549479167
-41.621884765625
-41.68602864583333
-41.702998046875
-41.67881184895833
-41.66487955729167
-41.672958984375
-41.70754231770833
-41.780843098958336
-41.866318359375
-41.94740559895833
-42.021725260416666
-42.07666666666667
-42.116451822916666
-42.150729166666665
-41.62044596354167
-41.76084635416667
-41.804375
-41.400654296875
-41.170651041666666
-41.113095703125
-41.135172526041664
-41.761640625
-41.714055989583336
-41.77658854166667
-41.79115234375
-41.77608723958333
-41.758899739583335
-41.76766927083333
-41.81625325520833
-41.888033854166665
-41.96810546875
-42.03881184895833
-42.11611002604167
-42.16147786458333
-42.211630859375
-41.65389322916667
-41.791585286458336
-41.81638997395833
-41.627734375
-41.1165625
-41.0611328125
-41.057682291666666
-41.688955078125
-41.635755208333336
-41.69195638020833
-41.697552083333335
-41.65826171875
-41.62771484375
-41.66074869791667
-41.713870442708334
-41.784290364583335
-41.853512369791666
-41.929404296875
-42.00169921875
-42.05374674479167
-42.08509765625
-42.13765950520833
-42.139661458333336
-41.964111328125
-41.031910807291666
-40.871975911458335
-40.79611328125
-41.40049479166667
-41.30725911458333
-41.34330078125
-41.401295572916666
-41.41788411458333
-41.38229166666667
-41.371334635416666
-41.39640625
-41.456064453125
-41.537991536458335
-41.61847005208333
-41.68447265625
-41.802490234375
-41.83782877604167
-41.88352213541667
-41.8946484375
-41.66018880208333
-41.325725911458335
-41.107464192708335
-41.037845052083334
-41.03474609375
-41.54640625
-41.60672526041667
-41.630856119791666
-41.60942708333334
-41.600283203125
-41.6299609375
-41.690188802083334
-41.777880859375
-41.85256184895833
-41.903974609375
-41.97473307291666
-42.041689453125
-42.08366536458333
-42.12645833333333
-42.191337890625
-41.6616796875
-41.653896484375
-41.305354817708334
-41.007496744791666
-40.891689453125
-40.884208984375
-41.490367838541665
-41.381175130208334
-41.43873697916667
-41.475192057291665
-41.47435546875
-41.47068359375
-41.49956380208334
-41.548896484375
-41.621448567708335
-41.704029947916666
-41.77603190104167
-41.83017578125
-41.903759765625
-41.964111328125
-42.00057291666667
-42.034130859375
-42.094130859375
-42.17524088541666
-42.148583984375
-41.266315104166665
-41.041682942708334
-40.90523763020833
-40.88398763020833
-41.520322265625
-41.4312890625
-41.492024739583336
-41.51978190104167
-41.515270182291665
-41.50849283854166
-41.540068359375
-41.593763020833336
-41.676025390625
-41.746393229166664
-41.8391796875
-41.92006510416667
-41.97978190104167
-42.049710286458335
-42.114814453125
-42.16055989583333
-42.18316731770833
-41.661731770833335
-41.77474283854167
-41.57727864583333
-41.24734700520833
-41.06961588541667
-41.0386328125
-41.653076171875
-41.57689453125
-41.624742838541664
-41.67767252604167
-41.695240885416666
-41.68999348958334
-41.69123697916667
-41.7451953125
-41.79040690104166
-41.8447265625
-41.9194921875
-41.975901692708334
-42.025647786458336
-42.07380859375
-42.124866536458335
-42.17466145833333
-42.234143880208336
-41.70766276041667
-41.85806640625
-41.875904947916666
-41.686809895833335
-41.36757486979167
-41.18176106770834
-41.16194010416667
-41.190703125
-41.8093359375
-41.748470052083334
-41.80341471354166
-41.824912109375
-41.79814778645834
-41.814046223958336
-41.83933919270833
-41.949274088541664
-42.00430989583333
-42.078798828125
-42.141536458333334
-42.193675130208334
-42.251217447916666
-41.710390625
-41.86476236979167
-41.92147135416667
-41.97717447916666
-41.94314778645833
-41.689153645833336
-41.43748372395833
-41.34917317708334
-41.3776171875
-41.41461263020833
-41.47362630208333
-41.52074544270833
-41.55271484375
-41.54018229166667
-41.50974934895833
-41.52436848958333
-41.556790364583335
-41.61163411458333
-41.66774088541667
-41.73422200520833
-41.77082682291667
-41.822197265625
-41.85502604166667
-41.891650390625
-41.929700520833336
-41.903427734375
-41.71044921875
-41.507822265625
-41.467867838541665
-41.49288736979167
-41.516780598958334
-41.56720052083333
-41.62423502604167
-41.64392252604166
-41.63796223958333
-41.61200846354166
-41.623401692708335
-41.64408203125
-41.712265625
-41.77242513020833
-41.82587565104166
-41.883994140625
-41.896090494791665
-41.909052734375
-41.95625325520833
-41.99984049479167
-42.00466145833333
-41.82814778645833
-41.60402669270833
-41.5291796875
-41.535166015625
-41.562024739583336
-41.57541015625
-41.61146484375
-41.63964192708333
-41.60977213541667
-41.591220703125
-41.604326171875
-41.624736328125
-41.66591796875
-41.71936848958333
-41.757975260416664
-41.789111328125
-41.83080078125
-41.889322916666664
-41.938815104166665
-41.982600911458334
-41.804130859375
-41.586728515625
-41.53021158854167
-41.55307942708333
-41.61057291666667
-41.638330078125
-41.679599609375
-41.724446614583336
-41.71915364583333
-41.698567708333336
-41.700126953125
-41.73999674479167
-41.77641276041667
-41.821712239583334
-41.87963216145833
-41.94343424479167
-41.994700520833334
-42.04763997395833
-42.08446614583333
-42.13987630208333
-42.09641276041667
-41.875774739583335
-41.69845377604167
-41.66944010416667
-41.696422526041665
-41.73890625
-41.78736002604167
-41.85143880208334
-41.87814453125
-41.86703125
-41.85721354166667
-41.91645182291666
-41.971171875
-42.02178059895834
-42.07826497395833
-42.134944661458334
-42.187184244791666
-42.23713541666667
-42.235882161458335
-42.0198046875
-41.199736328125
-41.232734375
-41.293629557291666
-41.97026692708334
-41.93681315104167
-41.998203125
-42.019733072916665
-42.01007161458333
-41.983916015625
-42.006184895833336
-42.03383463541667
-42.16347005208333
-42.22216145833333
-42.27830078125
-42.335576171875
-42.38870442708333
-41.749345703125
-41.59824544270833
-41.40326171875
-41.377353515625
-41.423720703125
-42.084498697916665
-42.04879557291667
-42.11340494791666
-42.132529296875
-42.13253580729167
-42.123225911458334
-42.158421223958335
-42.21182942708333
-42.27861328125
-42.3264453125
-42.37854817708333
-41.83822265625
-41.965859375
-41.99513346354167
-41.83036783854167
-41.5932421875
-41.50045247395833
-41.52722005208334
-41.578785807291666
-41.627154947916665
-41.68315104166667
-41.733466796875
-41.75147135416667
-41.75117513020833
-41.7591015625
-41.79811197916667
-41.85
-41.90232096354167
-41.956868489583336
-42.021318359375
-42.08484049479166
-42.13839518229167
-42.17496419270833
-42.026080729166665
-41.78284505208333
-41.67811848958333
-41.68874348958333
-41.73038411458333
-41.75392252604167
-41.79490559895833
-41.845745442708335
-41.86779947916666
-41.86160481770833
-41.876165364583336
-41.922890625
-41.972356770833336
-42.01719401041667
-42.07663736979167
-42.141513671875
-42.198414713541666
-42.2374609375
-42.29484700520833
-42.39453125
-42.394114583333334
-41.553509114583335
-41.411793619791666
-41.342418619791665
-41.369228515625
-42.036227213541665
-41.96765950520833
-41.989514973958336
-42.025403645833336
-42.03792643229167
-42.033359375
-42.04262044270833
-42.073824869791665
-42.122408854166665
-42.16603841145833
-42.221529947916665
-42.282138671875
-42.333291015625
-42.373515625
-42.40896809895833
-41.807307942708334
-41.937161458333335
-41.97676106770833
-42.01013997395833
-41.84427408854167
-41.57491861979167
-41.453271484375
-41.45947265625
-41.475384114583335
-42.14076822916667
-42.07334309895833
-42.09181966145833
-42.09400390625
-42.07402018229167
-42.051552734375
-42.085185546875
-42.132623697916664
-42.16947916666667
-42.21971028645833
-42.282893880208334
-42.331624348958336
-42.3599609375
-42.394638671875
-41.783232421875
-41.932890625
-41.96572916666667
-42.01564127604167
-42.065022786458336
-42.10743815104167
-42.03634114583333
-41.737239583333334
-41.49930013020833
-41.41770833333333
-41.431640625
-41.461438802083336
-42.128727213541666
-42.06064453125
-42.07685872395833
-42.037027994791664
-42.037490234375
-42.06729817708333
-42.098307291666664
-42.14971028645834
-42.20482747395833
-42.25068684895833
-42.30230794270833
-42.354664713541666
-42.39486328125
-42.4251953125
-41.808834635416666
-41.932958984375
-41.982486979166666
-42.04331380208333
-42.04276041666667
-41.794765625
-41.51528971354167
-41.40076497395833
-41.397880859375
-41.440921223958334
-42.116689453125
-42.07935546875
-42.12351888020833
-42.10607096354167
-42.07333333333333
-42.05115234375
-42.06550455729167
-42.11005533854166
-42.160657552083336
-42.21565104166667
-42.262926432291664
-42.32345377604167
-42.36518880208333
-42.39496744791666
-41.80946940104167
-41.727893880208335
-41.415950520833334
-41.24133138020834
-41.222965494791666
-41.909990234375
-41.8708203125
-41.91681640625
-41.976100260416665
-41.997027994791665
-41.96305013020833
-41.919934895833336
-41.92592122395833
-41.95017252604167
-41.99934244791667
-42.075022786458334
-42.134534505208336
-42.184742838541666
-42.23990234375
-42.28430013020834
-42.32116861979166
-42.162639973958335
-41.80310221354166
-41.5694921875
-41.480533854166666
-41.51173502604167
-41.530400390625
-41.582545572916665
-41.641712239583335
-41.65827799479167
-41.62806640625
-41.58246744791666
-41.575862630208334
-41.65946940104167
-41.761630859375
-41.86870442708334
-41.90938802083333
-41.955074869791666
-41.93143229166667
-41.624078776041664
-41.262080078125
-41.07140299479167
-41.02331705729166
-41.64760416666667
-41.555107421875
-41.5919140625
-41.63608723958333
-41.632861328125
-41.58624348958333
-41.56048502604167
-41.58642578125
-41.64294270833334
-41.683919270833336
-41.76091796875
-41.82638020833333
-41.894833984375
-41.931416015625
-41.96763346354167
-42.00191731770833
-41.903173828125
-41.557392578125
-41.240260416666665
-41.122529296875
-41.11155598958333
-41.70956380208333
-41.614912109375
-41.659775390625
-41.707041015625
-41.6924609375
-41.669720052083335
-41.658671875
-41.690494791666666
-41.770563151041664
-41.84043294270833
-41.90652994791667
-41.98111653645833
-42.051875
-42.09899739583334
-42.164541015625
-42.221650390625
-42.272610677083335
-42.29136393229167
-41.44179361979167
-41.13380859375
-40.91496419270833
-40.881861979166665
-41.484140625
-41.39337239583333
-41.435123697916666
-41.48367513020833
-41.523151041666665
-41.51030598958334
-41.49107421875
-41.52932942708333
-41.599248046875
-41.66941731770833
-41.82246419270833
-41.889729817708336
-42.006865234375
-42.04928059895833
-42.120279947916664
-42.16439778645833
-42.20905924479167
-42.27794596354167
-42.11015625
-41.14278645833333
-40.96227213541667
-40.911861979166666
-41.531826171875
-41.461708984375
-41.519072265625
-41.60296875
-41.618258463541665
-41.60555989583333
-41.594791666666666
-41.61788736979167
-41.684599609375
-41.760263671875
-41.82773763020833
-41.902685546875
-41.977470703125
-42.04402994791667
-42.111015625
-42.17406575520833
-42.235302734375
-42.282620442708335
-42.345390625
-41.66369791666666
-41.421344401041665
-41.20541341145833
-41.160709635416666
-41.19804361979167
-41.86548502604167
-41.833590494791665
-41.9146875
-41.937666015625
-41.93337239583333
-41.94339518229167
-41.95900065104167
-42.03099609375
-42.112236328125
-42.176865234375
-42.25248697916667
-42.33606119791666
-42.41736002604166
-41.880787760416666
-42.02390950520833
-42.08815104166667
-42.04347330729167
-41.746936848958335
-41.45754231770833
-41.33411458333333
-41.351673177083335
-41.38966471354167
-42.03105794270834
-41.99923828125
-42.05379557291667
-42.06055338541667
-42.047718098958335
-42.062024739583336
-42.10801106770833
-42.18392903645833
-42.2611328125
-42.331370442708334
-42.40181640625
-41.881282552083334
-42.029850260416666
-42.072490234375
-42.126764322916664
-42.18446614583333
-42.02201171875
-41.692578125
-41.34693033854167
-41.36594401041667
-41.391927083333336
-42.021015625
-41.988505859375
-42.02495442708334
-42.021975911458334
-42.02676432291667
-42.05430013020833
-42.10546875
-42.19363932291667
-42.261256510416665
-42.324694010416664
-42.40184895833333
-41.88868815104167
-42.04191731770833
-42.10314778645834
-42.15195638020833
-42.21569661458334
-42.23191731770833
-42.005654296875
-41.658876953125
-41.466220703125
-41.43200846354166
-41.45802734375
-41.47712890625
-41.53890625
-41.591663411458335
-41.62144205729167
-41.62223958333333
-41.63695638020833
-41.68203125
-41.7491796875
-41.822018229166666
-41.889430338541665
-41.976044921875
-42.05464192708333
-42.114583333333336
-42.169544270833335
-42.216852213541664
-42.27146158854167
-42.32298828125
-42.379505208333335
-42.300966796875
-41.36721028645833
-41.19683919270833
-41.127252604166664
-41.744814453125
-41.67888020833333
-41.713131510416666
-41.790120442708336
-41.806735026041665
-41.79267903645833
-41.78087565104167
-41.812610677083335
-41.85939453125
-41.92046223958334
-41.997021484375
-42.058603515625
-42.120862630208336
-42.183841145833334
-42.22987630208333
-42.278056640625
-42.3305078125
-42.365817057291665
-42.18670572916667
-41.28018229166667
-41.177965494791664
-41.15369140625
-41.80323893229167
-41.749267578125
-41.82069661458333
-41.86427408854167
-41.86138671875
-41.863251953125
-41.91298502604167
-41.97033203125
-42.04035807291667
-42.116497395833335
-42.186861979166665
-42.23912109375
-42.289833984375
-42.33828776041667
-42.395966796875
-41.766611328125
-41.57290690104167
-41.25069986979167
-41.11441080729167
-41.102568359375
-41.7375390625
-41.654208984375
-41.69794596354166
-41.754869791666664
-41.76064453125
-41.74450846354166
-41.74832682291667
-41.791126302083335
-41.86819986979167
-41.945257161458336
-42.02680989583333
-42.104716796875
-42.178356119791665
-42.21424153645833
-42.271064453125
-42.31424479166667
-42.38504231770833
-42.313740234375
-41.40328776041667
-41.18697591145833
-41.064638671875
-41.05927408854166
-41.61885091145833
-41.665286458333334
-41.720891927083336
-41.72715494791667
-41.72947265625
-41.753229166666664
-41.808011067708335
-41.88212890625
-41.96049479166667
-42.03015625
-42.105481770833336
-42.17945963541667
-42.24584309895833
-42.301865234375
-42.35955729166667
-42.414235026041666
-41.873958333333334
-42.02918294270833
-41.966595052083335
-41.62925130208333
-41.337998046875
-41.24712239583334
-41.25594401041667
-41.88045572916667
-41.816295572916665
-41.868733723958336
-41.90679036458334
-41.916396484375
-41.921116536458335
-41.94412760416667
-42.07904296875
-42.13771484375
-42.221728515625
-42.29138997395833
-42.335361328125
-42.390638020833336
-41.844195963541665
-41.992177734375
-42.042835286458335
-42.10603515625
-42.16654296875
-42.23517578125
-42.279267578125
-42.121149088541664
-41.78792643229167
-41.57628580729167
-41.55416341145833
-41.583388671875
-41.618017578125
-41.669925130208334
-41.728388671875
-41.74810546875
-41.72834635416667
-41.71154947916666
-41.75322591145834
-41.81301106770833
-41.87062825520833
-41.92530924479167
-41.99056640625
-42.04908854166667
-42.10046549479166
-42.13794596354167
-42.165888671875
-42.21196614583334
-42.27542317708333
-42.316409505208334
-42.189205729166666
-41.85177083333333
-41.61795572916667
-41.555514322916665
-41.58412760416667
-41.61186197916667
-41.64978841145833
-41.72082356770834
-41.735651041666664
-41.71382161458333
-41.71383138020833
-41.726627604166666
-41.770794270833335
-41.838938802083334
-41.911220703125
-41.971263020833334
-42.04170247395833
-42.098727213541665
-42.14560546875
-42.170901692708334
-42.219150390625
-42.266826171875
-42.22903971354167
-41.904794921875
-41.57087565104167
-41.40314453125
-41.38709309895833
-41.42007486979167
-42.045911458333336
-41.9945703125
-42.05796549479167
-42.06343098958333
-42.03904296875
-42.03572265625
-42.07204427083333
-42.13773111979167
-42.20700846354167
-42.28134765625
-42.350556640625
-42.41342122395833
-42.45596354166667
-41.90325846354167
-42.03858072916667
-42.0738671875
-42.134104817708334
-42.19587890625
-42.14197591145833
-41.784886067708335
-41.404798177083336
-41.22348958333333
-41.186497395833335
-41.82376953125
-41.74795572916667
-41.78778971354166
-41.83872721354167
-41.861263020833334
-41.828326822916665
-41.834173177083336
-41.87059895833333
-41.93722005208333
-42.01088216145833
-42.076588541666666
-42.15213541666667
-42.2256640625
-42.288805338541664
-42.33505208333333
-42.38635091145834
-42.427936197916665
-41.87232421875
-42.035319010416664
-42.102594401041664
-42.053935546875
-41.288196614583335
-41.12439778645833
-41.119632161458334
-41.77410807291667
-41.73009765625
-41.813899739583334
-41.86293619791667
-41.832516276041666
-41.794664713541664
-41.78607421875
-41.822024739583334
-41.87623697916667
-41.960927734375
-42.041803385416664
-42.115367838541665
-42.181044921875
-42.236012369791666
-42.28462239583333
-42.32845377604167
-42.38437825520833
-42.42268229166667
-41.64890950520833
-41.33751627604167
-41.019205729166664
-40.936998697916664
-41.56772786458333
-41.5496484375
-41.63757161458334
-41.68045247395833
-41.648190104166666
-41.590400390625
-41.614085286458334
-41.66923828125
-41.741572265625
-41.831171875
-41.90859049479167
-41.98127604166667
-42.06111002604167
-42.11955403645833
-42.171305338541664
-42.208671875
-42.272373046875
-42.17977864583333
-41.765247395833335
-41.33068359375
-41.12254231770833
-41.085810546875
-41.72392578125
-41.654378255208336
-41.71960611979166
-41.776416015625
-41.77853190104167
-41.726246744791666
-41.72448893229166
-41.773583984375
-41.83164388020833
-41.923134765625
-41.997600911458335
-42.08767578125
-42.17647786458333
-42.243990885416665
-42.30788411458333
-42.34337890625
-41.803203125
-41.959225260416666
-41.953369140625
-41.619928385416664
-41.146578776041665
-40.87308268229167
-40.80875325520833
-41.438883463541664
-41.37436848958333
-41.427669270833334
-42.078759765625
-41.977552083333336
-41.965777994791665
-42.00621744791667
-42.06783203125
-42.15423502604167
-42.22448567708334
-42.30831705729167
-41.78830729166667
-41.95150065104167
-42.00221354166667
-42.05260416666667
-42.10410481770833
-42.171669921875
-42.23512369791667
-42.268095703125
-42.007685546875
-41.54767578125
-40.660048828125
-40.678994140625
-40.710621744791666
-41.337783203125
-41.285930989583335
-41.96205729166667
-42.33741861979167
-42.357490234375
-42.434488932291664
-42.512490234375
-42.597164713541666
-42.665797526041665
-42.73990559895833
-42.856038411458336
-42.285387369791664
-41.949733072916665
-41.937978515625
-42.01869140625
-41.919010416666666
-41.506236979166665
-41.222294921875
-41.17312825520833
-41.209407552083334
-41.871051432291665
-41.945651041666665
-41.85734375
-41.88791666666667
-42.02888671875
-42.18579752604167
-42.248606770833334
-41.77890625
-41.97903645833333
-41.98230143229166
-41.70773111979167
-41.30898111979167
-41.09657877604167
-41.745670572916666
-41.696276041666664
-41.77502278645834
-41.83462890625
-41.79814453125
-41.78599609375
-41.884208984375
-41.965755208333334
-42.05646484375
-42.14475260416667
-42.223141276041666
-42.328776041666664
-41.784013671875
-41.937854817708335
-41.79453776041667
-41.02992838541667
-40.90586263020833
-40.918453776041666
-41.55928059895833
-41.547047526041666
-41.58225911458333
-41.563977864583336
-41.632718098958335
-41.78818684895833
-41.954736328125
-42.024814453125
-42.08353515625
-42.135944010416665
-42.241888020833336
-42.144267578125
-41.17444010416666
-40.900458984375
-40.771982421875
-41.304446614583334
-41.338404947916665
-41.946796875
-41.91550455729167
-41.902288411458336
-41.98544921875
-42.059908854166665
-42.14340169270833
-42.22456380208333
-41.91902994791667
-41.993623046875
-42.05060546875
-42.0884765625
-42.237705078125
-42.267998046875
-42.01219075520833
-40.90597005208333
-41.517470703125
-41.44113932291667
-41.53695638020833
-41.56955729166667
-41.570354817708335
-41.687985026041666
-41.77695963541667
-41.94244466145833
-42.02220703125
-42.08090169270833
-42.12728515625
-42.23887044270833
-42.30478841145833
-41.71514973958333
-41.262936197916666
-41.128330078125
-41.1405078125
-41.79916015625
-41.75533854166667
-41.913479817708335
-41.908017578125
-41.91078125
-41.9811328125
-42.059599609375
-42.23731119791667
-42.29690755208333
-42.369111328125
-41.832936197916666
-42.050455729166664
-41.90663411458333
-41.59093424479167
-41.39936197916666
-41.446780598958334
-41.493271484375
-42.122425130208335
-42.148831380208335
-42.13059895833333
-42.13669596354167
-42.184192708333335
-42.336943359375
-41.822659505208335
-41.994518229166665
-42.138942057291665
-42.19598307291667
-42.30624348958333
-42.15611979166667
-41.80609049479167
-40.96607421875
-40.976995442708336
-41.63326497395833
-41.58689127604167
-41.68951171875
-41.684033203125
-41.68312174479167
-41.771748046875
-41.837958984375
-41.930048828125
-42.09695638020833
-42.16792317708333
-42.272760416666664
-42.328053385416666
-41.69715169270833
-41.444254557291664
-41.160234375
-41.06642578125
-41.6094140625
-41.641435546875
-41.705022786458336
-41.75954427083333
-41.76055013020834
-41.77662109375
-41.90419921875
-41.98433919270833
-42.06103515625
-42.13241536458333
-42.257434895833335
-42.3248828125
-42.37468098958333
-42.42560546875
-42.017919921875
-41.81952799479166
-41.247265625
-41.20452799479167
-41.235110677083334
-41.81935872395833
-41.88494140625
-41.916881510416665
-41.934407552083336
-41.96379231770833
-42.02166666666667
-42.09766276041667
-42.2457421875
-42.322688802083334
-42.37880208333333
-41.906240234375
-42.04976888020833
-42.09828450520833
-42.163997395833334
-42.22819661458333
-42.25060546875
-42.0300390625
-41.4296875
-41.3965625
-41.422229817708335
-41.99736653645834
-42.091686197916665
-42.085055338541665
-42.097001953125
-42.182568359375
-42.2674609375
-42.40076171875
-42.45218424479167
-41.915843098958334
-42.04956705729167
-42.15064127604167
-42.26956380208333
-42.31884765625
-42.183271484375
-41.5679296875
-41.555009765625
-41.62625651041667
-41.706774088541664
-41.8010546875
-41.76546549479167
-41.747763671875
-41.81704752604167
-41.86978515625
-41.94588541666667
-42.022975260416665
-42.15204752604166
-42.243326822916664
-42.30324544270833
-42.337399088541666
-42.16056966145833
-41.779482421875
-41.50201171875
-41.49401692708334
-41.549127604166664
-42.21071614583333
-42.179296875
-42.203525390625
-42.14267578125
-42.160006510416665
-42.21466796875
-42.370296223958334
-42.43724609375
-41.90508138020834
-42.063587239583335
-42.147705078125
-42.22059895833333
-42.21292317708333
-41.91161458333333
-41.285631510416664
-41.25047200520833
-41.93472981770833
-41.892763671875
-41.95319986979167
-41.956380208333336
-41.97895833333333
-42.034375
-42.193583984375
-42.27953125
-42.3343359375
-42.458522135416665
-41.907451171875
-42.09694010416667
-41.86961263020833
-41.446842447916666
-41.176064453125
-41.753603515625
-41.69154296875
-41.79501953125
-41.794244791666664
-41.76629557291667
-41.80545247395833
-41.959208984375
-42.03797200520833
-42.17839192708333
-42.235286458333334
-42.28777994791667
-42.380859375
-41.856471354166665
-41.956103515625
-41.66001302083333
-41.274873046875
-41.03716796875
-41.61288411458333
-41.674222005208335
-41.725478515625
-41.71114908854167
-41.7076953125
-41.75234049479167
-41.79841471354167
-41.875240885416666
-42.024615885416665
-42.15716796875
-42.210576171875
-42.262236328125
-42.358929036458335
-42.42353841145833
-41.85319661458333
-41.6816015625
-41.07928385416667
-41.0323828125
-41.634228515625
-41.670237630208334
-41.72515950520833
-41.73805338541667
-41.74002278645833
-41.770686848958334
-41.83413736979167
-41.897314453125
-42.040660807291665
-42.108723958333336
-42.18369140625
-42.295970052083334
-42.357027994791665
-42.42139322916667
-41.88314127604167
-42.10182942708333
-41.53109700520833
-41.288151041666666
-41.2404296875
-41.911181640625
-41.856028645833334
-41.91383463541667
-41.95851236979167
-41.956953125
-41.97720703125
-42.03114583333333
-42.17759765625
-42.262151692708336
-42.332112630208336
-42.45935872395833
-42.06906901041667
-42.1909375
-42.25193684895833
-42.32129557291667
-41.996295572916665
-41.56813151041667
-41.582060546875
-41.63125651041667
-41.76993489583333
-41.815074869791665
-41.77359375
-41.766708984375
-41.81034830729167
-41.94448893229167
-42.01822591145833
-42.135579427083336
-42.19331380208333
-42.22963216145833
-42.31814453125
-42.326982421875
-41.81375651041667
-41.6180078125
-41.594837239583335
-41.63874674479167
-41.748671875
-41.83195638020833
-41.835205078125
-41.771025390625
-41.789580078125
-41.855830078125
-41.984521484375
-42.0596484375
-42.17706380208333
-42.26771809895833
-42.315130208333336
-41.907620442708335
-41.599853515625
-41.480540364583334
-41.47822265625
-41.50180989583333
-42.09369791666666
-42.12044921875
-42.115667317708336
-42.088583984375
-42.10148763020833
-42.19922526041667
-42.264606119791665
-42.339443359375
-42.46404296875
-41.92267578125
-42.07419596354167
-42.12550455729167
-42.143955078125
-41.816875
-41.486796875
-41.354873046875
-41.97437174479167
-41.92922200520833
-41.96903971354167
-41.97741861979166
-41.95230143229167
-42.05424479166667
-42.128636067708335
-42.19373046875
-42.339977213541665
-42.39212239583333
-42.433857421875
-42.02378580729167
-42.0958984375
-42.102744140625
-41.494710286458336
-41.323785807291664
-41.30099283854167
-41.926279296875
-41.862522786458335
-41.92314127604167
-41.94154947916667
-41.932890625
-41.96170247395833
-42.083736979166666
-42.15671549479167
-42.23176432291667
-42.36990234375
-42.41805989583333
-42.012516276041666
-42.072467447916665
-42.204967447916665
-42.32148763020833
-42.199215494791666
-41.825084635416665
-41.546689453125
-41.475693359375
-41.49451171875
-42.11348958333333
-42.09724283854167
-42.103720703125
-42.08827473958333
-42.106376953125
-42.164049479166664
-42.30546549479167
-42.368330078125
-41.89101236979167
-42.044283854166665
-42.101292317708335
-42.16103515625
-42.26328450520833
-42.33255208333333
-42.455634765625
-41.56848307291666
-41.23408203125
-41.23890625
-41.808766276041666
-41.870673828125
-41.8996875
-41.872073567708334
-41.87451822916667
-41.973089192708336
-42.04658528645833
-42.167998046875
-42.228626302083335
-42.277845052083336
-42.30278645833334
-42.34776041666667
-42.44925455729167
-42.48589192708334
-41.735667317708334
-41.51396484375
-41.300930989583335
-41.94892578125
-41.934733072916664
-42.00216145833333
-42.020006510416664
-41.979658203125
-41.981624348958334
-42.03841471354167
-42.16649739583333
-42.290712890625
-42.342890625
-42.380940755208336
-42.460094401041665
-41.52755859375
-41.239716796875
-41.12416666666667
-41.13951171875
-41.76675455729167
-41.75071614583333
-41.78851236979167
-41.776162109375
-41.75411458333333
-41.78664388020833
-41.83329752604167
-41.95083984375
-42.019886067708335
-42.08141927083334
-42.19004231770833
-42.24451497395833
-42.3376953125
-42.13188151041667
-41.7391796875
-41.44484375
-41.434801432291664
-42.04581380208333
-41.98449869791666
-41.997421875
-42.015732421875
-42.01274739583334
-42.11925455729167
-42.15892578125
-42.214993489583335
-42.316393229166664
-42.346949869791665
-42.38421875
-41.83768229166667
-41.998134765625
-41.674791666666664
-41.34369791666666
-41.178916015625
-41.789593098958335
-41.69695963541667
-41.739475911458335
-41.77634765625
-41.785901692708336
-41.81013346354167
-41.877994791666666
-42.03234375
-42.100123697916665
-42.24132486979167
-42.294931640625
-42.376712239583334
-41.807317708333336
-41.987483723958334
-41.76207682291667
-41.438662109375
-41.27513020833333
-41.286549479166666
-41.88637044270833
-41.97958984375
-41.97365234375
-41.940869140625
-42.003291015625
-42.04586263020833
-42.202099609375
-42.260768229166665
-42.33016927083333
-42.431302083333335
-42.018076171875
-41.832584635416666
-41.5406640625
-41.41275716145833
-41.473919270833335
-42.11284505208334
-42.117685546875
-42.151949869791665
-42.14986328125
-42.192353515625
-42.27209635416666
-42.43084635416667
-42.503528645833335
-42.105341796875
-42.165843098958334
-42.19379557291666
-41.92569010416667
-41.684208984375
-41.63173502604167
-41.666966145833335
-41.70552734375
-41.79592122395833
-41.853662109375
-41.888987630208334
-41.902112630208336
-41.91108723958333
-41.97555338541667
-42.0399609375
-42.174912109375
-42.23939453125
-42.368359375
-42.417958984375
-42.464736328125
-42.51782877604167
-41.887822265625
-41.475087890625
-41.493336588541666
-41.545110677083336
-42.17237955729167
-42.175400390625
-42.185107421875
-42.195813802083336
-42.23130859375
-42.28280598958333
-42.410400390625
-42.48347330729167
-42.52659505208333
-42.124514973958334
-42.177138671875
-42.22724283854166
-42.29440104166667
-42.34908854166667
-42.421103515625
-42.281142578125
-41.98201171875
-41.32107421875
-42.03597330729167
-41.998671875
-42.04138020833334
-42.028743489583334
-42.0475
-42.109482421875
-42.15862955729167
-42.26570963541667
-42.350598958333336
-42.438121744791665
-42.48880533854167
-42.598170572916665
-42.005859375
-42.204169921875
-42.044150390625
-41.70037760416667
-41.47621744791667
-41.510485026041664
-42.19366536458333
-42.128375651041665
-42.16564127604167
-42.17104166666667
-42.161064453125
-42.191106770833336
-42.29183919270833
-42.35121744791667
-42.404736328125
-42.449954427083334
-42.487711588541664
-41.93088541666667
-42.06072916666667
-42.092236328125
-42.19064453125
-42.05815104166667
-41.72898111979167
-41.5142578125
-41.56011067708334
-42.26501627604166
-42.278828125
-42.27404622395834
-42.22904296875
-42.20310221354167
-42.21250325520833
-42.31166666666667
-42.37225260416667
-42.41098958333333
-42.45729817708333
-42.54102213541667
-41.928486328125
-42.054417317708335
-42.069225260416665
-41.62247395833333
-41.42321614583334
-41.41275716145833
-42.111910807291665
-42.048505859375
-42.08845377604167
-42.024931640625
-42.08521158854167
-42.21201822916667
-42.27088216145833
-42.31229166666667
-42.398518880208336
-42.431315104166664
-42.327854817708335
-41.07087890625
-41.08478515625
-41.106435546875
-41.70909830729167
-41.75442708333333
-41.777102864583334
-41.7585546875
-41.70458333333333
-41.726793619791664
-41.78088216145834
-41.82527994791667
-41.954830729166666
-41.989690755208336
-42.045094401041666
-42.08467122395833
-42.05308268229167
-41.765771484375
-41.44006184895834
-41.255234375
-41.890201822916666
-41.82389973958333
-41.841402994791665
-41.839016927083335
-41.82245768229166
-41.84765625
-41.93678385416667
-41.99322591145833
-42.058756510416664
-42.144501953125
-42.187786458333335
-42.215442708333335
-42.265315755208334
-42.10909505208333
-41.741917317708335
-41.513499348958334
-41.47229817708333
-41.501881510416666
-42.12512369791666
-42.021634114583335
-42.00799479166667
-42.02390299479167
-42.068004557291665
-42.10976236979167
-42.16383463541667
-42.20814778645833
-42.256572265625
-42.299443359375
-42.37582356770833
-42.429661458333335
-41.87925130208333
-41.91305013020833
-41.3378125
-41.242138671875
-41.86917643229167
-41.87733723958333
-41.901826171875
-41.828515625
-41.82212565104167
-41.86380859375
-41.97693359375
-42.043942057291666
-42.102080078125
-42.13481119791667
-42.1585546875
-42.197809244791664
-42.25326171875
-42.092242838541665
-41.735986328125
-41.5146484375
-41.4734765625
-41.511015625
-41.550361328125
-41.596018880208334
-41.55501953125
-41.538668619791665
-41.573902994791666
-41.633447265625
-41.75492838541667
-41.8043359375
-41.907688802083335
-41.942197265625
-42.018671875
-42.00288411458333
-41.37978190104167
-41.214436848958336
-41.20229166666667
-41.83115234375
-41.7739453125
-41.809755859375
-41.81290364583333
-41.77382161458333
-41.819225260416665
-41.87340494791667
-42.00087565104167
-42.0675390625
-42.108697916666664
-42.20953125
-42.25236328125
-42.28736979166667
-42.33969075520833
-41.75979817708333
-41.60884765625
-41.03634765625
-41.625126953125
-41.555735677083334
-41.61167317708333
-41.60693359375
-41.573369140625
-41.604658203125
-41.68025390625
-41.748089192708335
-41.874921875
-41.938922526041665
-41.993564453125
-42.045628255208335
-42.104059244791664
-42.23986653645834
-42.28509440104167
-41.81021809895833
-41.889156901041666
-41.60191080729167
-41.215380859375
-41.003688151041665
-41.640341796875
-41.542477213541666
-41.572744140625
-41.63658854166667
-41.62398763020833
-41.62701171875
-41.67273763020833
-41.80896158854166
-41.87970703125
-42.004635416666666
-42.04786783854167
-42.160875651041664
-42.224130859375
-42.34862630208333
-42.395166015625
-42.007633463541666
-41.800709635416666
-41.2005859375
-41.1763671875
-41.816822916666666
-42.31511067708333
-42.383720703125
-42.398138020833336
-42.361507161458334
-42.39604817708334
-42.4581640625
-42.51963216145833
-42.667164713541666
-42.73715169270833
-42.85894856770833
-42.914104817708335
-42.335706380208336
-42.025524088541665
-42.104794921875
-41.902272135416666
-41.58383138020833
-41.44033203125
-41.45443359375
-42.183271484375
-42.64847330729167
-42.74746744791667
-42.7143359375
-42.70673502604166
-42.74601888020833
-42.874814453125
-42.952412109375
-42.086552734375
-42.14625
-42.17482747395833
-42.217281901041666
-42.2309375
-42.031223958333335
-41.726861979166664
-41.56690104166667
-41.608883463541666
-41.648463541666665
-41.72204752604166
-41.77869466145833
-41.74056315104167
-41.73473307291667
-41.832630208333335
-41.97577799479166
-42.0371484375
-42.094140625
-42.12953776041667
-42.169306640625
-42.253229166666664
-42.08293294270833
-41.73947916666667
-41.467626953125
-41.520947265625
-41.55771484375
-41.605074869791665
-41.630804036458336
-41.59877604166667
-41.584296875
-41.610852864583336
-41.669111328125
-41.75667643229167
-41.890611979166664
-41.94112630208333
-42.000797526041666
-42.04989583333333
-42.108017578125
-42.159612630208336
-42.00621744791667
-41.39987955729167
-41.33135091145834
-41.356865234375
-41.97511393229167
-41.89404296875
-41.93767578125
-41.96982747395833
-41.973277994791665
-42.005673828125
-42.05046223958333
-42.15726236979167
-42.230625
-42.372874348958334
-41.841214192708335
-41.96558268229167
-41.9812890625
-42.0180859375
-42.07501953125
-41.971126302083334
-41.630543619791666
-41.369482421875
-41.305166015625
-41.942294921875
-41.85965169270833
-41.89742838541667
-41.908313802083335
-41.90888671875
-41.99547526041667
-42.091158854166665
-42.17279296875
-42.24148763020833
-42.34288736979167
-41.79495768229167
-41.942607421875
-42.048990885416664
-42.120966796875
-41.88935221354166
-41.531507161458336
-41.380289713541664
-41.413531901041665
-42.51549479166667
-42.59207356770833
-42.587080078125
-42.58933268229167
-42.61011393229167
-42.73513020833333
-42.822783203125
-42.91565755208333
-42.45229166666667
-42.14083333333333
-42.14549153645833
-42.26126953125
-42.32415690104167
-42.39700520833333
-41.560885416666665
-41.29387044270833
-41.334537760416666
-41.99814453125
-42.03578776041667
-42.08712239583333
-42.09671223958333
-42.224482421875
-42.29966145833333
-42.452571614583334
-41.907711588541666
-42.04871419270833
-42.119140625
-42.187216796875
-42.14588216145833
-41.87656901041667
-41.64367513020834
-41.590791015625
-41.629407552083336
-41.76382486979167
-41.850094401041666
-41.8746484375
-41.858958333333334
-41.89178385416667
-41.957682291666664
-42.04198567708333
-42.197578125
-42.26701497395833
-42.313046875
-42.401783854166666
-42.46303059895833
-41.817942708333334
-41.599296875
-41.393408203125
-41.340791015625
-41.379697265625
-42.006337890625
-41.952177734375
-42.01799153645833
-42.040751953125
-42.03620768229167
-42.076839192708334
-42.210126953125
-42.28109700520833
-42.360348307291666
-42.414661458333335
-42.4757421875
-41.968968098958335
-42.1037109375
-42.15781901041667
-42.246975911458335
-42.05552734375
-41.706640625
-41.51636393229167
-41.530696614583334
-42.153346354166665
-42.1597265625
-42.16801432291667
-42.150013020833335
-42.185139973958336
-42.25929361979167
-42.326985677083336
-42.397763671875
-42.521826171875
-41.975299479166665
-42.117718098958335
-42.158154296875
-42.244140625
-42.285794270833335
-42.40384765625
-42.207369791666665
-41.84384114583333
-41.635279947916665
-41.604762369791665
-41.678330078125
-41.71125
-41.762750651041664
-41.73865559895833
-41.72966145833333
-41.76166666666666
-41.89310221354167
-41.9616015625
-42.012890625
-42.07357421875
-42.16576497395833
-42.18931315104167
-42.24248046875
-42.291569010416666
-42.38683919270834
-41.8859765625
-41.68416015625
-41.664560546875
-41.70417643229167
-41.76744791666667
-41.8319140625
-41.864541015625
-41.827145182291666
-41.844889322916664
-41.913642578125
-42.045833333333334
-42.11185546875
-42.208330078125
-42.23860026041667
-42.270927734375
-42.32
-42.20699869791667
-41.603404947916665
-41.550595703125
-41.63969401041667
-42.28931315104167
-42.25635416666667
-42.20796875
-42.18232747395833
-42.19142903645833
-42.26181640625
-42.3341796875
-42.47090169270833
-42.53317057291667
-41.966630859375
-42.08621744791667
-42.12189453125
-42.15891276041667
-41.89955729166667
-41.51599934895833
-41.293779296875
-41.881917317708336
-41.80161783854167
-41.821979166666665
-41.858372395833335
-41.836666666666666
-41.865283203125
-41.932415364583335
-42.0679296875
-42.14323567708333
-42.19894205729167
-42.302763671875
-42.345621744791664
-42.38351236979167
-42.437200520833336
-41.54076171875
-40.973046875
-40.935491536458336
-41.563655598958334
-41.50744466145834
-42.153447265625
-42.058994140625
-42.033583984375
-42.07379231770833
-42.12907552083333
-42.20771809895833
-42.28041015625
-42.357737630208334
-42.418567708333335
-41.934895833333336
-42.0708203125
-42.1067578125
-42.21904622395834
-42.295712890625
-42.247275390625
-41.853857421875
-41.44462890625
-41.273740234375
-41.2634375
-41.80405924479167
-41.857897135416664
-41.872805989583334
-41.85851236979167
-41.931614583333335
-41.997724609375
-42.066341145833334
-42.21490234375
-42.289296875
-42.34962565104167
-42.39741536458333
-42.44936197916667
-42.039928385416665
-42.110364583333336
-42.12926432291667
-41.710693359375
-41.178525390625
-41.18279296875
-41.8428125
-41.823284505208335
-41.885432942708334
-41.923694661458335
-41.85822916666667
-41.86107421875
-41.917421875
-41.984287109375
-42.06679361979167
-42.155595703125
-42.29193359375
-42.398408203125
-42.43094075520833
-42.058024088541664
-42.11526692708333
-42.064306640625
-41.71605794270833
-41.27555013020833
-41.298053385416665
-41.95631510416667
-42.020859375
-42.002431640625
-41.969052734375
-41.985595703125
-42.130061848958334
-42.279599609375
-42.34524739583333
-42.39455078125
-42.42794270833333
-42.01354817708334
-42.0467578125
-41.90584635416667
-41.535901692708336
-41.227252604166665
-41.271484375
-41.92326497395833
-41.881373697916665
-41.96103515625
-41.921689453125
-41.89185221354167
-41.99230143229167
-42.04819661458333
-42.20724283854167
-42.27195638020833
-42.31391276041666
-42.353447265625
-42.39549153645833
-41.96179361979166
-41.695065104166666
-41.09836588541667
-41.07361002604166
-41.71926106770833
-41.68396809895833
-41.74729166666667
-41.729990234375
-41.72936197916667
-41.76756184895833
-41.845849609375
-41.97581380208333
-42.043268229166664
-42.109462890625
-42.22727864583333
-42.262490234375
-42.374280598958336
-41.27583984375
-41.080361328125
-41.00943359375
-41.54606770833333
-41.644602864583334
-41.681904296875
-41.66763997395833
-41.668056640625
-41.7632421875
-41.82915364583334
-41.90534830729167
-42.041233723958335
-42.08830078125
-42.142060546875
-42.23689127604167
-42.28783203125
-42.355185546875
-42.334309895833336
-42.03016927083333
-41.093271484375
-41.10354817708333
-41.7334375
-41.641015625
-41.6940625
-41.73765299479167
-41.726103515625
-41.756344401041666
-41.876953125
-42.025188802083335
-42.147692057291664
-42.19901041666667
-42.251666666666665
-42.35177734375
-42.421429036458335
-41.92482421875
-41.79666666666667
-41.46406575520833
-41.33117838541666
-41.996097005208334
-41.998157552083335
-42.043984375
-42.011461588541664
-41.999150390625
-42.069752604166666
-42.148720703125
-42.2134765625
-42.346767578125
-42.407275390625
-42.46984375
-42.514228515625
-42.62338216145833
-42.672109375
-42.25247395833333
-42.07134114583334
-42.11992513020834
-42.169375
-42.22149739583333
-42.281253255208334
-42.26707356770833
-42.279580078125
-42.400563151041666
-42.541272786458336
-42.60558919270834
-42.66228515625
-42.76964518229167
-42.820042317708335
-42.881982421875
-42.65431315104167
-42.26704427083333
-42.283310546875
-42.320966796875
-42.34930338541667
-42.393024088541665
-42.43103190104166
-42.441402994791666
-42.46826171875
-42.52195638020833
-42.590400390625
-42.661982421875
-42.7932421875
-42.865615234375
-42.908147786458336
-42.98951822916667
-43.04805989583333
-42.494326171875
-41.606389973958336
-41.432819010416665
-41.41103515625
-42.070882161458336
-42.00160807291667
-42.05053059895833
-42.08948567708333
-42.084645182291666
-42.140179036458335
-42.211689453125
-42.27139973958333
-42.38530598958334
-42.43666015625
-42.479358723958335
-41.937444661458336
-42.121920572916665
-42.16146158854167
-42.222919921875
-42.19410807291667
-41.86201171875
-41.61658528645833
-41.56603190104167
-41.613118489583336
-42.241770833333334
-42.189111328125
-42.212320963541664
-42.24189453125
-42.36860026041666
-42.42533854166667
-42.51696614583334
-41.970673828125
-42.112177734375
-42.14254557291667
-42.193102213541664
-42.246975911458335
-42.29935546875
-42.34515299479167
-42.40925455729167
-42.348984375
-41.76840169270833
-41.70203450520833
-41.74637369791667
-41.814762369791666
-41.86960611979167
-41.89502604166667
-41.8683203125
-41.856962890625
-41.94144205729167
-42.004869791666664
-42.06920572916667
-42.173870442708335
-42.21993815104167
-42.25048177083333
-42.320966796875
-42.373196614583335
-42.41962890625
-42.44358072916667
-42.18224934895834
-41.28876953125
-41.377552083333335
-42.075846354166664
-42.01652669270833
-42.076005859375
-42.069228515625
-42.050113932291666
-42.065810546875
-42.19043619791667
-42.240205078125
-42.29187825520833
-42.339300130208336
-42.400068359375
-42.43093098958333
-42.507587890625
-41.567408854166665
-41.422314453125
-41.37214518229167
-41.42215169270833
-42.04451822916667
-42.090615234375
-42.077734375
-42.05407877604166
-42.130615234375
-42.245693359375
-42.30178059895833
-42.33970703125
-42.408704427083336
-42.43701822916667
-42.48561848958333
-42.50456380208333
-42.34348958333333
-41.4031640625
-41.328541666666666
-42.00650390625
-41.921767578125
-41.94607747395833
-41.98474609375
-41.964098307291664
-42.008466796875
-42.057483723958335
-42.109208984375
-42.20745768229167
-42.25991861979167
-42.29620442708333
-42.32880859375
-42.40693359375
-42.450885416666665
-42.23538411458333
-41.31361979166667
-41.291233723958335
-41.866875
-41.89103841145833
-41.92981770833333
-41.928196614583335
-41.92170572916667
-41.96748046875
-42.073291015625
-42.13565755208333
-42.180042317708335
-42.26556315104167
-42.29922526041667
-42.33176432291667
-42.419947916666665
-42.47569986979167
-42.489498697916666
-42.298746744791664
-41.31231770833333
-41.31984049479167
-41.9964453125
-41.90771484375
-41.965
-41.96159505208333
-41.97226888020833
-42.024661458333334
-42.13029296875
-42.22880533854167
-42.29799153645833
-42.35273111979166
-42.42160807291667
-42.45675455729167
-42.49793294270833
-41.962880859375
-41.604869791666665
-41.41978190104167
-42.085322265625
-42.03234049479167
-42.06391276041666
-42.060615234375
-42.05716796875
-42.132919921875
-42.193720703125
-42.244632161458334
-42.31321614583333
-42.38229166666667
-42.418362630208335
-42.48122395833333
-42.51671875
-42.572194010416666
-41.949153645833334
-41.852405598958335
-41.47050455729167
-41.49061848958333
-42.11867513020833
-42.151341145833335
-42.15822591145833
-42.111708984375
-42.11975911458333
-42.22763671875
-42.285237630208336
-42.33954752604166
-42.413372395833335
-42.44906575520833
-42.47740234375
-42.55405598958333
-41.870768229166664
-41.687311197916664
-41.369326171875
-41.37611979166667
-42.05332356770833
-41.96474283854167
-42.011891276041666
-41.96876627604167
-42.03561197916667
-42.13911458333333
-42.184912109375
-42.23259765625
-42.275325520833334
-42.332819010416664
-42.374729817708335
-42.367906901041664
-41.759007161458335
-41.63986979166667
-41.64116536458334
-41.65123697916667
-41.653447265625
-41.705579427083336
-41.698404947916664
-41.698974609375
-41.795048828125
-41.857900390625
-41.96938151041667
-42.01508463541666
-42.062496744791666
-42.127177734375
-42.18655598958333
-42.23448893229167
-41.64279947916667
-41.51248046875
-41.518795572916666
-42.119869791666666
-42.041178385416664
-42.07937825520833
-42.05944010416667
-42.06646809895833
-42.104176432291666
-42.227513020833335
-42.27680989583333
-42.34072916666667
-42.43516276041667
-42.46826822916667
-42.509912109375
-41.942125651041664
-42.12915690104167
-42.201702473958335
-42.06728515625
-41.50663736979167
-41.46767578125
-42.101070963541666
-42.03
-42.075374348958334
-42.07962565104167
-42.059873046875
-42.08904947916667
-42.20791666666667
-42.27475911458333
-42.36584635416666
-42.43228841145833
-42.4691015625
-42.511227213541666
-42.09180338541667
-42.14001627604166
-42.176702473958336
-42.09445963541667
-41.58009440104167
-41.55396484375
-41.603779296875
-42.181546223958335
-42.23624348958333
-42.21396484375
-42.255244140625
-42.30542643229167
-42.44000325520833
-42.483577473958334
-42.537080078125
-42.115725911458334
-42.21238606770833
-42.256787109375
-42.272122395833335
-42.128147786458335
-41.742434895833334
-41.77981770833333
-41.89861328125
-41.962041015625
-42.00376953125
-41.976497395833334
-41.947255859375
-41.99719075520834
-42.0653125
-42.200087890625
-42.268583984375
-42.33101888020833
-42.36607421875
-42.41171875
-42.03430338541666
-41.85583333333334
-41.849850260416666
-41.95288736979167
-41.996767578125
-42.03087890625
-42.022405598958336
-41.98652018229166
-42.091123046875
-42.15098307291667
-42.204905598958334
-42.25716796875
-42.29076171875
-42.322399088541665
-42.35660481770833
-42.437255859375
-42.43826497395833
-41.921201171875
-41.80499348958333
-41.83728190104166
-41.84052734375
-41.88517578125
-41.87032552083333
-41.86217447916667
-41.880263671875
-41.94058919270833
-42.01212239583333
-42.09781575520833
-42.16678385416667
-42.183271484375
-42.197763671875
-42.28621744791667
-42.30903645833333
-42.122311197916666
-41.824443359375
-41.68675130208333
-41.705823567708336
-41.69125325520833
-41.706165364583335
-41.75556640625
-41.772594401041665
-41.79040690104166
-41.815022786458336
-41.846682942708334
-41.94183268229167
-41.99890299479166
-42.065891927083335
-42.13867838541667
-42.15769205729167
-42.19756184895834
-41.9761328125
-41.716640625
-41.61715494791667
-41.65908854166667
-41.709772135416664
-41.759716796875
-41.763538411458335
-41.70826171875
-41.78734375
-41.84766276041667
-41.90037109375
-42.01597330729167
-42.06318033854166
-42.09889973958333
-42.16982096354167
-42.22190104166667
-42.001279296875
-41.804072265625
-41.76571614583333
-41.83294596354167
-41.920260416666665
-41.98529296875
-41.982275390625
-41.99504231770833
-42.009791666666665
-42.13302083333333
-42.30561848958333
-42.32326171875
-42.31124674479167
-42.327054036458335
-42.332330729166664
-42.275634765625
-41.899609375
-41.89357421875
-41.94416666666667
-41.978984375
-42.106448567708334
-42.149576822916664
-42.14373697916667
-42.145927734375
-42.172158203125
-42.292587890625
-42.357190755208336
-42.37979166666667
-42.41860026041667
-42.442880859375
-42.493212890625
-42.5389453125
-41.554934895833334
-41.535986328125
-41.57349283854167
-42.219931640625
-42.11558268229167
-42.16935872395833
-42.171451822916666
-42.18348958333333
-42.23916666666667
-42.35166015625
-42.37741861979167
-42.42837565104167
-42.4948828125
-42.50787109375
-41.883229166666666
-42.02286458333333
-41.976396484375
-41.75614908854167
-41.56929036458333
-41.545924479166665
-42.223046875
-42.163017578125
-42.20887044270833
-42.224430338541666
-42.237490234375
-42.298229166666665
-42.333125
-42.413639322916666
-42.47786783854167
-42.512158203125
-41.966474609375
-42.105563151041665
-42.11175455729167
-42.10337890625
-41.61755859375
-41.605647786458334
-42.3206640625
-42.28457682291667
-42.28878255208333
-42.24765950520833
-42.222682291666665
-42.297268880208335
-42.353001302083335
-42.476337890625
-42.50021158854167
-42.487063802083334
-41.84131510416667
-41.986650390625
-42.04079427083333
-41.85990234375
-41.63633138020833
-41.5889453125
-42.29279296875
-42.248115234375
-42.239573567708334
-42.248766276041664
-42.294986979166666
-42.36538736979167
-42.39855143229167
-42.47448567708334
-42.5019140625
-42.508938802083335
-41.38588541666667
-41.3709765625
-42.051357421875
-41.96419921875
-42.02920572916667
-42.032548828125
-42.006276041666666
-41.99025065104167
-41.995784505208334
-42.07672200520833
-42.111513671875
-42.22371744791667
-42.25959635416667
-42.28302083333333
-42.301380208333335
-42.35336263020833
-42.33912760416667
-42.07090169270833
-41.654879557291665
-41.66660481770833
-41.686455078125
-41.707835286458334
-41.73734375
-41.71071614583333
-41.71486328125
-41.73433919270833
-41.811848958333336
-41.855579427083335
-41.90587890625
-41.954143880208335
-41.99257486979167
-42.03678059895833
-42.10738606770833
-42.158444010416666
-42.203610026041666
-42.154469401041666
-41.59157552083333
-41.51751953125
-41.53807942708333
-42.158229166666665
-42.083186848958334
-42.10234375
-42.079739583333335
-42.096002604166664
-42.18048828125
-42.24315755208333
-42.297565104166665
-42.399111328125
-42.43089192708333
-42.46712890625
-42.51004231770833
-42.07541015625
-42.12072265625
-42.14902994791667
-41.5969140625
-41.44279296875
-41.47449544270833
-42.12107747395833
-42.055660807291666
-42.10638671875
-42.07369791666667
-42.060087890625
-42.114931640625
-42.16513671875
-42.23074869791667
-42.29141927083333
-42.38681966145833
-42.432613932291666
-42.461044921875
-42.489423828125
-42.074912109375
-41.9851171875
-41.68502278645833
-41.458225911458335
-41.42478515625
-42.079765625
-42.02964518229167
-42.10540690104167
-42.07649088541667
-42.042978515625
-42.10440755208333
-42.1453125
-42.21272135416667
-42.26523763020833
-42.363024088541664
-42.396617838541665
-42.43549479166666
-42.467763671875
-41.41755859375
-41.24804036458333
-41.20076171875
-41.82559895833333
-41.800061848958336
-41.859443359375
-41.835
-41.807822265625
-41.84700846354167
-41.953310546875
-42.002451171875
-42.064560546875
-42.150944010416666
-42.22612630208334
-42.072154947916665
-41.695338541666665
-41.44168619791667
-41.38349609375
-42.00694010416667
-41.926044921875
-41.954388020833335
-41.97162760416666
-41.9259765625
-41.921315104166666
-41.975247395833335
-42.097913411458336
-42.15484375
-42.21318033854167
-42.263736979166666
-42.30391927083333
-42.37385416666667
-42.42319986979167
-42.386676432291665
-41.46212890625
-41.07778971354167
-41.059072265625
-41.585934244791666
-41.627200520833334
-41.62876302083333
-41.60329427083333
-41.60320963541667
-41.69050455729167
-41.753564453125
-41.865315755208336
-41.929944661458336
-41.979069010416666
-42.05618815104167
-42.09887044270833
-42.14293619791667
-42.169947916666665
-41.8338671875
-41.340771484375
-41.329033203125
-41.345891927083336
-41.89761393229167
-41.93128255208333
-41.910478515625
-41.884358723958336
-41.91930338541667
-41.96234375
-42.08634114583333
-42.146123046875
-42.27113932291667
-42.31938151041667
-42.365804036458336
-41.81152994791667
-41.993154296875
-42.059039713541665
-41.876953125
-41.481214192708336
-41.268138020833334
-41.26166666666666
-41.83798177083333
-41.892138671875
-41.86615885416666
-41.85591796875
-41.94170247395834
-42.02443033854167
-42.08554036458333
-42.21798828125
-42.27601888020833
-42.32048177083333
-42.347897135416666
-41.96847005208333
-41.979794921875
-41.742174479166664
-41.407457682291664
-41.239908854166664
